%YAML 1.1
%TAG !u! tag:unity3d.com,2011:
--- !u!1001 &100100000
Prefab:
  m_ObjectHideFlags: 1
  serializedVersion: 2
  m_Modification:
    m_TransformParent: {fileID: 0}
    m_Modifications: []
    m_RemovedComponents: []
  m_ParentPrefab: {fileID: 0}
  m_RootGameObject: {fileID: 1052635128141242}
  m_IsPrefabParent: 1
--- !u!1 &1052635128141242
GameObject:
  m_ObjectHideFlags: 0
  m_PrefabParentObject: {fileID: 0}
  m_PrefabInternal: {fileID: 100100000}
  serializedVersion: 5
  m_Component:
  - component: {fileID: 4536356961049046}
  - component: {fileID: 114249430057897896}
  m_Layer: 0
  m_Name: Overworld Clouds
  m_TagString: Untagged
  m_Icon: {fileID: 0}
  m_NavMeshLayer: 0
  m_StaticEditorFlags: 0
  m_IsActive: 0
--- !u!4 &4536356961049046
Transform:
  m_ObjectHideFlags: 1
  m_PrefabParentObject: {fileID: 0}
  m_PrefabInternal: {fileID: 100100000}
  m_GameObject: {fileID: 1052635128141242}
  m_LocalRotation: {x: 0, y: 0, z: 0, w: 1}
  m_LocalPosition: {x: 0, y: 0, z: 0}
  m_LocalScale: {x: 1, y: 1, z: 1}
  m_Children: []
  m_Father: {fileID: 0}
  m_RootOrder: 0
  m_LocalEulerAnglesHint: {x: 0, y: 0, z: 0}
--- !u!114 &114249430057897896
MonoBehaviour:
  m_ObjectHideFlags: 1
  m_PrefabParentObject: {fileID: 0}
  m_PrefabInternal: {fileID: 100100000}
  m_GameObject: {fileID: 1052635128141242}
  m_Enabled: 1
  m_EditorHideFlags: 0
  m_Script: {fileID: 11500000, guid: 84c7a4b4ee15890498f818262bca0312, type: 3}
  m_Name: 
  m_EditorClassIdentifier: 
  textures: []
  textureRefs: []
  spriteSheets: []
  fonts: []
  defaults:
    additive: 0
    scale: {x: 1, y: 1, z: 1}
    anchor: 4
    pad: 0
    colliderType: 0
  platforms:
  - name: 
    spriteCollection: {fileID: 0}
  managedSpriteCollection: 0
  linkParent: {fileID: 0}
  loadable: 0
  atlasFormat: 0
  maxTextureSize: 2048
  forceTextureSize: 0
  forcedTextureWidth: 2048
  forcedTextureHeight: 2048
  textureCompression: 0
  atlasWidth: 512
  atlasHeight: 1024
  forceSquareAtlas: 0
  atlasWastage: 41.064835
  allowMultipleAtlases: 0
  removeDuplicates: 1
  textureParams:
  - name: cloud1
    disableTrimming: 0
    additive: 0
    scale: {x: 1, y: 1, z: 1}
    texture: {fileID: 2800000, guid: 56a05cdc77fd7bb4282cd59c6070d1b5, type: 3}
    materialId: 0
    anchor: 4
    anchorX: 0
    anchorY: 0
    overrideMesh: {fileID: 0}
    doubleSidedSprite: 0
    customSpriteGeometry: 0
    geometryIslands: []
    dice: 0
    diceUnitX: 64
    diceUnitY: 64
    diceFilter: 0
    pad: 0
    extraPadding: 0
    source: 0
    fromSpriteSheet: 0
    hasSpriteSheetId: 0
    spriteSheetId: 0
    spriteSheetX: 0
    spriteSheetY: 0
    extractRegion: 0
    regionX: 0
    regionY: 0
    regionW: 0
    regionH: 0
    regionId: 0
    colliderType: 0
    colliderData: []
    boxColliderMin: {x: 0, y: 0}
    boxColliderMax: {x: 0, y: 0}
    polyColliderIslands: []
    polyColliderCap: 1
    colliderConvex: 0
    colliderSmoothSphereCollisions: 0
    colliderColor: 0
    attachPoints: []
  - name: cloud2
    disableTrimming: 0
    additive: 0
    scale: {x: 1, y: 1, z: 1}
    texture: {fileID: 2800000, guid: 0f33b90d0d4d3ab43aeb7e1c74a0e944, type: 3}
    materialId: 0
    anchor: 4
    anchorX: 0
    anchorY: 0
    overrideMesh: {fileID: 0}
    doubleSidedSprite: 0
    customSpriteGeometry: 0
    geometryIslands: []
    dice: 0
    diceUnitX: 64
    diceUnitY: 64
    diceFilter: 0
    pad: 0
    extraPadding: 0
    source: 0
    fromSpriteSheet: 0
    hasSpriteSheetId: 0
    spriteSheetId: 0
    spriteSheetX: 0
    spriteSheetY: 0
    extractRegion: 0
    regionX: 0
    regionY: 0
    regionW: 0
    regionH: 0
    regionId: 0
    colliderType: 0
    colliderData: []
    boxColliderMin: {x: 0, y: 0}
    boxColliderMax: {x: 0, y: 0}
    polyColliderIslands: []
    polyColliderCap: 1
    colliderConvex: 0
    colliderSmoothSphereCollisions: 0
    colliderColor: 0
    attachPoints: []
  - name: cloud3
    disableTrimming: 0
    additive: 0
    scale: {x: 1, y: 1, z: 1}
    texture: {fileID: 2800000, guid: 6b6b65da5ba08be42be0c957ea7a099d, type: 3}
    materialId: 0
    anchor: 4
    anchorX: 0
    anchorY: 0
    overrideMesh: {fileID: 0}
    doubleSidedSprite: 0
    customSpriteGeometry: 0
    geometryIslands: []
    dice: 0
    diceUnitX: 64
    diceUnitY: 64
    diceFilter: 0
    pad: 0
    extraPadding: 0
    source: 0
    fromSpriteSheet: 0
    hasSpriteSheetId: 0
    spriteSheetId: 0
    spriteSheetX: 0
    spriteSheetY: 0
    extractRegion: 0
    regionX: 0
    regionY: 0
    regionW: 0
    regionH: 0
    regionId: 0
    colliderType: 0
    colliderData: []
    boxColliderMin: {x: 0, y: 0}
    boxColliderMax: {x: 0, y: 0}
    polyColliderIslands: []
    polyColliderCap: 1
    colliderConvex: 0
    colliderSmoothSphereCollisions: 0
    colliderColor: 0
    attachPoints: []
  - name: cloud4
    disableTrimming: 0
    additive: 0
    scale: {x: 1, y: 1, z: 1}
    texture: {fileID: 2800000, guid: 6e9999cbd6e3072409948ac17287e7a9, type: 3}
    materialId: 0
    anchor: 4
    anchorX: 0
    anchorY: 0
    overrideMesh: {fileID: 0}
    doubleSidedSprite: 0
    customSpriteGeometry: 0
    geometryIslands: []
    dice: 0
    diceUnitX: 64
    diceUnitY: 64
    diceFilter: 0
    pad: 0
    extraPadding: 0
    source: 0
    fromSpriteSheet: 0
    hasSpriteSheetId: 0
    spriteSheetId: 0
    spriteSheetX: 0
    spriteSheetY: 0
    extractRegion: 0
    regionX: 0
    regionY: 0
    regionW: 0
    regionH: 0
    regionId: 0
    colliderType: 0
    colliderData: []
    boxColliderMin: {x: 0, y: 0}
    boxColliderMax: {x: 0, y: 0}
    polyColliderIslands: []
    polyColliderCap: 1
    colliderConvex: 0
    colliderSmoothSphereCollisions: 0
    colliderColor: 0
    attachPoints: []
  - name: cloud5
    disableTrimming: 0
    additive: 0
    scale: {x: 1, y: 1, z: 1}
    texture: {fileID: 2800000, guid: a06e75c1d0c1c48458b6496114e6059a, type: 3}
    materialId: 0
    anchor: 4
    anchorX: 0
    anchorY: 0
    overrideMesh: {fileID: 0}
    doubleSidedSprite: 0
    customSpriteGeometry: 0
    geometryIslands: []
    dice: 0
    diceUnitX: 64
    diceUnitY: 64
    diceFilter: 0
    pad: 0
    extraPadding: 0
    source: 0
    fromSpriteSheet: 0
    hasSpriteSheetId: 0
    spriteSheetId: 0
    spriteSheetX: 0
    spriteSheetY: 0
    extractRegion: 0
    regionX: 0
    regionY: 0
    regionW: 0
    regionH: 0
    regionId: 0
    colliderType: 0
    colliderData: []
    boxColliderMin: {x: 0, y: 0}
    boxColliderMax: {x: 0, y: 0}
    polyColliderIslands: []
    polyColliderCap: 1
    colliderConvex: 0
    colliderSmoothSphereCollisions: 0
    colliderColor: 0
    attachPoints: []
  spriteCollection: {fileID: 114318691448474378, guid: 4c2d0861a428b5244b3d6ddcb5389a79,
    type: 2}
  premultipliedAlpha: 1
  altMaterials:
  - {fileID: 2100000, guid: a2cdcddbcdf080f40aaf64b189f97d15, type: 2}
  atlasMaterials:
  - {fileID: 2100000, guid: a2cdcddbcdf080f40aaf64b189f97d15, type: 2}
  atlasTextures:
  - {fileID: 2800000, guid: 1bb65fea275ab98479ba50b3e3bb1958, type: 3}
  atlasTextureFiles: []
  useTk2dCamera: 0
  targetHeight: 640
  targetOrthoSize: 10
  sizeDef:
    type: 1
    orthoSize: 10
    pixelsPerMeter: 100
    width: 960
    height: 640
  globalScale: 1
  globalTextureRescale: 1
  attachPointTestSprites: []
  pixelPerfectPointSampled: 0
  filterMode: 1
  wrapMode: 1
  userDefinedTextureSettings: 0
  mipmapEnabled: 0
  anisoLevel: 1
  physicsEngine: 0
  physicsDepth: 0.1
  disableTrimming: 0
  disableRotation: 0
  normalGenerationMode: 0
  padAmount: -1
  autoUpdate: 1
  editorDisplayScale: 1
  version: 4
  assetName: 
  linkedSpriteCollections: []
