%YAML 1.1
%TAG !u! tag:unity3d.com,2011:
--- !u!114 &11400000
MonoBehaviour:
  m_ObjectHideFlags: 0
  m_PrefabParentObject: {fileID: 0}
  m_PrefabInternal: {fileID: 0}
  m_GameObject: {fileID: 0}
  m_Enabled: 1
  m_EditorHideFlags: 0
  m_Script: {fileID: 11500000, guid: cee0a821374c62f4395510b9cb7d37a1, type: 3}
  m_Name: Boss Mentor
  m_EditorClassIdentifier: 
  randReactionTime:
    rangeStart: 0.15
    rangeEnd: 0.3
  moveSpeedMax: 4.1
  collisionHandlers:
  - name: FieldOfView
    gameObject: {fileID: 1000013976138178, guid: fe898cd3b6e989d42a3d8c90a554183d,
      type: 2}
  - name: BallsBehind
    gameObject: {fileID: 1729341257373990, guid: da91141c57c2bd741961ec2d546c2f6b,
      type: 2}
  showAbilityUI: 0
