%YAML 1.1
%TAG !u! tag:unity3d.com,2011:
--- !u!221 &22100000
AnimatorOverrideController:
  m_ObjectHideFlags: 0
  m_PrefabParentObject: {fileID: 0}
  m_PrefabInternal: {fileID: 0}
  m_Name: training_dummy
  m_Controller: {fileID: 9100000, guid: 804d96bccbe14e34181f4976f817cea8, type: 2}
  m_Clips:
  - m_OriginalClip: {fileID: 7427870, guid: 804d96bccbe14e34181f4976f817cea8, type: 2}
    m_OverrideClip: {fileID: 74035619778631536, guid: b9d7b46f888945f488f21d0f23257439,
      type: 2}
  - m_OriginalClip: {fileID: 7457168, guid: 804d96bccbe14e34181f4976f817cea8, type: 2}
    m_OverrideClip: {fileID: 74408273411602088, guid: b9d7b46f888945f488f21d0f23257439,
      type: 2}
  - m_OriginalClip: {fileID: 7482528, guid: 804d96bccbe14e34181f4976f817cea8, type: 2}
    m_OverrideClip: {fileID: 74506309767176036, guid: b9d7b46f888945f488f21d0f23257439,
      type: 2}
  - m_OriginalClip: {fileID: 7424502, guid: 804d96bccbe14e34181f4976f817cea8, type: 2}
    m_OverrideClip: {fileID: 74073299974287294, guid: b9d7b46f888945f488f21d0f23257439,
      type: 2}
  - m_OriginalClip: {fileID: 74173207671906306, guid: 804d96bccbe14e34181f4976f817cea8,
      type: 2}
    m_OverrideClip: {fileID: 74502115414852632, guid: b9d7b46f888945f488f21d0f23257439,
      type: 2}
  - m_OriginalClip: {fileID: 74535484374259316, guid: 804d96bccbe14e34181f4976f817cea8,
      type: 2}
    m_OverrideClip: {fileID: 74205758716920708, guid: b9d7b46f888945f488f21d0f23257439,
      type: 2}
