%YAML 1.1
%TAG !u! tag:unity3d.com,2011:
--- !u!114 &11400000
MonoBehaviour:
  m_ObjectHideFlags: 0
  m_PrefabParentObject: {fileID: 0}
  m_PrefabInternal: {fileID: 0}
  m_GameObject: {fileID: 0}
  m_Enabled: 1
  m_EditorHideFlags: 0
  m_Script: {fileID: 11500000, guid: f1b3b4b945939a54ea0b23d3396115fb, type: 3}
  m_Name: training_dummy_SkeletonData
  m_EditorClassIdentifier: 
  atlasAssets: []
  spriteCollection: {fileID: 114058105904465456, guid: 2837d47b29ea8a547a597f65f6861b6b,
    type: 2}
  scale: 1
  skeletonJSON: {fileID: 4900000, guid: 0b2ed9aee4169ba4eaf96695d66e33c3, type: 3}
  fromAnimation: []
  toAnimation: []
  duration: []
  defaultMix: 0.2
  controller: {fileID: 9100000, guid: b9d7b46f888945f488f21d0f23257439, type: 2}
