%YAML 1.1
%TAG !u! tag:unity3d.com,2011:
--- !u!114 &11400000
MonoBehaviour:
  m_ObjectHideFlags: 0
  m_PrefabParentObject: {fileID: 0}
  m_PrefabInternal: {fileID: 0}
  m_GameObject: {fileID: 0}
  m_Enabled: 1
  m_EditorHideFlags: 0
  m_Script: {fileID: 11500000, guid: f1b3b4b945939a54ea0b23d3396115fb, type: 3}
  m_Name: ball_hit_1_SkeletonData
  m_EditorClassIdentifier: 
  atlasAssets: []
  spriteCollection: {fileID: 114000011483401686, guid: c5a69785f025bb14390602e063999d2b,
    type: 2}
  scale: 1
  skeletonJSON: {fileID: 4900000, guid: da222ac6280d2894794867ed20654110, type: 3}
  fromAnimation: []
  toAnimation: []
  duration: []
  defaultMix: 0.2
  controller: {fileID: 0}
