%YAML 1.1
%TAG !u! tag:unity3d.com,2011:
--- !u!1001 &100100000
Prefab:
  m_ObjectHideFlags: 1
  serializedVersion: 2
  m_Modification:
    m_TransformParent: {fileID: 0}
    m_Modifications: []
    m_RemovedComponents: []
  m_ParentPrefab: {fileID: 0}
  m_RootGameObject: {fileID: 1160662588557830}
  m_IsPrefabParent: 1
--- !u!1 &1160662588557830
GameObject:
  m_ObjectHideFlags: 0
  m_PrefabParentObject: {fileID: 0}
  m_PrefabInternal: {fileID: 100100000}
  serializedVersion: 5
  m_Component:
  - component: {fileID: 4450843195193380}
  - component: {fileID: 114452570957778182}
  m_Layer: 0
  m_Name: InGame Effects
  m_TagString: Untagged
  m_Icon: {fileID: 0}
  m_NavMeshLayer: 0
  m_StaticEditorFlags: 0
  m_IsActive: 1
--- !u!4 &4450843195193380
Transform:
  m_ObjectHideFlags: 1
  m_PrefabParentObject: {fileID: 0}
  m_PrefabInternal: {fileID: 100100000}
  m_GameObject: {fileID: 1160662588557830}
  m_LocalRotation: {x: 0, y: 0, z: 0, w: 1}
  m_LocalPosition: {x: 0, y: 0, z: 0}
  m_LocalScale: {x: 1, y: 1, z: 1}
  m_Children: []
  m_Father: {fileID: 0}
  m_RootOrder: 0
  m_LocalEulerAnglesHint: {x: 0, y: 0, z: 0}
--- !u!114 &114452570957778182
MonoBehaviour:
  m_ObjectHideFlags: 1
  m_PrefabParentObject: {fileID: 0}
  m_PrefabInternal: {fileID: 100100000}
  m_GameObject: {fileID: 1160662588557830}
  m_Enabled: 1
  m_EditorHideFlags: 0
  m_Script: {fileID: 11500000, guid: d546f34a90531a14eaba82a43b05b86b, type: 3}
  m_Name: 
  m_EditorClassIdentifier: 
  version: 3
  materialIdsValid: 1
  needMaterialInstance: 0
  spriteDefinitions:
  - name: onhit-circle-inner
    boundsData:
    - {x: 0, y: 0, z: 0}
    - {x: 0.88, y: 0.88, z: 0}
    untrimmedBoundsData:
    - {x: 0, y: 0, z: 0}
    - {x: 0.88, y: 0.88, z: 0}
    texelSize: {x: 0.01, y: 0.01}
    positions:
    - {x: -0.44, y: -0.44, z: 0}
    - {x: 0.44, y: -0.44, z: 0}
    - {x: -0.44, y: 0.44, z: 0}
    - {x: 0.44, y: 0.44, z: 0}
    normals: []
    tangents: []
    uvs:
    - {x: 0.007816406, y: 0.5117227}
    - {x: 0.3515586, y: 0.5117227}
    - {x: 0.007816406, y: 0.8554648}
    - {x: 0.3515586, y: 0.8554648}
    normalizedUvs:
    - {x: 0, y: 0}
    - {x: 1, y: 0}
    - {x: 0, y: 1}
    - {x: 1, y: 1}
    indices: 000000000300000001000000020000000300000000000000
    material: {fileID: 2100000, guid: 466ba932b5de8854c8245362a5ee1d8d, type: 2}
    materialId: 0
    sourceTextureGUID: d0a3773969b6ab04a9d4495b05cad643
    extractRegion: 0
    regionX: 0
    regionY: 0
    regionW: 0
    regionH: 0
    flipped: 0
    complexGeometry: 0
    physicsEngine: 0
    colliderType: 0
    customColliders: []
    colliderVertices: []
    colliderIndicesFwd: 
    colliderIndicesBack: 
    colliderConvex: 0
    colliderSmoothSphereCollisions: 0
    polygonCollider2D: []
    edgeCollider2D: []
    attachPoints: []
  - name: onhit-circle-outer
    boundsData:
    - {x: 0.004999995, y: -0.004999995, z: 0}
    - {x: 1.25, y: 1.25, z: 0}
    untrimmedBoundsData:
    - {x: 0.004999995, y: -0.004999995, z: 0}
    - {x: 1.25, y: 1.25, z: 0}
    texelSize: {x: 0.01, y: 0.01}
    positions:
    - {x: -0.62, y: -0.63, z: 0}
    - {x: 0.63, y: -0.63, z: 0}
    - {x: -0.62, y: 0.62, z: 0}
    - {x: 0.63, y: 0.62, z: 0}
    normals: []
    tangents: []
    uvs:
    - {x: 0.007816406, y: 0.007816406}
    - {x: 0.49608985, y: 0.007816406}
    - {x: 0.007816406, y: 0.49608985}
    - {x: 0.49608985, y: 0.49608985}
    normalizedUvs:
    - {x: 0, y: 0}
    - {x: 1, y: 0}
    - {x: 0, y: 1}
    - {x: 1, y: 1}
    indices: 000000000300000001000000020000000300000000000000
    material: {fileID: 2100000, guid: 466ba932b5de8854c8245362a5ee1d8d, type: 2}
    materialId: 0
    sourceTextureGUID: df160c7715cd43d48806241d21bb2ad6
    extractRegion: 0
    regionX: 0
    regionY: 0
    regionW: 0
    regionH: 0
    flipped: 0
    complexGeometry: 0
    physicsEngine: 0
    colliderType: 0
    customColliders: []
    colliderVertices: []
    colliderIndicesFwd: 
    colliderIndicesBack: 
    colliderConvex: 0
    colliderSmoothSphereCollisions: 0
    polygonCollider2D: []
    edgeCollider2D: []
    attachPoints: []
  - name: onhit-line
    boundsData:
    - {x: 0.48, y: 0, z: 0}
    - {x: 0.96, y: 0.08, z: 0}
    untrimmedBoundsData:
    - {x: 0.48, y: 0, z: 0}
    - {x: 0.96, y: 0.08, z: 0}
    texelSize: {x: 0.01, y: 0.01}
    positions:
    - {x: 0, y: -0.04, z: 0}
    - {x: 0.96, y: -0.04, z: 0}
    - {x: 0, y: 0.04, z: 0}
    - {x: 0.96, y: 0.04, z: 0}
    normals: []
    tangents: []
    uvs:
    - {x: 0.007816406, y: 0.8710977}
    - {x: 0.3828086, y: 0.8710977}
    - {x: 0.007816406, y: 0.9023398}
    - {x: 0.3828086, y: 0.9023398}
    normalizedUvs:
    - {x: 0, y: 0}
    - {x: 1, y: 0}
    - {x: 0, y: 1}
    - {x: 1, y: 1}
    indices: 000000000300000001000000020000000300000000000000
    material: {fileID: 2100000, guid: 466ba932b5de8854c8245362a5ee1d8d, type: 2}
    materialId: 0
    sourceTextureGUID: d4b07082cb704064a83252dd557403f4
    extractRegion: 0
    regionX: 0
    regionY: 0
    regionW: 0
    regionH: 0
    flipped: 0
    complexGeometry: 0
    physicsEngine: 0
    colliderType: 0
    customColliders: []
    colliderVertices: []
    colliderIndicesFwd: 
    colliderIndicesBack: 
    colliderConvex: 0
    colliderSmoothSphereCollisions: 0
    polygonCollider2D: []
    edgeCollider2D: []
    attachPoints: []
  premultipliedAlpha: 1
  material: {fileID: 0}
  materials:
  - {fileID: 2100000, guid: 466ba932b5de8854c8245362a5ee1d8d, type: 2}
  textures:
  - {fileID: 2800000, guid: 6647467e8d99cf042b9b952abb95629f, type: 3}
  pngTextures: []
  materialPngTextureId: 00000000
  textureFilterMode: 1
  textureMipMaps: 0
  allowMultipleAtlases: 0
  spriteCollectionGUID: 69eb655633a2c544aa5c46e299128e6b
  spriteCollectionName: InGame Effects
  assetName: 
  loadable: 0
  invOrthoSize: 2
  halfTargetHeight: 50
  buildKey: 223247769
  dataGuid: c45630a04741c034f97a99c96cd89166
  managedSpriteCollection: 0
  hasPlatformData: 0
  spriteCollectionPlatforms: []
  spriteCollectionPlatformGUIDs: []
