%YAML 1.1
%TAG !u! tag:unity3d.com,2011:
--- !u!114 &11400000
MonoBehaviour:
  m_ObjectHideFlags: 0
  m_PrefabParentObject: {fileID: 0}
  m_PrefabInternal: {fileID: 0}
  m_GameObject: {fileID: 0}
  m_Enabled: 1
  m_EditorHideFlags: 0
  m_Script: {fileID: 11500000, guid: f1b3b4b945939a54ea0b23d3396115fb, type: 3}
  m_Name: iceking_boss_ability_3_SkeletonData
  m_EditorClassIdentifier: 
  atlasAssets: []
  spriteCollection: {fileID: 114694315968463652, guid: 3489e3e0b6b1e8445af142b02b1d3ed4,
    type: 2}
  scale: 1
  skeletonJSON: {fileID: 4900000, guid: 5590a060694102644acaeecfd0590fac, type: 3}
  fromAnimation: []
  toAnimation: []
  duration: []
  defaultMix: 0
  controller: {fileID: 0}
