%YAML 1.1
%TAG !u! tag:unity3d.com,2011:
--- !u!114 &11400000
MonoBehaviour:
  m_ObjectHideFlags: 0
  m_PrefabParentObject: {fileID: 0}
  m_PrefabInternal: {fileID: 0}
  m_GameObject: {fileID: 0}
  m_Enabled: 1
  m_EditorHideFlags: 0
  m_Script: {fileID: 11500000, guid: 3ec07b080322f9645840bb400f9d43f5, type: 3}
  m_Name: DB_CampaignLevel
  m_EditorClassIdentifier: 
  data:
  - {fileID: 11400000, guid: 0b883a9d2dd666049892037fb3ade6cd, type: 2}
  - {fileID: 11400000, guid: c48963fdde501404591f61b4deb4c216, type: 2}
  - {fileID: 11400000, guid: e6c81bbb3f06e9447ae7547cd46abe11, type: 2}
  - {fileID: 11400000, guid: 6625d2b1ff4c6d8479233b51dbe074d0, type: 2}
  - {fileID: 11400000, guid: a42e3c482f3242a478c6a6b951c4bee4, type: 2}
  - {fileID: 11400000, guid: 305b62fe2c8ba354fa5e78b1c9dd50a8, type: 2}
  - {fileID: 11400000, guid: bce177f801dbed94e9ac5bc9816f426a, type: 2}
  - {fileID: 11400000, guid: 0af8fca8209620c4fbece6a73d533053, type: 2}
  - {fileID: 11400000, guid: 90de93a744a16d846a42252ee6cd64ca, type: 2}
  - {fileID: 11400000, guid: b810c2c2f4a0d4442b2c2281d83b3fdb, type: 2}
  - {fileID: 11400000, guid: f5193599aad695d44b3a401f71a05805, type: 2}
  - {fileID: 11400000, guid: d32de60b6442e5349b9811d95aac731b, type: 2}
  - {fileID: 11400000, guid: 615366a211dfa284183c7a76d53b7a39, type: 2}
  - {fileID: 11400000, guid: b73c8a6c757ce9c40b6854c7cca397dc, type: 2}
  - {fileID: 11400000, guid: e439685e94bca374d83f551668ed892b, type: 2}
  - {fileID: 11400000, guid: c94c26e84e8bea14bb27367c294cdc7f, type: 2}
  - {fileID: 11400000, guid: 2371edf4ca05fc447abc3ba2b13674d7, type: 2}
