%YAML 1.1
%TAG !u! tag:unity3d.com,2011:
--- !u!114 &11400000
MonoBehaviour:
  m_ObjectHideFlags: 0
  m_PrefabParentObject: {fileID: 0}
  m_PrefabInternal: {fileID: 0}
  m_GameObject: {fileID: 0}
  m_Enabled: 1
  m_EditorHideFlags: 0
  m_Script: {fileID: 11500000, guid: bcb2e4bc33c641a4598525c3754e7a99, type: 3}
  m_Name: DB_SoundSetting
  m_EditorClassIdentifier: 
  data:
  - {fileID: 11400000, guid: da8af2871e8cf1a4d85b182eb6137e6a, type: 2}
  - {fileID: 11400000, guid: 0841cef3456d5f240b76ecacc5477c1e, type: 2}
  - {fileID: 11400000, guid: a73644daf26247a42906e8a0c911ecd3, type: 2}
  - {fileID: 11400000, guid: 3616030e9493ba34b8edf0da9641a4ea, type: 2}
  - {fileID: 11400000, guid: 4d80c535d7056184e97c1e3d766d0745, type: 2}
  - {fileID: 11400000, guid: 0f25b1f97b236ed44866c0e8f820c508, type: 2}
  - {fileID: 11400000, guid: 0ba09d2204e0f0c4295651063a32cbdc, type: 2}
  - {fileID: 11400000, guid: 0a8895c68a0ff7640a20e6c78714d43d, type: 2}
  - {fileID: 11400000, guid: 3a0073ac6972a4947a6a3968ab91766a, type: 2}
  - {fileID: 11400000, guid: 9c8be0e7b34e05c40b0815a5bf801c69, type: 2}
  - {fileID: 11400000, guid: c723af6228edc894a881ca105c348a48, type: 2}
  - {fileID: 11400000, guid: 16ab0b66bec28b04790ecbf0b958da1b, type: 2}
  - {fileID: 11400000, guid: 7b48bfc998ad32040bb6efd8df402490, type: 2}
  - {fileID: 11400000, guid: dd2a52ffe8194bf4d881b297bc6362ce, type: 2}
  - {fileID: 11400000, guid: c33df48dfeff463468de2f32093035fc, type: 2}
  - {fileID: 11400000, guid: a4e6c962753028c4c86668b708883cda, type: 2}
  - {fileID: 11400000, guid: e91d66fb837ae9742ac83f41e6369920, type: 2}
  - {fileID: 11400000, guid: fbf2bace8a9cc864aa5ac46a7aace2f7, type: 2}
  - {fileID: 11400000, guid: 9277917d9545b404696bbafdf53705c8, type: 2}
  - {fileID: 11400000, guid: ba20774cee462c345b3e0882c8b594ea, type: 2}
  - {fileID: 11400000, guid: 5f619dd8f15486f4ca6473ce5ca2e448, type: 2}
  - {fileID: 11400000, guid: 29383c32d77e4624193acfb5ce4c9186, type: 2}
  - {fileID: 11400000, guid: c1d319d8efc183e489149dff8da5713d, type: 2}
  - {fileID: 11400000, guid: cc9bacf5d7b83014d86ba7aab6ce209a, type: 2}
  - {fileID: 11400000, guid: 52f6c2bc396a06640a3ea7e107e3b4dd, type: 2}
  - {fileID: 11400000, guid: a4675855dec89a14e9df30f5211a7363, type: 2}
