%YAML 1.1
%TAG !u! tag:unity3d.com,2011:
--- !u!114 &11400000
MonoBehaviour:
  m_ObjectHideFlags: 0
  m_PrefabParentObject: {fileID: 0}
  m_PrefabInternal: {fileID: 0}
  m_GameObject: {fileID: 0}
  m_Enabled: 1
  m_EditorHideFlags: 0
  m_Script: {fileID: 11500000, guid: ae5e395dba7655d46b449513aaba791c, type: 3}
  m_Name: UIConfiguration
  m_EditorClassIdentifier: 
  horizontalAxisName: Move Horizontal
  verticalAxisName: Move Vertical
  buttonEnterNames:
  - Select
  - Shoot
  buttonBackNames:
  - Power Up
  - Back
  soundMove: {fileID: 11400000, guid: 3a0073ac6972a4947a6a3968ab91766a, type: 2}
  soundSelect: {fileID: 11400000, guid: 9c8be0e7b34e05c40b0815a5bf801c69, type: 2}
