%YAML 1.1
%TAG !u! tag:unity3d.com,2011:
--- !u!114 &11400000
MonoBehaviour:
  m_ObjectHideFlags: 0
  m_PrefabParentObject: {fileID: 0}
  m_PrefabInternal: {fileID: 0}
  m_GameObject: {fileID: 0}
  m_Enabled: 1
  m_EditorHideFlags: 0
  m_Script: {fileID: 11500000, guid: fd5dca34063bb164db959ca815cbc5f1, type: 3}
  m_Name: Tutorial - Fortify - Use Ability
  m_EditorClassIdentifier: 
  dialogData:
    pages:
    - text: 'Balls incomiiing!!!

        Now smash that "S" key to use the fortify power up!'
      avatarCharacter: {fileID: 11400000, guid: cbdc2e720df94be478d10de485bcb7b5,
        type: 2}
      avatarPosition: 1
