%YAML 1.1
%TAG !u! tag:unity3d.com,2011:
--- !u!114 &11400000
MonoBehaviour:
  m_ObjectHideFlags: 0
  m_PrefabParentObject: {fileID: 0}
  m_PrefabInternal: {fileID: 0}
  m_GameObject: {fileID: 0}
  m_Enabled: 1
  m_EditorHideFlags: 0
  m_Script: {fileID: 11500000, guid: f1b3b4b945939a54ea0b23d3396115fb, type: 3}
  m_Name: grunt_down_SkeletonData
  m_EditorClassIdentifier: 
  atlasAssets: []
  spriteCollection: {fileID: 114000011766455744, guid: 8b880e79dddba934da72927523fc4fd1,
    type: 2}
  scale: 1
  skeletonJSON: {fileID: 4900000, guid: 505d6c282e30c2f4ab2a28b49b25b62d, type: 3}
  fromAnimation: []
  toAnimation: []
  duration: []
  defaultMix: 0.2
  controller: {fileID: 9100000, guid: 0fcaca8758e01264c887342783ce3b73, type: 2}
