%YAML 1.1
%TAG !u! tag:unity3d.com,2011:
--- !u!221 &22100000
AnimatorOverrideController:
  m_ObjectHideFlags: 0
  m_PrefabParentObject: {fileID: 0}
  m_PrefabInternal: {fileID: 0}
  m_Name: grunt_up_Controller
  m_Controller: {fileID: 9100000, guid: 804d96bccbe14e34181f4976f817cea8, type: 2}
  m_Clips:
  - m_OriginalClip: {fileID: 7427870, guid: 804d96bccbe14e34181f4976f817cea8, type: 2}
    m_OverrideClip: {fileID: 74000010999327186, guid: 5129c219c3db5044fa02557486a641aa,
      type: 2}
  - m_OriginalClip: {fileID: 7457168, guid: 804d96bccbe14e34181f4976f817cea8, type: 2}
    m_OverrideClip: {fileID: 74000013394052664, guid: 5129c219c3db5044fa02557486a641aa,
      type: 2}
  - m_OriginalClip: {fileID: 7482528, guid: 804d96bccbe14e34181f4976f817cea8, type: 2}
    m_OverrideClip: {fileID: 74000012753123874, guid: 5129c219c3db5044fa02557486a641aa,
      type: 2}
  - m_OriginalClip: {fileID: 7424502, guid: 804d96bccbe14e34181f4976f817cea8, type: 2}
    m_OverrideClip: {fileID: 74000013290002932, guid: 5129c219c3db5044fa02557486a641aa,
      type: 2}
  - m_OriginalClip: {fileID: 74173207671906306, guid: 804d96bccbe14e34181f4976f817cea8,
      type: 2}
    m_OverrideClip: {fileID: 74075676056999196, guid: 5129c219c3db5044fa02557486a641aa,
      type: 2}
  - m_OriginalClip: {fileID: 74535484374259316, guid: 804d96bccbe14e34181f4976f817cea8,
      type: 2}
    m_OverrideClip: {fileID: 74019670266013320, guid: 5129c219c3db5044fa02557486a641aa,
      type: 2}
