%YAML 1.1
%TAG !u! tag:unity3d.com,2011:
--- !u!221 &22100000
AnimatorOverrideController:
  m_ObjectHideFlags: 0
  m_PrefabParentObject: {fileID: 0}
  m_PrefabInternal: {fileID: 0}
  m_Name: grunt_down_Controller
  m_Controller: {fileID: 9100000, guid: 804d96bccbe14e34181f4976f817cea8, type: 2}
  m_Clips:
  - m_OriginalClip: {fileID: 7427870, guid: 804d96bccbe14e34181f4976f817cea8, type: 2}
    m_OverrideClip: {fileID: 74000011692366124, guid: 0fcaca8758e01264c887342783ce3b73,
      type: 2}
  - m_OriginalClip: {fileID: 7457168, guid: 804d96bccbe14e34181f4976f817cea8, type: 2}
    m_OverrideClip: {fileID: 74000011209335642, guid: 0fcaca8758e01264c887342783ce3b73,
      type: 2}
  - m_OriginalClip: {fileID: 7482528, guid: 804d96bccbe14e34181f4976f817cea8, type: 2}
    m_OverrideClip: {fileID: 74000011808065740, guid: 0fcaca8758e01264c887342783ce3b73,
      type: 2}
  - m_OriginalClip: {fileID: 7424502, guid: 804d96bccbe14e34181f4976f817cea8, type: 2}
    m_OverrideClip: {fileID: 74000012711731118, guid: 0fcaca8758e01264c887342783ce3b73,
      type: 2}
  - m_OriginalClip: {fileID: 74173207671906306, guid: 804d96bccbe14e34181f4976f817cea8,
      type: 2}
    m_OverrideClip: {fileID: 74095832920353498, guid: 0fcaca8758e01264c887342783ce3b73,
      type: 2}
  - m_OriginalClip: {fileID: 74535484374259316, guid: 804d96bccbe14e34181f4976f817cea8,
      type: 2}
    m_OverrideClip: {fileID: 74555469556066310, guid: 0fcaca8758e01264c887342783ce3b73,
      type: 2}
