%YAML 1.1
%TAG !u! tag:unity3d.com,2011:
--- !u!114 &11400000
MonoBehaviour:
  m_ObjectHideFlags: 0
  m_PrefabParentObject: {fileID: 0}
  m_PrefabInternal: {fileID: 0}
  m_GameObject: {fileID: 0}
  m_Enabled: 1
  m_EditorHideFlags: 0
  m_Script: {fileID: 11500000, guid: f1b3b4b945939a54ea0b23d3396115fb, type: 3}
  m_Name: ball_shooter_shadow_SkeletonData
  m_EditorClassIdentifier: 
  atlasAssets: []
  spriteCollection: {fileID: 114848079924348902, guid: d7c20d29a560dab46a161ae3f8407d0e,
    type: 2}
  scale: 1
  skeletonJSON: {fileID: 4900000, guid: b14cc15a42792f14cbdae7fab1636501, type: 3}
  fromAnimation: []
  toAnimation: []
  duration: []
  defaultMix: 0.2
  controller: {fileID: 0}
