%YAML 1.1
%TAG !u! tag:unity3d.com,2011:
--- !u!114 &11400000
MonoBehaviour:
  m_ObjectHideFlags: 0
  m_PrefabParentObject: {fileID: 0}
  m_PrefabInternal: {fileID: 0}
  m_GameObject: {fileID: 0}
  m_Enabled: 1
  m_EditorHideFlags: 0
  m_Script: {fileID: 11500000, guid: 3bbeafa37d82a184c9e208af2a650ad5, type: 3}
  m_Name: CampaignLevel 7
  m_EditorClassIdentifier: 
  levelName: 
  levelObj: {fileID: 0}
  arena: {fileID: 0}
  enemies: []
