%YAML 1.1
%TAG !u! tag:unity3d.com,2011:
--- !u!114 &11400000
MonoBehaviour:
  m_ObjectHideFlags: 0
  m_PrefabParentObject: {fileID: 0}
  m_PrefabInternal: {fileID: 0}
  m_GameObject: {fileID: 0}
  m_Enabled: 1
  m_EditorHideFlags: 0
  m_Script: {fileID: 11500000, guid: 3bbeafa37d82a184c9e208af2a650ad5, type: 3}
  m_Name: CampaignLevel 5
  m_EditorClassIdentifier: 
  levelName: CampaignLevel 5
  levelObj: {fileID: 11400000, guid: 1e14d582bcacd1d4fb8b4693e1271e98, type: 2}
  nodeDescription: 
  arena: {fileID: 11400000, guid: c505deafa79a18d45aa40ca967bf9452, type: 2}
  enemies:
  - character: {fileID: 11400000, guid: 0286996400e0e8249ab63db95f632b3d, type: 2}
    aiDefinition: {fileID: 11400000, guid: 97a5b3ba4feabe943b938a051b787305, type: 2}
    ai: {fileID: 1705261785393286, guid: 896a9ff71a44cf648a57f2a5c8c03b57, type: 2}
  gameMode:
    modeType: 0
    duration: 0
  spawnInitialBall: 1
  dialogBeforeGameStart: {fileID: 0}
