%YAML 1.1
%TAG !u! tag:unity3d.com,2011:
--- !u!114 &11400000
MonoBehaviour:
  m_ObjectHideFlags: 0
  m_PrefabParentObject: {fileID: 0}
  m_PrefabInternal: {fileID: 0}
  m_GameObject: {fileID: 0}
  m_Enabled: 1
  m_EditorHideFlags: 0
  m_Script: {fileID: 11500000, guid: 3bbeafa37d82a184c9e208af2a650ad5, type: 3}
  m_Name: CampaignLevel 18
  m_EditorClassIdentifier: 
  levelName: CampaignLevel 18
  levelObj: {fileID: 11400000, guid: b9e9c5ff54d7e1a418c348869aac0e43, type: 2}
  nodeDescription: 
  arena: {fileID: 11400000, guid: c505deafa79a18d45aa40ca967bf9452, type: 2}
  enemies:
  - character: {fileID: 11400000, guid: 0286996400e0e8249ab63db95f632b3d, type: 2}
    aiDefinition: {fileID: 11400000, guid: f9b0ad4e3cca2e948b39e66f2f915a2e, type: 2}
    ai: {fileID: 1310195466999840, guid: 4f99a0ca01424a94398044d08d35831e, type: 2}
  gameMode:
    modeType: 0
    duration: 0
  spawnInitialBall: 1
  dialogBeforeGameStart: {fileID: 0}
