%YAML 1.1
%TAG !u! tag:unity3d.com,2011:
--- !u!114 &11400000
MonoBehaviour:
  m_ObjectHideFlags: 0
  m_PrefabParentObject: {fileID: 0}
  m_PrefabInternal: {fileID: 0}
  m_GameObject: {fileID: 0}
  m_Enabled: 1
  m_EditorHideFlags: 0
  m_Script: {fileID: 11500000, guid: 3bbeafa37d82a184c9e208af2a650ad5, type: 3}
  m_Name: CampaignLevel 21
  m_EditorClassIdentifier: 
  levelName: CampaignLevel 21
  levelObj: {fileID: 11400000, guid: 852213e16668d1d45b03ca655225b4e3, type: 2}
  nodeDescription: 
  arena: {fileID: 11400000, guid: 8c8084f974f930243b993223b182a770, type: 2}
  enemies:
  - character: {fileID: 11400000, guid: 0286996400e0e8249ab63db95f632b3d, type: 2}
    aiDefinition: {fileID: 11400000, guid: f9b0ad4e3cca2e948b39e66f2f915a2e, type: 2}
    ai: {fileID: 1705261785393286, guid: e935d1b41a462da45aa84a082e014545, type: 2}
  gameMode:
    modeType: 0
    duration: 0
  spawnInitialBall: 0
  dialogBeforeGameStart: {fileID: 0}
