%YAML 1.1
%TAG !u! tag:unity3d.com,2011:
--- !u!114 &11400000
MonoBehaviour:
  m_ObjectHideFlags: 0
  m_PrefabParentObject: {fileID: 0}
  m_PrefabInternal: {fileID: 0}
  m_GameObject: {fileID: 0}
  m_Enabled: 1
  m_EditorHideFlags: 0
  m_Script: {fileID: 11500000, guid: 3bbeafa37d82a184c9e208af2a650ad5, type: 3}
  m_Name: CampaignLevel 10
  m_EditorClassIdentifier: 
  levelName: CampaignLevel 10
  levelObj: {fileID: 11400000, guid: dc65fc08bfff05245bf11fed7b2ed528, type: 2}
  nodeDescription: 'LEARN HOW TO

    CONTROL IT'
  arena: {fileID: 11400000, guid: c505deafa79a18d45aa40ca967bf9452, type: 2}
  enemies: []
  gameMode:
    modeType: 3
    duration: 0
  spawnInitialBall: 0
  dialogBeforeGameStart: {fileID: 11400000, guid: 16be88b7b2262394abc6807c4c9a0a19,
    type: 2}
