%YAML 1.1
%TAG !u! tag:unity3d.com,2011:
--- !u!1001 &100100000
Prefab:
  m_ObjectHideFlags: 1
  serializedVersion: 2
  m_Modification:
    m_TransformParent: {fileID: 0}
    m_Modifications: []
    m_RemovedComponents: []
  m_ParentPrefab: {fileID: 0}
  m_RootGameObject: {fileID: 1000010855023320}
  m_IsPrefabParent: 1
--- !u!1 &1000010855023320
GameObject:
  m_ObjectHideFlags: 0
  m_PrefabParentObject: {fileID: 0}
  m_PrefabInternal: {fileID: 100100000}
  serializedVersion: 4
  m_Component:
  - 4: {fileID: 4000013963653296}
  - 114: {fileID: 114000010837762722}
  m_Layer: 0
  m_Name: stonehead_ability_3
  m_TagString: Untagged
  m_Icon: {fileID: 0}
  m_NavMeshLayer: 0
  m_StaticEditorFlags: 0
  m_IsActive: 1
--- !u!4 &4000013963653296
Transform:
  m_ObjectHideFlags: 1
  m_PrefabParentObject: {fileID: 0}
  m_PrefabInternal: {fileID: 100100000}
  m_GameObject: {fileID: 1000010855023320}
  m_LocalRotation: {x: 0, y: 0, z: 0, w: 1}
  m_LocalPosition: {x: 0, y: 0, z: 0}
  m_LocalScale: {x: 1, y: 1, z: 1}
  m_LocalEulerAnglesHint: {x: 0, y: 0, z: 0}
  m_Children: []
  m_Father: {fileID: 0}
  m_RootOrder: 0
--- !u!114 &114000010837762722
MonoBehaviour:
  m_ObjectHideFlags: 1
  m_PrefabParentObject: {fileID: 0}
  m_PrefabInternal: {fileID: 100100000}
  m_GameObject: {fileID: 1000010855023320}
  m_Enabled: 1
  m_EditorHideFlags: 0
  m_Script: {fileID: 11500000, guid: d546f34a90531a14eaba82a43b05b86b, type: 3}
  m_Name: 
  m_EditorClassIdentifier: 
  version: 3
  materialIdsValid: 1
  needMaterialInstance: 0
  spriteDefinitions:
  - name: ball
    boundsData:
    - {x: 0, y: 0, z: 0}
    - {x: 0.24, y: 0.24, z: 0}
    untrimmedBoundsData:
    - {x: 0, y: 0, z: 0}
    - {x: 0.24, y: 0.24, z: 0}
    texelSize: {x: 0.01, y: 0.01}
    positions:
    - {x: -0.12, y: -0.12, z: 0}
    - {x: 0.12, y: -0.12, z: 0}
    - {x: -0.12, y: 0.12, z: 0}
    - {x: 0.12, y: 0.12, z: 0}
    normals: []
    tangents: []
    uvs:
    - {x: 0.031265624, y: 0.5625078}
    - {x: 0.40623438, y: 0.5625078}
    - {x: 0.031265624, y: 0.7499922}
    - {x: 0.40623438, y: 0.7499922}
    normalizedUvs:
    - {x: 0, y: 0}
    - {x: 1, y: 0}
    - {x: 0, y: 1}
    - {x: 1, y: 1}
    indices: 000000000300000001000000020000000300000000000000
    material: {fileID: 2100000, guid: 119ce939ea4bc3846a66c7739255c9a6, type: 2}
    materialId: 0
    sourceTextureGUID: 26a36d564abca1441ae180abea8fe7d3
    extractRegion: 0
    regionX: 0
    regionY: 0
    regionW: 0
    regionH: 0
    flipped: 0
    complexGeometry: 0
    physicsEngine: 0
    colliderType: 0
    customColliders: []
    colliderVertices: []
    colliderIndicesFwd: 
    colliderIndicesBack: 
    colliderConvex: 0
    colliderSmoothSphereCollisions: 0
    polygonCollider2D: []
    edgeCollider2D: []
    attachPoints: []
  - name: fire1
    boundsData:
    - {x: 0, y: 0, z: 0}
    - {x: 0.099999994, y: 0.04, z: 0}
    untrimmedBoundsData:
    - {x: 0, y: 0, z: 0}
    - {x: 0.099999994, y: 0.04, z: 0}
    texelSize: {x: 0.01, y: 0.01}
    positions:
    - {x: -0.049999997, y: -0.02, z: 0}
    - {x: 0.049999997, y: -0.02, z: 0}
    - {x: -0.049999997, y: 0.02, z: 0}
    - {x: 0.049999997, y: 0.02, z: 0}
    normals: []
    tangents: []
    uvs:
    - {x: 0.031265624, y: 0.9531328}
    - {x: 0.18748437, y: 0.9531328}
    - {x: 0.031265624, y: 0.9843672}
    - {x: 0.18748437, y: 0.9843672}
    normalizedUvs:
    - {x: 0, y: 0}
    - {x: 1, y: 0}
    - {x: 0, y: 1}
    - {x: 1, y: 1}
    indices: 000000000300000001000000020000000300000000000000
    material: {fileID: 2100000, guid: 119ce939ea4bc3846a66c7739255c9a6, type: 2}
    materialId: 0
    sourceTextureGUID: 024cb5f0867f8cf4bb473fad32ce2a69
    extractRegion: 0
    regionX: 0
    regionY: 0
    regionW: 0
    regionH: 0
    flipped: 0
    complexGeometry: 0
    physicsEngine: 0
    colliderType: 0
    customColliders: []
    colliderVertices: []
    colliderIndicesFwd: 
    colliderIndicesBack: 
    colliderConvex: 0
    colliderSmoothSphereCollisions: 0
    polygonCollider2D: []
    edgeCollider2D: []
    attachPoints: []
  - name: fire2
    boundsData:
    - {x: 0, y: 0, z: 0}
    - {x: 0.17999999, y: 0.04, z: 0}
    untrimmedBoundsData:
    - {x: 0, y: 0, z: 0}
    - {x: 0.17999999, y: 0.04, z: 0}
    texelSize: {x: 0.01, y: 0.01}
    positions:
    - {x: -0.089999996, y: -0.02, z: 0}
    - {x: 0.089999996, y: -0.02, z: 0}
    - {x: -0.089999996, y: 0.02, z: 0}
    - {x: 0.089999996, y: 0.02, z: 0}
    normals: []
    tangents: []
    uvs:
    - {x: 0.031265624, y: 0.7812578}
    - {x: 0.031265624, y: 0.9218672}
    - {x: 0.093734376, y: 0.7812578}
    - {x: 0.093734376, y: 0.9218672}
    normalizedUvs:
    - {x: 0, y: 0}
    - {x: 0, y: 1}
    - {x: 1, y: 0}
    - {x: 1, y: 1}
    indices: 000000000300000001000000020000000300000000000000
    material: {fileID: 2100000, guid: 119ce939ea4bc3846a66c7739255c9a6, type: 2}
    materialId: 0
    sourceTextureGUID: 06970bb2aaba0ff4baf450280aaccf99
    extractRegion: 0
    regionX: 0
    regionY: 0
    regionW: 0
    regionH: 0
    flipped: 1
    complexGeometry: 0
    physicsEngine: 0
    colliderType: 0
    customColliders: []
    colliderVertices: []
    colliderIndicesFwd: 
    colliderIndicesBack: 
    colliderConvex: 0
    colliderSmoothSphereCollisions: 0
    polygonCollider2D: []
    edgeCollider2D: []
    attachPoints: []
  - name: flame
    boundsData:
    - {x: 0, y: -0.00500001, z: 0}
    - {x: 0.65999997, y: 0.32999998, z: 0}
    untrimmedBoundsData:
    - {x: 0, y: -0.00500001, z: 0}
    - {x: 0.65999997, y: 0.32999998, z: 0}
    texelSize: {x: 0.01, y: 0.01}
    positions:
    - {x: -0.32999998, y: -0.17, z: 0}
    - {x: 0.32999998, y: -0.17, z: 0}
    - {x: -0.32999998, y: 0.15999998, z: 0}
    - {x: 0.32999998, y: 0.15999998, z: 0}
    normals: []
    tangents: []
    uvs:
    - {x: 0.031265624, y: 0.015632812}
    - {x: 0.031265624, y: 0.5312422}
    - {x: 0.5468594, y: 0.015632812}
    - {x: 0.5468594, y: 0.5312422}
    normalizedUvs:
    - {x: 0, y: 0}
    - {x: 0, y: 1}
    - {x: 1, y: 0}
    - {x: 1, y: 1}
    indices: 000000000300000001000000020000000300000000000000
    material: {fileID: 2100000, guid: 119ce939ea4bc3846a66c7739255c9a6, type: 2}
    materialId: 0
    sourceTextureGUID: 4a8faaf20011946499ed4a04a953bca0
    extractRegion: 0
    regionX: 0
    regionY: 0
    regionW: 0
    regionH: 0
    flipped: 1
    complexGeometry: 0
    physicsEngine: 0
    colliderType: 0
    customColliders: []
    colliderVertices: []
    colliderIndicesFwd: 
    colliderIndicesBack: 
    colliderConvex: 0
    colliderSmoothSphereCollisions: 0
    polygonCollider2D: []
    edgeCollider2D: []
    attachPoints: []
  premultipliedAlpha: 1
  material: {fileID: 0}
  materials:
  - {fileID: 2100000, guid: 119ce939ea4bc3846a66c7739255c9a6, type: 2}
  textures:
  - {fileID: 2800000, guid: 3fe00cc598bad4f428979b06a19ec976, type: 3}
  pngTextures: []
  materialPngTextureId: 00000000
  textureFilterMode: 1
  textureMipMaps: 0
  allowMultipleAtlases: 0
  spriteCollectionGUID: 0ed7bd1d82ee1ff459523973ae1a5436
  spriteCollectionName: stonehead_ability_3
  assetName: 
  loadable: 0
  invOrthoSize: 2
  halfTargetHeight: 50
  buildKey: 74420112
  dataGuid: 14c7df4791983ed4793a6d0b8a2b916d
  managedSpriteCollection: 0
  hasPlatformData: 0
  spriteCollectionPlatforms: []
  spriteCollectionPlatformGUIDs: []
