%YAML 1.1
%TAG !u! tag:unity3d.com,2011:
--- !u!1001 &100100000
Prefab:
  m_ObjectHideFlags: 1
  serializedVersion: 2
  m_Modification:
    m_TransformParent: {fileID: 0}
    m_Modifications: []
    m_RemovedComponents: []
  m_ParentPrefab: {fileID: 0}
  m_RootGameObject: {fileID: 1994443196257932}
  m_IsPrefabParent: 1
--- !u!1 &1994443196257932
GameObject:
  m_ObjectHideFlags: 0
  m_PrefabParentObject: {fileID: 0}
  m_PrefabInternal: {fileID: 100100000}
  serializedVersion: 5
  m_Component:
  - component: {fileID: 4350946119419570}
  - component: {fileID: 114024577279406660}
  m_Layer: 0
  m_Name: BlocksTiles
  m_TagString: Untagged
  m_Icon: {fileID: 0}
  m_NavMeshLayer: 0
  m_StaticEditorFlags: 0
  m_IsActive: 0
--- !u!4 &4350946119419570
Transform:
  m_ObjectHideFlags: 1
  m_PrefabParentObject: {fileID: 0}
  m_PrefabInternal: {fileID: 100100000}
  m_GameObject: {fileID: 1994443196257932}
  m_LocalRotation: {x: 0, y: 0, z: 0, w: 1}
  m_LocalPosition: {x: 0, y: 0, z: 0}
  m_LocalScale: {x: 1, y: 1, z: 1}
  m_Children: []
  m_Father: {fileID: 0}
  m_RootOrder: 0
  m_LocalEulerAnglesHint: {x: 0, y: 0, z: 0}
--- !u!114 &114024577279406660
MonoBehaviour:
  m_ObjectHideFlags: 1
  m_PrefabParentObject: {fileID: 0}
  m_PrefabInternal: {fileID: 100100000}
  m_GameObject: {fileID: 1994443196257932}
  m_Enabled: 1
  m_EditorHideFlags: 0
  m_Script: {fileID: 11500000, guid: 84c7a4b4ee15890498f818262bca0312, type: 3}
  m_Name: 
  m_EditorClassIdentifier: 
  textures: []
  textureRefs: []
  spriteSheets:
  - texture: {fileID: 2800000, guid: b2614a7f3ffbc104b95ad1ea1dd2c883, type: 3}
    tilesX: 0
    tilesY: 0
    numTiles: 0
    anchor: 4
    pad: 1
    scale: {x: 1, y: 1, z: 1}
    additive: 0
    active: 1
    tileWidth: 79
    tileHeight: 38
    tileMarginX: 0
    tileMarginY: 0
    tileSpacingX: 1
    tileSpacingY: 1
    splitMethod: 0
    version: 1
    colliderType: 0
  fonts: []
  defaults:
    additive: 0
    scale: {x: 1, y: 1, z: 1}
    anchor: 4
    pad: 0
    colliderType: 0
  platforms:
  - name: 
    spriteCollection: {fileID: 0}
  managedSpriteCollection: 0
  linkParent: {fileID: 0}
  loadable: 0
  atlasFormat: 0
  maxTextureSize: 2048
  forceTextureSize: 0
  forcedTextureWidth: 2048
  forcedTextureHeight: 2048
  textureCompression: 0
  atlasWidth: 256
  atlasHeight: 512
  forceSquareAtlas: 0
  atlasWastage: 49.72229
  allowMultipleAtlases: 0
  removeDuplicates: 1
  textureParams:
  - name: tiles/0
    disableTrimming: 0
    additive: 0
    scale: {x: 1, y: 1, z: 1}
    texture: {fileID: 2800000, guid: b2614a7f3ffbc104b95ad1ea1dd2c883, type: 3}
    materialId: 0
    anchor: 4
    anchorX: 0
    anchorY: 0
    overrideMesh: {fileID: 0}
    doubleSidedSprite: 0
    customSpriteGeometry: 0
    geometryIslands: []
    dice: 0
    diceUnitX: 64
    diceUnitY: 64
    diceFilter: 0
    pad: 1
    extraPadding: 0
    source: 0
    fromSpriteSheet: 0
    hasSpriteSheetId: 1
    spriteSheetId: 0
    spriteSheetX: 0
    spriteSheetY: 0
    extractRegion: 1
    regionX: 0
    regionY: 351
    regionW: 79
    regionH: 38
    regionId: 0
    colliderType: 0
    colliderData: []
    boxColliderMin: {x: 0, y: 0}
    boxColliderMax: {x: 0, y: 0}
    polyColliderIslands: []
    polyColliderCap: 1
    colliderConvex: 0
    colliderSmoothSphereCollisions: 0
    colliderColor: 0
    attachPoints: []
  - name: tiles/1
    disableTrimming: 0
    additive: 0
    scale: {x: 1, y: 1, z: 1}
    texture: {fileID: 2800000, guid: b2614a7f3ffbc104b95ad1ea1dd2c883, type: 3}
    materialId: 0
    anchor: 4
    anchorX: 0
    anchorY: 0
    overrideMesh: {fileID: 0}
    doubleSidedSprite: 0
    customSpriteGeometry: 0
    geometryIslands: []
    dice: 0
    diceUnitX: 64
    diceUnitY: 64
    diceFilter: 0
    pad: 1
    extraPadding: 0
    source: 0
    fromSpriteSheet: 0
    hasSpriteSheetId: 1
    spriteSheetId: 0
    spriteSheetX: 1
    spriteSheetY: 0
    extractRegion: 1
    regionX: 80
    regionY: 351
    regionW: 79
    regionH: 38
    regionId: 1
    colliderType: 0
    colliderData: []
    boxColliderMin: {x: 0, y: 0}
    boxColliderMax: {x: 0, y: 0}
    polyColliderIslands: []
    polyColliderCap: 1
    colliderConvex: 0
    colliderSmoothSphereCollisions: 0
    colliderColor: 0
    attachPoints: []
  - name: tiles/2
    disableTrimming: 0
    additive: 0
    scale: {x: 1, y: 1, z: 1}
    texture: {fileID: 2800000, guid: b2614a7f3ffbc104b95ad1ea1dd2c883, type: 3}
    materialId: 0
    anchor: 4
    anchorX: 0
    anchorY: 0
    overrideMesh: {fileID: 0}
    doubleSidedSprite: 0
    customSpriteGeometry: 0
    geometryIslands: []
    dice: 0
    diceUnitX: 64
    diceUnitY: 64
    diceFilter: 0
    pad: 1
    extraPadding: 0
    source: 0
    fromSpriteSheet: 0
    hasSpriteSheetId: 1
    spriteSheetId: 0
    spriteSheetX: 2
    spriteSheetY: 0
    extractRegion: 1
    regionX: 160
    regionY: 351
    regionW: 79
    regionH: 38
    regionId: 2
    colliderType: 0
    colliderData: []
    boxColliderMin: {x: 0, y: 0}
    boxColliderMax: {x: 0, y: 0}
    polyColliderIslands: []
    polyColliderCap: 1
    colliderConvex: 0
    colliderSmoothSphereCollisions: 0
    colliderColor: 0
    attachPoints: []
  - name: tiles/3
    disableTrimming: 0
    additive: 0
    scale: {x: 1, y: 1, z: 1}
    texture: {fileID: 2800000, guid: b2614a7f3ffbc104b95ad1ea1dd2c883, type: 3}
    materialId: 0
    anchor: 4
    anchorX: 0
    anchorY: 0
    overrideMesh: {fileID: 0}
    doubleSidedSprite: 0
    customSpriteGeometry: 0
    geometryIslands: []
    dice: 0
    diceUnitX: 64
    diceUnitY: 64
    diceFilter: 0
    pad: 1
    extraPadding: 0
    source: 0
    fromSpriteSheet: 0
    hasSpriteSheetId: 1
    spriteSheetId: 0
    spriteSheetX: 3
    spriteSheetY: 0
    extractRegion: 1
    regionX: 240
    regionY: 351
    regionW: 79
    regionH: 38
    regionId: 3
    colliderType: 0
    colliderData: []
    boxColliderMin: {x: 0, y: 0}
    boxColliderMax: {x: 0, y: 0}
    polyColliderIslands: []
    polyColliderCap: 1
    colliderConvex: 0
    colliderSmoothSphereCollisions: 0
    colliderColor: 0
    attachPoints: []
  - name: tiles/4
    disableTrimming: 0
    additive: 0
    scale: {x: 1, y: 1, z: 1}
    texture: {fileID: 2800000, guid: b2614a7f3ffbc104b95ad1ea1dd2c883, type: 3}
    materialId: 0
    anchor: 4
    anchorX: 0
    anchorY: 0
    overrideMesh: {fileID: 0}
    doubleSidedSprite: 0
    customSpriteGeometry: 0
    geometryIslands: []
    dice: 0
    diceUnitX: 64
    diceUnitY: 64
    diceFilter: 0
    pad: 1
    extraPadding: 0
    source: 0
    fromSpriteSheet: 0
    hasSpriteSheetId: 1
    spriteSheetId: 0
    spriteSheetX: 4
    spriteSheetY: 0
    extractRegion: 1
    regionX: 320
    regionY: 351
    regionW: 79
    regionH: 38
    regionId: 4
    colliderType: 0
    colliderData: []
    boxColliderMin: {x: 0, y: 0}
    boxColliderMax: {x: 0, y: 0}
    polyColliderIslands: []
    polyColliderCap: 1
    colliderConvex: 0
    colliderSmoothSphereCollisions: 0
    colliderColor: 0
    attachPoints: []
  - name: tiles/5
    disableTrimming: 0
    additive: 0
    scale: {x: 1, y: 1, z: 1}
    texture: {fileID: 2800000, guid: b2614a7f3ffbc104b95ad1ea1dd2c883, type: 3}
    materialId: 0
    anchor: 4
    anchorX: 0
    anchorY: 0
    overrideMesh: {fileID: 0}
    doubleSidedSprite: 0
    customSpriteGeometry: 0
    geometryIslands: []
    dice: 0
    diceUnitX: 64
    diceUnitY: 64
    diceFilter: 0
    pad: 1
    extraPadding: 0
    source: 0
    fromSpriteSheet: 0
    hasSpriteSheetId: 1
    spriteSheetId: 0
    spriteSheetX: 5
    spriteSheetY: 0
    extractRegion: 1
    regionX: 400
    regionY: 351
    regionW: 79
    regionH: 38
    regionId: 5
    colliderType: 0
    colliderData: []
    boxColliderMin: {x: 0, y: 0}
    boxColliderMax: {x: 0, y: 0}
    polyColliderIslands: []
    polyColliderCap: 1
    colliderConvex: 0
    colliderSmoothSphereCollisions: 0
    colliderColor: 0
    attachPoints: []
  - name: tiles/6
    disableTrimming: 0
    additive: 0
    scale: {x: 1, y: 1, z: 1}
    texture: {fileID: 2800000, guid: b2614a7f3ffbc104b95ad1ea1dd2c883, type: 3}
    materialId: 0
    anchor: 4
    anchorX: 0
    anchorY: 0
    overrideMesh: {fileID: 0}
    doubleSidedSprite: 0
    customSpriteGeometry: 0
    geometryIslands: []
    dice: 0
    diceUnitX: 64
    diceUnitY: 64
    diceFilter: 0
    pad: 1
    extraPadding: 0
    source: 0
    fromSpriteSheet: 0
    hasSpriteSheetId: 1
    spriteSheetId: 0
    spriteSheetX: 0
    spriteSheetY: 1
    extractRegion: 1
    regionX: 0
    regionY: 312
    regionW: 79
    regionH: 38
    regionId: 6
    colliderType: 0
    colliderData: []
    boxColliderMin: {x: 0, y: 0}
    boxColliderMax: {x: 0, y: 0}
    polyColliderIslands: []
    polyColliderCap: 1
    colliderConvex: 0
    colliderSmoothSphereCollisions: 0
    colliderColor: 0
    attachPoints: []
  - name: tiles/7
    disableTrimming: 0
    additive: 0
    scale: {x: 1, y: 1, z: 1}
    texture: {fileID: 2800000, guid: b2614a7f3ffbc104b95ad1ea1dd2c883, type: 3}
    materialId: 0
    anchor: 4
    anchorX: 0
    anchorY: 0
    overrideMesh: {fileID: 0}
    doubleSidedSprite: 0
    customSpriteGeometry: 0
    geometryIslands: []
    dice: 0
    diceUnitX: 64
    diceUnitY: 64
    diceFilter: 0
    pad: 1
    extraPadding: 0
    source: 0
    fromSpriteSheet: 0
    hasSpriteSheetId: 1
    spriteSheetId: 0
    spriteSheetX: 1
    spriteSheetY: 1
    extractRegion: 1
    regionX: 80
    regionY: 312
    regionW: 79
    regionH: 38
    regionId: 7
    colliderType: 0
    colliderData: []
    boxColliderMin: {x: 0, y: 0}
    boxColliderMax: {x: 0, y: 0}
    polyColliderIslands: []
    polyColliderCap: 1
    colliderConvex: 0
    colliderSmoothSphereCollisions: 0
    colliderColor: 0
    attachPoints: []
  - name: tiles/8
    disableTrimming: 0
    additive: 0
    scale: {x: 1, y: 1, z: 1}
    texture: {fileID: 2800000, guid: b2614a7f3ffbc104b95ad1ea1dd2c883, type: 3}
    materialId: 0
    anchor: 4
    anchorX: 0
    anchorY: 0
    overrideMesh: {fileID: 0}
    doubleSidedSprite: 0
    customSpriteGeometry: 0
    geometryIslands: []
    dice: 0
    diceUnitX: 64
    diceUnitY: 64
    diceFilter: 0
    pad: 1
    extraPadding: 0
    source: 0
    fromSpriteSheet: 0
    hasSpriteSheetId: 1
    spriteSheetId: 0
    spriteSheetX: 2
    spriteSheetY: 1
    extractRegion: 1
    regionX: 160
    regionY: 312
    regionW: 79
    regionH: 38
    regionId: 8
    colliderType: 0
    colliderData: []
    boxColliderMin: {x: 0, y: 0}
    boxColliderMax: {x: 0, y: 0}
    polyColliderIslands: []
    polyColliderCap: 1
    colliderConvex: 0
    colliderSmoothSphereCollisions: 0
    colliderColor: 0
    attachPoints: []
  - name: tiles/9
    disableTrimming: 0
    additive: 0
    scale: {x: 1, y: 1, z: 1}
    texture: {fileID: 2800000, guid: b2614a7f3ffbc104b95ad1ea1dd2c883, type: 3}
    materialId: 0
    anchor: 4
    anchorX: 0
    anchorY: 0
    overrideMesh: {fileID: 0}
    doubleSidedSprite: 0
    customSpriteGeometry: 0
    geometryIslands: []
    dice: 0
    diceUnitX: 64
    diceUnitY: 64
    diceFilter: 0
    pad: 1
    extraPadding: 0
    source: 0
    fromSpriteSheet: 0
    hasSpriteSheetId: 1
    spriteSheetId: 0
    spriteSheetX: 3
    spriteSheetY: 1
    extractRegion: 1
    regionX: 240
    regionY: 312
    regionW: 79
    regionH: 38
    regionId: 9
    colliderType: 0
    colliderData: []
    boxColliderMin: {x: 0, y: 0}
    boxColliderMax: {x: 0, y: 0}
    polyColliderIslands: []
    polyColliderCap: 1
    colliderConvex: 0
    colliderSmoothSphereCollisions: 0
    colliderColor: 0
    attachPoints: []
  - name: tiles/10
    disableTrimming: 0
    additive: 0
    scale: {x: 1, y: 1, z: 1}
    texture: {fileID: 2800000, guid: b2614a7f3ffbc104b95ad1ea1dd2c883, type: 3}
    materialId: 0
    anchor: 4
    anchorX: 0
    anchorY: 0
    overrideMesh: {fileID: 0}
    doubleSidedSprite: 0
    customSpriteGeometry: 0
    geometryIslands: []
    dice: 0
    diceUnitX: 64
    diceUnitY: 64
    diceFilter: 0
    pad: 1
    extraPadding: 0
    source: 0
    fromSpriteSheet: 0
    hasSpriteSheetId: 1
    spriteSheetId: 0
    spriteSheetX: 4
    spriteSheetY: 1
    extractRegion: 1
    regionX: 320
    regionY: 312
    regionW: 79
    regionH: 38
    regionId: 10
    colliderType: 0
    colliderData: []
    boxColliderMin: {x: 0, y: 0}
    boxColliderMax: {x: 0, y: 0}
    polyColliderIslands: []
    polyColliderCap: 1
    colliderConvex: 0
    colliderSmoothSphereCollisions: 0
    colliderColor: 0
    attachPoints: []
  - name: tiles/11
    disableTrimming: 0
    additive: 0
    scale: {x: 1, y: 1, z: 1}
    texture: {fileID: 2800000, guid: b2614a7f3ffbc104b95ad1ea1dd2c883, type: 3}
    materialId: 0
    anchor: 4
    anchorX: 0
    anchorY: 0
    overrideMesh: {fileID: 0}
    doubleSidedSprite: 0
    customSpriteGeometry: 0
    geometryIslands: []
    dice: 0
    diceUnitX: 64
    diceUnitY: 64
    diceFilter: 0
    pad: 1
    extraPadding: 0
    source: 0
    fromSpriteSheet: 0
    hasSpriteSheetId: 1
    spriteSheetId: 0
    spriteSheetX: 5
    spriteSheetY: 1
    extractRegion: 1
    regionX: 400
    regionY: 312
    regionW: 79
    regionH: 38
    regionId: 11
    colliderType: 0
    colliderData: []
    boxColliderMin: {x: 0, y: 0}
    boxColliderMax: {x: 0, y: 0}
    polyColliderIslands: []
    polyColliderCap: 1
    colliderConvex: 0
    colliderSmoothSphereCollisions: 0
    colliderColor: 0
    attachPoints: []
  - name: tiles/12
    disableTrimming: 0
    additive: 0
    scale: {x: 1, y: 1, z: 1}
    texture: {fileID: 2800000, guid: b2614a7f3ffbc104b95ad1ea1dd2c883, type: 3}
    materialId: 0
    anchor: 4
    anchorX: 0
    anchorY: 0
    overrideMesh: {fileID: 0}
    doubleSidedSprite: 0
    customSpriteGeometry: 0
    geometryIslands: []
    dice: 0
    diceUnitX: 64
    diceUnitY: 64
    diceFilter: 0
    pad: 1
    extraPadding: 0
    source: 0
    fromSpriteSheet: 0
    hasSpriteSheetId: 1
    spriteSheetId: 0
    spriteSheetX: 0
    spriteSheetY: 2
    extractRegion: 1
    regionX: 0
    regionY: 273
    regionW: 79
    regionH: 38
    regionId: 12
    colliderType: 0
    colliderData: []
    boxColliderMin: {x: 0, y: 0}
    boxColliderMax: {x: 0, y: 0}
    polyColliderIslands: []
    polyColliderCap: 1
    colliderConvex: 0
    colliderSmoothSphereCollisions: 0
    colliderColor: 0
    attachPoints: []
  - name: tiles/13
    disableTrimming: 0
    additive: 0
    scale: {x: 1, y: 1, z: 1}
    texture: {fileID: 2800000, guid: b2614a7f3ffbc104b95ad1ea1dd2c883, type: 3}
    materialId: 0
    anchor: 4
    anchorX: 0
    anchorY: 0
    overrideMesh: {fileID: 0}
    doubleSidedSprite: 0
    customSpriteGeometry: 0
    geometryIslands: []
    dice: 0
    diceUnitX: 64
    diceUnitY: 64
    diceFilter: 0
    pad: 1
    extraPadding: 0
    source: 0
    fromSpriteSheet: 0
    hasSpriteSheetId: 1
    spriteSheetId: 0
    spriteSheetX: 1
    spriteSheetY: 2
    extractRegion: 1
    regionX: 80
    regionY: 273
    regionW: 79
    regionH: 38
    regionId: 13
    colliderType: 0
    colliderData: []
    boxColliderMin: {x: 0, y: 0}
    boxColliderMax: {x: 0, y: 0}
    polyColliderIslands: []
    polyColliderCap: 1
    colliderConvex: 0
    colliderSmoothSphereCollisions: 0
    colliderColor: 0
    attachPoints: []
  - name: tiles/14
    disableTrimming: 0
    additive: 0
    scale: {x: 1, y: 1, z: 1}
    texture: {fileID: 2800000, guid: b2614a7f3ffbc104b95ad1ea1dd2c883, type: 3}
    materialId: 0
    anchor: 4
    anchorX: 0
    anchorY: 0
    overrideMesh: {fileID: 0}
    doubleSidedSprite: 0
    customSpriteGeometry: 0
    geometryIslands: []
    dice: 0
    diceUnitX: 64
    diceUnitY: 64
    diceFilter: 0
    pad: 1
    extraPadding: 0
    source: 0
    fromSpriteSheet: 0
    hasSpriteSheetId: 1
    spriteSheetId: 0
    spriteSheetX: 2
    spriteSheetY: 2
    extractRegion: 1
    regionX: 160
    regionY: 273
    regionW: 79
    regionH: 38
    regionId: 14
    colliderType: 0
    colliderData: []
    boxColliderMin: {x: 0, y: 0}
    boxColliderMax: {x: 0, y: 0}
    polyColliderIslands: []
    polyColliderCap: 1
    colliderConvex: 0
    colliderSmoothSphereCollisions: 0
    colliderColor: 0
    attachPoints: []
  - name: tiles/15
    disableTrimming: 0
    additive: 0
    scale: {x: 1, y: 1, z: 1}
    texture: {fileID: 2800000, guid: b2614a7f3ffbc104b95ad1ea1dd2c883, type: 3}
    materialId: 0
    anchor: 4
    anchorX: 0
    anchorY: 0
    overrideMesh: {fileID: 0}
    doubleSidedSprite: 0
    customSpriteGeometry: 0
    geometryIslands: []
    dice: 0
    diceUnitX: 64
    diceUnitY: 64
    diceFilter: 0
    pad: 1
    extraPadding: 0
    source: 0
    fromSpriteSheet: 0
    hasSpriteSheetId: 1
    spriteSheetId: 0
    spriteSheetX: 3
    spriteSheetY: 2
    extractRegion: 1
    regionX: 240
    regionY: 273
    regionW: 79
    regionH: 38
    regionId: 15
    colliderType: 0
    colliderData: []
    boxColliderMin: {x: 0, y: 0}
    boxColliderMax: {x: 0, y: 0}
    polyColliderIslands: []
    polyColliderCap: 1
    colliderConvex: 0
    colliderSmoothSphereCollisions: 0
    colliderColor: 0
    attachPoints: []
  - name: tiles/16
    disableTrimming: 0
    additive: 0
    scale: {x: 1, y: 1, z: 1}
    texture: {fileID: 2800000, guid: b2614a7f3ffbc104b95ad1ea1dd2c883, type: 3}
    materialId: 0
    anchor: 4
    anchorX: 0
    anchorY: 0
    overrideMesh: {fileID: 0}
    doubleSidedSprite: 0
    customSpriteGeometry: 0
    geometryIslands: []
    dice: 0
    diceUnitX: 64
    diceUnitY: 64
    diceFilter: 0
    pad: 1
    extraPadding: 0
    source: 0
    fromSpriteSheet: 0
    hasSpriteSheetId: 1
    spriteSheetId: 0
    spriteSheetX: 4
    spriteSheetY: 2
    extractRegion: 1
    regionX: 320
    regionY: 273
    regionW: 79
    regionH: 38
    regionId: 16
    colliderType: 0
    colliderData: []
    boxColliderMin: {x: 0, y: 0}
    boxColliderMax: {x: 0, y: 0}
    polyColliderIslands: []
    polyColliderCap: 1
    colliderConvex: 0
    colliderSmoothSphereCollisions: 0
    colliderColor: 0
    attachPoints: []
  - name: tiles/17
    disableTrimming: 0
    additive: 0
    scale: {x: 1, y: 1, z: 1}
    texture: {fileID: 2800000, guid: b2614a7f3ffbc104b95ad1ea1dd2c883, type: 3}
    materialId: 0
    anchor: 4
    anchorX: 0
    anchorY: 0
    overrideMesh: {fileID: 0}
    doubleSidedSprite: 0
    customSpriteGeometry: 0
    geometryIslands: []
    dice: 0
    diceUnitX: 64
    diceUnitY: 64
    diceFilter: 0
    pad: 1
    extraPadding: 0
    source: 0
    fromSpriteSheet: 0
    hasSpriteSheetId: 1
    spriteSheetId: 0
    spriteSheetX: 5
    spriteSheetY: 2
    extractRegion: 1
    regionX: 400
    regionY: 273
    regionW: 79
    regionH: 38
    regionId: 17
    colliderType: 0
    colliderData: []
    boxColliderMin: {x: 0, y: 0}
    boxColliderMax: {x: 0, y: 0}
    polyColliderIslands: []
    polyColliderCap: 1
    colliderConvex: 0
    colliderSmoothSphereCollisions: 0
    colliderColor: 0
    attachPoints: []
  - name: tiles/18
    disableTrimming: 0
    additive: 0
    scale: {x: 1, y: 1, z: 1}
    texture: {fileID: 2800000, guid: b2614a7f3ffbc104b95ad1ea1dd2c883, type: 3}
    materialId: 0
    anchor: 4
    anchorX: 0
    anchorY: 0
    overrideMesh: {fileID: 0}
    doubleSidedSprite: 0
    customSpriteGeometry: 0
    geometryIslands: []
    dice: 0
    diceUnitX: 64
    diceUnitY: 64
    diceFilter: 0
    pad: 1
    extraPadding: 0
    source: 0
    fromSpriteSheet: 0
    hasSpriteSheetId: 1
    spriteSheetId: 0
    spriteSheetX: 0
    spriteSheetY: 3
    extractRegion: 1
    regionX: 0
    regionY: 234
    regionW: 79
    regionH: 38
    regionId: 18
    colliderType: 0
    colliderData: []
    boxColliderMin: {x: 0, y: 0}
    boxColliderMax: {x: 0, y: 0}
    polyColliderIslands: []
    polyColliderCap: 1
    colliderConvex: 0
    colliderSmoothSphereCollisions: 0
    colliderColor: 0
    attachPoints: []
  - name: tiles/19
    disableTrimming: 0
    additive: 0
    scale: {x: 1, y: 1, z: 1}
    texture: {fileID: 2800000, guid: b2614a7f3ffbc104b95ad1ea1dd2c883, type: 3}
    materialId: 0
    anchor: 4
    anchorX: 0
    anchorY: 0
    overrideMesh: {fileID: 0}
    doubleSidedSprite: 0
    customSpriteGeometry: 0
    geometryIslands: []
    dice: 0
    diceUnitX: 64
    diceUnitY: 64
    diceFilter: 0
    pad: 1
    extraPadding: 0
    source: 0
    fromSpriteSheet: 0
    hasSpriteSheetId: 1
    spriteSheetId: 0
    spriteSheetX: 1
    spriteSheetY: 3
    extractRegion: 1
    regionX: 80
    regionY: 234
    regionW: 79
    regionH: 38
    regionId: 19
    colliderType: 0
    colliderData: []
    boxColliderMin: {x: 0, y: 0}
    boxColliderMax: {x: 0, y: 0}
    polyColliderIslands: []
    polyColliderCap: 1
    colliderConvex: 0
    colliderSmoothSphereCollisions: 0
    colliderColor: 0
    attachPoints: []
  - name: tiles/20
    disableTrimming: 0
    additive: 0
    scale: {x: 1, y: 1, z: 1}
    texture: {fileID: 2800000, guid: b2614a7f3ffbc104b95ad1ea1dd2c883, type: 3}
    materialId: 0
    anchor: 4
    anchorX: 0
    anchorY: 0
    overrideMesh: {fileID: 0}
    doubleSidedSprite: 0
    customSpriteGeometry: 0
    geometryIslands: []
    dice: 0
    diceUnitX: 64
    diceUnitY: 64
    diceFilter: 0
    pad: 1
    extraPadding: 0
    source: 0
    fromSpriteSheet: 0
    hasSpriteSheetId: 1
    spriteSheetId: 0
    spriteSheetX: 2
    spriteSheetY: 3
    extractRegion: 1
    regionX: 160
    regionY: 234
    regionW: 79
    regionH: 38
    regionId: 20
    colliderType: 0
    colliderData: []
    boxColliderMin: {x: 0, y: 0}
    boxColliderMax: {x: 0, y: 0}
    polyColliderIslands: []
    polyColliderCap: 1
    colliderConvex: 0
    colliderSmoothSphereCollisions: 0
    colliderColor: 0
    attachPoints: []
  - name: tiles/21
    disableTrimming: 0
    additive: 0
    scale: {x: 1, y: 1, z: 1}
    texture: {fileID: 2800000, guid: b2614a7f3ffbc104b95ad1ea1dd2c883, type: 3}
    materialId: 0
    anchor: 4
    anchorX: 0
    anchorY: 0
    overrideMesh: {fileID: 0}
    doubleSidedSprite: 0
    customSpriteGeometry: 0
    geometryIslands: []
    dice: 0
    diceUnitX: 64
    diceUnitY: 64
    diceFilter: 0
    pad: 1
    extraPadding: 0
    source: 0
    fromSpriteSheet: 0
    hasSpriteSheetId: 1
    spriteSheetId: 0
    spriteSheetX: 3
    spriteSheetY: 3
    extractRegion: 1
    regionX: 240
    regionY: 234
    regionW: 79
    regionH: 38
    regionId: 21
    colliderType: 0
    colliderData: []
    boxColliderMin: {x: 0, y: 0}
    boxColliderMax: {x: 0, y: 0}
    polyColliderIslands: []
    polyColliderCap: 1
    colliderConvex: 0
    colliderSmoothSphereCollisions: 0
    colliderColor: 0
    attachPoints: []
  - name: tiles/22
    disableTrimming: 0
    additive: 0
    scale: {x: 1, y: 1, z: 1}
    texture: {fileID: 2800000, guid: b2614a7f3ffbc104b95ad1ea1dd2c883, type: 3}
    materialId: 0
    anchor: 4
    anchorX: 0
    anchorY: 0
    overrideMesh: {fileID: 0}
    doubleSidedSprite: 0
    customSpriteGeometry: 0
    geometryIslands: []
    dice: 0
    diceUnitX: 64
    diceUnitY: 64
    diceFilter: 0
    pad: 1
    extraPadding: 0
    source: 0
    fromSpriteSheet: 0
    hasSpriteSheetId: 1
    spriteSheetId: 0
    spriteSheetX: 4
    spriteSheetY: 3
    extractRegion: 1
    regionX: 320
    regionY: 234
    regionW: 79
    regionH: 38
    regionId: 22
    colliderType: 0
    colliderData: []
    boxColliderMin: {x: 0, y: 0}
    boxColliderMax: {x: 0, y: 0}
    polyColliderIslands: []
    polyColliderCap: 1
    colliderConvex: 0
    colliderSmoothSphereCollisions: 0
    colliderColor: 0
    attachPoints: []
  - name: tiles/23
    disableTrimming: 0
    additive: 0
    scale: {x: 1, y: 1, z: 1}
    texture: {fileID: 2800000, guid: b2614a7f3ffbc104b95ad1ea1dd2c883, type: 3}
    materialId: 0
    anchor: 4
    anchorX: 0
    anchorY: 0
    overrideMesh: {fileID: 0}
    doubleSidedSprite: 0
    customSpriteGeometry: 0
    geometryIslands: []
    dice: 0
    diceUnitX: 64
    diceUnitY: 64
    diceFilter: 0
    pad: 1
    extraPadding: 0
    source: 0
    fromSpriteSheet: 0
    hasSpriteSheetId: 1
    spriteSheetId: 0
    spriteSheetX: 5
    spriteSheetY: 3
    extractRegion: 1
    regionX: 400
    regionY: 234
    regionW: 79
    regionH: 38
    regionId: 23
    colliderType: 0
    colliderData: []
    boxColliderMin: {x: 0, y: 0}
    boxColliderMax: {x: 0, y: 0}
    polyColliderIslands: []
    polyColliderCap: 1
    colliderConvex: 0
    colliderSmoothSphereCollisions: 0
    colliderColor: 0
    attachPoints: []
  - name: tiles/24
    disableTrimming: 0
    additive: 0
    scale: {x: 1, y: 1, z: 1}
    texture: {fileID: 2800000, guid: b2614a7f3ffbc104b95ad1ea1dd2c883, type: 3}
    materialId: 0
    anchor: 4
    anchorX: 0
    anchorY: 0
    overrideMesh: {fileID: 0}
    doubleSidedSprite: 0
    customSpriteGeometry: 0
    geometryIslands: []
    dice: 0
    diceUnitX: 64
    diceUnitY: 64
    diceFilter: 0
    pad: 1
    extraPadding: 0
    source: 0
    fromSpriteSheet: 0
    hasSpriteSheetId: 1
    spriteSheetId: 0
    spriteSheetX: 0
    spriteSheetY: 4
    extractRegion: 1
    regionX: 0
    regionY: 195
    regionW: 79
    regionH: 38
    regionId: 24
    colliderType: 0
    colliderData: []
    boxColliderMin: {x: 0, y: 0}
    boxColliderMax: {x: 0, y: 0}
    polyColliderIslands: []
    polyColliderCap: 1
    colliderConvex: 0
    colliderSmoothSphereCollisions: 0
    colliderColor: 0
    attachPoints: []
  - name: tiles/25
    disableTrimming: 0
    additive: 0
    scale: {x: 1, y: 1, z: 1}
    texture: {fileID: 2800000, guid: b2614a7f3ffbc104b95ad1ea1dd2c883, type: 3}
    materialId: 0
    anchor: 4
    anchorX: 0
    anchorY: 0
    overrideMesh: {fileID: 0}
    doubleSidedSprite: 0
    customSpriteGeometry: 0
    geometryIslands: []
    dice: 0
    diceUnitX: 64
    diceUnitY: 64
    diceFilter: 0
    pad: 1
    extraPadding: 0
    source: 0
    fromSpriteSheet: 0
    hasSpriteSheetId: 1
    spriteSheetId: 0
    spriteSheetX: 1
    spriteSheetY: 4
    extractRegion: 1
    regionX: 80
    regionY: 195
    regionW: 79
    regionH: 38
    regionId: 25
    colliderType: 0
    colliderData: []
    boxColliderMin: {x: 0, y: 0}
    boxColliderMax: {x: 0, y: 0}
    polyColliderIslands: []
    polyColliderCap: 1
    colliderConvex: 0
    colliderSmoothSphereCollisions: 0
    colliderColor: 0
    attachPoints: []
  - name: tiles/26
    disableTrimming: 0
    additive: 0
    scale: {x: 1, y: 1, z: 1}
    texture: {fileID: 2800000, guid: b2614a7f3ffbc104b95ad1ea1dd2c883, type: 3}
    materialId: 0
    anchor: 4
    anchorX: 0
    anchorY: 0
    overrideMesh: {fileID: 0}
    doubleSidedSprite: 0
    customSpriteGeometry: 0
    geometryIslands: []
    dice: 0
    diceUnitX: 64
    diceUnitY: 64
    diceFilter: 0
    pad: 1
    extraPadding: 0
    source: 0
    fromSpriteSheet: 0
    hasSpriteSheetId: 1
    spriteSheetId: 0
    spriteSheetX: 2
    spriteSheetY: 4
    extractRegion: 1
    regionX: 160
    regionY: 195
    regionW: 79
    regionH: 38
    regionId: 26
    colliderType: 0
    colliderData: []
    boxColliderMin: {x: 0, y: 0}
    boxColliderMax: {x: 0, y: 0}
    polyColliderIslands: []
    polyColliderCap: 1
    colliderConvex: 0
    colliderSmoothSphereCollisions: 0
    colliderColor: 0
    attachPoints: []
  - name: tiles/27
    disableTrimming: 0
    additive: 0
    scale: {x: 1, y: 1, z: 1}
    texture: {fileID: 2800000, guid: b2614a7f3ffbc104b95ad1ea1dd2c883, type: 3}
    materialId: 0
    anchor: 4
    anchorX: 0
    anchorY: 0
    overrideMesh: {fileID: 0}
    doubleSidedSprite: 0
    customSpriteGeometry: 0
    geometryIslands: []
    dice: 0
    diceUnitX: 64
    diceUnitY: 64
    diceFilter: 0
    pad: 1
    extraPadding: 0
    source: 0
    fromSpriteSheet: 0
    hasSpriteSheetId: 1
    spriteSheetId: 0
    spriteSheetX: 3
    spriteSheetY: 4
    extractRegion: 1
    regionX: 240
    regionY: 195
    regionW: 79
    regionH: 38
    regionId: 27
    colliderType: 0
    colliderData: []
    boxColliderMin: {x: 0, y: 0}
    boxColliderMax: {x: 0, y: 0}
    polyColliderIslands: []
    polyColliderCap: 1
    colliderConvex: 0
    colliderSmoothSphereCollisions: 0
    colliderColor: 0
    attachPoints: []
  - name: tiles/28
    disableTrimming: 0
    additive: 0
    scale: {x: 1, y: 1, z: 1}
    texture: {fileID: 2800000, guid: b2614a7f3ffbc104b95ad1ea1dd2c883, type: 3}
    materialId: 0
    anchor: 4
    anchorX: 0
    anchorY: 0
    overrideMesh: {fileID: 0}
    doubleSidedSprite: 0
    customSpriteGeometry: 0
    geometryIslands: []
    dice: 0
    diceUnitX: 64
    diceUnitY: 64
    diceFilter: 0
    pad: 1
    extraPadding: 0
    source: 0
    fromSpriteSheet: 0
    hasSpriteSheetId: 1
    spriteSheetId: 0
    spriteSheetX: 4
    spriteSheetY: 4
    extractRegion: 1
    regionX: 320
    regionY: 195
    regionW: 79
    regionH: 38
    regionId: 28
    colliderType: 0
    colliderData: []
    boxColliderMin: {x: 0, y: 0}
    boxColliderMax: {x: 0, y: 0}
    polyColliderIslands: []
    polyColliderCap: 1
    colliderConvex: 0
    colliderSmoothSphereCollisions: 0
    colliderColor: 0
    attachPoints: []
  - name: tiles/29
    disableTrimming: 0
    additive: 0
    scale: {x: 1, y: 1, z: 1}
    texture: {fileID: 2800000, guid: b2614a7f3ffbc104b95ad1ea1dd2c883, type: 3}
    materialId: 0
    anchor: 4
    anchorX: 0
    anchorY: 0
    overrideMesh: {fileID: 0}
    doubleSidedSprite: 0
    customSpriteGeometry: 0
    geometryIslands: []
    dice: 0
    diceUnitX: 64
    diceUnitY: 64
    diceFilter: 0
    pad: 1
    extraPadding: 0
    source: 0
    fromSpriteSheet: 0
    hasSpriteSheetId: 1
    spriteSheetId: 0
    spriteSheetX: 5
    spriteSheetY: 4
    extractRegion: 1
    regionX: 400
    regionY: 195
    regionW: 79
    regionH: 38
    regionId: 29
    colliderType: 0
    colliderData: []
    boxColliderMin: {x: 0, y: 0}
    boxColliderMax: {x: 0, y: 0}
    polyColliderIslands: []
    polyColliderCap: 1
    colliderConvex: 0
    colliderSmoothSphereCollisions: 0
    colliderColor: 0
    attachPoints: []
  - name: tiles/30
    disableTrimming: 0
    additive: 0
    scale: {x: 1, y: 1, z: 1}
    texture: {fileID: 2800000, guid: b2614a7f3ffbc104b95ad1ea1dd2c883, type: 3}
    materialId: 0
    anchor: 4
    anchorX: 0
    anchorY: 0
    overrideMesh: {fileID: 0}
    doubleSidedSprite: 0
    customSpriteGeometry: 0
    geometryIslands: []
    dice: 0
    diceUnitX: 64
    diceUnitY: 64
    diceFilter: 0
    pad: 1
    extraPadding: 0
    source: 0
    fromSpriteSheet: 0
    hasSpriteSheetId: 1
    spriteSheetId: 0
    spriteSheetX: 0
    spriteSheetY: 5
    extractRegion: 1
    regionX: 0
    regionY: 156
    regionW: 79
    regionH: 38
    regionId: 30
    colliderType: 0
    colliderData: []
    boxColliderMin: {x: 0, y: 0}
    boxColliderMax: {x: 0, y: 0}
    polyColliderIslands: []
    polyColliderCap: 1
    colliderConvex: 0
    colliderSmoothSphereCollisions: 0
    colliderColor: 0
    attachPoints: []
  - name: tiles/31
    disableTrimming: 0
    additive: 0
    scale: {x: 1, y: 1, z: 1}
    texture: {fileID: 2800000, guid: b2614a7f3ffbc104b95ad1ea1dd2c883, type: 3}
    materialId: 0
    anchor: 4
    anchorX: 0
    anchorY: 0
    overrideMesh: {fileID: 0}
    doubleSidedSprite: 0
    customSpriteGeometry: 0
    geometryIslands: []
    dice: 0
    diceUnitX: 64
    diceUnitY: 64
    diceFilter: 0
    pad: 1
    extraPadding: 0
    source: 0
    fromSpriteSheet: 0
    hasSpriteSheetId: 1
    spriteSheetId: 0
    spriteSheetX: 1
    spriteSheetY: 5
    extractRegion: 1
    regionX: 80
    regionY: 156
    regionW: 79
    regionH: 38
    regionId: 31
    colliderType: 0
    colliderData: []
    boxColliderMin: {x: 0, y: 0}
    boxColliderMax: {x: 0, y: 0}
    polyColliderIslands: []
    polyColliderCap: 1
    colliderConvex: 0
    colliderSmoothSphereCollisions: 0
    colliderColor: 0
    attachPoints: []
  - name: tiles/32
    disableTrimming: 0
    additive: 0
    scale: {x: 1, y: 1, z: 1}
    texture: {fileID: 2800000, guid: b2614a7f3ffbc104b95ad1ea1dd2c883, type: 3}
    materialId: 0
    anchor: 4
    anchorX: 0
    anchorY: 0
    overrideMesh: {fileID: 0}
    doubleSidedSprite: 0
    customSpriteGeometry: 0
    geometryIslands: []
    dice: 0
    diceUnitX: 64
    diceUnitY: 64
    diceFilter: 0
    pad: 1
    extraPadding: 0
    source: 0
    fromSpriteSheet: 0
    hasSpriteSheetId: 1
    spriteSheetId: 0
    spriteSheetX: 2
    spriteSheetY: 5
    extractRegion: 1
    regionX: 160
    regionY: 156
    regionW: 79
    regionH: 38
    regionId: 32
    colliderType: 0
    colliderData: []
    boxColliderMin: {x: 0, y: 0}
    boxColliderMax: {x: 0, y: 0}
    polyColliderIslands: []
    polyColliderCap: 1
    colliderConvex: 0
    colliderSmoothSphereCollisions: 0
    colliderColor: 0
    attachPoints: []
  - name: tiles/33
    disableTrimming: 0
    additive: 0
    scale: {x: 1, y: 1, z: 1}
    texture: {fileID: 2800000, guid: b2614a7f3ffbc104b95ad1ea1dd2c883, type: 3}
    materialId: 0
    anchor: 4
    anchorX: 0
    anchorY: 0
    overrideMesh: {fileID: 0}
    doubleSidedSprite: 0
    customSpriteGeometry: 0
    geometryIslands: []
    dice: 0
    diceUnitX: 64
    diceUnitY: 64
    diceFilter: 0
    pad: 1
    extraPadding: 0
    source: 0
    fromSpriteSheet: 0
    hasSpriteSheetId: 1
    spriteSheetId: 0
    spriteSheetX: 3
    spriteSheetY: 5
    extractRegion: 1
    regionX: 240
    regionY: 156
    regionW: 79
    regionH: 38
    regionId: 33
    colliderType: 0
    colliderData: []
    boxColliderMin: {x: 0, y: 0}
    boxColliderMax: {x: 0, y: 0}
    polyColliderIslands: []
    polyColliderCap: 1
    colliderConvex: 0
    colliderSmoothSphereCollisions: 0
    colliderColor: 0
    attachPoints: []
  - name: tiles/34
    disableTrimming: 0
    additive: 0
    scale: {x: 1, y: 1, z: 1}
    texture: {fileID: 2800000, guid: b2614a7f3ffbc104b95ad1ea1dd2c883, type: 3}
    materialId: 0
    anchor: 4
    anchorX: 0
    anchorY: 0
    overrideMesh: {fileID: 0}
    doubleSidedSprite: 0
    customSpriteGeometry: 0
    geometryIslands: []
    dice: 0
    diceUnitX: 64
    diceUnitY: 64
    diceFilter: 0
    pad: 1
    extraPadding: 0
    source: 0
    fromSpriteSheet: 0
    hasSpriteSheetId: 1
    spriteSheetId: 0
    spriteSheetX: 4
    spriteSheetY: 5
    extractRegion: 1
    regionX: 320
    regionY: 156
    regionW: 79
    regionH: 38
    regionId: 34
    colliderType: 0
    colliderData: []
    boxColliderMin: {x: 0, y: 0}
    boxColliderMax: {x: 0, y: 0}
    polyColliderIslands: []
    polyColliderCap: 1
    colliderConvex: 0
    colliderSmoothSphereCollisions: 0
    colliderColor: 0
    attachPoints: []
  - name: tiles/35
    disableTrimming: 0
    additive: 0
    scale: {x: 1, y: 1, z: 1}
    texture: {fileID: 2800000, guid: b2614a7f3ffbc104b95ad1ea1dd2c883, type: 3}
    materialId: 0
    anchor: 4
    anchorX: 0
    anchorY: 0
    overrideMesh: {fileID: 0}
    doubleSidedSprite: 0
    customSpriteGeometry: 0
    geometryIslands: []
    dice: 0
    diceUnitX: 64
    diceUnitY: 64
    diceFilter: 0
    pad: 1
    extraPadding: 0
    source: 0
    fromSpriteSheet: 0
    hasSpriteSheetId: 1
    spriteSheetId: 0
    spriteSheetX: 5
    spriteSheetY: 5
    extractRegion: 1
    regionX: 400
    regionY: 156
    regionW: 79
    regionH: 38
    regionId: 35
    colliderType: 0
    colliderData: []
    boxColliderMin: {x: 0, y: 0}
    boxColliderMax: {x: 0, y: 0}
    polyColliderIslands: []
    polyColliderCap: 1
    colliderConvex: 0
    colliderSmoothSphereCollisions: 0
    colliderColor: 0
    attachPoints: []
  - name: tiles/36
    disableTrimming: 0
    additive: 0
    scale: {x: 1, y: 1, z: 1}
    texture: {fileID: 2800000, guid: b2614a7f3ffbc104b95ad1ea1dd2c883, type: 3}
    materialId: 0
    anchor: 4
    anchorX: 0
    anchorY: 0
    overrideMesh: {fileID: 0}
    doubleSidedSprite: 0
    customSpriteGeometry: 0
    geometryIslands: []
    dice: 0
    diceUnitX: 64
    diceUnitY: 64
    diceFilter: 0
    pad: 1
    extraPadding: 0
    source: 0
    fromSpriteSheet: 0
    hasSpriteSheetId: 1
    spriteSheetId: 0
    spriteSheetX: 0
    spriteSheetY: 6
    extractRegion: 1
    regionX: 0
    regionY: 117
    regionW: 79
    regionH: 38
    regionId: 36
    colliderType: 0
    colliderData: []
    boxColliderMin: {x: 0, y: 0}
    boxColliderMax: {x: 0, y: 0}
    polyColliderIslands: []
    polyColliderCap: 1
    colliderConvex: 0
    colliderSmoothSphereCollisions: 0
    colliderColor: 0
    attachPoints: []
  - name: tiles/37
    disableTrimming: 0
    additive: 0
    scale: {x: 1, y: 1, z: 1}
    texture: {fileID: 2800000, guid: b2614a7f3ffbc104b95ad1ea1dd2c883, type: 3}
    materialId: 0
    anchor: 4
    anchorX: 0
    anchorY: 0
    overrideMesh: {fileID: 0}
    doubleSidedSprite: 0
    customSpriteGeometry: 0
    geometryIslands: []
    dice: 0
    diceUnitX: 64
    diceUnitY: 64
    diceFilter: 0
    pad: 1
    extraPadding: 0
    source: 0
    fromSpriteSheet: 0
    hasSpriteSheetId: 1
    spriteSheetId: 0
    spriteSheetX: 1
    spriteSheetY: 6
    extractRegion: 1
    regionX: 80
    regionY: 117
    regionW: 79
    regionH: 38
    regionId: 37
    colliderType: 0
    colliderData: []
    boxColliderMin: {x: 0, y: 0}
    boxColliderMax: {x: 0, y: 0}
    polyColliderIslands: []
    polyColliderCap: 1
    colliderConvex: 0
    colliderSmoothSphereCollisions: 0
    colliderColor: 0
    attachPoints: []
  - name: tiles/38
    disableTrimming: 0
    additive: 0
    scale: {x: 1, y: 1, z: 1}
    texture: {fileID: 2800000, guid: b2614a7f3ffbc104b95ad1ea1dd2c883, type: 3}
    materialId: 0
    anchor: 4
    anchorX: 0
    anchorY: 0
    overrideMesh: {fileID: 0}
    doubleSidedSprite: 0
    customSpriteGeometry: 0
    geometryIslands: []
    dice: 0
    diceUnitX: 64
    diceUnitY: 64
    diceFilter: 0
    pad: 1
    extraPadding: 0
    source: 0
    fromSpriteSheet: 0
    hasSpriteSheetId: 1
    spriteSheetId: 0
    spriteSheetX: 2
    spriteSheetY: 6
    extractRegion: 1
    regionX: 160
    regionY: 117
    regionW: 79
    regionH: 38
    regionId: 38
    colliderType: 0
    colliderData: []
    boxColliderMin: {x: 0, y: 0}
    boxColliderMax: {x: 0, y: 0}
    polyColliderIslands: []
    polyColliderCap: 1
    colliderConvex: 0
    colliderSmoothSphereCollisions: 0
    colliderColor: 0
    attachPoints: []
  - name: tiles/39
    disableTrimming: 0
    additive: 0
    scale: {x: 1, y: 1, z: 1}
    texture: {fileID: 2800000, guid: b2614a7f3ffbc104b95ad1ea1dd2c883, type: 3}
    materialId: 0
    anchor: 4
    anchorX: 0
    anchorY: 0
    overrideMesh: {fileID: 0}
    doubleSidedSprite: 0
    customSpriteGeometry: 0
    geometryIslands: []
    dice: 0
    diceUnitX: 64
    diceUnitY: 64
    diceFilter: 0
    pad: 1
    extraPadding: 0
    source: 0
    fromSpriteSheet: 0
    hasSpriteSheetId: 1
    spriteSheetId: 0
    spriteSheetX: 3
    spriteSheetY: 6
    extractRegion: 1
    regionX: 240
    regionY: 117
    regionW: 79
    regionH: 38
    regionId: 39
    colliderType: 0
    colliderData: []
    boxColliderMin: {x: 0, y: 0}
    boxColliderMax: {x: 0, y: 0}
    polyColliderIslands: []
    polyColliderCap: 1
    colliderConvex: 0
    colliderSmoothSphereCollisions: 0
    colliderColor: 0
    attachPoints: []
  - name: tiles/40
    disableTrimming: 0
    additive: 0
    scale: {x: 1, y: 1, z: 1}
    texture: {fileID: 2800000, guid: b2614a7f3ffbc104b95ad1ea1dd2c883, type: 3}
    materialId: 0
    anchor: 4
    anchorX: 0
    anchorY: 0
    overrideMesh: {fileID: 0}
    doubleSidedSprite: 0
    customSpriteGeometry: 0
    geometryIslands: []
    dice: 0
    diceUnitX: 64
    diceUnitY: 64
    diceFilter: 0
    pad: 1
    extraPadding: 0
    source: 0
    fromSpriteSheet: 0
    hasSpriteSheetId: 1
    spriteSheetId: 0
    spriteSheetX: 4
    spriteSheetY: 6
    extractRegion: 1
    regionX: 320
    regionY: 117
    regionW: 79
    regionH: 38
    regionId: 40
    colliderType: 0
    colliderData: []
    boxColliderMin: {x: 0, y: 0}
    boxColliderMax: {x: 0, y: 0}
    polyColliderIslands: []
    polyColliderCap: 1
    colliderConvex: 0
    colliderSmoothSphereCollisions: 0
    colliderColor: 0
    attachPoints: []
  - name: tiles/41
    disableTrimming: 0
    additive: 0
    scale: {x: 1, y: 1, z: 1}
    texture: {fileID: 2800000, guid: b2614a7f3ffbc104b95ad1ea1dd2c883, type: 3}
    materialId: 0
    anchor: 4
    anchorX: 0
    anchorY: 0
    overrideMesh: {fileID: 0}
    doubleSidedSprite: 0
    customSpriteGeometry: 0
    geometryIslands: []
    dice: 0
    diceUnitX: 64
    diceUnitY: 64
    diceFilter: 0
    pad: 1
    extraPadding: 0
    source: 0
    fromSpriteSheet: 0
    hasSpriteSheetId: 1
    spriteSheetId: 0
    spriteSheetX: 5
    spriteSheetY: 6
    extractRegion: 1
    regionX: 400
    regionY: 117
    regionW: 79
    regionH: 38
    regionId: 41
    colliderType: 0
    colliderData: []
    boxColliderMin: {x: 0, y: 0}
    boxColliderMax: {x: 0, y: 0}
    polyColliderIslands: []
    polyColliderCap: 1
    colliderConvex: 0
    colliderSmoothSphereCollisions: 0
    colliderColor: 0
    attachPoints: []
  - name: tiles/42
    disableTrimming: 0
    additive: 0
    scale: {x: 1, y: 1, z: 1}
    texture: {fileID: 2800000, guid: b2614a7f3ffbc104b95ad1ea1dd2c883, type: 3}
    materialId: 0
    anchor: 4
    anchorX: 0
    anchorY: 0
    overrideMesh: {fileID: 0}
    doubleSidedSprite: 0
    customSpriteGeometry: 0
    geometryIslands: []
    dice: 0
    diceUnitX: 64
    diceUnitY: 64
    diceFilter: 0
    pad: 1
    extraPadding: 0
    source: 0
    fromSpriteSheet: 0
    hasSpriteSheetId: 1
    spriteSheetId: 0
    spriteSheetX: 0
    spriteSheetY: 7
    extractRegion: 1
    regionX: 0
    regionY: 78
    regionW: 79
    regionH: 38
    regionId: 42
    colliderType: 0
    colliderData: []
    boxColliderMin: {x: 0, y: 0}
    boxColliderMax: {x: 0, y: 0}
    polyColliderIslands: []
    polyColliderCap: 1
    colliderConvex: 0
    colliderSmoothSphereCollisions: 0
    colliderColor: 0
    attachPoints: []
  - name: tiles/43
    disableTrimming: 0
    additive: 0
    scale: {x: 1, y: 1, z: 1}
    texture: {fileID: 2800000, guid: b2614a7f3ffbc104b95ad1ea1dd2c883, type: 3}
    materialId: 0
    anchor: 4
    anchorX: 0
    anchorY: 0
    overrideMesh: {fileID: 0}
    doubleSidedSprite: 0
    customSpriteGeometry: 0
    geometryIslands: []
    dice: 0
    diceUnitX: 64
    diceUnitY: 64
    diceFilter: 0
    pad: 1
    extraPadding: 0
    source: 0
    fromSpriteSheet: 0
    hasSpriteSheetId: 1
    spriteSheetId: 0
    spriteSheetX: 1
    spriteSheetY: 7
    extractRegion: 1
    regionX: 80
    regionY: 78
    regionW: 79
    regionH: 38
    regionId: 43
    colliderType: 0
    colliderData: []
    boxColliderMin: {x: 0, y: 0}
    boxColliderMax: {x: 0, y: 0}
    polyColliderIslands: []
    polyColliderCap: 1
    colliderConvex: 0
    colliderSmoothSphereCollisions: 0
    colliderColor: 0
    attachPoints: []
  - name: tiles/44
    disableTrimming: 0
    additive: 0
    scale: {x: 1, y: 1, z: 1}
    texture: {fileID: 2800000, guid: b2614a7f3ffbc104b95ad1ea1dd2c883, type: 3}
    materialId: 0
    anchor: 4
    anchorX: 0
    anchorY: 0
    overrideMesh: {fileID: 0}
    doubleSidedSprite: 0
    customSpriteGeometry: 0
    geometryIslands: []
    dice: 0
    diceUnitX: 64
    diceUnitY: 64
    diceFilter: 0
    pad: 1
    extraPadding: 0
    source: 0
    fromSpriteSheet: 0
    hasSpriteSheetId: 1
    spriteSheetId: 0
    spriteSheetX: 2
    spriteSheetY: 7
    extractRegion: 1
    regionX: 160
    regionY: 78
    regionW: 79
    regionH: 38
    regionId: 44
    colliderType: 0
    colliderData: []
    boxColliderMin: {x: 0, y: 0}
    boxColliderMax: {x: 0, y: 0}
    polyColliderIslands: []
    polyColliderCap: 1
    colliderConvex: 0
    colliderSmoothSphereCollisions: 0
    colliderColor: 0
    attachPoints: []
  - name: tiles/45
    disableTrimming: 0
    additive: 0
    scale: {x: 1, y: 1, z: 1}
    texture: {fileID: 2800000, guid: b2614a7f3ffbc104b95ad1ea1dd2c883, type: 3}
    materialId: 0
    anchor: 4
    anchorX: 0
    anchorY: 0
    overrideMesh: {fileID: 0}
    doubleSidedSprite: 0
    customSpriteGeometry: 0
    geometryIslands: []
    dice: 0
    diceUnitX: 64
    diceUnitY: 64
    diceFilter: 0
    pad: 1
    extraPadding: 0
    source: 0
    fromSpriteSheet: 0
    hasSpriteSheetId: 1
    spriteSheetId: 0
    spriteSheetX: 3
    spriteSheetY: 7
    extractRegion: 1
    regionX: 240
    regionY: 78
    regionW: 79
    regionH: 38
    regionId: 45
    colliderType: 0
    colliderData: []
    boxColliderMin: {x: 0, y: 0}
    boxColliderMax: {x: 0, y: 0}
    polyColliderIslands: []
    polyColliderCap: 1
    colliderConvex: 0
    colliderSmoothSphereCollisions: 0
    colliderColor: 0
    attachPoints: []
  - name: tiles/46
    disableTrimming: 0
    additive: 0
    scale: {x: 1, y: 1, z: 1}
    texture: {fileID: 2800000, guid: b2614a7f3ffbc104b95ad1ea1dd2c883, type: 3}
    materialId: 0
    anchor: 4
    anchorX: 0
    anchorY: 0
    overrideMesh: {fileID: 0}
    doubleSidedSprite: 0
    customSpriteGeometry: 0
    geometryIslands: []
    dice: 0
    diceUnitX: 64
    diceUnitY: 64
    diceFilter: 0
    pad: 1
    extraPadding: 0
    source: 0
    fromSpriteSheet: 0
    hasSpriteSheetId: 1
    spriteSheetId: 0
    spriteSheetX: 4
    spriteSheetY: 7
    extractRegion: 1
    regionX: 320
    regionY: 78
    regionW: 79
    regionH: 38
    regionId: 46
    colliderType: 0
    colliderData: []
    boxColliderMin: {x: 0, y: 0}
    boxColliderMax: {x: 0, y: 0}
    polyColliderIslands: []
    polyColliderCap: 1
    colliderConvex: 0
    colliderSmoothSphereCollisions: 0
    colliderColor: 0
    attachPoints: []
  - name: tiles/47
    disableTrimming: 0
    additive: 0
    scale: {x: 1, y: 1, z: 1}
    texture: {fileID: 2800000, guid: b2614a7f3ffbc104b95ad1ea1dd2c883, type: 3}
    materialId: 0
    anchor: 4
    anchorX: 0
    anchorY: 0
    overrideMesh: {fileID: 0}
    doubleSidedSprite: 0
    customSpriteGeometry: 0
    geometryIslands: []
    dice: 0
    diceUnitX: 64
    diceUnitY: 64
    diceFilter: 0
    pad: 1
    extraPadding: 0
    source: 0
    fromSpriteSheet: 0
    hasSpriteSheetId: 1
    spriteSheetId: 0
    spriteSheetX: 5
    spriteSheetY: 7
    extractRegion: 1
    regionX: 400
    regionY: 78
    regionW: 79
    regionH: 38
    regionId: 47
    colliderType: 0
    colliderData: []
    boxColliderMin: {x: 0, y: 0}
    boxColliderMax: {x: 0, y: 0}
    polyColliderIslands: []
    polyColliderCap: 1
    colliderConvex: 0
    colliderSmoothSphereCollisions: 0
    colliderColor: 0
    attachPoints: []
  - name: tiles/48
    disableTrimming: 0
    additive: 0
    scale: {x: 1, y: 1, z: 1}
    texture: {fileID: 2800000, guid: b2614a7f3ffbc104b95ad1ea1dd2c883, type: 3}
    materialId: 0
    anchor: 4
    anchorX: 0
    anchorY: 0
    overrideMesh: {fileID: 0}
    doubleSidedSprite: 0
    customSpriteGeometry: 0
    geometryIslands: []
    dice: 0
    diceUnitX: 64
    diceUnitY: 64
    diceFilter: 0
    pad: 1
    extraPadding: 0
    source: 0
    fromSpriteSheet: 0
    hasSpriteSheetId: 1
    spriteSheetId: 0
    spriteSheetX: 0
    spriteSheetY: 8
    extractRegion: 1
    regionX: 0
    regionY: 39
    regionW: 79
    regionH: 38
    regionId: 48
    colliderType: 0
    colliderData: []
    boxColliderMin: {x: 0, y: 0}
    boxColliderMax: {x: 0, y: 0}
    polyColliderIslands: []
    polyColliderCap: 1
    colliderConvex: 0
    colliderSmoothSphereCollisions: 0
    colliderColor: 0
    attachPoints: []
  - name: tiles/49
    disableTrimming: 0
    additive: 0
    scale: {x: 1, y: 1, z: 1}
    texture: {fileID: 2800000, guid: b2614a7f3ffbc104b95ad1ea1dd2c883, type: 3}
    materialId: 0
    anchor: 4
    anchorX: 0
    anchorY: 0
    overrideMesh: {fileID: 0}
    doubleSidedSprite: 0
    customSpriteGeometry: 0
    geometryIslands: []
    dice: 0
    diceUnitX: 64
    diceUnitY: 64
    diceFilter: 0
    pad: 1
    extraPadding: 0
    source: 0
    fromSpriteSheet: 0
    hasSpriteSheetId: 1
    spriteSheetId: 0
    spriteSheetX: 1
    spriteSheetY: 8
    extractRegion: 1
    regionX: 80
    regionY: 39
    regionW: 79
    regionH: 38
    regionId: 49
    colliderType: 0
    colliderData: []
    boxColliderMin: {x: 0, y: 0}
    boxColliderMax: {x: 0, y: 0}
    polyColliderIslands: []
    polyColliderCap: 1
    colliderConvex: 0
    colliderSmoothSphereCollisions: 0
    colliderColor: 0
    attachPoints: []
  - name: tiles/50
    disableTrimming: 0
    additive: 0
    scale: {x: 1, y: 1, z: 1}
    texture: {fileID: 2800000, guid: b2614a7f3ffbc104b95ad1ea1dd2c883, type: 3}
    materialId: 0
    anchor: 4
    anchorX: 0
    anchorY: 0
    overrideMesh: {fileID: 0}
    doubleSidedSprite: 0
    customSpriteGeometry: 0
    geometryIslands: []
    dice: 0
    diceUnitX: 64
    diceUnitY: 64
    diceFilter: 0
    pad: 1
    extraPadding: 0
    source: 0
    fromSpriteSheet: 0
    hasSpriteSheetId: 1
    spriteSheetId: 0
    spriteSheetX: 2
    spriteSheetY: 8
    extractRegion: 1
    regionX: 160
    regionY: 39
    regionW: 79
    regionH: 38
    regionId: 50
    colliderType: 0
    colliderData: []
    boxColliderMin: {x: 0, y: 0}
    boxColliderMax: {x: 0, y: 0}
    polyColliderIslands: []
    polyColliderCap: 1
    colliderConvex: 0
    colliderSmoothSphereCollisions: 0
    colliderColor: 0
    attachPoints: []
  - name: tiles/51
    disableTrimming: 0
    additive: 0
    scale: {x: 1, y: 1, z: 1}
    texture: {fileID: 2800000, guid: b2614a7f3ffbc104b95ad1ea1dd2c883, type: 3}
    materialId: 0
    anchor: 4
    anchorX: 0
    anchorY: 0
    overrideMesh: {fileID: 0}
    doubleSidedSprite: 0
    customSpriteGeometry: 0
    geometryIslands: []
    dice: 0
    diceUnitX: 64
    diceUnitY: 64
    diceFilter: 0
    pad: 1
    extraPadding: 0
    source: 0
    fromSpriteSheet: 0
    hasSpriteSheetId: 1
    spriteSheetId: 0
    spriteSheetX: 3
    spriteSheetY: 8
    extractRegion: 1
    regionX: 240
    regionY: 39
    regionW: 79
    regionH: 38
    regionId: 51
    colliderType: 0
    colliderData: []
    boxColliderMin: {x: 0, y: 0}
    boxColliderMax: {x: 0, y: 0}
    polyColliderIslands: []
    polyColliderCap: 1
    colliderConvex: 0
    colliderSmoothSphereCollisions: 0
    colliderColor: 0
    attachPoints: []
  - name: tiles/52
    disableTrimming: 0
    additive: 0
    scale: {x: 1, y: 1, z: 1}
    texture: {fileID: 2800000, guid: b2614a7f3ffbc104b95ad1ea1dd2c883, type: 3}
    materialId: 0
    anchor: 4
    anchorX: 0
    anchorY: 0
    overrideMesh: {fileID: 0}
    doubleSidedSprite: 0
    customSpriteGeometry: 0
    geometryIslands: []
    dice: 0
    diceUnitX: 64
    diceUnitY: 64
    diceFilter: 0
    pad: 1
    extraPadding: 0
    source: 0
    fromSpriteSheet: 0
    hasSpriteSheetId: 1
    spriteSheetId: 0
    spriteSheetX: 4
    spriteSheetY: 8
    extractRegion: 1
    regionX: 320
    regionY: 39
    regionW: 79
    regionH: 38
    regionId: 52
    colliderType: 0
    colliderData: []
    boxColliderMin: {x: 0, y: 0}
    boxColliderMax: {x: 0, y: 0}
    polyColliderIslands: []
    polyColliderCap: 1
    colliderConvex: 0
    colliderSmoothSphereCollisions: 0
    colliderColor: 0
    attachPoints: []
  - name: tiles/53
    disableTrimming: 0
    additive: 0
    scale: {x: 1, y: 1, z: 1}
    texture: {fileID: 2800000, guid: b2614a7f3ffbc104b95ad1ea1dd2c883, type: 3}
    materialId: 0
    anchor: 4
    anchorX: 0
    anchorY: 0
    overrideMesh: {fileID: 0}
    doubleSidedSprite: 0
    customSpriteGeometry: 0
    geometryIslands: []
    dice: 0
    diceUnitX: 64
    diceUnitY: 64
    diceFilter: 0
    pad: 1
    extraPadding: 0
    source: 0
    fromSpriteSheet: 0
    hasSpriteSheetId: 1
    spriteSheetId: 0
    spriteSheetX: 5
    spriteSheetY: 8
    extractRegion: 1
    regionX: 400
    regionY: 39
    regionW: 79
    regionH: 38
    regionId: 53
    colliderType: 0
    colliderData: []
    boxColliderMin: {x: 0, y: 0}
    boxColliderMax: {x: 0, y: 0}
    polyColliderIslands: []
    polyColliderCap: 1
    colliderConvex: 0
    colliderSmoothSphereCollisions: 0
    colliderColor: 0
    attachPoints: []
  - name: tiles/54
    disableTrimming: 0
    additive: 0
    scale: {x: 1, y: 1, z: 1}
    texture: {fileID: 2800000, guid: b2614a7f3ffbc104b95ad1ea1dd2c883, type: 3}
    materialId: 0
    anchor: 4
    anchorX: 0
    anchorY: 0
    overrideMesh: {fileID: 0}
    doubleSidedSprite: 0
    customSpriteGeometry: 0
    geometryIslands: []
    dice: 0
    diceUnitX: 64
    diceUnitY: 64
    diceFilter: 0
    pad: 1
    extraPadding: 0
    source: 0
    fromSpriteSheet: 0
    hasSpriteSheetId: 1
    spriteSheetId: 0
    spriteSheetX: 0
    spriteSheetY: 9
    extractRegion: 1
    regionX: 0
    regionY: 0
    regionW: 79
    regionH: 38
    regionId: 54
    colliderType: 0
    colliderData: []
    boxColliderMin: {x: 0, y: 0}
    boxColliderMax: {x: 0, y: 0}
    polyColliderIslands: []
    polyColliderCap: 1
    colliderConvex: 0
    colliderSmoothSphereCollisions: 0
    colliderColor: 0
    attachPoints: []
  - name: tiles/55
    disableTrimming: 0
    additive: 0
    scale: {x: 1, y: 1, z: 1}
    texture: {fileID: 2800000, guid: b2614a7f3ffbc104b95ad1ea1dd2c883, type: 3}
    materialId: 0
    anchor: 4
    anchorX: 0
    anchorY: 0
    overrideMesh: {fileID: 0}
    doubleSidedSprite: 0
    customSpriteGeometry: 0
    geometryIslands: []
    dice: 0
    diceUnitX: 64
    diceUnitY: 64
    diceFilter: 0
    pad: 1
    extraPadding: 0
    source: 0
    fromSpriteSheet: 0
    hasSpriteSheetId: 1
    spriteSheetId: 0
    spriteSheetX: 1
    spriteSheetY: 9
    extractRegion: 1
    regionX: 80
    regionY: 0
    regionW: 79
    regionH: 38
    regionId: 55
    colliderType: 0
    colliderData: []
    boxColliderMin: {x: 0, y: 0}
    boxColliderMax: {x: 0, y: 0}
    polyColliderIslands: []
    polyColliderCap: 1
    colliderConvex: 0
    colliderSmoothSphereCollisions: 0
    colliderColor: 0
    attachPoints: []
  - name: tiles/56
    disableTrimming: 0
    additive: 0
    scale: {x: 1, y: 1, z: 1}
    texture: {fileID: 2800000, guid: b2614a7f3ffbc104b95ad1ea1dd2c883, type: 3}
    materialId: 0
    anchor: 4
    anchorX: 0
    anchorY: 0
    overrideMesh: {fileID: 0}
    doubleSidedSprite: 0
    customSpriteGeometry: 0
    geometryIslands: []
    dice: 0
    diceUnitX: 64
    diceUnitY: 64
    diceFilter: 0
    pad: 1
    extraPadding: 0
    source: 0
    fromSpriteSheet: 0
    hasSpriteSheetId: 1
    spriteSheetId: 0
    spriteSheetX: 2
    spriteSheetY: 9
    extractRegion: 1
    regionX: 160
    regionY: 0
    regionW: 79
    regionH: 38
    regionId: 56
    colliderType: 0
    colliderData: []
    boxColliderMin: {x: 0, y: 0}
    boxColliderMax: {x: 0, y: 0}
    polyColliderIslands: []
    polyColliderCap: 1
    colliderConvex: 0
    colliderSmoothSphereCollisions: 0
    colliderColor: 0
    attachPoints: []
  - name: tiles/57
    disableTrimming: 0
    additive: 0
    scale: {x: 1, y: 1, z: 1}
    texture: {fileID: 2800000, guid: b2614a7f3ffbc104b95ad1ea1dd2c883, type: 3}
    materialId: 0
    anchor: 4
    anchorX: 0
    anchorY: 0
    overrideMesh: {fileID: 0}
    doubleSidedSprite: 0
    customSpriteGeometry: 0
    geometryIslands: []
    dice: 0
    diceUnitX: 64
    diceUnitY: 64
    diceFilter: 0
    pad: 1
    extraPadding: 0
    source: 0
    fromSpriteSheet: 0
    hasSpriteSheetId: 1
    spriteSheetId: 0
    spriteSheetX: 3
    spriteSheetY: 9
    extractRegion: 1
    regionX: 240
    regionY: 0
    regionW: 79
    regionH: 38
    regionId: 57
    colliderType: 0
    colliderData: []
    boxColliderMin: {x: 0, y: 0}
    boxColliderMax: {x: 0, y: 0}
    polyColliderIslands: []
    polyColliderCap: 1
    colliderConvex: 0
    colliderSmoothSphereCollisions: 0
    colliderColor: 0
    attachPoints: []
  - name: tiles/58
    disableTrimming: 0
    additive: 0
    scale: {x: 1, y: 1, z: 1}
    texture: {fileID: 2800000, guid: b2614a7f3ffbc104b95ad1ea1dd2c883, type: 3}
    materialId: 0
    anchor: 4
    anchorX: 0
    anchorY: 0
    overrideMesh: {fileID: 0}
    doubleSidedSprite: 0
    customSpriteGeometry: 0
    geometryIslands: []
    dice: 0
    diceUnitX: 64
    diceUnitY: 64
    diceFilter: 0
    pad: 1
    extraPadding: 0
    source: 0
    fromSpriteSheet: 0
    hasSpriteSheetId: 1
    spriteSheetId: 0
    spriteSheetX: 4
    spriteSheetY: 9
    extractRegion: 1
    regionX: 320
    regionY: 0
    regionW: 79
    regionH: 38
    regionId: 58
    colliderType: 0
    colliderData: []
    boxColliderMin: {x: 0, y: 0}
    boxColliderMax: {x: 0, y: 0}
    polyColliderIslands: []
    polyColliderCap: 1
    colliderConvex: 0
    colliderSmoothSphereCollisions: 0
    colliderColor: 0
    attachPoints: []
  - name: tiles/59
    disableTrimming: 0
    additive: 0
    scale: {x: 1, y: 1, z: 1}
    texture: {fileID: 2800000, guid: b2614a7f3ffbc104b95ad1ea1dd2c883, type: 3}
    materialId: 0
    anchor: 4
    anchorX: 0
    anchorY: 0
    overrideMesh: {fileID: 0}
    doubleSidedSprite: 0
    customSpriteGeometry: 0
    geometryIslands: []
    dice: 0
    diceUnitX: 64
    diceUnitY: 64
    diceFilter: 0
    pad: 1
    extraPadding: 0
    source: 0
    fromSpriteSheet: 0
    hasSpriteSheetId: 1
    spriteSheetId: 0
    spriteSheetX: 5
    spriteSheetY: 9
    extractRegion: 1
    regionX: 400
    regionY: 0
    regionW: 79
    regionH: 38
    regionId: 59
    colliderType: 0
    colliderData: []
    boxColliderMin: {x: 0, y: 0}
    boxColliderMax: {x: 0, y: 0}
    polyColliderIslands: []
    polyColliderCap: 1
    colliderConvex: 0
    colliderSmoothSphereCollisions: 0
    colliderColor: 0
    attachPoints: []
  spriteCollection: {fileID: 114685432291573356, guid: 5e09dfb90c5b2dc4eb5da4f7157d1a5b,
    type: 2}
  premultipliedAlpha: 0
  altMaterials:
  - {fileID: 2100000, guid: eed915fc12268a14ab4b6552a673d3d8, type: 2}
  atlasMaterials:
  - {fileID: 2100000, guid: eed915fc12268a14ab4b6552a673d3d8, type: 2}
  atlasTextures:
  - {fileID: 2800000, guid: a3581c5da784a254196efa10b0b0d667, type: 3}
  atlasTextureFiles: []
  useTk2dCamera: 0
  targetHeight: 640
  targetOrthoSize: 10
  sizeDef:
    type: 1
    orthoSize: 10
    pixelsPerMeter: 100
    width: 960
    height: 640
  globalScale: 1
  globalTextureRescale: 1
  attachPointTestSprites: []
  pixelPerfectPointSampled: 0
  filterMode: 1
  wrapMode: 1
  userDefinedTextureSettings: 0
  mipmapEnabled: 0
  anisoLevel: 1
  physicsEngine: 0
  physicsDepth: 0.1
  disableTrimming: 0
  disableRotation: 0
  normalGenerationMode: 0
  padAmount: -1
  autoUpdate: 1
  editorDisplayScale: 1
  version: 4
  assetName: 
  linkedSpriteCollections: []
