%YAML 1.1
%TAG !u! tag:unity3d.com,2011:
--- !u!1001 &100100000
Prefab:
  m_ObjectHideFlags: 1
  serializedVersion: 2
  m_Modification:
    m_TransformParent: {fileID: 0}
    m_Modifications: []
    m_RemovedComponents: []
  m_ParentPrefab: {fileID: 0}
  m_RootGameObject: {fileID: 1609359568514554}
  m_IsPrefabParent: 1
--- !u!1 &1609359568514554
GameObject:
  m_ObjectHideFlags: 0
  m_PrefabParentObject: {fileID: 0}
  m_PrefabInternal: {fileID: 100100000}
  serializedVersion: 5
  m_Component:
  - component: {fileID: 4973089366836974}
  - component: {fileID: 114480009216053796}
  m_Layer: 0
  m_Name: explosion
  m_TagString: Untagged
  m_Icon: {fileID: 0}
  m_NavMeshLayer: 0
  m_StaticEditorFlags: 0
  m_IsActive: 1
--- !u!4 &4973089366836974
Transform:
  m_ObjectHideFlags: 1
  m_PrefabParentObject: {fileID: 0}
  m_PrefabInternal: {fileID: 100100000}
  m_GameObject: {fileID: 1609359568514554}
  m_LocalRotation: {x: 0, y: 0, z: 0, w: 1}
  m_LocalPosition: {x: 0, y: 0, z: 0}
  m_LocalScale: {x: 1, y: 1, z: 1}
  m_Children: []
  m_Father: {fileID: 0}
  m_RootOrder: 0
  m_LocalEulerAnglesHint: {x: 0, y: 0, z: 0}
--- !u!114 &114480009216053796
MonoBehaviour:
  m_ObjectHideFlags: 1
  m_PrefabParentObject: {fileID: 0}
  m_PrefabInternal: {fileID: 100100000}
  m_GameObject: {fileID: 1609359568514554}
  m_Enabled: 1
  m_EditorHideFlags: 0
  m_Script: {fileID: 11500000, guid: d546f34a90531a14eaba82a43b05b86b, type: 3}
  m_Name: 
  m_EditorClassIdentifier: 
  version: 3
  materialIdsValid: 1
  needMaterialInstance: 0
  spriteDefinitions:
  - name: firesmoke1
    boundsData:
    - {x: 0, y: 0, z: 0}
    - {x: 0.45999998, y: 0.35999998, z: 0}
    untrimmedBoundsData:
    - {x: 0, y: 0, z: 0}
    - {x: 0.45999998, y: 0.35999998, z: 0}
    texelSize: {x: 0.01, y: 0.01}
    positions:
    - {x: -0.22999999, y: -0.17999999, z: 0}
    - {x: 0.22999999, y: -0.17999999, z: 0}
    - {x: -0.22999999, y: 0.17999999, z: 0}
    - {x: 0.22999999, y: 0.17999999, z: 0}
    normals: []
    tangents: []
    uvs:
    - {x: 0.82812893, y: 0.10937695}
    - {x: 0.82812893, y: 0.1992168}
    - {x: 0.96874607, y: 0.10937695}
    - {x: 0.96874607, y: 0.1992168}
    normalizedUvs:
    - {x: 0, y: 0}
    - {x: 0, y: 1}
    - {x: 1, y: 0}
    - {x: 1, y: 1}
    indices: 000000000300000001000000020000000300000000000000
    material: {fileID: 2100000, guid: 1a4ff591a39d47d4092270d34ff197b5, type: 2}
    materialId: 0
    sourceTextureGUID: 54257175d54ebaf4f9f3a649ebd23e48
    extractRegion: 0
    regionX: 0
    regionY: 0
    regionW: 0
    regionH: 0
    flipped: 1
    complexGeometry: 0
    physicsEngine: 0
    colliderType: 0
    customColliders: []
    colliderVertices: []
    colliderIndicesFwd: 
    colliderIndicesBack: 
    colliderConvex: 0
    colliderSmoothSphereCollisions: 0
    polygonCollider2D: []
    edgeCollider2D: []
    attachPoints: []
  - name: firesmoke2
    boundsData:
    - {x: 0, y: -0.004999995, z: 0}
    - {x: 0.52, y: 0.45, z: 0}
    untrimmedBoundsData:
    - {x: 0, y: -0.004999995, z: 0}
    - {x: 0.52, y: 0.45, z: 0}
    texelSize: {x: 0.01, y: 0.01}
    positions:
    - {x: -0.26, y: -0.22999999, z: 0}
    - {x: 0.26, y: -0.22999999, z: 0}
    - {x: -0.26, y: 0.22, z: 0}
    - {x: 0.26, y: 0.22, z: 0}
    normals: []
    tangents: []
    uvs:
    - {x: 0.41797265, y: 0.41406447}
    - {x: 0.6210898, y: 0.41406447}
    - {x: 0.41797265, y: 0.50195116}
    - {x: 0.6210898, y: 0.50195116}
    normalizedUvs:
    - {x: 0, y: 0}
    - {x: 1, y: 0}
    - {x: 0, y: 1}
    - {x: 1, y: 1}
    indices: 000000000300000001000000020000000300000000000000
    material: {fileID: 2100000, guid: 1a4ff591a39d47d4092270d34ff197b5, type: 2}
    materialId: 0
    sourceTextureGUID: 3a76a79042d4df34ab6db39d5ea89f8a
    extractRegion: 0
    regionX: 0
    regionY: 0
    regionW: 0
    regionH: 0
    flipped: 0
    complexGeometry: 0
    physicsEngine: 0
    colliderType: 0
    customColliders: []
    colliderVertices: []
    colliderIndicesFwd: 
    colliderIndicesBack: 
    colliderConvex: 0
    colliderSmoothSphereCollisions: 0
    polygonCollider2D: []
    edgeCollider2D: []
    attachPoints: []
  - name: firesmoke3
    boundsData:
    - {x: 0, y: 0, z: 0}
    - {x: 0.5, y: 0.38, z: 0}
    untrimmedBoundsData:
    - {x: 0, y: 0, z: 0}
    - {x: 0.5, y: 0.38, z: 0}
    texelSize: {x: 0.01, y: 0.01}
    positions:
    - {x: -0.25, y: -0.19, z: 0}
    - {x: 0.25, y: -0.19, z: 0}
    - {x: -0.25, y: 0.19, z: 0}
    - {x: 0.25, y: 0.19, z: 0}
    normals: []
    tangents: []
    uvs:
    - {x: 0.82812893, y: 0.003908203}
    - {x: 0.82812893, y: 0.10156055}
    - {x: 0.97655857, y: 0.003908203}
    - {x: 0.97655857, y: 0.10156055}
    normalizedUvs:
    - {x: 0, y: 0}
    - {x: 0, y: 1}
    - {x: 1, y: 0}
    - {x: 1, y: 1}
    indices: 000000000300000001000000020000000300000000000000
    material: {fileID: 2100000, guid: 1a4ff591a39d47d4092270d34ff197b5, type: 2}
    materialId: 0
    sourceTextureGUID: 4d117298ba1ff314981356a1847bf68e
    extractRegion: 0
    regionX: 0
    regionY: 0
    regionW: 0
    regionH: 0
    flipped: 1
    complexGeometry: 0
    physicsEngine: 0
    colliderType: 0
    customColliders: []
    colliderVertices: []
    colliderIndicesFwd: 
    colliderIndicesBack: 
    colliderConvex: 0
    colliderSmoothSphereCollisions: 0
    polygonCollider2D: []
    edgeCollider2D: []
    attachPoints: []
  - name: firesmoke4
    boundsData:
    - {x: 0.004999995, y: 0, z: 0}
    - {x: 0.35, y: 0.32, z: 0}
    untrimmedBoundsData:
    - {x: 0.004999995, y: 0, z: 0}
    - {x: 0.35, y: 0.32, z: 0}
    texelSize: {x: 0.01, y: 0.01}
    positions:
    - {x: -0.17, y: -0.16, z: 0}
    - {x: 0.17999999, y: -0.16, z: 0}
    - {x: -0.17, y: 0.16, z: 0}
    - {x: 0.17999999, y: 0.16, z: 0}
    normals: []
    tangents: []
    uvs:
    - {x: 0.82812893, y: 0.2070332}
    - {x: 0.9648398, y: 0.2070332}
    - {x: 0.82812893, y: 0.26952928}
    - {x: 0.9648398, y: 0.26952928}
    normalizedUvs:
    - {x: 0, y: 0}
    - {x: 1, y: 0}
    - {x: 0, y: 1}
    - {x: 1, y: 1}
    indices: 000000000300000001000000020000000300000000000000
    material: {fileID: 2100000, guid: 1a4ff591a39d47d4092270d34ff197b5, type: 2}
    materialId: 0
    sourceTextureGUID: 54e1a3eeb2556784799d58d4a67df374
    extractRegion: 0
    regionX: 0
    regionY: 0
    regionW: 0
    regionH: 0
    flipped: 0
    complexGeometry: 0
    physicsEngine: 0
    colliderType: 0
    customColliders: []
    colliderVertices: []
    colliderIndicesFwd: 
    colliderIndicesBack: 
    colliderConvex: 0
    colliderSmoothSphereCollisions: 0
    polygonCollider2D: []
    edgeCollider2D: []
    attachPoints: []
  - name: firesmoke5
    boundsData:
    - {x: 0.0050000027, y: -0.004999995, z: 0}
    - {x: 0.21, y: 0.19, z: 0}
    untrimmedBoundsData:
    - {x: 0.0050000027, y: -0.004999995, z: 0}
    - {x: 0.21, y: 0.19, z: 0}
    texelSize: {x: 0.01, y: 0.01}
    positions:
    - {x: -0.099999994, y: -0.099999994, z: 0}
    - {x: 0.11, y: -0.099999994, z: 0}
    - {x: -0.099999994, y: 0.09, z: 0}
    - {x: 0.11, y: 0.09, z: 0}
    normals: []
    tangents: []
    uvs:
    - {x: 0.82812893, y: 0.37890822}
    - {x: 0.9101523, y: 0.37890822}
    - {x: 0.82812893, y: 0.41601366}
    - {x: 0.9101523, y: 0.41601366}
    normalizedUvs:
    - {x: 0, y: 0}
    - {x: 1, y: 0}
    - {x: 0, y: 1}
    - {x: 1, y: 1}
    indices: 000000000300000001000000020000000300000000000000
    material: {fileID: 2100000, guid: 1a4ff591a39d47d4092270d34ff197b5, type: 2}
    materialId: 0
    sourceTextureGUID: f0d962d6f8ccc384f96f6e1adda61115
    extractRegion: 0
    regionX: 0
    regionY: 0
    regionW: 0
    regionH: 0
    flipped: 0
    complexGeometry: 0
    physicsEngine: 0
    colliderType: 0
    customColliders: []
    colliderVertices: []
    colliderIndicesFwd: 
    colliderIndicesBack: 
    colliderConvex: 0
    colliderSmoothSphereCollisions: 0
    polygonCollider2D: []
    edgeCollider2D: []
    attachPoints: []
  - name: smoke1
    boundsData:
    - {x: 0.00500001, y: -0.0050000027, z: 0}
    - {x: 0.31, y: 0.22999999, z: 0}
    untrimmedBoundsData:
    - {x: 0.00500001, y: -0.0050000027, z: 0}
    - {x: 0.31, y: 0.22999999, z: 0}
    texelSize: {x: 0.01, y: 0.01}
    positions:
    - {x: -0.14999999, y: -0.12, z: 0}
    - {x: 0.16000001, y: -0.12, z: 0}
    - {x: -0.14999999, y: 0.10999999, z: 0}
    - {x: 0.16000001, y: 0.10999999, z: 0}
    normals: []
    tangents: []
    uvs:
    - {x: 0.82812893, y: 0.27734572}
    - {x: 0.9492148, y: 0.27734572}
    - {x: 0.82812893, y: 0.32226366}
    - {x: 0.9492148, y: 0.32226366}
    normalizedUvs:
    - {x: 0, y: 0}
    - {x: 1, y: 0}
    - {x: 0, y: 1}
    - {x: 1, y: 1}
    indices: 000000000300000001000000020000000300000000000000
    material: {fileID: 2100000, guid: 1a4ff591a39d47d4092270d34ff197b5, type: 2}
    materialId: 0
    sourceTextureGUID: 082f37341f4ca6446af3c3e91ee01411
    extractRegion: 0
    regionX: 0
    regionY: 0
    regionW: 0
    regionH: 0
    flipped: 0
    complexGeometry: 0
    physicsEngine: 0
    colliderType: 0
    customColliders: []
    colliderVertices: []
    colliderIndicesFwd: 
    colliderIndicesBack: 
    colliderConvex: 0
    colliderSmoothSphereCollisions: 0
    polygonCollider2D: []
    edgeCollider2D: []
    attachPoints: []
  - name: smoke2
    boundsData:
    - {x: 0.004999995, y: -0.0050000027, z: 0}
    - {x: 0.29, y: 0.21, z: 0}
    untrimmedBoundsData:
    - {x: 0.004999995, y: -0.0050000027, z: 0}
    - {x: 0.29, y: 0.21, z: 0}
    texelSize: {x: 0.01, y: 0.01}
    positions:
    - {x: -0.14, y: -0.11, z: 0}
    - {x: 0.14999999, y: -0.11, z: 0}
    - {x: -0.14, y: 0.099999994, z: 0}
    - {x: 0.14999999, y: 0.099999994, z: 0}
    normals: []
    tangents: []
    uvs:
    - {x: 0.82812893, y: 0.3300801}
    - {x: 0.9414023, y: 0.3300801}
    - {x: 0.82812893, y: 0.37109178}
    - {x: 0.9414023, y: 0.37109178}
    normalizedUvs:
    - {x: 0, y: 0}
    - {x: 1, y: 0}
    - {x: 0, y: 1}
    - {x: 1, y: 1}
    indices: 000000000300000001000000020000000300000000000000
    material: {fileID: 2100000, guid: 1a4ff591a39d47d4092270d34ff197b5, type: 2}
    materialId: 0
    sourceTextureGUID: 1e7e21f6735d08e42b82b33335440914
    extractRegion: 0
    regionX: 0
    regionY: 0
    regionW: 0
    regionH: 0
    flipped: 0
    complexGeometry: 0
    physicsEngine: 0
    colliderType: 0
    customColliders: []
    colliderVertices: []
    colliderIndicesFwd: 
    colliderIndicesBack: 
    colliderConvex: 0
    colliderSmoothSphereCollisions: 0
    polygonCollider2D: []
    edgeCollider2D: []
    attachPoints: []
  - name: smoke3
    boundsData:
    - {x: 0.0050000027, y: -0.004999995, z: 0}
    - {x: 0.21, y: 0.19, z: 0}
    untrimmedBoundsData:
    - {x: 0.0050000027, y: -0.004999995, z: 0}
    - {x: 0.21, y: 0.19, z: 0}
    texelSize: {x: 0.01, y: 0.01}
    positions:
    - {x: -0.099999994, y: -0.099999994, z: 0}
    - {x: 0.11, y: -0.099999994, z: 0}
    - {x: -0.099999994, y: 0.09, z: 0}
    - {x: 0.11, y: 0.09, z: 0}
    normals: []
    tangents: []
    uvs:
    - {x: 0.6367227, y: 0.41406447}
    - {x: 0.71874607, y: 0.41406447}
    - {x: 0.6367227, y: 0.4511699}
    - {x: 0.71874607, y: 0.4511699}
    normalizedUvs:
    - {x: 0, y: 0}
    - {x: 1, y: 0}
    - {x: 0, y: 1}
    - {x: 1, y: 1}
    indices: 000000000300000001000000020000000300000000000000
    material: {fileID: 2100000, guid: 1a4ff591a39d47d4092270d34ff197b5, type: 2}
    materialId: 0
    sourceTextureGUID: a7e086510526d5f42b674386bcb1121d
    extractRegion: 0
    regionX: 0
    regionY: 0
    regionW: 0
    regionH: 0
    flipped: 0
    complexGeometry: 0
    physicsEngine: 0
    colliderType: 0
    customColliders: []
    colliderVertices: []
    colliderIndicesFwd: 
    colliderIndicesBack: 
    colliderConvex: 0
    colliderSmoothSphereCollisions: 0
    polygonCollider2D: []
    edgeCollider2D: []
    attachPoints: []
  - name: smoke4
    boundsData:
    - {x: 0.004999997, y: 0, z: 0}
    - {x: 0.13, y: 0.099999994, z: 0}
    untrimmedBoundsData:
    - {x: 0.004999997, y: 0, z: 0}
    - {x: 0.13, y: 0.099999994, z: 0}
    texelSize: {x: 0.01, y: 0.01}
    positions:
    - {x: -0.06, y: -0.049999997, z: 0}
    - {x: 0.06999999, y: -0.049999997, z: 0}
    - {x: -0.06, y: 0.049999997, z: 0}
    - {x: 0.06999999, y: 0.049999997, z: 0}
    normals: []
    tangents: []
    uvs:
    - {x: 0.9257852, y: 0.37890822}
    - {x: 0.97655857, y: 0.37890822}
    - {x: 0.9257852, y: 0.39843553}
    - {x: 0.97655857, y: 0.39843553}
    normalizedUvs:
    - {x: 0, y: 0}
    - {x: 1, y: 0}
    - {x: 0, y: 1}
    - {x: 1, y: 1}
    indices: 000000000300000001000000020000000300000000000000
    material: {fileID: 2100000, guid: 1a4ff591a39d47d4092270d34ff197b5, type: 2}
    materialId: 0
    sourceTextureGUID: 63d2b15730b79d945a566203124606c6
    extractRegion: 0
    regionX: 0
    regionY: 0
    regionW: 0
    regionH: 0
    flipped: 0
    complexGeometry: 0
    physicsEngine: 0
    colliderType: 0
    customColliders: []
    colliderVertices: []
    colliderIndicesFwd: 
    colliderIndicesBack: 
    colliderConvex: 0
    colliderSmoothSphereCollisions: 0
    polygonCollider2D: []
    edgeCollider2D: []
    attachPoints: []
  - name: smoke5
    boundsData:
    - {x: 0, y: -0.004999999, z: 0}
    - {x: 0.08, y: 0.07, z: 0}
    untrimmedBoundsData:
    - {x: 0, y: -0.004999999, z: 0}
    - {x: 0.08, y: 0.07, z: 0}
    texelSize: {x: 0.01, y: 0.01}
    positions:
    - {x: -0.04, y: -0.04, z: 0}
    - {x: 0.04, y: -0.04, z: 0}
    - {x: -0.04, y: 0.030000001, z: 0}
    - {x: 0.04, y: 0.030000001, z: 0}
    normals: []
    tangents: []
    uvs:
    - {x: 0.9648477, y: 0.27734572}
    - {x: 0.9648477, y: 0.29296678}
    - {x: 0.99218357, y: 0.27734572}
    - {x: 0.99218357, y: 0.29296678}
    normalizedUvs:
    - {x: 0, y: 0}
    - {x: 0, y: 1}
    - {x: 1, y: 0}
    - {x: 1, y: 1}
    indices: 000000000300000001000000020000000300000000000000
    material: {fileID: 2100000, guid: 1a4ff591a39d47d4092270d34ff197b5, type: 2}
    materialId: 0
    sourceTextureGUID: 4d2399ac0978ae041a0708c790048833
    extractRegion: 0
    regionX: 0
    regionY: 0
    regionW: 0
    regionH: 0
    flipped: 1
    complexGeometry: 0
    physicsEngine: 0
    colliderType: 0
    customColliders: []
    colliderVertices: []
    colliderIndicesFwd: 
    colliderIndicesBack: 
    colliderConvex: 0
    colliderSmoothSphereCollisions: 0
    polygonCollider2D: []
    edgeCollider2D: []
    attachPoints: []
  - name: white boom 1
    boundsData:
    - {x: 0.004999995, y: -0.004999995, z: 0}
    - {x: 1.01, y: 1.01, z: 0}
    untrimmedBoundsData:
    - {x: 0.004999995, y: -0.004999995, z: 0}
    - {x: 1.01, y: 1.01, z: 0}
    texelSize: {x: 0.01, y: 0.01}
    positions:
    - {x: -0.5, y: -0.51, z: 0}
    - {x: 0.51, y: -0.51, z: 0}
    - {x: -0.5, y: 0.5, z: 0}
    - {x: 0.51, y: 0.5, z: 0}
    normals: []
    tangents: []
    uvs:
    - {x: 0.007816406, y: 0.003908203}
    - {x: 0.40233985, y: 0.003908203}
    - {x: 0.007816406, y: 0.20116992}
    - {x: 0.40233985, y: 0.20116992}
    normalizedUvs:
    - {x: 0, y: 0}
    - {x: 1, y: 0}
    - {x: 0, y: 1}
    - {x: 1, y: 1}
    indices: 000000000300000001000000020000000300000000000000
    material: {fileID: 2100000, guid: 1a4ff591a39d47d4092270d34ff197b5, type: 2}
    materialId: 0
    sourceTextureGUID: 371fa353211fe1c409f99b5e9d2e2e63
    extractRegion: 0
    regionX: 0
    regionY: 0
    regionW: 0
    regionH: 0
    flipped: 0
    complexGeometry: 0
    physicsEngine: 0
    colliderType: 0
    customColliders: []
    colliderVertices: []
    colliderIndicesFwd: 
    colliderIndicesBack: 
    colliderConvex: 0
    colliderSmoothSphereCollisions: 0
    polygonCollider2D: []
    edgeCollider2D: []
    attachPoints: []
  - name: white boom 2
    boundsData:
    - {x: 0.004999995, y: -0.004999995, z: 0}
    - {x: 1.01, y: 1.01, z: 0}
    untrimmedBoundsData:
    - {x: 0.004999995, y: -0.004999995, z: 0}
    - {x: 1.01, y: 1.01, z: 0}
    texelSize: {x: 0.01, y: 0.01}
    positions:
    - {x: -0.5, y: -0.51, z: 0}
    - {x: 0.51, y: -0.51, z: 0}
    - {x: -0.5, y: 0.5, z: 0}
    - {x: 0.51, y: 0.5, z: 0}
    normals: []
    tangents: []
    uvs:
    - {x: 0.41797265, y: 0.003908203}
    - {x: 0.81249607, y: 0.003908203}
    - {x: 0.41797265, y: 0.20116992}
    - {x: 0.81249607, y: 0.20116992}
    normalizedUvs:
    - {x: 0, y: 0}
    - {x: 1, y: 0}
    - {x: 0, y: 1}
    - {x: 1, y: 1}
    indices: 000000000300000001000000020000000300000000000000
    material: {fileID: 2100000, guid: 1a4ff591a39d47d4092270d34ff197b5, type: 2}
    materialId: 0
    sourceTextureGUID: 7d9ea1db72696b542a060938bc07e478
    extractRegion: 0
    regionX: 0
    regionY: 0
    regionW: 0
    regionH: 0
    flipped: 0
    complexGeometry: 0
    physicsEngine: 0
    colliderType: 0
    customColliders: []
    colliderVertices: []
    colliderIndicesFwd: 
    colliderIndicesBack: 
    colliderConvex: 0
    colliderSmoothSphereCollisions: 0
    polygonCollider2D: []
    edgeCollider2D: []
    attachPoints: []
  - name: white boom 4
    boundsData:
    - {x: 0.004999995, y: -0.004999995, z: 0}
    - {x: 1.01, y: 1.01, z: 0}
    untrimmedBoundsData:
    - {x: 0.004999995, y: -0.004999995, z: 0}
    - {x: 1.01, y: 1.01, z: 0}
    texelSize: {x: 0.01, y: 0.01}
    positions:
    - {x: -0.5, y: -0.51, z: 0}
    - {x: 0.51, y: -0.51, z: 0}
    - {x: -0.5, y: 0.5, z: 0}
    - {x: 0.51, y: 0.5, z: 0}
    normals: []
    tangents: []
    uvs:
    - {x: 0.007816406, y: 0.20898633}
    - {x: 0.40233985, y: 0.20898633}
    - {x: 0.007816406, y: 0.40624803}
    - {x: 0.40233985, y: 0.40624803}
    normalizedUvs:
    - {x: 0, y: 0}
    - {x: 1, y: 0}
    - {x: 0, y: 1}
    - {x: 1, y: 1}
    indices: 000000000300000001000000020000000300000000000000
    material: {fileID: 2100000, guid: 1a4ff591a39d47d4092270d34ff197b5, type: 2}
    materialId: 0
    sourceTextureGUID: 3d3728ae0d782724cbd85d008c98f199
    extractRegion: 0
    regionX: 0
    regionY: 0
    regionW: 0
    regionH: 0
    flipped: 0
    complexGeometry: 0
    physicsEngine: 0
    colliderType: 0
    customColliders: []
    colliderVertices: []
    colliderIndicesFwd: 
    colliderIndicesBack: 
    colliderConvex: 0
    colliderSmoothSphereCollisions: 0
    polygonCollider2D: []
    edgeCollider2D: []
    attachPoints: []
  - name: white boom 5
    boundsData:
    - {x: 0.004999995, y: -0.004999995, z: 0}
    - {x: 1.01, y: 1.01, z: 0}
    untrimmedBoundsData:
    - {x: 0.004999995, y: -0.004999995, z: 0}
    - {x: 1.01, y: 1.01, z: 0}
    texelSize: {x: 0.01, y: 0.01}
    positions:
    - {x: -0.5, y: -0.51, z: 0}
    - {x: 0.51, y: -0.51, z: 0}
    - {x: -0.5, y: 0.5, z: 0}
    - {x: 0.51, y: 0.5, z: 0}
    normals: []
    tangents: []
    uvs:
    - {x: 0.41797265, y: 0.20898633}
    - {x: 0.81249607, y: 0.20898633}
    - {x: 0.41797265, y: 0.40624803}
    - {x: 0.81249607, y: 0.40624803}
    normalizedUvs:
    - {x: 0, y: 0}
    - {x: 1, y: 0}
    - {x: 0, y: 1}
    - {x: 1, y: 1}
    indices: 000000000300000001000000020000000300000000000000
    material: {fileID: 2100000, guid: 1a4ff591a39d47d4092270d34ff197b5, type: 2}
    materialId: 0
    sourceTextureGUID: cdbaadd6cce5e6f4b92489edd82c21c4
    extractRegion: 0
    regionX: 0
    regionY: 0
    regionW: 0
    regionH: 0
    flipped: 0
    complexGeometry: 0
    physicsEngine: 0
    colliderType: 0
    customColliders: []
    colliderVertices: []
    colliderIndicesFwd: 
    colliderIndicesBack: 
    colliderConvex: 0
    colliderSmoothSphereCollisions: 0
    polygonCollider2D: []
    edgeCollider2D: []
    attachPoints: []
  - name: whiteboom 3
    boundsData:
    - {x: 0.004999995, y: -0.004999995, z: 0}
    - {x: 1.01, y: 1.01, z: 0}
    untrimmedBoundsData:
    - {x: 0.004999995, y: -0.004999995, z: 0}
    - {x: 1.01, y: 1.01, z: 0}
    texelSize: {x: 0.01, y: 0.01}
    positions:
    - {x: -0.5, y: -0.51, z: 0}
    - {x: 0.51, y: -0.51, z: 0}
    - {x: -0.5, y: 0.5, z: 0}
    - {x: 0.51, y: 0.5, z: 0}
    normals: []
    tangents: []
    uvs:
    - {x: 0.007816406, y: 0.41406447}
    - {x: 0.40233985, y: 0.41406447}
    - {x: 0.007816406, y: 0.61132616}
    - {x: 0.40233985, y: 0.61132616}
    normalizedUvs:
    - {x: 0, y: 0}
    - {x: 1, y: 0}
    - {x: 0, y: 1}
    - {x: 1, y: 1}
    indices: 000000000300000001000000020000000300000000000000
    material: {fileID: 2100000, guid: 1a4ff591a39d47d4092270d34ff197b5, type: 2}
    materialId: 0
    sourceTextureGUID: 2bb647835cacfb149a225103e7228c03
    extractRegion: 0
    regionX: 0
    regionY: 0
    regionW: 0
    regionH: 0
    flipped: 0
    complexGeometry: 0
    physicsEngine: 0
    colliderType: 0
    customColliders: []
    colliderVertices: []
    colliderIndicesFwd: 
    colliderIndicesBack: 
    colliderConvex: 0
    colliderSmoothSphereCollisions: 0
    polygonCollider2D: []
    edgeCollider2D: []
    attachPoints: []
  premultipliedAlpha: 1
  material: {fileID: 0}
  materials:
  - {fileID: 2100000, guid: 1a4ff591a39d47d4092270d34ff197b5, type: 2}
  textures:
  - {fileID: 2800000, guid: e64f58b22095ac344ae4156e121727be, type: 3}
  pngTextures: []
  materialPngTextureId: 00000000
  textureFilterMode: 1
  textureMipMaps: 0
  allowMultipleAtlases: 0
  spriteCollectionGUID: d55dd1a40c610b244892863332dcd957
  spriteCollectionName: explosion
  assetName: 
  loadable: 0
  invOrthoSize: 2
  halfTargetHeight: 50
  buildKey: 1574709276
  dataGuid: aa9551a44b01e9e40839bfabe1b65a7f
  managedSpriteCollection: 0
  hasPlatformData: 0
  spriteCollectionPlatforms: []
  spriteCollectionPlatformGUIDs: []
