%YAML 1.1
%TAG !u! tag:unity3d.com,2011:
--- !u!1001 &100100000
Prefab:
  m_ObjectHideFlags: 1
  serializedVersion: 2
  m_Modification:
    m_TransformParent: {fileID: 0}
    m_Modifications: []
    m_RemovedComponents: []
  m_ParentPrefab: {fileID: 0}
  m_RootGameObject: {fileID: 1000010088078972}
  m_IsPrefabParent: 1
--- !u!1 &1000010088078972
GameObject:
  m_ObjectHideFlags: 0
  m_PrefabParentObject: {fileID: 0}
  m_PrefabInternal: {fileID: 100100000}
  serializedVersion: 4
  m_Component:
  - 4: {fileID: 4000010536090918}
  - 114: {fileID: 114000012586962400}
  m_Layer: 0
  m_Name: fish
  m_TagString: Untagged
  m_Icon: {fileID: 0}
  m_NavMeshLayer: 0
  m_StaticEditorFlags: 0
  m_IsActive: 1
--- !u!4 &4000010536090918
Transform:
  m_ObjectHideFlags: 1
  m_PrefabParentObject: {fileID: 0}
  m_PrefabInternal: {fileID: 100100000}
  m_GameObject: {fileID: 1000010088078972}
  m_LocalRotation: {x: 0, y: 0, z: 0, w: 1}
  m_LocalPosition: {x: 0, y: 0, z: 0}
  m_LocalScale: {x: 1, y: 1, z: 1}
  m_LocalEulerAnglesHint: {x: 0, y: 0, z: 0}
  m_Children: []
  m_Father: {fileID: 0}
  m_RootOrder: 0
--- !u!114 &114000012586962400
MonoBehaviour:
  m_ObjectHideFlags: 1
  m_PrefabParentObject: {fileID: 0}
  m_PrefabInternal: {fileID: 100100000}
  m_GameObject: {fileID: 1000010088078972}
  m_Enabled: 1
  m_EditorHideFlags: 0
  m_Script: {fileID: 11500000, guid: d546f34a90531a14eaba82a43b05b86b, type: 3}
  m_Name: 
  m_EditorClassIdentifier: 
  version: 3
  materialIdsValid: 1
  needMaterialInstance: 0
  spriteDefinitions:
  - name: fishbody
    boundsData:
    - {x: 0.0050000027, y: 0, z: 0}
    - {x: 0.11, y: 0.19999999, z: 0}
    untrimmedBoundsData:
    - {x: 0.0050000027, y: 0, z: 0}
    - {x: 0.11, y: 0.19999999, z: 0}
    texelSize: {x: 0.01, y: 0.01}
    positions:
    - {x: -0.049999997, y: -0.099999994, z: 0}
    - {x: 0.060000002, y: -0.099999994, z: 0}
    - {x: -0.049999997, y: 0.099999994, z: 0}
    - {x: 0.060000002, y: 0.099999994, z: 0}
    normals: []
    tangents: []
    uvs:
    - {x: 0.06253125, y: 0.06253125}
    - {x: 0.40621874, y: 0.06253125}
    - {x: 0.06253125, y: 0.68746877}
    - {x: 0.40621874, y: 0.68746877}
    normalizedUvs:
    - {x: 0, y: 0}
    - {x: 1, y: 0}
    - {x: 0, y: 1}
    - {x: 1, y: 1}
    indices: 000000000300000001000000020000000300000000000000
    material: {fileID: 2100000, guid: 79ea690e1b3e9d44fbb121e04d090f9e, type: 2}
    materialId: 0
    sourceTextureGUID: 78d74ac376e870c4890b86b1e9016635
    extractRegion: 0
    regionX: 0
    regionY: 0
    regionW: 0
    regionH: 0
    flipped: 0
    complexGeometry: 0
    physicsEngine: 0
    colliderType: 0
    customColliders: []
    colliderVertices: []
    colliderIndicesFwd: 
    colliderIndicesBack: 
    colliderConvex: 0
    colliderSmoothSphereCollisions: 0
    polygonCollider2D: []
    edgeCollider2D: []
    attachPoints: []
  - name: fishfin
    boundsData:
    - {x: 0.004999997, y: 0, z: 0}
    - {x: 0.13, y: 0.099999994, z: 0}
    untrimmedBoundsData:
    - {x: 0.004999997, y: 0, z: 0}
    - {x: 0.13, y: 0.099999994, z: 0}
    texelSize: {x: 0.01, y: 0.01}
    positions:
    - {x: -0.06, y: -0.049999997, z: 0}
    - {x: 0.06999999, y: -0.049999997, z: 0}
    - {x: -0.06, y: 0.049999997, z: 0}
    - {x: 0.06999999, y: 0.049999997, z: 0}
    normals: []
    tangents: []
    uvs:
    - {x: 0.53128123, y: 0.06253125}
    - {x: 0.93746877, y: 0.06253125}
    - {x: 0.53128123, y: 0.37496874}
    - {x: 0.93746877, y: 0.37496874}
    normalizedUvs:
    - {x: 0, y: 0}
    - {x: 1, y: 0}
    - {x: 0, y: 1}
    - {x: 1, y: 1}
    indices: 000000000300000001000000020000000300000000000000
    material: {fileID: 2100000, guid: 79ea690e1b3e9d44fbb121e04d090f9e, type: 2}
    materialId: 0
    sourceTextureGUID: 0b20392a5e5ca4a4cb3a0b42d99e453b
    extractRegion: 0
    regionX: 0
    regionY: 0
    regionW: 0
    regionH: 0
    flipped: 0
    complexGeometry: 0
    physicsEngine: 0
    colliderType: 0
    customColliders: []
    colliderVertices: []
    colliderIndicesFwd: 
    colliderIndicesBack: 
    colliderConvex: 0
    colliderSmoothSphereCollisions: 0
    polygonCollider2D: []
    edgeCollider2D: []
    attachPoints: []
  premultipliedAlpha: 1
  material: {fileID: 0}
  materials:
  - {fileID: 2100000, guid: 79ea690e1b3e9d44fbb121e04d090f9e, type: 2}
  textures:
  - {fileID: 2800000, guid: 843132b0542211544b4c4dc48835af56, type: 3}
  pngTextures: []
  materialPngTextureId: 00000000
  textureFilterMode: 1
  textureMipMaps: 0
  allowMultipleAtlases: 0
  spriteCollectionGUID: 2544cd209d97afa4e82ea5bf2cc8ec44
  spriteCollectionName: fish
  assetName: 
  loadable: 0
  invOrthoSize: 2
  halfTargetHeight: 50
  buildKey: 628976879
  dataGuid: 7f163b54c6196854b9ee1e0d2219eec8
  managedSpriteCollection: 0
  hasPlatformData: 0
  spriteCollectionPlatforms: []
  spriteCollectionPlatformGUIDs: []
