%YAML 1.1
%TAG !u! tag:unity3d.com,2011:
--- !u!1001 &100100000
Prefab:
  m_ObjectHideFlags: 1
  serializedVersion: 2
  m_Modification:
    m_TransformParent: {fileID: 0}
    m_Modifications: []
    m_RemovedComponents: []
  m_ParentPrefab: {fileID: 0}
  m_RootGameObject: {fileID: 1488293183282366}
  m_IsPrefabParent: 1
--- !u!1 &1488293183282366
GameObject:
  m_ObjectHideFlags: 0
  m_PrefabParentObject: {fileID: 0}
  m_PrefabInternal: {fileID: 100100000}
  serializedVersion: 5
  m_Component:
  - component: {fileID: 4613953666103932}
  - component: {fileID: 114241353055867436}
  m_Layer: 0
  m_Name: MainMenu
  m_TagString: Untagged
  m_Icon: {fileID: 0}
  m_NavMeshLayer: 0
  m_StaticEditorFlags: 0
  m_IsActive: 1
--- !u!4 &4613953666103932
Transform:
  m_ObjectHideFlags: 1
  m_PrefabParentObject: {fileID: 0}
  m_PrefabInternal: {fileID: 100100000}
  m_GameObject: {fileID: 1488293183282366}
  m_LocalRotation: {x: 0, y: 0, z: 0, w: 1}
  m_LocalPosition: {x: 0, y: 0, z: 0}
  m_LocalScale: {x: 1, y: 1, z: 1}
  m_Children: []
  m_Father: {fileID: 0}
  m_RootOrder: 0
  m_LocalEulerAnglesHint: {x: 0, y: 0, z: 0}
--- !u!114 &114241353055867436
MonoBehaviour:
  m_ObjectHideFlags: 1
  m_PrefabParentObject: {fileID: 0}
  m_PrefabInternal: {fileID: 100100000}
  m_GameObject: {fileID: 1488293183282366}
  m_Enabled: 1
  m_EditorHideFlags: 0
  m_Script: {fileID: 11500000, guid: d546f34a90531a14eaba82a43b05b86b, type: 3}
  m_Name: 
  m_EditorClassIdentifier: 
  version: 3
  materialIdsValid: 1
  needMaterialInstance: 0
  spriteDefinitions:
  - name: 1player
    boundsData:
    - {x: 0, y: 0, z: 0}
    - {x: 1.0799999, y: 0.97999996, z: 0}
    untrimmedBoundsData:
    - {x: 0, y: 0, z: 0}
    - {x: 1.0799999, y: 0.97999996, z: 0}
    texelSize: {x: 0.01, y: 0.01}
    positions:
    - {x: -0.53999996, y: -0.48999998, z: 0}
    - {x: 0.53999996, y: -0.48999998, z: 0}
    - {x: -0.53999996, y: 0.48999998, z: 0}
    - {x: 0.53999996, y: 0.48999998, z: 0}
    normals: []
    tangents: []
    uvs:
    - {x: 0.24951221, y: 0.91992235}
    - {x: 0.24951221, y: 0.9726558}
    - {x: 0.2973628, y: 0.91992235}
    - {x: 0.2973628, y: 0.9726558}
    normalizedUvs:
    - {x: 0, y: 0}
    - {x: 0, y: 1}
    - {x: 1, y: 0}
    - {x: 1, y: 1}
    indices: 000000000300000001000000020000000300000000000000
    material: {fileID: 2100000, guid: e3349cea3df294941a1911299aa634b3, type: 2}
    materialId: 0
    sourceTextureGUID: bcdb9a9dd47a53d49b7b06da35464564
    extractRegion: 0
    regionX: 0
    regionY: 0
    regionW: 0
    regionH: 0
    flipped: 1
    complexGeometry: 0
    physicsEngine: 0
    colliderType: 0
    customColliders: []
    colliderVertices: []
    colliderIndicesFwd: 
    colliderIndicesBack: 
    colliderConvex: 0
    colliderSmoothSphereCollisions: 0
    polygonCollider2D: []
    edgeCollider2D: []
    attachPoints: []
  - name: 2player
    boundsData:
    - {x: 0, y: 0, z: 0}
    - {x: 2.06, y: 0.97999996, z: 0}
    untrimmedBoundsData:
    - {x: 0, y: 0, z: 0}
    - {x: 2.06, y: 0.97999996, z: 0}
    texelSize: {x: 0.01, y: 0.01}
    positions:
    - {x: -1.03, y: -0.48999998, z: 0}
    - {x: 1.03, y: -0.48999998, z: 0}
    - {x: -1.03, y: 0.48999998, z: 0}
    - {x: 1.03, y: 0.48999998, z: 0}
    normals: []
    tangents: []
    uvs:
    - {x: 0.14697315, y: 0.94628954}
    - {x: 0.2475581, y: 0.94628954}
    - {x: 0.14697315, y: 0.99414015}
    - {x: 0.2475581, y: 0.99414015}
    normalizedUvs:
    - {x: 0, y: 0}
    - {x: 1, y: 0}
    - {x: 0, y: 1}
    - {x: 1, y: 1}
    indices: 000000000300000001000000020000000300000000000000
    material: {fileID: 2100000, guid: e3349cea3df294941a1911299aa634b3, type: 2}
    materialId: 0
    sourceTextureGUID: 4784a27a5f06e5f419099decdf8b6c0f
    extractRegion: 0
    regionX: 0
    regionY: 0
    regionW: 0
    regionH: 0
    flipped: 0
    complexGeometry: 0
    physicsEngine: 0
    colliderType: 0
    customColliders: []
    colliderVertices: []
    colliderIndicesFwd: 
    colliderIndicesBack: 
    colliderConvex: 0
    colliderSmoothSphereCollisions: 0
    polygonCollider2D: []
    edgeCollider2D: []
    attachPoints: []
  - name: 4player
    boundsData:
    - {x: 0.0050001144, y: 0, z: 0}
    - {x: 2.95, y: 0.97999996, z: 0}
    untrimmedBoundsData:
    - {x: 0.0050001144, y: 0, z: 0}
    - {x: 2.95, y: 0.97999996, z: 0}
    texelSize: {x: 0.01, y: 0.01}
    positions:
    - {x: -1.4699999, y: -0.48999998, z: 0}
    - {x: 1.4800001, y: -0.48999998, z: 0}
    - {x: -1.4699999, y: 0.48999998, z: 0}
    - {x: 1.4800001, y: 0.48999998, z: 0}
    normals: []
    tangents: []
    uvs:
    - {x: 0.0009770507, y: 0.94628954}
    - {x: 0.14501904, y: 0.94628954}
    - {x: 0.0009770507, y: 0.99414015}
    - {x: 0.14501904, y: 0.99414015}
    normalizedUvs:
    - {x: 0, y: 0}
    - {x: 1, y: 0}
    - {x: 0, y: 1}
    - {x: 1, y: 1}
    indices: 000000000300000001000000020000000300000000000000
    material: {fileID: 2100000, guid: e3349cea3df294941a1911299aa634b3, type: 2}
    materialId: 0
    sourceTextureGUID: 100cb3620c317384dbe13c9ca776cb61
    extractRegion: 0
    regionX: 0
    regionY: 0
    regionW: 0
    regionH: 0
    flipped: 0
    complexGeometry: 0
    physicsEngine: 0
    colliderType: 0
    customColliders: []
    colliderVertices: []
    colliderIndicesFwd: 
    colliderIndicesBack: 
    colliderConvex: 0
    colliderSmoothSphereCollisions: 0
    polygonCollider2D: []
    edgeCollider2D: []
    attachPoints: []
  - name: local multiplayer bar
    boundsData:
    - {x: 0.004999876, y: 0, z: 0}
    - {x: 4.45, y: 11.66, z: 0}
    untrimmedBoundsData:
    - {x: 0.004999876, y: 0, z: 0}
    - {x: 4.45, y: 11.66, z: 0}
    texelSize: {x: 0.01, y: 0.01}
    positions:
    - {x: -2.22, y: -5.83, z: 0}
    - {x: 2.2299998, y: -5.83, z: 0}
    - {x: -2.22, y: 5.83, z: 0}
    - {x: 2.2299998, y: 5.83, z: 0}
    normals: []
    tangents: []
    uvs:
    - {x: 0.0009770507, y: 0.0009770507}
    - {x: 0.21826123, y: 0.0009770507}
    - {x: 0.0009770507, y: 0.570312}
    - {x: 0.21826123, y: 0.570312}
    normalizedUvs:
    - {x: 0, y: 0}
    - {x: 1, y: 0}
    - {x: 0, y: 1}
    - {x: 1, y: 1}
    indices: 000000000300000001000000020000000300000000000000
    material: {fileID: 2100000, guid: e3349cea3df294941a1911299aa634b3, type: 2}
    materialId: 0
    sourceTextureGUID: 1776dd99c3d5b60469305b41da4de797
    extractRegion: 0
    regionX: 0
    regionY: 0
    regionW: 0
    regionH: 0
    flipped: 0
    complexGeometry: 0
    physicsEngine: 0
    colliderType: 0
    customColliders: []
    colliderVertices: []
    colliderIndicesFwd: 
    colliderIndicesBack: 
    colliderConvex: 0
    colliderSmoothSphereCollisions: 0
    polygonCollider2D: []
    edgeCollider2D: []
    attachPoints: []
  - name: localmtext
    boundsData:
    - {x: 0.004999995, y: -0.004999995, z: 0}
    - {x: 3.37, y: 2.09, z: 0}
    untrimmedBoundsData:
    - {x: 0.004999995, y: -0.004999995, z: 0}
    - {x: 3.37, y: 2.09, z: 0}
    texelSize: {x: 0.01, y: 0.01}
    positions:
    - {x: -1.68, y: -1.05, z: 0}
    - {x: 1.6899999, y: -1.05, z: 0}
    - {x: -1.68, y: 1.04, z: 0}
    - {x: 1.6899999, y: 1.04, z: 0}
    normals: []
    tangents: []
    uvs:
    - {x: 0.0009770507, y: 0.84228563}
    - {x: 0.16552685, y: 0.84228563}
    - {x: 0.0009770507, y: 0.94433546}
    - {x: 0.16552685, y: 0.94433546}
    normalizedUvs:
    - {x: 0, y: 0}
    - {x: 1, y: 0}
    - {x: 0, y: 1}
    - {x: 1, y: 1}
    indices: 000000000300000001000000020000000300000000000000
    material: {fileID: 2100000, guid: e3349cea3df294941a1911299aa634b3, type: 2}
    materialId: 0
    sourceTextureGUID: e52a27a6a8d5ef74787fa039653c1306
    extractRegion: 0
    regionX: 0
    regionY: 0
    regionW: 0
    regionH: 0
    flipped: 0
    complexGeometry: 0
    physicsEngine: 0
    colliderType: 0
    customColliders: []
    colliderVertices: []
    colliderIndicesFwd: 
    colliderIndicesBack: 
    colliderConvex: 0
    colliderSmoothSphereCollisions: 0
    polygonCollider2D: []
    edgeCollider2D: []
    attachPoints: []
  - name: options bar
    boundsData:
    - {x: 0, y: 0, z: 0}
    - {x: 1, y: 8.74, z: 0}
    untrimmedBoundsData:
    - {x: 0, y: 0, z: 0}
    - {x: 1, y: 8.74, z: 0}
    texelSize: {x: 0.01, y: 0.01}
    positions:
    - {x: -0.5, y: -4.37, z: 0}
    - {x: 0.5, y: -4.37, z: 0}
    - {x: -0.5, y: 4.37, z: 0}
    - {x: 0.5, y: 4.37, z: 0}
    normals: []
    tangents: []
    uvs:
    - {x: 0.0009770507, y: 0.7915044}
    - {x: 0.0009770507, y: 0.84033155}
    - {x: 0.4277339, y: 0.7915044}
    - {x: 0.4277339, y: 0.84033155}
    normalizedUvs:
    - {x: 0, y: 0}
    - {x: 0, y: 1}
    - {x: 1, y: 0}
    - {x: 1, y: 1}
    indices: 000000000300000001000000020000000300000000000000
    material: {fileID: 2100000, guid: e3349cea3df294941a1911299aa634b3, type: 2}
    materialId: 0
    sourceTextureGUID: 508e3fffcc376fb41afd15174f7268b7
    extractRegion: 0
    regionX: 0
    regionY: 0
    regionW: 0
    regionH: 0
    flipped: 1
    complexGeometry: 0
    physicsEngine: 0
    colliderType: 0
    customColliders: []
    colliderVertices: []
    colliderIndicesFwd: 
    colliderIndicesBack: 
    colliderConvex: 0
    colliderSmoothSphereCollisions: 0
    polygonCollider2D: []
    edgeCollider2D: []
    attachPoints: []
  - name: options
    boundsData:
    - {x: 0, y: 0, z: 0}
    - {x: 0.65999997, y: 0.65999997, z: 0}
    untrimmedBoundsData:
    - {x: 0, y: 0, z: 0}
    - {x: 0.65999997, y: 0.65999997, z: 0}
    texelSize: {x: 0.01, y: 0.01}
    positions:
    - {x: -0.32999998, y: -0.32999998, z: 0}
    - {x: 0.32999998, y: -0.32999998, z: 0}
    - {x: -0.32999998, y: 0.32999998, z: 0}
    - {x: 0.32999998, y: 0.32999998, z: 0}
    normals: []
    tangents: []
    uvs:
    - {x: 0.39502, y: 0.8774419}
    - {x: 0.42724562, y: 0.8774419}
    - {x: 0.39502, y: 0.9096675}
    - {x: 0.42724562, y: 0.9096675}
    normalizedUvs:
    - {x: 0, y: 0}
    - {x: 1, y: 0}
    - {x: 0, y: 1}
    - {x: 1, y: 1}
    indices: 000000000300000001000000020000000300000000000000
    material: {fileID: 2100000, guid: e3349cea3df294941a1911299aa634b3, type: 2}
    materialId: 0
    sourceTextureGUID: 1763bd2b6cf86bb458e79bbd2874ecbb
    extractRegion: 0
    regionX: 0
    regionY: 0
    regionW: 0
    regionH: 0
    flipped: 0
    complexGeometry: 0
    physicsEngine: 0
    colliderType: 0
    customColliders: []
    colliderVertices: []
    colliderIndicesFwd: 
    colliderIndicesBack: 
    colliderConvex: 0
    colliderSmoothSphereCollisions: 0
    polygonCollider2D: []
    edgeCollider2D: []
    attachPoints: []
  - name: story bar
    boundsData:
    - {x: 0.004999876, y: 0, z: 0}
    - {x: 4.45, y: 11.259999, z: 0}
    untrimmedBoundsData:
    - {x: 0.004999876, y: 0, z: 0}
    - {x: 4.45, y: 11.259999, z: 0}
    texelSize: {x: 0.01, y: 0.01}
    positions:
    - {x: -2.22, y: -5.6299996, z: 0}
    - {x: 2.2299998, y: -5.6299996, z: 0}
    - {x: -2.22, y: 5.6299996, z: 0}
    - {x: 2.2299998, y: 5.6299996, z: 0}
    normals: []
    tangents: []
    uvs:
    - {x: 0.0009770507, y: 0.5722661}
    - {x: 0.0009770507, y: 0.7895503}
    - {x: 0.5507808, y: 0.5722661}
    - {x: 0.5507808, y: 0.7895503}
    normalizedUvs:
    - {x: 0, y: 0}
    - {x: 0, y: 1}
    - {x: 1, y: 0}
    - {x: 1, y: 1}
    indices: 000000000300000001000000020000000300000000000000
    material: {fileID: 2100000, guid: e3349cea3df294941a1911299aa634b3, type: 2}
    materialId: 0
    sourceTextureGUID: 4219802fb90540242b9157d5eeebab89
    extractRegion: 0
    regionX: 0
    regionY: 0
    regionW: 0
    regionH: 0
    flipped: 1
    complexGeometry: 0
    physicsEngine: 0
    colliderType: 0
    customColliders: []
    colliderVertices: []
    colliderIndicesFwd: 
    colliderIndicesBack: 
    colliderConvex: 0
    colliderSmoothSphereCollisions: 0
    polygonCollider2D: []
    edgeCollider2D: []
    attachPoints: []
  - name: story co op box
    boundsData:
    - {x: 0.004999876, y: 0, z: 0}
    - {x: 4.45, y: 5.7599998, z: 0}
    untrimmedBoundsData:
    - {x: 0.004999876, y: 0, z: 0}
    - {x: 4.45, y: 5.7599998, z: 0}
    texelSize: {x: 0.01, y: 0.01}
    positions:
    - {x: -2.22, y: -2.8799999, z: 0}
    - {x: 2.2299998, y: -2.8799999, z: 0}
    - {x: -2.22, y: 2.8799999, z: 0}
    - {x: 2.2299998, y: 2.8799999, z: 0}
    normals: []
    tangents: []
    uvs:
    - {x: 0.22021534, y: 0.0009770507}
    - {x: 0.43749952, y: 0.0009770507}
    - {x: 0.22021534, y: 0.2822261}
    - {x: 0.43749952, y: 0.2822261}
    normalizedUvs:
    - {x: 0, y: 0}
    - {x: 1, y: 0}
    - {x: 0, y: 0.99999994}
    - {x: 1, y: 0.99999994}
    indices: 000000000300000001000000020000000300000000000000
    material: {fileID: 2100000, guid: e3349cea3df294941a1911299aa634b3, type: 2}
    materialId: 0
    sourceTextureGUID: eba5e04e430f52245978762c94b6fa8a
    extractRegion: 0
    regionX: 0
    regionY: 0
    regionW: 0
    regionH: 0
    flipped: 0
    complexGeometry: 0
    physicsEngine: 0
    colliderType: 0
    customColliders: []
    colliderVertices: []
    colliderIndicesFwd: 
    colliderIndicesBack: 
    colliderConvex: 0
    colliderSmoothSphereCollisions: 0
    polygonCollider2D: []
    edgeCollider2D: []
    attachPoints: []
  - name: storytext
    boundsData:
    - {x: 0, y: -0.004999995, z: 0}
    - {x: 3.58, y: 1.55, z: 0}
    untrimmedBoundsData:
    - {x: 0, y: -0.004999995, z: 0}
    - {x: 3.58, y: 1.55, z: 0}
    texelSize: {x: 0.01, y: 0.01}
    positions:
    - {x: -1.79, y: -0.78, z: 0}
    - {x: 1.79, y: -0.78, z: 0}
    - {x: -1.79, y: 0.77, z: 0}
    - {x: 1.79, y: 0.77, z: 0}
    normals: []
    tangents: []
    uvs:
    - {x: 0.16748096, y: 0.84228563}
    - {x: 0.34228468, y: 0.84228563}
    - {x: 0.16748096, y: 0.9179683}
    - {x: 0.34228468, y: 0.9179683}
    normalizedUvs:
    - {x: 0, y: 0}
    - {x: 1, y: 0}
    - {x: 0, y: 1}
    - {x: 1, y: 1}
    indices: 000000000300000001000000020000000300000000000000
    material: {fileID: 2100000, guid: e3349cea3df294941a1911299aa634b3, type: 2}
    materialId: 0
    sourceTextureGUID: 2bd7561254fde7b4abf1dafb2d80944f
    extractRegion: 0
    regionX: 0
    regionY: 0
    regionW: 0
    regionH: 0
    flipped: 0
    complexGeometry: 0
    physicsEngine: 0
    colliderType: 0
    customColliders: []
    colliderVertices: []
    colliderIndicesFwd: 
    colliderIndicesBack: 
    colliderConvex: 0
    colliderSmoothSphereCollisions: 0
    polygonCollider2D: []
    edgeCollider2D: []
    attachPoints: []
  - name: storytext2
    boundsData:
    - {x: 0, y: -0.004999995, z: 0}
    - {x: 3.58, y: 2.09, z: 0}
    untrimmedBoundsData:
    - {x: 0, y: -0.004999995, z: 0}
    - {x: 3.58, y: 2.09, z: 0}
    texelSize: {x: 0.01, y: 0.01}
    positions:
    - {x: -1.79, y: -1.05, z: 0}
    - {x: 1.79, y: -1.05, z: 0}
    - {x: -1.79, y: 1.04, z: 0}
    - {x: 1.79, y: 1.04, z: 0}
    normals: []
    tangents: []
    uvs:
    - {x: 0.42968798, y: 0.7915044}
    - {x: 0.42968798, y: 0.9663081}
    - {x: 0.5317378, y: 0.7915044}
    - {x: 0.5317378, y: 0.9663081}
    normalizedUvs:
    - {x: 0, y: 0}
    - {x: 0, y: 1}
    - {x: 1, y: 0}
    - {x: 1, y: 1}
    indices: 000000000300000001000000020000000300000000000000
    material: {fileID: 2100000, guid: e3349cea3df294941a1911299aa634b3, type: 2}
    materialId: 0
    sourceTextureGUID: 886f1504b588860489fee73b3df7d6af
    extractRegion: 0
    regionX: 0
    regionY: 0
    regionW: 0
    regionH: 0
    flipped: 1
    complexGeometry: 0
    physicsEngine: 0
    colliderType: 0
    customColliders: []
    colliderVertices: []
    colliderIndicesFwd: 
    colliderIndicesBack: 
    colliderConvex: 0
    colliderSmoothSphereCollisions: 0
    polygonCollider2D: []
    edgeCollider2D: []
    attachPoints: []
  - name: exit-bar
    boundsData:
    - {x: 0, y: -0.004999995, z: 0}
    - {x: 1, y: 1.9699999, z: 0}
    untrimmedBoundsData:
    - {x: 0, y: -0.004999995, z: 0}
    - {x: 1, y: 1.9699999, z: 0}
    texelSize: {x: 0.01, y: 0.01}
    positions:
    - {x: -0.5, y: -0.98999995, z: 0}
    - {x: 0.5, y: -0.98999995, z: 0}
    - {x: -0.5, y: 0.97999996, z: 0}
    - {x: 0.5, y: 0.97999996, z: 0}
    normals: []
    tangents: []
    uvs:
    - {x: 0.34423876, y: 0.84228563}
    - {x: 0.39306593, y: 0.84228563}
    - {x: 0.34423876, y: 0.9384761}
    - {x: 0.39306593, y: 0.9384761}
    normalizedUvs:
    - {x: 0, y: 0}
    - {x: 1, y: 0}
    - {x: 0, y: 1}
    - {x: 1, y: 1}
    indices: 000000000300000001000000020000000300000000000000
    material: {fileID: 2100000, guid: e3349cea3df294941a1911299aa634b3, type: 2}
    materialId: 0
    sourceTextureGUID: e32cba35bb0ed72418eb20eb2c3417c8
    extractRegion: 0
    regionX: 0
    regionY: 0
    regionW: 0
    regionH: 0
    flipped: 0
    complexGeometry: 0
    physicsEngine: 0
    colliderType: 0
    customColliders: []
    colliderVertices: []
    colliderIndicesFwd: 
    colliderIndicesBack: 
    colliderConvex: 0
    colliderSmoothSphereCollisions: 0
    polygonCollider2D: []
    edgeCollider2D: []
    attachPoints: []
  - name: exit-icon
    boundsData:
    - {x: 0.004999995, y: 0, z: 0}
    - {x: 0.66999996, y: 0.68, z: 0}
    untrimmedBoundsData:
    - {x: 0.004999995, y: 0, z: 0}
    - {x: 0.66999996, y: 0.68, z: 0}
    texelSize: {x: 0.01, y: 0.01}
    positions:
    - {x: -0.32999998, y: -0.34, z: 0}
    - {x: 0.33999997, y: -0.34, z: 0}
    - {x: -0.32999998, y: 0.34, z: 0}
    - {x: 0.33999997, y: 0.34, z: 0}
    normals: []
    tangents: []
    uvs:
    - {x: 0.39502, y: 0.84228563}
    - {x: 0.4277339, y: 0.84228563}
    - {x: 0.39502, y: 0.8754878}
    - {x: 0.4277339, y: 0.8754878}
    normalizedUvs:
    - {x: 0, y: 0}
    - {x: 1, y: 0}
    - {x: 0, y: 1}
    - {x: 1, y: 1}
    indices: 000000000300000001000000020000000300000000000000
    material: {fileID: 2100000, guid: e3349cea3df294941a1911299aa634b3, type: 2}
    materialId: 0
    sourceTextureGUID: db3e5d3cf4fd3fa4fbd86bbbfe9f47f8
    extractRegion: 0
    regionX: 0
    regionY: 0
    regionW: 0
    regionH: 0
    flipped: 0
    complexGeometry: 0
    physicsEngine: 0
    colliderType: 0
    customColliders: []
    colliderVertices: []
    colliderIndicesFwd: 
    colliderIndicesBack: 
    colliderConvex: 0
    colliderSmoothSphereCollisions: 0
    polygonCollider2D: []
    edgeCollider2D: []
    attachPoints: []
  - name: story co op box locked
    boundsData:
    - {x: 0.004999876, y: 0, z: 0}
    - {x: 4.45, y: 5.7599998, z: 0}
    untrimmedBoundsData:
    - {x: 0.004999876, y: 0, z: 0}
    - {x: 4.45, y: 5.7599998, z: 0}
    texelSize: {x: 0.01, y: 0.01}
    positions:
    - {x: -2.22, y: -2.8799999, z: 0}
    - {x: 2.2299998, y: -2.8799999, z: 0}
    - {x: -2.22, y: 2.8799999, z: 0}
    - {x: 2.2299998, y: 2.8799999, z: 0}
    normals: []
    tangents: []
    uvs:
    - {x: 0.22021534, y: 0.28418016}
    - {x: 0.43749952, y: 0.28418016}
    - {x: 0.22021534, y: 0.5654292}
    - {x: 0.43749952, y: 0.5654292}
    normalizedUvs:
    - {x: 0, y: 0}
    - {x: 1, y: 0}
    - {x: 0, y: 1}
    - {x: 1, y: 1}
    indices: 000000000300000001000000020000000300000000000000
    material: {fileID: 2100000, guid: e3349cea3df294941a1911299aa634b3, type: 2}
    materialId: 0
    sourceTextureGUID: 684a888eb809d044f97399c25e1e89bd
    extractRegion: 0
    regionX: 0
    regionY: 0
    regionW: 0
    regionH: 0
    flipped: 0
    complexGeometry: 0
    physicsEngine: 0
    colliderType: 0
    customColliders: []
    colliderVertices: []
    colliderIndicesFwd: 
    colliderIndicesBack: 
    colliderConvex: 0
    colliderSmoothSphereCollisions: 0
    polygonCollider2D: []
    edgeCollider2D: []
    attachPoints: []
  premultipliedAlpha: 1
  material: {fileID: 0}
  materials:
  - {fileID: 2100000, guid: e3349cea3df294941a1911299aa634b3, type: 2}
  textures:
  - {fileID: 2800000, guid: 2e4df6f540626f3459612aef3a7927a1, type: 3}
  pngTextures: []
  materialPngTextureId: 00000000
  textureFilterMode: 1
  textureMipMaps: 0
  allowMultipleAtlases: 0
  spriteCollectionGUID: 9a53933f20f33334f98cb3fb157b0999
  spriteCollectionName: MainMenu
  assetName: 
  loadable: 0
  invOrthoSize: 2
  halfTargetHeight: 50
  buildKey: 413579844
  dataGuid: cac363ea6d7d3a143a7cc5c3b57a5f09
  managedSpriteCollection: 0
  hasPlatformData: 0
  spriteCollectionPlatforms: []
  spriteCollectionPlatformGUIDs: []
