%YAML 1.1
%TAG !u! tag:unity3d.com,2011:
--- !u!1001 &100100000
Prefab:
  m_ObjectHideFlags: 1
  serializedVersion: 2
  m_Modification:
    m_TransformParent: {fileID: 0}
    m_Modifications: []
    m_RemovedComponents: []
  m_ParentPrefab: {fileID: 0}
  m_RootGameObject: {fileID: 1391528893925122}
  m_IsPrefabParent: 1
--- !u!1 &1391528893925122
GameObject:
  m_ObjectHideFlags: 0
  m_PrefabParentObject: {fileID: 0}
  m_PrefabInternal: {fileID: 100100000}
  serializedVersion: 5
  m_Component:
  - component: {fileID: 4939539139863362}
  - component: {fileID: 114890983945659870}
  m_Layer: 0
  m_Name: fff-forward-200-italicdata
  m_TagString: Untagged
  m_Icon: {fileID: 0}
  m_NavMeshLayer: 0
  m_StaticEditorFlags: 0
  m_IsActive: 0
--- !u!4 &4939539139863362
Transform:
  m_ObjectHideFlags: 1
  m_PrefabParentObject: {fileID: 0}
  m_PrefabInternal: {fileID: 100100000}
  m_GameObject: {fileID: 1391528893925122}
  m_LocalRotation: {x: 0, y: 0, z: 0, w: 1}
  m_LocalPosition: {x: 0, y: 0, z: 0}
  m_LocalScale: {x: 1, y: 1, z: 1}
  m_Children: []
  m_Father: {fileID: 0}
  m_RootOrder: 0
  m_LocalEulerAnglesHint: {x: 0, y: 0, z: 0}
--- !u!114 &114890983945659870
MonoBehaviour:
  m_ObjectHideFlags: 1
  m_PrefabParentObject: {fileID: 0}
  m_PrefabInternal: {fileID: 100100000}
  m_GameObject: {fileID: 1391528893925122}
  m_Enabled: 1
  m_EditorHideFlags: 0
  m_Script: {fileID: 11500000, guid: 023bfc31841d2f24ba7eb00462467382, type: 3}
  m_Name: 
  m_EditorClassIdentifier: 
  version: 2
  lineHeight: 4
  chars:
  - p0: {x: 0, y: 0, z: 0}
    p1: {x: 0, y: 0, z: 0}
    uv0: {x: 0, y: 0, z: 0}
    uv1: {x: 0, y: 0, z: 0}
    flipped: 0
    gradientUv:
    - {x: 0, y: 0}
    - {x: 0, y: 0}
    - {x: 0, y: 0}
    - {x: 0, y: 0}
    advance: 0
    channel: 0
  - p0: {x: 0, y: 0, z: 0}
    p1: {x: 0, y: 0, z: 0}
    uv0: {x: 0, y: 0, z: 0}
    uv1: {x: 0, y: 0, z: 0}
    flipped: 0
    gradientUv:
    - {x: 0, y: 0}
    - {x: 0, y: 0}
    - {x: 0, y: 0}
    - {x: 0, y: 0}
    advance: 0
    channel: 0
  - p0: {x: 0, y: 0, z: 0}
    p1: {x: 0, y: 0, z: 0}
    uv0: {x: 0, y: 0, z: 0}
    uv1: {x: 0, y: 0, z: 0}
    flipped: 0
    gradientUv:
    - {x: 0, y: 0}
    - {x: 0, y: 0}
    - {x: 0, y: 0}
    - {x: 0, y: 0}
    advance: 0
    channel: 0
  - p0: {x: 0, y: 0, z: 0}
    p1: {x: 0, y: 0, z: 0}
    uv0: {x: 0, y: 0, z: 0}
    uv1: {x: 0, y: 0, z: 0}
    flipped: 0
    gradientUv:
    - {x: 0, y: 0}
    - {x: 0, y: 0}
    - {x: 0, y: 0}
    - {x: 0, y: 0}
    advance: 0
    channel: 0
  - p0: {x: 0, y: 0, z: 0}
    p1: {x: 0, y: 0, z: 0}
    uv0: {x: 0, y: 0, z: 0}
    uv1: {x: 0, y: 0, z: 0}
    flipped: 0
    gradientUv:
    - {x: 0, y: 0}
    - {x: 0, y: 0}
    - {x: 0, y: 0}
    - {x: 0, y: 0}
    advance: 0
    channel: 0
  - p0: {x: 0, y: 0, z: 0}
    p1: {x: 0, y: 0, z: 0}
    uv0: {x: 0, y: 0, z: 0}
    uv1: {x: 0, y: 0, z: 0}
    flipped: 0
    gradientUv:
    - {x: 0, y: 0}
    - {x: 0, y: 0}
    - {x: 0, y: 0}
    - {x: 0, y: 0}
    advance: 0
    channel: 0
  - p0: {x: 0, y: 0, z: 0}
    p1: {x: 0, y: 0, z: 0}
    uv0: {x: 0, y: 0, z: 0}
    uv1: {x: 0, y: 0, z: 0}
    flipped: 0
    gradientUv:
    - {x: 0, y: 0}
    - {x: 0, y: 0}
    - {x: 0, y: 0}
    - {x: 0, y: 0}
    advance: 0
    channel: 0
  - p0: {x: 0, y: 0, z: 0}
    p1: {x: 0, y: 0, z: 0}
    uv0: {x: 0, y: 0, z: 0}
    uv1: {x: 0, y: 0, z: 0}
    flipped: 0
    gradientUv:
    - {x: 0, y: 0}
    - {x: 0, y: 0}
    - {x: 0, y: 0}
    - {x: 0, y: 0}
    advance: 0
    channel: 0
  - p0: {x: 0, y: 0, z: 0}
    p1: {x: 0, y: 0, z: 0}
    uv0: {x: 0, y: 0, z: 0}
    uv1: {x: 0, y: 0, z: 0}
    flipped: 0
    gradientUv:
    - {x: 0, y: 0}
    - {x: 0, y: 0}
    - {x: 0, y: 0}
    - {x: 0, y: 0}
    advance: 0
    channel: 0
  - p0: {x: 0, y: 0, z: 0}
    p1: {x: 0, y: 0, z: 0}
    uv0: {x: 0, y: 0, z: 0}
    uv1: {x: 0, y: 0, z: 0}
    flipped: 0
    gradientUv:
    - {x: 0, y: 0}
    - {x: 0, y: 0}
    - {x: 0, y: 0}
    - {x: 0, y: 0}
    advance: 0
    channel: 0
  - p0: {x: 0, y: 0, z: 0}
    p1: {x: 0, y: 0, z: 0}
    uv0: {x: 0, y: 0, z: 0}
    uv1: {x: 0, y: 0, z: 0}
    flipped: 0
    gradientUv:
    - {x: 0, y: 0}
    - {x: 0, y: 0}
    - {x: 0, y: 0}
    - {x: 0, y: 0}
    advance: 0
    channel: 0
  - p0: {x: 0, y: 0, z: 0}
    p1: {x: 0, y: 0, z: 0}
    uv0: {x: 0, y: 0, z: 0}
    uv1: {x: 0, y: 0, z: 0}
    flipped: 0
    gradientUv:
    - {x: 0, y: 0}
    - {x: 0, y: 0}
    - {x: 0, y: 0}
    - {x: 0, y: 0}
    advance: 0
    channel: 0
  - p0: {x: 0, y: 0, z: 0}
    p1: {x: 0, y: 0, z: 0}
    uv0: {x: 0, y: 0, z: 0}
    uv1: {x: 0, y: 0, z: 0}
    flipped: 0
    gradientUv:
    - {x: 0, y: 0}
    - {x: 0, y: 0}
    - {x: 0, y: 0}
    - {x: 0, y: 0}
    advance: 0
    channel: 0
  - p0: {x: 0, y: 0, z: 0}
    p1: {x: 0, y: 0, z: 0}
    uv0: {x: 0, y: 0, z: 0}
    uv1: {x: 0, y: 0, z: 0}
    flipped: 0
    gradientUv:
    - {x: 0, y: 0}
    - {x: 0, y: 0}
    - {x: 0, y: 0}
    - {x: 0, y: 0}
    advance: 0
    channel: 0
  - p0: {x: 0, y: 0, z: 0}
    p1: {x: 0, y: 0, z: 0}
    uv0: {x: 0, y: 0, z: 0}
    uv1: {x: 0, y: 0, z: 0}
    flipped: 0
    gradientUv:
    - {x: 0, y: 0}
    - {x: 0, y: 0}
    - {x: 0, y: 0}
    - {x: 0, y: 0}
    advance: 0
    channel: 0
  - p0: {x: 0, y: 0, z: 0}
    p1: {x: 0, y: 0, z: 0}
    uv0: {x: 0, y: 0, z: 0}
    uv1: {x: 0, y: 0, z: 0}
    flipped: 0
    gradientUv:
    - {x: 0, y: 0}
    - {x: 0, y: 0}
    - {x: 0, y: 0}
    - {x: 0, y: 0}
    advance: 0
    channel: 0
  - p0: {x: 0, y: 0, z: 0}
    p1: {x: 0, y: 0, z: 0}
    uv0: {x: 0, y: 0, z: 0}
    uv1: {x: 0, y: 0, z: 0}
    flipped: 0
    gradientUv:
    - {x: 0, y: 0}
    - {x: 0, y: 0}
    - {x: 0, y: 0}
    - {x: 0, y: 0}
    advance: 0
    channel: 0
  - p0: {x: 0, y: 0, z: 0}
    p1: {x: 0, y: 0, z: 0}
    uv0: {x: 0, y: 0, z: 0}
    uv1: {x: 0, y: 0, z: 0}
    flipped: 0
    gradientUv:
    - {x: 0, y: 0}
    - {x: 0, y: 0}
    - {x: 0, y: 0}
    - {x: 0, y: 0}
    advance: 0
    channel: 0
  - p0: {x: 0, y: 0, z: 0}
    p1: {x: 0, y: 0, z: 0}
    uv0: {x: 0, y: 0, z: 0}
    uv1: {x: 0, y: 0, z: 0}
    flipped: 0
    gradientUv:
    - {x: 0, y: 0}
    - {x: 0, y: 0}
    - {x: 0, y: 0}
    - {x: 0, y: 0}
    advance: 0
    channel: 0
  - p0: {x: 0, y: 0, z: 0}
    p1: {x: 0, y: 0, z: 0}
    uv0: {x: 0, y: 0, z: 0}
    uv1: {x: 0, y: 0, z: 0}
    flipped: 0
    gradientUv:
    - {x: 0, y: 0}
    - {x: 0, y: 0}
    - {x: 0, y: 0}
    - {x: 0, y: 0}
    advance: 0
    channel: 0
  - p0: {x: 0, y: 0, z: 0}
    p1: {x: 0, y: 0, z: 0}
    uv0: {x: 0, y: 0, z: 0}
    uv1: {x: 0, y: 0, z: 0}
    flipped: 0
    gradientUv:
    - {x: 0, y: 0}
    - {x: 0, y: 0}
    - {x: 0, y: 0}
    - {x: 0, y: 0}
    advance: 0
    channel: 0
  - p0: {x: 0, y: 0, z: 0}
    p1: {x: 0, y: 0, z: 0}
    uv0: {x: 0, y: 0, z: 0}
    uv1: {x: 0, y: 0, z: 0}
    flipped: 0
    gradientUv:
    - {x: 0, y: 0}
    - {x: 0, y: 0}
    - {x: 0, y: 0}
    - {x: 0, y: 0}
    advance: 0
    channel: 0
  - p0: {x: 0, y: 0, z: 0}
    p1: {x: 0, y: 0, z: 0}
    uv0: {x: 0, y: 0, z: 0}
    uv1: {x: 0, y: 0, z: 0}
    flipped: 0
    gradientUv:
    - {x: 0, y: 0}
    - {x: 0, y: 0}
    - {x: 0, y: 0}
    - {x: 0, y: 0}
    advance: 0
    channel: 0
  - p0: {x: 0, y: 0, z: 0}
    p1: {x: 0, y: 0, z: 0}
    uv0: {x: 0, y: 0, z: 0}
    uv1: {x: 0, y: 0, z: 0}
    flipped: 0
    gradientUv:
    - {x: 0, y: 0}
    - {x: 0, y: 0}
    - {x: 0, y: 0}
    - {x: 0, y: 0}
    advance: 0
    channel: 0
  - p0: {x: 0, y: 0, z: 0}
    p1: {x: 0, y: 0, z: 0}
    uv0: {x: 0, y: 0, z: 0}
    uv1: {x: 0, y: 0, z: 0}
    flipped: 0
    gradientUv:
    - {x: 0, y: 0}
    - {x: 0, y: 0}
    - {x: 0, y: 0}
    - {x: 0, y: 0}
    advance: 0
    channel: 0
  - p0: {x: 0, y: 0, z: 0}
    p1: {x: 0, y: 0, z: 0}
    uv0: {x: 0, y: 0, z: 0}
    uv1: {x: 0, y: 0, z: 0}
    flipped: 0
    gradientUv:
    - {x: 0, y: 0}
    - {x: 0, y: 0}
    - {x: 0, y: 0}
    - {x: 0, y: 0}
    advance: 0
    channel: 0
  - p0: {x: 0, y: 0, z: 0}
    p1: {x: 0, y: 0, z: 0}
    uv0: {x: 0, y: 0, z: 0}
    uv1: {x: 0, y: 0, z: 0}
    flipped: 0
    gradientUv:
    - {x: 0, y: 0}
    - {x: 0, y: 0}
    - {x: 0, y: 0}
    - {x: 0, y: 0}
    advance: 0
    channel: 0
  - p0: {x: 0, y: 0, z: 0}
    p1: {x: 0, y: 0, z: 0}
    uv0: {x: 0, y: 0, z: 0}
    uv1: {x: 0, y: 0, z: 0}
    flipped: 0
    gradientUv:
    - {x: 0, y: 0}
    - {x: 0, y: 0}
    - {x: 0, y: 0}
    - {x: 0, y: 0}
    advance: 0
    channel: 0
  - p0: {x: 0, y: 0, z: 0}
    p1: {x: 0, y: 0, z: 0}
    uv0: {x: 0, y: 0, z: 0}
    uv1: {x: 0, y: 0, z: 0}
    flipped: 0
    gradientUv:
    - {x: 0, y: 0}
    - {x: 0, y: 0}
    - {x: 0, y: 0}
    - {x: 0, y: 0}
    advance: 0
    channel: 0
  - p0: {x: 0, y: 0, z: 0}
    p1: {x: 0, y: 0, z: 0}
    uv0: {x: 0, y: 0, z: 0}
    uv1: {x: 0, y: 0, z: 0}
    flipped: 0
    gradientUv:
    - {x: 0, y: 0}
    - {x: 0, y: 0}
    - {x: 0, y: 0}
    - {x: 0, y: 0}
    advance: 0
    channel: 0
  - p0: {x: 0, y: 0, z: 0}
    p1: {x: 0, y: 0, z: 0}
    uv0: {x: 0, y: 0, z: 0}
    uv1: {x: 0, y: 0, z: 0}
    flipped: 0
    gradientUv:
    - {x: 0, y: 0}
    - {x: 0, y: 0}
    - {x: 0, y: 0}
    - {x: 0, y: 0}
    advance: 0
    channel: 0
  - p0: {x: 0, y: 0, z: 0}
    p1: {x: 0, y: 0, z: 0}
    uv0: {x: 0, y: 0, z: 0}
    uv1: {x: 0, y: 0, z: 0}
    flipped: 0
    gradientUv:
    - {x: 0, y: 0}
    - {x: 0, y: 0}
    - {x: 0, y: 0}
    - {x: 0, y: 0}
    advance: 0
    channel: 0
  - p0: {x: -0.03, y: 0.02, z: 0}
    p1: {x: 0.049999997, y: -0.01, z: 0}
    uv0: {x: 0.97276264, y: 0.9265564, z: 0}
    uv1: {x: 0.97470814, y: 0.92582685, z: 0}
    flipped: 0
    gradientUv: []
    advance: 0.85999995
    channel: 0
  - p0: {x: -0.02, y: 3.4499998, z: 0}
    p1: {x: 1.5799999, y: 0.5499999, z: 0}
    uv0: {x: 0.82101166, y: 0.6177043, z: 0}
    uv1: {x: 0.8599222, y: 0.547179, z: 0}
    flipped: 0
    gradientUv: []
    advance: 0.85999995
    channel: 0
  - p0: {x: 0.57, y: 3.4499998, z: 0}
    p1: {x: 2.44, y: 2.2699997, z: 0}
    uv0: {x: 0.85870624, y: 0.42582685, z: 0}
    uv1: {x: 0.9041829, y: 0.39713034, z: 0}
    flipped: 0
    gradientUv: []
    advance: 1.7099999
    channel: 0
  - p0: {x: 0.17999999, y: 3.1699998, z: 0}
    p1: {x: 2.72, y: 0.5499999, z: 0}
    uv0: {x: 0.11819066, y: 0.46181905, z: 0}
    uv1: {x: 0.17996109, y: 0.3981031, z: 0}
    flipped: 0
    gradientUv: []
    advance: 2.29
    channel: 0
  - p0: {x: 0.08, y: 3.74, z: 0}
    p1: {x: 2.6299999, y: 0.26000008, z: 0}
    uv0: {x: 0.21400778, y: 1, z: 0}
    uv1: {x: 0.2760214, y: 0.91536963, z: 0}
    flipped: 0
    gradientUv: []
    advance: 2
    channel: 0
  - p0: {x: 0.26999998, y: 3.4499998, z: 0}
    p1: {x: 3.01, y: 0.5499999, z: 0}
    uv0: {x: 0.80544746, y: 0.7597276, z: 0}
    uv1: {x: 0.8720817, y: 0.6892023, z: 0}
    flipped: 0
    gradientUv: []
    advance: 2.57
    channel: 0
  - p0: {x: -0.02, y: 3.4499998, z: 0}
    p1: {x: 2.81, y: 0.5499999, z: 0}
    uv0: {x: 0.8105545, y: 0.8307393, z: 0}
    uv1: {x: 0.8793775, y: 0.76021403, z: 0}
    flipped: 0
    gradientUv: []
    advance: 2.57
    channel: 0
  - p0: {x: 0.57, y: 3.4499998, z: 0}
    p1: {x: 1.5799999, y: 2.2699997, z: 0}
    uv0: {x: 0.97276264, y: 1, z: 0}
    uv1: {x: 0.9973249, y: 0.9713035, z: 0}
    flipped: 0
    gradientUv: []
    advance: 0.85999995
    channel: 0
  - p0: {x: -0.02, y: 3.74, z: 0}
    p1: {x: 1.9699999, y: 0.26000008, z: 0}
    uv0: {x: 0.48078793, y: 1, z: 0}
    uv1: {x: 0.52918285, y: 0.91536963, z: 0}
    flipped: 0
    gradientUv: []
    advance: 1.14
    channel: 0
  - p0: {x: -0.12, y: 3.74, z: 0}
    p1: {x: 1.87, y: 0.26000008, z: 0}
    uv0: {x: 0.5296693, y: 1, z: 0}
    uv1: {x: 0.5780642, y: 0.91536963, z: 0}
    flipped: 0
    gradientUv: []
    advance: 1.14
    channel: 0
  - p0: {x: 0.45999998, y: 2.87, z: 0}
    p1: {x: 2.62, y: 1.4, z: 0}
    uv0: {x: 0.609679, y: 0.4117218, z: 0}
    uv1: {x: 0.66220814, y: 0.37597278, z: 0}
    flipped: 0
    gradientUv: []
    advance: 2.29
    channel: 0
  - p0: {x: 0.26999998, y: 2.8799999, z: 0}
    p1: {x: 2.24, y: 0.54999995, z: 0}
    uv0: {x: 0.5034047, y: 0.46181905, z: 0}
    uv1: {x: 0.5513132, y: 0.40515563, z: 0}
    flipped: 0
    gradientUv: []
    advance: 2
    channel: 0
  - p0: {x: -0.21, y: 1.16, z: 0}
    p1: {x: 0.8, y: -0.010000007, z: 0}
    uv0: {x: 0.97276264, y: 0.97081715, z: 0}
    uv1: {x: 0.9973249, y: 0.94236386, z: 0}
    flipped: 0
    gradientUv: []
    advance: 0.85999995
    channel: 0
  - p0: {x: 0.26999998, y: 2.01, z: 0}
    p1: {x: 1.9499999, y: 1.4, z: 0}
    uv0: {x: 0.9506323, y: 0.42582685, z: 0}
    uv1: {x: 0.9914883, y: 0.4109922, z: 0}
    flipped: 0
    gradientUv: []
    advance: 1.7099999
    channel: 0
  - p0: {x: -0.02, y: 1.16, z: 0}
    p1: {x: 0.79999995, y: 0.54999995, z: 0}
    uv0: {x: 0.97859925, y: 0.6177043, z: 0}
    uv1: {x: 0.9985409, y: 0.60286963, z: 0}
    flipped: 0
    gradientUv: []
    advance: 0.85999995
    channel: 0
  - p0: {x: -0.02, y: 3.4499998, z: 0}
    p1: {x: 2.72, y: 0.5499999, z: 0}
    uv0: {x: 0.33560312, y: 0.7456226, z: 0}
    uv1: {x: 0.40223736, y: 0.6750973, z: 0}
    flipped: 0
    gradientUv: []
    advance: 2
    channel: 0
  - p0: {x: -0.02, y: 3.4499998, z: 0}
    p1: {x: 2.44, y: 0.5499999, z: 0}
    uv0: {x: 0.63497084, y: 0.68822956, z: 0}
    uv1: {x: 0.6947957, y: 0.6177043, z: 0}
    flipped: 0
    gradientUv: []
    advance: 1.7099999
    channel: 0
  - p0: {x: 0.26999998, y: 3.4499998, z: 0}
    p1: {x: 1.8699999, y: 0.5499999, z: 0}
    uv0: {x: 0.7816148, y: 0.6177043, z: 0}
    uv1: {x: 0.8205253, y: 0.547179, z: 0}
    flipped: 0
    gradientUv: []
    advance: 1.14
    channel: 0
  - p0: {x: -0.02, y: 3.4499998, z: 0}
    p1: {x: 2.44, y: 0.5499999, z: 0}
    uv0: {x: 0.6952821, y: 0.68822956, z: 0}
    uv1: {x: 0.755107, y: 0.6177043, z: 0}
    flipped: 0
    gradientUv: []
    advance: 1.7099999
    channel: 0
  - p0: {x: -0.02, y: 3.4499998, z: 0}
    p1: {x: 2.44, y: 0.5499999, z: 0}
    uv0: {x: 0.93968874, y: 0.7597276, z: 0}
    uv1: {x: 0.9995136, y: 0.6892023, z: 0}
    flipped: 0
    gradientUv: []
    advance: 1.7099999
    channel: 0
  - p0: {x: 0.37, y: 3.4499998, z: 0}
    p1: {x: 2.44, y: 0.5499999, z: 0}
    uv0: {x: 0.9469844, y: 0.8307393, z: 0}
    uv1: {x: 0.9973249, y: 0.76021403, z: 0}
    flipped: 0
    gradientUv: []
    advance: 1.7099999
    channel: 0
  - p0: {x: -0.02, y: 3.4499998, z: 0}
    p1: {x: 2.44, y: 0.5499999, z: 0}
    uv0: {x: 0.75559336, y: 0.68871593, z: 0}
    uv1: {x: 0.81541824, y: 0.61819065, z: 0}
    flipped: 0
    gradientUv: []
    advance: 1.7099999
    channel: 0
  - p0: {x: -0.02, y: 3.4499998, z: 0}
    p1: {x: 2.44, y: 0.5499999, z: 0}
    uv0: {x: 0.8159047, y: 0.68871593, z: 0}
    uv1: {x: 0.87572956, y: 0.61819065, z: 0}
    flipped: 0
    gradientUv: []
    advance: 1.7099999
    channel: 0
  - p0: {x: 0.76, y: 3.4499998, z: 0}
    p1: {x: 2.44, y: 0.5499999, z: 0}
    uv0: {x: 0.7402724, y: 0.6172179, z: 0}
    uv1: {x: 0.7811284, y: 0.5466926, z: 0}
    flipped: 0
    gradientUv: []
    advance: 1.7099999
    channel: 0
  - p0: {x: -0.02, y: 3.4499998, z: 0}
    p1: {x: 2.44, y: 0.5499999, z: 0}
    uv0: {x: 0.87621593, y: 0.68871593, z: 0}
    uv1: {x: 0.9360408, y: 0.61819065, z: 0}
    flipped: 0
    gradientUv: []
    advance: 1.7099999
    channel: 0
  - p0: {x: -0.02, y: 3.4499998, z: 0}
    p1: {x: 2.44, y: 0.5499999, z: 0}
    uv0: {x: 0.93652725, y: 0.68871593, z: 0}
    uv1: {x: 0.99635214, y: 0.61819065, z: 0}
    flipped: 0
    gradientUv: []
    advance: 1.7099999
    channel: 0
  - p0: {x: 0.08, y: 2.31, z: 0}
    p1: {x: 1.1899999, y: 0.84, z: 0}
    uv0: {x: 0.7110895, y: 0.42534047, z: 0}
    uv1: {x: 0.73808366, y: 0.38959146, z: 0}
    flipped: 0
    gradientUv: []
    advance: 0.85999995
    channel: 0
  - p0: {x: -0.21, y: 2.01, z: 0}
    p1: {x: 1.0799999, y: -0.009999964, z: 0}
    uv0: {x: 0.577821, y: 0.4117218, z: 0}
    uv1: {x: 0.6091926, y: 0.3625973, z: 0}
    flipped: 0
    gradientUv: []
    advance: 0.85999995
    channel: 0
  - p0: {x: 0.26999998, y: 2.59, z: 0}
    p1: {x: 2.4299998, y: 0.54999995, z: 0}
    uv0: {x: 0.31955254, y: 0.39810312, z: 0}
    uv1: {x: 0.37208173, y: 0.34849223, z: 0}
    flipped: 0
    gradientUv: []
    advance: 2
    channel: 0
  - p0: {x: 0.08, y: 2.3, z: 0}
    p1: {x: 2.05, y: 0.83, z: 0}
    uv0: {x: 0.6626946, y: 0.41196498, z: 0}
    uv1: {x: 0.7106031, y: 0.37621596, z: 0}
    flipped: 0
    gradientUv: []
    advance: 1.7099999
    channel: 0
  - p0: {x: -0.02, y: 2.59, z: 0}
    p1: {x: 2.1399999, y: 0.54999995, z: 0}
    uv0: {x: 0.42558366, y: 0.39810312, z: 0}
    uv1: {x: 0.47811285, y: 0.34849223, z: 0}
    flipped: 0
    gradientUv: []
    advance: 2
    channel: 0
  - p0: {x: 0.55, y: 3.4499998, z: 0}
    p1: {x: 2.72, y: 0.5499999, z: 0}
    uv0: {x: 0.2891537, y: 0.60359925, z: 0}
    uv1: {x: 0.34192607, y: 0.53307396, z: 0}
    flipped: 0
    gradientUv: []
    advance: 2
    channel: 0
  - p0: {x: -0.02, y: 3.1699998, z: 0}
    p1: {x: 2.6299999, y: 0.5499999, z: 0}
    uv0: {x: 0.053258754, y: 0.46157587, z: 0}
    uv1: {x: 0.11770428, y: 0.3978599, z: 0}
    flipped: 0
    gradientUv: []
    advance: 2
    channel: 0
  - p0: {x: -0.02, y: 3.4499998, z: 0}
    p1: {x: 2.72, y: 0.5499999, z: 0}
    uv0: {x: 0, y: 0.6746109, z: 0}
    uv1: {x: 0.06663424, y: 0.6040856, z: 0}
    flipped: 0
    gradientUv: []
    advance: 2
    channel: 0
  - p0: {x: -0.02, y: 3.4499998, z: 0}
    p1: {x: 2.44, y: 0.5499999, z: 0}
    uv0: {x: 0, y: 0.60359925, z: 0}
    uv1: {x: 0.059824903, y: 0.53307396, z: 0}
    flipped: 0
    gradientUv: []
    advance: 2
    channel: 0
  - p0: {x: -0.02, y: 3.4499998, z: 0}
    p1: {x: 2.72, y: 0.5499999, z: 0}
    uv0: {x: 0.13424124, y: 0.6746109, z: 0}
    uv1: {x: 0.20087548, y: 0.6040856, z: 0}
    flipped: 0
    gradientUv: []
    advance: 2
    channel: 0
  - p0: {x: -0.02, y: 3.4499998, z: 0}
    p1: {x: 2.6299999, y: 0.5499999, z: 0}
    uv0: {x: 0.26848248, y: 0.6746109, z: 0}
    uv1: {x: 0.332928, y: 0.6040856, z: 0}
    flipped: 0
    gradientUv: []
    advance: 2
    channel: 0
  - p0: {x: -0.02, y: 3.4499998, z: 0}
    p1: {x: 2.44, y: 0.5499999, z: 0}
    uv0: {x: 0.3334144, y: 0.6746109, z: 0}
    uv1: {x: 0.39323932, y: 0.6040856, z: 0}
    flipped: 0
    gradientUv: []
    advance: 1.7099999
    channel: 0
  - p0: {x: -0.02, y: 3.4499998, z: 0}
    p1: {x: 2.44, y: 0.5499999, z: 0}
    uv0: {x: 0.45403695, y: 0.6746109, z: 0}
    uv1: {x: 0.51386184, y: 0.6040856, z: 0}
    flipped: 0
    gradientUv: []
    advance: 1.7099999
    channel: 0
  - p0: {x: -0.02, y: 3.4499998, z: 0}
    p1: {x: 2.72, y: 0.5499999, z: 0}
    uv0: {x: 0, y: 0.7456226, z: 0}
    uv1: {x: 0.06663424, y: 0.6750973, z: 0}
    flipped: 0
    gradientUv: []
    advance: 2
    channel: 0
  - p0: {x: -0.02, y: 3.4499998, z: 0}
    p1: {x: 2.72, y: 0.5499999, z: 0}
    uv0: {x: 0.06712062, y: 0.7456226, z: 0}
    uv1: {x: 0.13375486, y: 0.6750973, z: 0}
    flipped: 0
    gradientUv: []
    advance: 2
    channel: 0
  - p0: {x: -0.02, y: 3.4499998, z: 0}
    p1: {x: 1.5799999, y: 0.5499999, z: 0}
    uv0: {x: 0.86040854, y: 0.6177043, z: 0}
    uv1: {x: 0.89931905, y: 0.547179, z: 0}
    flipped: 0
    gradientUv: []
    advance: 0.85999995
    channel: 0
  - p0: {x: -0.02, y: 3.4499998, z: 0}
    p1: {x: 2.72, y: 0.5499999, z: 0}
    uv0: {x: 0.13424124, y: 0.7456226, z: 0}
    uv1: {x: 0.20087548, y: 0.6750973, z: 0}
    flipped: 0
    gradientUv: []
    advance: 2
    channel: 0
  - p0: {x: -0.02, y: 3.4499998, z: 0}
    p1: {x: 2.72, y: 0.5499999, z: 0}
    uv0: {x: 0.20136186, y: 0.7456226, z: 0}
    uv1: {x: 0.2679961, y: 0.6750973, z: 0}
    flipped: 0
    gradientUv: []
    advance: 2
    channel: 0
  - p0: {x: -0.02, y: 3.4499998, z: 0}
    p1: {x: 1.66, y: 0.5499999, z: 0}
    uv0: {x: 0.69892997, y: 0.6172179, z: 0}
    uv1: {x: 0.73978597, y: 0.5466926, z: 0}
    flipped: 0
    gradientUv: []
    advance: 1.7099999
    channel: 0
  - p0: {x: -0.02, y: 3.4499998, z: 0}
    p1: {x: 3.87, y: 0.5499999, z: 0}
    uv0: {x: 0.54620624, y: 0.83025295, z: 0}
    uv1: {x: 0.6408074, y: 0.75972766, z: 0}
    flipped: 0
    gradientUv: []
    advance: 3.1399999
    channel: 0
  - p0: {x: -0.02, y: 3.4499998, z: 0}
    p1: {x: 2.72, y: 0.5499999, z: 0}
    uv0: {x: 0.26848248, y: 0.7456226, z: 0}
    uv1: {x: 0.3351167, y: 0.6750973, z: 0}
    flipped: 0
    gradientUv: []
    advance: 2
    channel: 0
  - p0: {x: -0.02, y: 3.4499998, z: 0}
    p1: {x: 2.72, y: 0.5499999, z: 0}
    uv0: {x: 0.20136186, y: 0.6746109, z: 0}
    uv1: {x: 0.2679961, y: 0.6040856, z: 0}
    flipped: 0
    gradientUv: []
    advance: 2
    channel: 0
  - p0: {x: -0.02, y: 3.4499998, z: 0}
    p1: {x: 2.72, y: 0.5499999, z: 0}
    uv0: {x: 0.40272373, y: 0.7456226, z: 0}
    uv1: {x: 0.46935797, y: 0.6750973, z: 0}
    flipped: 0
    gradientUv: []
    advance: 2
    channel: 0
  - p0: {x: -0.02, y: 3.4499998, z: 0}
    p1: {x: 2.72, y: -0.010000113, z: 0}
    uv0: {x: 0.90564203, y: 1, z: 0}
    uv1: {x: 0.9722763, y: 0.915856, z: 0}
    flipped: 0
    gradientUv: []
    advance: 2
    channel: 0
  - p0: {x: -0.02, y: 3.4499998, z: 0}
    p1: {x: 2.72, y: 0.5499999, z: 0}
    uv0: {x: 0.46984437, y: 0.74586576, z: 0}
    uv1: {x: 0.53647864, y: 0.6753405, z: 0}
    flipped: 0
    gradientUv: []
    advance: 2
    channel: 0
  - p0: {x: -0.02, y: 3.4499998, z: 0}
    p1: {x: 2.72, y: 0.5499999, z: 0}
    uv0: {x: 0.53696495, y: 0.75218874, z: 0}
    uv1: {x: 0.6035992, y: 0.68166345, z: 0}
    flipped: 0
    gradientUv: []
    advance: 2
    channel: 0
  - p0: {x: 0.55, y: 3.4499998, z: 0}
    p1: {x: 2.72, y: 0.5499999, z: 0}
    uv0: {x: 0.34241244, y: 0.60359925, z: 0}
    uv1: {x: 0.39518481, y: 0.53307396, z: 0}
    flipped: 0
    gradientUv: []
    advance: 2
    channel: 0
  - p0: {x: -0.02, y: 3.4499998, z: 0}
    p1: {x: 2.72, y: 0.5499999, z: 0}
    uv0: {x: 0.6040856, y: 0.7592412, z: 0}
    uv1: {x: 0.67071986, y: 0.68871593, z: 0}
    flipped: 0
    gradientUv: []
    advance: 2
    channel: 0
  - p0: {x: -0.02, y: 3.4499998, z: 0}
    p1: {x: 2.72, y: 0.5499999, z: 0}
    uv0: {x: 0.67120624, y: 0.7592412, z: 0}
    uv1: {x: 0.7378405, y: 0.68871593, z: 0}
    flipped: 0
    gradientUv: []
    advance: 2
    channel: 0
  - p0: {x: -0.02, y: 3.4499998, z: 0}
    p1: {x: 3.3, y: 0.5499999, z: 0}
    uv0: {x: 0.7293288, y: 0.8307393, z: 0}
    uv1: {x: 0.81006813, y: 0.76021403, z: 0}
    flipped: 0
    gradientUv: []
    advance: 2.57
    channel: 0
  - p0: {x: -0.02, y: 3.4499998, z: 0}
    p1: {x: 2.72, y: 0.5499999, z: 0}
    uv0: {x: 0.73832685, y: 0.7597276, z: 0}
    uv1: {x: 0.8049611, y: 0.6892023, z: 0}
    flipped: 0
    gradientUv: []
    advance: 2
    channel: 0
  - p0: {x: 0.37, y: 3.4499998, z: 0}
    p1: {x: 2.72, y: 0.5499999, z: 0}
    uv0: {x: 0.17825876, y: 0.60359925, z: 0}
    uv1: {x: 0.23540857, y: 0.53307396, z: 0}
    flipped: 0
    gradientUv: []
    advance: 2
    channel: 0
  - p0: {x: -0.02, y: 3.4499998, z: 0}
    p1: {x: 2.72, y: 0.5499999, z: 0}
    uv0: {x: 0.8725681, y: 0.7597276, z: 0}
    uv1: {x: 0.9392023, y: 0.6892023, z: 0}
    flipped: 0
    gradientUv: []
    advance: 2
    channel: 0
  - p0: {x: -0.12, y: 3.74, z: 0}
    p1: {x: 1.9699999, y: 0.26000008, z: 0}
    uv0: {x: 0.2765078, y: 1, z: 0}
    uv1: {x: 0.32733464, y: 0.91536963, z: 0}
    flipped: 0
    gradientUv: []
    advance: 1.14
    channel: 0
  - p0: {x: 0.76, y: 3.4499998, z: 0}
    p1: {x: 2.05, y: 0.5499999, z: 0}
    uv0: {x: 0.03696498, y: 0.5325875, z: 0}
    uv1: {x: 0.068336576, y: 0.46206224, z: 0}
    flipped: 0
    gradientUv: []
    advance: 2
    channel: 0
  - p0: {x: -0.12, y: 3.74, z: 0}
    p1: {x: 1.9499999, y: 0.26000008, z: 0}
    uv0: {x: 0.4299611, y: 1, z: 0}
    uv1: {x: 0.48030156, y: 0.91536963, z: 0}
    flipped: 0
    gradientUv: []
    advance: 1.14
    channel: 0
  - p0: {x: 0.56, y: 3.4399998, z: 0}
    p1: {x: 2.72, y: 2.2599998, z: 0}
    uv0: {x: 0.80569065, y: 0.42534047, z: 0}
    uv1: {x: 0.8582198, y: 0.39664397, z: 0}
    flipped: 0
    gradientUv: []
    advance: 2.29
    channel: 0
  - p0: {x: -0.21, y: 0.29999998, z: 0}
    p1: {x: 1.37, y: -0.010000011, z: 0}
    uv0: {x: 0.609679, y: 0.37548637, z: 0}
    uv1: {x: 0.6481031, y: 0.36794746, z: 0}
    flipped: 0
    gradientUv: []
    advance: 1.7099999
    channel: 0
  - p0: {x: 0.96, y: 3.74, z: 0}
    p1: {x: 1.87, y: 3.13, z: 0}
    uv0: {x: 0.97276264, y: 0.9418774, z: 0}
    uv1: {x: 0.994893, y: 0.9270428, z: 0}
    flipped: 0
    gradientUv: []
    advance: 1.14
    channel: 0
  - p0: {x: -0.02, y: 2.59, z: 0}
    p1: {x: 2.1499999, y: 0.54999995, z: 0}
    uv0: {x: 0.8275778, y: 0.47592413, z: 0}
    uv1: {x: 0.88035023, y: 0.42631325, z: 0}
    flipped: 0
    gradientUv: []
    advance: 1.7099999
    channel: 0
  - p0: {x: -0.02, y: 3.4499998, z: 0}
    p1: {x: 2.1499999, y: 0.5499999, z: 0}
    uv0: {x: 0.23589495, y: 0.60359925, z: 0}
    uv1: {x: 0.28866732, y: 0.53307396, z: 0}
    flipped: 0
    gradientUv: []
    advance: 1.7099999
    channel: 0
  - p0: {x: -0.02, y: 2.59, z: 0}
    p1: {x: 2.1399999, y: 0.54999995, z: 0}
    uv0: {x: 0.3725681, y: 0.39810312, z: 0}
    uv1: {x: 0.4250973, y: 0.34849223, z: 0}
    flipped: 0
    gradientUv: []
    advance: 1.7099999
    channel: 0
  - p0: {x: -0.02, y: 3.4499998, z: 0}
    p1: {x: 2.44, y: 0.5499999, z: 0}
    uv0: {x: 0.3937257, y: 0.6746109, z: 0}
    uv1: {x: 0.4535506, y: 0.6040856, z: 0}
    flipped: 0
    gradientUv: []
    advance: 1.7099999
    channel: 0
  - p0: {x: -0.02, y: 2.59, z: 0}
    p1: {x: 2.1499999, y: 0.54999995, z: 0}
    uv0: {x: 0.26629376, y: 0.39810312, z: 0}
    uv1: {x: 0.31906614, y: 0.34849223, z: 0}
    flipped: 0
    gradientUv: []
    advance: 1.7099999
    channel: 0
  - p0: {x: -0.02, y: 3.4499998, z: 0}
    p1: {x: 2.1499999, y: 0.5499999, z: 0}
    uv0: {x: 0.50218874, y: 0.60359925, z: 0}
    uv1: {x: 0.55496114, y: 0.53307396, z: 0}
    flipped: 0
    gradientUv: []
    advance: 1.43
    channel: 0
  - p0: {x: -0.19, y: 2.59, z: 0}
    p1: {x: 2.1499999, y: -0.010000028, z: 0}
    uv0: {x: 0.34192607, y: 0.46181905, z: 0}
    uv1: {x: 0.39883268, y: 0.3985895, z: 0}
    flipped: 0
    gradientUv: []
    advance: 1.7099999
    channel: 0
  - p0: {x: -0.02, y: 3.4499998, z: 0}
    p1: {x: 2.1499999, y: 0.5499999, z: 0}
    uv0: {x: 0.44892997, y: 0.60359925, z: 0}
    uv1: {x: 0.50170237, y: 0.53307396, z: 0}
    flipped: 0
    gradientUv: []
    advance: 1.7099999
    channel: 0
  - p0: {x: -0.02, y: 3.4499998, z: 0}
    p1: {x: 1.5799999, y: 0.5499999, z: 0}
    uv0: {x: 0.9392023, y: 0.6177043, z: 0}
    uv1: {x: 0.9781128, y: 0.547179, z: 0}
    flipped: 0
    gradientUv: []
    advance: 0.85999995
    channel: 0
  - p0: {x: -0.21, y: 3.4499998, z: 0}
    p1: {x: 1.87, y: -0.010000113, z: 0}
    uv0: {x: 0.23613814, y: 0.83025295, z: 0}
    uv1: {x: 0.2867218, y: 0.74610895, z: 0}
    flipped: 0
    gradientUv: []
    advance: 1.14
    channel: 0
  - p0: {x: -0.02, y: 3.4499998, z: 0}
    p1: {x: 2.1499999, y: 0.5499999, z: 0}
    uv0: {x: 0.39567122, y: 0.60359925, z: 0}
    uv1: {x: 0.4484436, y: 0.53307396, z: 0}
    flipped: 0
    gradientUv: []
    advance: 1.7099999
    channel: 0
  - p0: {x: -0.02, y: 3.4499998, z: 0}
    p1: {x: 1.5799999, y: 0.5499999, z: 0}
    uv0: {x: 0.8998054, y: 0.6177043, z: 0}
    uv1: {x: 0.93871593, y: 0.547179, z: 0}
    flipped: 0
    gradientUv: []
    advance: 0.85999995
    channel: 0
  - p0: {x: -0.02, y: 2.59, z: 0}
    p1: {x: 3.01, y: 0.54999995, z: 0}
    uv0: {x: 0.7001459, y: 0.47543773, z: 0}
    uv1: {x: 0.7738327, y: 0.42582685, z: 0}
    flipped: 0
    gradientUv: []
    advance: 2.57
    channel: 0
  - p0: {x: -0.02, y: 2.59, z: 0}
    p1: {x: 2.1499999, y: 0.54999995, z: 0}
    uv0: {x: 0.10651751, y: 0.39737353, z: 0}
    uv1: {x: 0.15928988, y: 0.34776264, z: 0}
    flipped: 0
    gradientUv: []
    advance: 1.7099999
    channel: 0
  - p0: {x: -0.02, y: 2.59, z: 0}
    p1: {x: 2.1499999, y: 0.54999995, z: 0}
    uv0: {x: 0.77431905, y: 0.47543773, z: 0}
    uv1: {x: 0.82709146, y: 0.42582685, z: 0}
    flipped: 0
    gradientUv: []
    advance: 1.7099999
    channel: 0
  - p0: {x: -0.21, y: 2.59, z: 0}
    p1: {x: 2.1499999, y: -0.010000028, z: 0}
    uv0: {x: 0.2266537, y: 0.46181905, z: 0}
    uv1: {x: 0.28404668, y: 0.3985895, z: 0}
    flipped: 0
    gradientUv: []
    advance: 1.7099999
    channel: 0
  - p0: {x: -0.02, y: 2.59, z: 0}
    p1: {x: 2.1499999, y: -0.010000028, z: 0}
    uv0: {x: 0.39931905, y: 0.46181905, z: 0}
    uv1: {x: 0.45209143, y: 0.3985895, z: 0}
    flipped: 0
    gradientUv: []
    advance: 1.7099999
    channel: 0
  - p0: {x: -0.02, y: 2.59, z: 0}
    p1: {x: 1.86, y: 0.54999995, z: 0}
    uv0: {x: 0.5316148, y: 0.40466926, z: 0}
    uv1: {x: 0.57733464, y: 0.35505837, z: 0}
    flipped: 0
    gradientUv: []
    advance: 1.43
    channel: 0
  - p0: {x: -0.02, y: 2.59, z: 0}
    p1: {x: 2.1499999, y: 0.54999995, z: 0}
    uv0: {x: 0.21303502, y: 0.39761674, z: 0}
    uv1: {x: 0.2658074, y: 0.34800586, z: 0}
    flipped: 0
    gradientUv: []
    advance: 1.7099999
    channel: 0
  - p0: {x: -0.02, y: 3.1699998, z: 0}
    p1: {x: 1.86, y: 0.5499999, z: 0}
    uv0: {x: 0.18044747, y: 0.46181905, z: 0}
    uv1: {x: 0.22616732, y: 0.3981031, z: 0}
    flipped: 0
    gradientUv: []
    advance: 1.43
    channel: 0
  - p0: {x: -0.02, y: 2.59, z: 0}
    p1: {x: 2.1499999, y: 0.54999995, z: 0}
    uv0: {x: 0.9340953, y: 0.47592413, z: 0}
    uv1: {x: 0.9868677, y: 0.42631325, z: 0}
    flipped: 0
    gradientUv: []
    advance: 1.7099999
    channel: 0
  - p0: {x: -0.02, y: 2.59, z: 0}
    p1: {x: 2.1499999, y: 0.54999995, z: 0}
    uv0: {x: 0, y: 0.3908074, z: 0}
    uv1: {x: 0.052772373, y: 0.3411965, z: 0}
    flipped: 0
    gradientUv: []
    advance: 1.7099999
    channel: 0
  - p0: {x: -0.02, y: 2.59, z: 0}
    p1: {x: 3.01, y: 0.54999995, z: 0}
    uv0: {x: 0.62597275, y: 0.46206227, z: 0}
    uv1: {x: 0.6996595, y: 0.4124514, z: 0}
    flipped: 0
    gradientUv: []
    advance: 2.57
    channel: 0
  - p0: {x: -0.02, y: 2.59, z: 0}
    p1: {x: 2.1499999, y: 0.54999995, z: 0}
    uv0: {x: 0.053258754, y: 0.39737353, z: 0}
    uv1: {x: 0.10603113, y: 0.34776264, z: 0}
    flipped: 0
    gradientUv: []
    advance: 1.7099999
    channel: 0
  - p0: {x: -0.19, y: 2.59, z: 0}
    p1: {x: 2.1499999, y: -0.010000028, z: 0}
    uv0: {x: 0.28453308, y: 0.46181905, z: 0}
    uv1: {x: 0.3414397, y: 0.3985895, z: 0}
    flipped: 0
    gradientUv: []
    advance: 1.7099999
    channel: 0
  - p0: {x: -0.02, y: 2.59, z: 0}
    p1: {x: 2.1499999, y: 0.54999995, z: 0}
    uv0: {x: 0.15977627, y: 0.39761674, z: 0}
    uv1: {x: 0.21254864, y: 0.34800586, z: 0}
    flipped: 0
    gradientUv: []
    advance: 1.7099999
    channel: 0
  - p0: {x: 0.17, y: 3.74, z: 0}
    p1: {x: 2.25, y: 0.26000008, z: 0}
    uv0: {x: 0.37889105, y: 1, z: 0}
    uv1: {x: 0.4294747, y: 0.91536963, z: 0}
    flipped: 0
    gradientUv: []
    advance: 1.43
    channel: 0
  - p0: {x: -0.12, y: 3.74, z: 0}
    p1: {x: 1.68, y: 0.26000008, z: 0}
    uv0: {x: 0.5785506, y: 1, z: 0}
    uv1: {x: 0.6223249, y: 0.91536963, z: 0}
    flipped: 0
    gradientUv: []
    advance: 0.85999995
    channel: 0
  - p0: {x: -0.12, y: 3.74, z: 0}
    p1: {x: 1.9599999, y: 0.26000008, z: 0}
    uv0: {x: 0.32782102, y: 1, z: 0}
    uv1: {x: 0.37840468, y: 0.91536963, z: 0}
    flipped: 0
    gradientUv: []
    advance: 1.43
    channel: 0
  - p0: {x: 0.26999998, y: 2.59, z: 0}
    p1: {x: 3.01, y: 1.41, z: 0}
    uv0: {x: 0.73857003, y: 0.42534047, z: 0}
    uv1: {x: 0.8052043, y: 0.39664397, z: 0}
    flipped: 0
    gradientUv: []
    advance: 2.57
    channel: 0
  - p0: {x: 0, y: 0, z: 0}
    p1: {x: 0, y: 0, z: 0}
    uv0: {x: 0, y: 0, z: 0}
    uv1: {x: 0, y: 0, z: 0}
    flipped: 0
    gradientUv:
    - {x: 0, y: 0}
    - {x: 0, y: 0}
    - {x: 0, y: 0}
    - {x: 0, y: 0}
    advance: 0
    channel: 0
  - p0: {x: 0, y: 0, z: 0}
    p1: {x: 0, y: 0, z: 0}
    uv0: {x: 0, y: 0, z: 0}
    uv1: {x: 0, y: 0, z: 0}
    flipped: 0
    gradientUv:
    - {x: 0, y: 0}
    - {x: 0, y: 0}
    - {x: 0, y: 0}
    - {x: 0, y: 0}
    advance: 0
    channel: 0
  - p0: {x: 0, y: 0, z: 0}
    p1: {x: 0, y: 0, z: 0}
    uv0: {x: 0, y: 0, z: 0}
    uv1: {x: 0, y: 0, z: 0}
    flipped: 0
    gradientUv:
    - {x: 0, y: 0}
    - {x: 0, y: 0}
    - {x: 0, y: 0}
    - {x: 0, y: 0}
    advance: 0
    channel: 0
  - p0: {x: 0, y: 0, z: 0}
    p1: {x: 0, y: 0, z: 0}
    uv0: {x: 0, y: 0, z: 0}
    uv1: {x: 0, y: 0, z: 0}
    flipped: 0
    gradientUv:
    - {x: 0, y: 0}
    - {x: 0, y: 0}
    - {x: 0, y: 0}
    - {x: 0, y: 0}
    advance: 0
    channel: 0
  - p0: {x: 0, y: 0, z: 0}
    p1: {x: 0, y: 0, z: 0}
    uv0: {x: 0, y: 0, z: 0}
    uv1: {x: 0, y: 0, z: 0}
    flipped: 0
    gradientUv:
    - {x: 0, y: 0}
    - {x: 0, y: 0}
    - {x: 0, y: 0}
    - {x: 0, y: 0}
    advance: 0
    channel: 0
  - p0: {x: 0, y: 0, z: 0}
    p1: {x: 0, y: 0, z: 0}
    uv0: {x: 0, y: 0, z: 0}
    uv1: {x: 0, y: 0, z: 0}
    flipped: 0
    gradientUv:
    - {x: 0, y: 0}
    - {x: 0, y: 0}
    - {x: 0, y: 0}
    - {x: 0, y: 0}
    advance: 0
    channel: 0
  - p0: {x: 0, y: 0, z: 0}
    p1: {x: 0, y: 0, z: 0}
    uv0: {x: 0, y: 0, z: 0}
    uv1: {x: 0, y: 0, z: 0}
    flipped: 0
    gradientUv:
    - {x: 0, y: 0}
    - {x: 0, y: 0}
    - {x: 0, y: 0}
    - {x: 0, y: 0}
    advance: 0
    channel: 0
  - p0: {x: 0, y: 0, z: 0}
    p1: {x: 0, y: 0, z: 0}
    uv0: {x: 0, y: 0, z: 0}
    uv1: {x: 0, y: 0, z: 0}
    flipped: 0
    gradientUv:
    - {x: 0, y: 0}
    - {x: 0, y: 0}
    - {x: 0, y: 0}
    - {x: 0, y: 0}
    advance: 0
    channel: 0
  - p0: {x: 0, y: 0, z: 0}
    p1: {x: 0, y: 0, z: 0}
    uv0: {x: 0, y: 0, z: 0}
    uv1: {x: 0, y: 0, z: 0}
    flipped: 0
    gradientUv:
    - {x: 0, y: 0}
    - {x: 0, y: 0}
    - {x: 0, y: 0}
    - {x: 0, y: 0}
    advance: 0
    channel: 0
  - p0: {x: 0, y: 0, z: 0}
    p1: {x: 0, y: 0, z: 0}
    uv0: {x: 0, y: 0, z: 0}
    uv1: {x: 0, y: 0, z: 0}
    flipped: 0
    gradientUv:
    - {x: 0, y: 0}
    - {x: 0, y: 0}
    - {x: 0, y: 0}
    - {x: 0, y: 0}
    advance: 0
    channel: 0
  - p0: {x: 0, y: 0, z: 0}
    p1: {x: 0, y: 0, z: 0}
    uv0: {x: 0, y: 0, z: 0}
    uv1: {x: 0, y: 0, z: 0}
    flipped: 0
    gradientUv:
    - {x: 0, y: 0}
    - {x: 0, y: 0}
    - {x: 0, y: 0}
    - {x: 0, y: 0}
    advance: 0
    channel: 0
  - p0: {x: 0, y: 0, z: 0}
    p1: {x: 0, y: 0, z: 0}
    uv0: {x: 0, y: 0, z: 0}
    uv1: {x: 0, y: 0, z: 0}
    flipped: 0
    gradientUv:
    - {x: 0, y: 0}
    - {x: 0, y: 0}
    - {x: 0, y: 0}
    - {x: 0, y: 0}
    advance: 0
    channel: 0
  - p0: {x: 0, y: 0, z: 0}
    p1: {x: 0, y: 0, z: 0}
    uv0: {x: 0, y: 0, z: 0}
    uv1: {x: 0, y: 0, z: 0}
    flipped: 0
    gradientUv:
    - {x: 0, y: 0}
    - {x: 0, y: 0}
    - {x: 0, y: 0}
    - {x: 0, y: 0}
    advance: 0
    channel: 0
  - p0: {x: 0, y: 0, z: 0}
    p1: {x: 0, y: 0, z: 0}
    uv0: {x: 0, y: 0, z: 0}
    uv1: {x: 0, y: 0, z: 0}
    flipped: 0
    gradientUv:
    - {x: 0, y: 0}
    - {x: 0, y: 0}
    - {x: 0, y: 0}
    - {x: 0, y: 0}
    advance: 0
    channel: 0
  - p0: {x: 0, y: 0, z: 0}
    p1: {x: 0, y: 0, z: 0}
    uv0: {x: 0, y: 0, z: 0}
    uv1: {x: 0, y: 0, z: 0}
    flipped: 0
    gradientUv:
    - {x: 0, y: 0}
    - {x: 0, y: 0}
    - {x: 0, y: 0}
    - {x: 0, y: 0}
    advance: 0
    channel: 0
  - p0: {x: 0, y: 0, z: 0}
    p1: {x: 0, y: 0, z: 0}
    uv0: {x: 0, y: 0, z: 0}
    uv1: {x: 0, y: 0, z: 0}
    flipped: 0
    gradientUv:
    - {x: 0, y: 0}
    - {x: 0, y: 0}
    - {x: 0, y: 0}
    - {x: 0, y: 0}
    advance: 0
    channel: 0
  - p0: {x: 0, y: 0, z: 0}
    p1: {x: 0, y: 0, z: 0}
    uv0: {x: 0, y: 0, z: 0}
    uv1: {x: 0, y: 0, z: 0}
    flipped: 0
    gradientUv:
    - {x: 0, y: 0}
    - {x: 0, y: 0}
    - {x: 0, y: 0}
    - {x: 0, y: 0}
    advance: 0
    channel: 0
  - p0: {x: 0, y: 0, z: 0}
    p1: {x: 0, y: 0, z: 0}
    uv0: {x: 0, y: 0, z: 0}
    uv1: {x: 0, y: 0, z: 0}
    flipped: 0
    gradientUv:
    - {x: 0, y: 0}
    - {x: 0, y: 0}
    - {x: 0, y: 0}
    - {x: 0, y: 0}
    advance: 0
    channel: 0
  - p0: {x: 0, y: 0, z: 0}
    p1: {x: 0, y: 0, z: 0}
    uv0: {x: 0, y: 0, z: 0}
    uv1: {x: 0, y: 0, z: 0}
    flipped: 0
    gradientUv:
    - {x: 0, y: 0}
    - {x: 0, y: 0}
    - {x: 0, y: 0}
    - {x: 0, y: 0}
    advance: 0
    channel: 0
  - p0: {x: 0, y: 0, z: 0}
    p1: {x: 0, y: 0, z: 0}
    uv0: {x: 0, y: 0, z: 0}
    uv1: {x: 0, y: 0, z: 0}
    flipped: 0
    gradientUv:
    - {x: 0, y: 0}
    - {x: 0, y: 0}
    - {x: 0, y: 0}
    - {x: 0, y: 0}
    advance: 0
    channel: 0
  - p0: {x: 0, y: 0, z: 0}
    p1: {x: 0, y: 0, z: 0}
    uv0: {x: 0, y: 0, z: 0}
    uv1: {x: 0, y: 0, z: 0}
    flipped: 0
    gradientUv:
    - {x: 0, y: 0}
    - {x: 0, y: 0}
    - {x: 0, y: 0}
    - {x: 0, y: 0}
    advance: 0
    channel: 0
  - p0: {x: 0, y: 0, z: 0}
    p1: {x: 0, y: 0, z: 0}
    uv0: {x: 0, y: 0, z: 0}
    uv1: {x: 0, y: 0, z: 0}
    flipped: 0
    gradientUv:
    - {x: 0, y: 0}
    - {x: 0, y: 0}
    - {x: 0, y: 0}
    - {x: 0, y: 0}
    advance: 0
    channel: 0
  - p0: {x: 0, y: 0, z: 0}
    p1: {x: 0, y: 0, z: 0}
    uv0: {x: 0, y: 0, z: 0}
    uv1: {x: 0, y: 0, z: 0}
    flipped: 0
    gradientUv:
    - {x: 0, y: 0}
    - {x: 0, y: 0}
    - {x: 0, y: 0}
    - {x: 0, y: 0}
    advance: 0
    channel: 0
  - p0: {x: 0, y: 0, z: 0}
    p1: {x: 0, y: 0, z: 0}
    uv0: {x: 0, y: 0, z: 0}
    uv1: {x: 0, y: 0, z: 0}
    flipped: 0
    gradientUv:
    - {x: 0, y: 0}
    - {x: 0, y: 0}
    - {x: 0, y: 0}
    - {x: 0, y: 0}
    advance: 0
    channel: 0
  - p0: {x: 0, y: 0, z: 0}
    p1: {x: 0, y: 0, z: 0}
    uv0: {x: 0, y: 0, z: 0}
    uv1: {x: 0, y: 0, z: 0}
    flipped: 0
    gradientUv:
    - {x: 0, y: 0}
    - {x: 0, y: 0}
    - {x: 0, y: 0}
    - {x: 0, y: 0}
    advance: 0
    channel: 0
  - p0: {x: 0, y: 0, z: 0}
    p1: {x: 0, y: 0, z: 0}
    uv0: {x: 0, y: 0, z: 0}
    uv1: {x: 0, y: 0, z: 0}
    flipped: 0
    gradientUv:
    - {x: 0, y: 0}
    - {x: 0, y: 0}
    - {x: 0, y: 0}
    - {x: 0, y: 0}
    advance: 0
    channel: 0
  - p0: {x: 0, y: 0, z: 0}
    p1: {x: 0, y: 0, z: 0}
    uv0: {x: 0, y: 0, z: 0}
    uv1: {x: 0, y: 0, z: 0}
    flipped: 0
    gradientUv:
    - {x: 0, y: 0}
    - {x: 0, y: 0}
    - {x: 0, y: 0}
    - {x: 0, y: 0}
    advance: 0
    channel: 0
  - p0: {x: 0, y: 0, z: 0}
    p1: {x: 0, y: 0, z: 0}
    uv0: {x: 0, y: 0, z: 0}
    uv1: {x: 0, y: 0, z: 0}
    flipped: 0
    gradientUv:
    - {x: 0, y: 0}
    - {x: 0, y: 0}
    - {x: 0, y: 0}
    - {x: 0, y: 0}
    advance: 0
    channel: 0
  - p0: {x: 0, y: 0, z: 0}
    p1: {x: 0, y: 0, z: 0}
    uv0: {x: 0, y: 0, z: 0}
    uv1: {x: 0, y: 0, z: 0}
    flipped: 0
    gradientUv:
    - {x: 0, y: 0}
    - {x: 0, y: 0}
    - {x: 0, y: 0}
    - {x: 0, y: 0}
    advance: 0
    channel: 0
  - p0: {x: 0, y: 0, z: 0}
    p1: {x: 0, y: 0, z: 0}
    uv0: {x: 0, y: 0, z: 0}
    uv1: {x: 0, y: 0, z: 0}
    flipped: 0
    gradientUv:
    - {x: 0, y: 0}
    - {x: 0, y: 0}
    - {x: 0, y: 0}
    - {x: 0, y: 0}
    advance: 0
    channel: 0
  - p0: {x: 0, y: 0, z: 0}
    p1: {x: 0, y: 0, z: 0}
    uv0: {x: 0, y: 0, z: 0}
    uv1: {x: 0, y: 0, z: 0}
    flipped: 0
    gradientUv:
    - {x: 0, y: 0}
    - {x: 0, y: 0}
    - {x: 0, y: 0}
    - {x: 0, y: 0}
    advance: 0
    channel: 0
  - p0: {x: 0, y: 0, z: 0}
    p1: {x: 0, y: 0, z: 0}
    uv0: {x: 0, y: 0, z: 0}
    uv1: {x: 0, y: 0, z: 0}
    flipped: 0
    gradientUv:
    - {x: 0, y: 0}
    - {x: 0, y: 0}
    - {x: 0, y: 0}
    - {x: 0, y: 0}
    advance: 0
    channel: 0
  - p0: {x: 0, y: 0, z: 0}
    p1: {x: 0, y: 0, z: 0}
    uv0: {x: 0, y: 0, z: 0}
    uv1: {x: 0, y: 0, z: 0}
    flipped: 0
    gradientUv:
    - {x: 0, y: 0}
    - {x: 0, y: 0}
    - {x: 0, y: 0}
    - {x: 0, y: 0}
    advance: 0
    channel: 0
  - p0: {x: 0, y: 0, z: 0}
    p1: {x: 0, y: 0, z: 0}
    uv0: {x: 0, y: 0, z: 0}
    uv1: {x: 0, y: 0, z: 0}
    flipped: 0
    gradientUv:
    - {x: 0, y: 0}
    - {x: 0, y: 0}
    - {x: 0, y: 0}
    - {x: 0, y: 0}
    advance: 0
    channel: 0
  - p0: {x: -0.21, y: 2.58, z: 0}
    p1: {x: 1.28, y: -0.010000018, z: 0}
    uv0: {x: 0.96303505, y: 0.5466926, z: 0}
    uv1: {x: 0.99927044, y: 0.48370624, z: 0}
    flipped: 0
    gradientUv: []
    advance: 0.85999995
    channel: 0
  - p0: {x: 0, y: 0, z: 0}
    p1: {x: 0, y: 0, z: 0}
    uv0: {x: 0, y: 0, z: 0}
    uv1: {x: 0, y: 0, z: 0}
    flipped: 0
    gradientUv:
    - {x: 0, y: 0}
    - {x: 0, y: 0}
    - {x: 0, y: 0}
    - {x: 0, y: 0}
    advance: 0
    channel: 0
  - p0: {x: -0.02, y: 3.4499998, z: 0}
    p1: {x: 2.72, y: 0.5499999, z: 0}
    uv0: {x: 0.06712062, y: 0.6746109, z: 0}
    uv1: {x: 0.13375486, y: 0.6040856, z: 0}
    flipped: 0
    gradientUv: []
    advance: 2.29
    channel: 0
  - p0: {x: 0, y: 0, z: 0}
    p1: {x: 0, y: 0, z: 0}
    uv0: {x: 0, y: 0, z: 0}
    uv1: {x: 0, y: 0, z: 0}
    flipped: 0
    gradientUv:
    - {x: 0, y: 0}
    - {x: 0, y: 0}
    - {x: 0, y: 0}
    - {x: 0, y: 0}
    advance: 0
    channel: 0
  - p0: {x: 0.26999998, y: 3.4499998, z: 0}
    p1: {x: 2.72, y: 0.5499999, z: 0}
    uv0: {x: 0.060311284, y: 0.60359925, z: 0}
    uv1: {x: 0.119893, y: 0.53307396, z: 0}
    flipped: 0
    gradientUv: []
    advance: 2
    channel: 0
  - p0: {x: 0, y: 0, z: 0}
    p1: {x: 0, y: 0, z: 0}
    uv0: {x: 0, y: 0, z: 0}
    uv1: {x: 0, y: 0, z: 0}
    flipped: 0
    gradientUv:
    - {x: 0, y: 0}
    - {x: 0, y: 0}
    - {x: 0, y: 0}
    - {x: 0, y: 0}
    advance: 0
    channel: 0
  - p0: {x: 0, y: 0, z: 0}
    p1: {x: 0, y: 0, z: 0}
    uv0: {x: 0, y: 0, z: 0}
    uv1: {x: 0, y: 0, z: 0}
    flipped: 0
    gradientUv:
    - {x: 0, y: 0}
    - {x: 0, y: 0}
    - {x: 0, y: 0}
    - {x: 0, y: 0}
    advance: 0
    channel: 0
  - p0: {x: 0, y: 0, z: 0}
    p1: {x: 0, y: 0, z: 0}
    uv0: {x: 0, y: 0, z: 0}
    uv1: {x: 0, y: 0, z: 0}
    flipped: 0
    gradientUv:
    - {x: 0, y: 0}
    - {x: 0, y: 0}
    - {x: 0, y: 0}
    - {x: 0, y: 0}
    advance: 0
    channel: 0
  - p0: {x: -0.12, y: 3.73, z: 0}
    p1: {x: 4.2599998, y: 0.2500001, z: 0}
    uv0: {x: 0.10700389, y: 1, z: 0}
    uv1: {x: 0.2135214, y: 0.91536963, z: 0}
    flipped: 0
    gradientUv: []
    advance: 3.4299998
    channel: 0
  - p0: {x: 0, y: 0, z: 0}
    p1: {x: 0, y: 0, z: 0}
    uv0: {x: 0, y: 0, z: 0}
    uv1: {x: 0, y: 0, z: 0}
    flipped: 0
    gradientUv:
    - {x: 0, y: 0}
    - {x: 0, y: 0}
    - {x: 0, y: 0}
    - {x: 0, y: 0}
    advance: 0
    channel: 0
  - p0: {x: 0, y: 0, z: 0}
    p1: {x: 0, y: 0, z: 0}
    uv0: {x: 0, y: 0, z: 0}
    uv1: {x: 0, y: 0, z: 0}
    flipped: 0
    gradientUv:
    - {x: 0, y: 0}
    - {x: 0, y: 0}
    - {x: 0, y: 0}
    - {x: 0, y: 0}
    advance: 0
    channel: 0
  - p0: {x: 0, y: 0, z: 0}
    p1: {x: 0, y: 0, z: 0}
    uv0: {x: 0, y: 0, z: 0}
    uv1: {x: 0, y: 0, z: 0}
    flipped: 0
    gradientUv:
    - {x: 0, y: 0}
    - {x: 0, y: 0}
    - {x: 0, y: 0}
    - {x: 0, y: 0}
    advance: 0
    channel: 0
  - p0: {x: 0, y: 0, z: 0}
    p1: {x: 0, y: 0, z: 0}
    uv0: {x: 0, y: 0, z: 0}
    uv1: {x: 0, y: 0, z: 0}
    flipped: 0
    gradientUv:
    - {x: 0, y: 0}
    - {x: 0, y: 0}
    - {x: 0, y: 0}
    - {x: 0, y: 0}
    advance: 0
    channel: 0
  - p0: {x: -0.12, y: 3.73, z: 0}
    p1: {x: 4.2599998, y: 0.2500001, z: 0}
    uv0: {x: 0, y: 1, z: 0}
    uv1: {x: 0.10651751, y: 0.91536963, z: 0}
    flipped: 0
    gradientUv: []
    advance: 3.4299998
    channel: 0
  - p0: {x: 0, y: 0, z: 0}
    p1: {x: 0, y: 0, z: 0}
    uv0: {x: 0, y: 0, z: 0}
    uv1: {x: 0, y: 0, z: 0}
    flipped: 0
    gradientUv:
    - {x: 0, y: 0}
    - {x: 0, y: 0}
    - {x: 0, y: 0}
    - {x: 0, y: 0}
    advance: 0
    channel: 0
  - p0: {x: 0, y: 0, z: 0}
    p1: {x: 0, y: 0, z: 0}
    uv0: {x: 0, y: 0, z: 0}
    uv1: {x: 0, y: 0, z: 0}
    flipped: 0
    gradientUv:
    - {x: 0, y: 0}
    - {x: 0, y: 0}
    - {x: 0, y: 0}
    - {x: 0, y: 0}
    advance: 0
    channel: 0
  - p0: {x: 0, y: 0, z: 0}
    p1: {x: 0, y: 0, z: 0}
    uv0: {x: 0, y: 0, z: 0}
    uv1: {x: 0, y: 0, z: 0}
    flipped: 0
    gradientUv:
    - {x: 0, y: 0}
    - {x: 0, y: 0}
    - {x: 0, y: 0}
    - {x: 0, y: 0}
    advance: 0
    channel: 0
  - p0: {x: 0, y: 0, z: 0}
    p1: {x: 0, y: 0, z: 0}
    uv0: {x: 0, y: 0, z: 0}
    uv1: {x: 0, y: 0, z: 0}
    flipped: 0
    gradientUv:
    - {x: 0, y: 0}
    - {x: 0, y: 0}
    - {x: 0, y: 0}
    - {x: 0, y: 0}
    advance: 0
    channel: 0
  - p0: {x: 0, y: 0, z: 0}
    p1: {x: 0, y: 0, z: 0}
    uv0: {x: 0, y: 0, z: 0}
    uv1: {x: 0, y: 0, z: 0}
    flipped: 0
    gradientUv:
    - {x: 0, y: 0}
    - {x: 0, y: 0}
    - {x: 0, y: 0}
    - {x: 0, y: 0}
    advance: 0
    channel: 0
  - p0: {x: 0, y: 0, z: 0}
    p1: {x: 0, y: 0, z: 0}
    uv0: {x: 0, y: 0, z: 0}
    uv1: {x: 0, y: 0, z: 0}
    flipped: 0
    gradientUv:
    - {x: 0, y: 0}
    - {x: 0, y: 0}
    - {x: 0, y: 0}
    - {x: 0, y: 0}
    advance: 0
    channel: 0
  - p0: {x: 0, y: 0, z: 0}
    p1: {x: 0, y: 0, z: 0}
    uv0: {x: 0, y: 0, z: 0}
    uv1: {x: 0, y: 0, z: 0}
    flipped: 0
    gradientUv:
    - {x: 0, y: 0}
    - {x: 0, y: 0}
    - {x: 0, y: 0}
    - {x: 0, y: 0}
    advance: 0
    channel: 0
  - p0: {x: 0, y: 0, z: 0}
    p1: {x: 0, y: 0, z: 0}
    uv0: {x: 0, y: 0, z: 0}
    uv1: {x: 0, y: 0, z: 0}
    flipped: 0
    gradientUv:
    - {x: 0, y: 0}
    - {x: 0, y: 0}
    - {x: 0, y: 0}
    - {x: 0, y: 0}
    advance: 0
    channel: 0
  - p0: {x: 0, y: 0, z: 0}
    p1: {x: 0, y: 0, z: 0}
    uv0: {x: 0, y: 0, z: 0}
    uv1: {x: 0, y: 0, z: 0}
    flipped: 0
    gradientUv:
    - {x: 0, y: 0}
    - {x: 0, y: 0}
    - {x: 0, y: 0}
    - {x: 0, y: 0}
    advance: 0
    channel: 0
  - p0: {x: 0, y: 0, z: 0}
    p1: {x: 0, y: 0, z: 0}
    uv0: {x: 0, y: 0, z: 0}
    uv1: {x: 0, y: 0, z: 0}
    flipped: 0
    gradientUv:
    - {x: 0, y: 0}
    - {x: 0, y: 0}
    - {x: 0, y: 0}
    - {x: 0, y: 0}
    advance: 0
    channel: 0
  - p0: {x: 0, y: 0, z: 0}
    p1: {x: 0, y: 0, z: 0}
    uv0: {x: 0, y: 0, z: 0}
    uv1: {x: 0, y: 0, z: 0}
    flipped: 0
    gradientUv:
    - {x: 0, y: 0}
    - {x: 0, y: 0}
    - {x: 0, y: 0}
    - {x: 0, y: 0}
    advance: 0
    channel: 0
  - p0: {x: 0.57, y: 3.4499998, z: 0}
    p1: {x: 2.44, y: 2.2699997, z: 0}
    uv0: {x: 0.9046693, y: 0.42582685, z: 0}
    uv1: {x: 0.95014596, y: 0.39713034, z: 0}
    flipped: 0
    gradientUv: []
    advance: 1.7099999
    channel: 0
  - p0: {x: 0, y: 0, z: 0}
    p1: {x: 0, y: 0, z: 0}
    uv0: {x: 0, y: 0, z: 0}
    uv1: {x: 0, y: 0, z: 0}
    flipped: 0
    gradientUv:
    - {x: 0, y: 0}
    - {x: 0, y: 0}
    - {x: 0, y: 0}
    - {x: 0, y: 0}
    advance: 0
    channel: 0
  - p0: {x: 0, y: 0, z: 0}
    p1: {x: 0, y: 0, z: 0}
    uv0: {x: 0, y: 0, z: 0}
    uv1: {x: 0, y: 0, z: 0}
    flipped: 0
    gradientUv:
    - {x: 0, y: 0}
    - {x: 0, y: 0}
    - {x: 0, y: 0}
    - {x: 0, y: 0}
    advance: 0
    channel: 0
  - p0: {x: 0, y: 0, z: 0}
    p1: {x: 0, y: 0, z: 0}
    uv0: {x: 0, y: 0, z: 0}
    uv1: {x: 0, y: 0, z: 0}
    flipped: 0
    gradientUv:
    - {x: 0, y: 0}
    - {x: 0, y: 0}
    - {x: 0, y: 0}
    - {x: 0, y: 0}
    advance: 0
    channel: 0
  - p0: {x: 0, y: 0, z: 0}
    p1: {x: 0, y: 0, z: 0}
    uv0: {x: 0, y: 0, z: 0}
    uv1: {x: 0, y: 0, z: 0}
    flipped: 0
    gradientUv:
    - {x: 0, y: 0}
    - {x: 0, y: 0}
    - {x: 0, y: 0}
    - {x: 0, y: 0}
    advance: 0
    channel: 0
  - p0: {x: -0.21, y: 2.58, z: 0}
    p1: {x: 1.86, y: -0.010000018, z: 0}
    uv0: {x: 0.45257783, y: 0.46181905, z: 0}
    uv1: {x: 0.5029183, y: 0.39883268, z: 0}
    flipped: 0
    gradientUv: []
    advance: 2
    channel: 0
  - p0: {x: -0.02, y: 4.0099998, z: 0}
    p1: {x: 2.72, y: 0.54999983, z: 0}
    uv0: {x: 0.33560312, y: 0.91488326, z: 0}
    uv1: {x: 0.40223736, y: 0.83073926, z: 0}
    flipped: 0
    gradientUv: []
    advance: 2
    channel: 0
  - p0: {x: -0.02, y: 4.0099998, z: 0}
    p1: {x: 2.72, y: 0.54999983, z: 0}
    uv0: {x: 0.20136186, y: 0.91488326, z: 0}
    uv1: {x: 0.2679961, y: 0.83073926, z: 0}
    flipped: 0
    gradientUv: []
    advance: 2
    channel: 0
  - p0: {x: -0.02, y: 4.0099998, z: 0}
    p1: {x: 2.9099998, y: 0.54999983, z: 0}
    uv0: {x: 0.76653695, y: 1, z: 0}
    uv1: {x: 0.8377918, y: 0.915856, z: 0}
    flipped: 0
    gradientUv: []
    advance: 2
    channel: 0
  - p0: {x: -0.02, y: 4.0099998, z: 0}
    p1: {x: 2.72, y: 0.54999983, z: 0}
    uv0: {x: 0.80544746, y: 0.91536963, z: 0}
    uv1: {x: 0.8720817, y: 0.83122563, z: 0}
    flipped: 0
    gradientUv: []
    advance: 2
    channel: 0
  - p0: {x: -0.02, y: 4.0099998, z: 0}
    p1: {x: 2.72, y: 0.54999983, z: 0}
    uv0: {x: 0.73832685, y: 0.91536963, z: 0}
    uv1: {x: 0.8049611, y: 0.83122563, z: 0}
    flipped: 0
    gradientUv: []
    advance: 2
    channel: 0
  - p0: {x: -0.02, y: 4.0099998, z: 0}
    p1: {x: 2.72, y: 0.54999983, z: 0}
    uv0: {x: 0.46984437, y: 0.91488326, z: 0}
    uv1: {x: 0.53647864, y: 0.83073926, z: 0}
    flipped: 0
    gradientUv: []
    advance: 2
    channel: 0
  - p0: {x: -0.02, y: 3.4499998, z: 0}
    p1: {x: 3.58, y: 0.5499999, z: 0}
    uv0: {x: 0.64129376, y: 0.83025295, z: 0}
    uv1: {x: 0.7288424, y: 0.75972766, z: 0}
    flipped: 0
    gradientUv: []
    advance: 2.86
    channel: 0
  - p0: {x: -0.02, y: 3.4499998, z: 0}
    p1: {x: 2.72, y: -0.010000113, z: 0}
    uv0: {x: 0.06712062, y: 0.91488326, z: 0}
    uv1: {x: 0.13375486, y: 0.83073926, z: 0}
    flipped: 0
    gradientUv: []
    advance: 2
    channel: 0
  - p0: {x: -0.02, y: 4.0099998, z: 0}
    p1: {x: 2.44, y: 0.54999983, z: 0}
    uv0: {x: 0.9375, y: 0.91536963, z: 0}
    uv1: {x: 0.9973249, y: 0.83122563, z: 0}
    flipped: 0
    gradientUv: []
    advance: 1.7099999
    channel: 0
  - p0: {x: -0.02, y: 4.0099998, z: 0}
    p1: {x: 2.44, y: 0.54999983, z: 0}
    uv0: {x: 0.060311284, y: 0.83025295, z: 0}
    uv1: {x: 0.12013619, y: 0.74610895, z: 0}
    flipped: 0
    gradientUv: []
    advance: 1.7099999
    channel: 0
  - p0: {x: -0.02, y: 4.0099998, z: 0}
    p1: {x: 2.6299999, y: 0.54999983, z: 0}
    uv0: {x: 0.8725681, y: 0.91536963, z: 0}
    uv1: {x: 0.93701357, y: 0.83122563, z: 0}
    flipped: 0
    gradientUv: []
    advance: 1.7099999
    channel: 0
  - p0: {x: -0.02, y: 4.0099998, z: 0}
    p1: {x: 2.44, y: 0.54999983, z: 0}
    uv0: {x: 0, y: 0.83025295, z: 0}
    uv1: {x: 0.059824903, y: 0.74610895, z: 0}
    flipped: 0
    gradientUv: []
    advance: 1.7099999
    channel: 0
  - p0: {x: -0.02, y: 4.0099998, z: 0}
    p1: {x: 1.77, y: 0.54999983, z: 0}
    uv0: {x: 0.38205254, y: 0.83025295, z: 0}
    uv1: {x: 0.42558366, y: 0.74610895, z: 0}
    flipped: 0
    gradientUv: []
    advance: 0.85999995
    channel: 0
  - p0: {x: -0.03, y: 4.0099998, z: 0}
    p1: {x: 1.76, y: 0.54999983, z: 0}
    uv0: {x: 0.33803502, y: 0.83025295, z: 0}
    uv1: {x: 0.38156614, y: 0.74610895, z: 0}
    flipped: 0
    gradientUv: []
    advance: 0.85999995
    channel: 0
  - p0: {x: -0.03, y: 4.0099998, z: 0}
    p1: {x: 2.33, y: 0.54999983, z: 0}
    uv0: {x: 0.12062257, y: 0.83025295, z: 0}
    uv1: {x: 0.17801556, y: 0.74610895, z: 0}
    flipped: 0
    gradientUv: []
    advance: 0.85999995
    channel: 0
  - p0: {x: -0.02, y: 4.0099998, z: 0}
    p1: {x: 2.05, y: 0.54999983, z: 0}
    uv0: {x: 0.28720817, y: 0.83025295, z: 0}
    uv1: {x: 0.33754864, y: 0.74610895, z: 0}
    flipped: 0
    gradientUv: []
    advance: 0.85999995
    channel: 0
  - p0: {x: 0, y: 0, z: 0}
    p1: {x: 0, y: 0, z: 0}
    uv0: {x: 0, y: 0, z: 0}
    uv1: {x: 0, y: 0, z: 0}
    flipped: 0
    gradientUv:
    - {x: 0, y: 0}
    - {x: 0, y: 0}
    - {x: 0, y: 0}
    - {x: 0, y: 0}
    advance: 0
    channel: 0
  - p0: {x: -0.02, y: 4.0099998, z: 0}
    p1: {x: 2.72, y: 0.54999983, z: 0}
    uv0: {x: 0.67120624, y: 0.91536963, z: 0}
    uv1: {x: 0.7378405, y: 0.83122563, z: 0}
    flipped: 0
    gradientUv: []
    advance: 2
    channel: 0
  - p0: {x: -0.02, y: 4.0099998, z: 0}
    p1: {x: 2.72, y: 0.54999983, z: 0}
    uv0: {x: 0.6040856, y: 0.91488326, z: 0}
    uv1: {x: 0.67071986, y: 0.83073926, z: 0}
    flipped: 0
    gradientUv: []
    advance: 2
    channel: 0
  - p0: {x: -0.02, y: 4.0099998, z: 0}
    p1: {x: 2.72, y: 0.54999983, z: 0}
    uv0: {x: 0.53696495, y: 0.91488326, z: 0}
    uv1: {x: 0.6035992, y: 0.83073926, z: 0}
    flipped: 0
    gradientUv: []
    advance: 2
    channel: 0
  - p0: {x: -0.04, y: 4.0099998, z: 0}
    p1: {x: 2.8999999, y: 0.54999983, z: 0}
    uv0: {x: 0.62281126, y: 1, z: 0}
    uv1: {x: 0.6943093, y: 0.915856, z: 0}
    flipped: 0
    gradientUv: []
    advance: 2
    channel: 0
  - p0: {x: -0.04, y: 4.0099998, z: 0}
    p1: {x: 2.71, y: 0.54999983, z: 0}
    uv0: {x: 0.83827823, y: 1, z: 0}
    uv1: {x: 0.90515566, y: 0.915856, z: 0}
    flipped: 0
    gradientUv: []
    advance: 2
    channel: 0
  - p0: {x: -0.02, y: 4.0099998, z: 0}
    p1: {x: 2.72, y: 0.54999983, z: 0}
    uv0: {x: 0.40272373, y: 0.91488326, z: 0}
    uv1: {x: 0.46935797, y: 0.83073926, z: 0}
    flipped: 0
    gradientUv: []
    advance: 2
    channel: 0
  - p0: {x: 0, y: 0, z: 0}
    p1: {x: 0, y: 0, z: 0}
    uv0: {x: 0, y: 0, z: 0}
    uv1: {x: 0, y: 0, z: 0}
    flipped: 0
    gradientUv:
    - {x: 0, y: 0}
    - {x: 0, y: 0}
    - {x: 0, y: 0}
    - {x: 0, y: 0}
    advance: 0
    channel: 0
  - p0: {x: -0.02, y: 3.4499998, z: 0}
    p1: {x: 2.72, y: 0.5499999, z: 0}
    uv0: {x: 0.8798638, y: 0.8307393, z: 0}
    uv1: {x: 0.94649804, y: 0.76021403, z: 0}
    flipped: 0
    gradientUv: []
    advance: 2
    channel: 0
  - p0: {x: -0.02, y: 4.0099998, z: 0}
    p1: {x: 2.72, y: 0.54999983, z: 0}
    uv0: {x: 0.26848248, y: 0.91488326, z: 0}
    uv1: {x: 0.3351167, y: 0.83073926, z: 0}
    flipped: 0
    gradientUv: []
    advance: 2
    channel: 0
  - p0: {x: -0.02, y: 4.0099998, z: 0}
    p1: {x: 2.72, y: 0.54999983, z: 0}
    uv0: {x: 0.13424124, y: 0.91488326, z: 0}
    uv1: {x: 0.20087548, y: 0.83073926, z: 0}
    flipped: 0
    gradientUv: []
    advance: 2
    channel: 0
  - p0: {x: -0.02, y: 4.0099998, z: 0}
    p1: {x: 2.9099998, y: 0.54999983, z: 0}
    uv0: {x: 0.6947957, y: 1, z: 0}
    uv1: {x: 0.7660506, y: 0.915856, z: 0}
    flipped: 0
    gradientUv: []
    advance: 2
    channel: 0
  - p0: {x: -0.02, y: 4.0099998, z: 0}
    p1: {x: 2.72, y: 0.54999983, z: 0}
    uv0: {x: 0, y: 0.91488326, z: 0}
    uv1: {x: 0.06663424, y: 0.83073926, z: 0}
    flipped: 0
    gradientUv: []
    advance: 2
    channel: 0
  - p0: {x: 0.37, y: 4.0099998, z: 0}
    p1: {x: 2.72, y: 0.54999983, z: 0}
    uv0: {x: 0.17850195, y: 0.83025295, z: 0}
    uv1: {x: 0.23565176, y: 0.74610895, z: 0}
    flipped: 0
    gradientUv: []
    advance: 2
    channel: 0
  - p0: {x: 0, y: 0, z: 0}
    p1: {x: 0, y: 0, z: 0}
    uv0: {x: 0, y: 0, z: 0}
    uv1: {x: 0, y: 0, z: 0}
    flipped: 0
    gradientUv:
    - {x: 0, y: 0}
    - {x: 0, y: 0}
    - {x: 0, y: 0}
    - {x: 0, y: 0}
    advance: 0
    channel: 0
  - p0: {x: -0.02, y: 3.4499998, z: 0}
    p1: {x: 2.44, y: 0.5499999, z: 0}
    uv0: {x: 0.51434827, y: 0.6748541, z: 0}
    uv1: {x: 0.57417315, y: 0.6043288, z: 0}
    flipped: 0
    gradientUv: []
    advance: 2
    channel: 0
  - p0: {x: -0.02, y: 3.4399998, z: 0}
    p1: {x: 2.1499999, y: 0.5499999, z: 0}
    uv0: {x: 0.6434825, y: 0.5391537, z: 0}
    uv1: {x: 0.6962549, y: 0.4688716, z: 0}
    flipped: 0
    gradientUv: []
    advance: 1.7099999
    channel: 0
  - p0: {x: -0.02, y: 3.4399998, z: 0}
    p1: {x: 2.1499999, y: 0.5499999, z: 0}
    uv0: {x: 0.6967412, y: 0.54620624, z: 0}
    uv1: {x: 0.7495136, y: 0.47592413, z: 0}
    flipped: 0
    gradientUv: []
    advance: 1.7099999
    channel: 0
  - p0: {x: -0.02, y: 3.4399998, z: 0}
    p1: {x: 2.34, y: 0.5499999, z: 0}
    uv0: {x: 0.3100681, y: 0.5325875, z: 0}
    uv1: {x: 0.3674611, y: 0.46230543, z: 0}
    flipped: 0
    gradientUv: []
    advance: 1.7099999
    channel: 0
  - p0: {x: -0.02, y: 3.4399998, z: 0}
    p1: {x: 2.44, y: 0.5499999, z: 0}
    uv0: {x: 0.06882296, y: 0.5325875, z: 0}
    uv1: {x: 0.12864786, y: 0.46230543, z: 0}
    flipped: 0
    gradientUv: []
    advance: 1.7099999
    channel: 0
  - p0: {x: -0.02, y: 3.4399998, z: 0}
    p1: {x: 2.1499999, y: 0.5499999, z: 0}
    uv0: {x: 0.75, y: 0.54620624, z: 0}
    uv1: {x: 0.8027724, y: 0.47592413, z: 0}
    flipped: 0
    gradientUv: []
    advance: 1.7099999
    channel: 0
  - p0: {x: -0.02, y: 3.74, z: 0}
    p1: {x: 2.25, y: 0.5500001, z: 0}
    uv0: {x: 0.49051556, y: 0.83025295, z: 0}
    uv1: {x: 0.54571986, y: 0.7526751, z: 0}
    flipped: 0
    gradientUv: []
    advance: 1.7099999
    channel: 0
  - p0: {x: -0.02, y: 2.59, z: 0}
    p1: {x: 3.01, y: 0.54999995, z: 0}
    uv0: {x: 0.5517996, y: 0.46181905, z: 0}
    uv1: {x: 0.6254864, y: 0.41220817, z: 0}
    flipped: 0
    gradientUv: []
    advance: 2.57
    channel: 0
  - p0: {x: -0.02, y: 2.59, z: 0}
    p1: {x: 2.1399999, y: 0.54999995, z: 0}
    uv0: {x: 0.47859922, y: 0.3983463, z: 0}
    uv1: {x: 0.5311284, y: 0.34873542, z: 0}
    flipped: 0
    gradientUv: []
    advance: 1.7099999
    channel: 0
  - p0: {x: -0.02, y: 3.4399998, z: 0}
    p1: {x: 2.1499999, y: 0.5499999, z: 0}
    uv0: {x: 0.5902237, y: 0.5328307, z: 0}
    uv1: {x: 0.64299613, y: 0.4625486, z: 0}
    flipped: 0
    gradientUv: []
    advance: 1.7099999
    channel: 0
  - p0: {x: -0.02, y: 3.4399998, z: 0}
    p1: {x: 2.1499999, y: 0.5499999, z: 0}
    uv0: {x: 0.8565175, y: 0.5466926, z: 0}
    uv1: {x: 0.9092899, y: 0.4764105, z: 0}
    flipped: 0
    gradientUv: []
    advance: 1.7099999
    channel: 0
  - p0: {x: -0.02, y: 3.4399998, z: 0}
    p1: {x: 2.34, y: 0.5499999, z: 0}
    uv0: {x: 0.42582685, y: 0.5325875, z: 0}
    uv1: {x: 0.48321983, y: 0.46230543, z: 0}
    flipped: 0
    gradientUv: []
    advance: 1.7099999
    channel: 0
  - p0: {x: -0.02, y: 3.4399998, z: 0}
    p1: {x: 2.1499999, y: 0.5499999, z: 0}
    uv0: {x: 0.9097763, y: 0.5466926, z: 0}
    uv1: {x: 0.9625487, y: 0.4764105, z: 0}
    flipped: 0
    gradientUv: []
    advance: 1.7099999
    channel: 0
  - p0: {x: 0.26999998, y: 3.4499998, z: 0}
    p1: {x: 1.77, y: 0.5499999, z: 0}
    uv0: {x: 0, y: 0.5325875, z: 0}
    uv1: {x: 0.036478598, y: 0.46206224, z: 0}
    flipped: 0
    gradientUv: []
    advance: 1.14
    channel: 0
  - p0: {x: -0.02, y: 3.4499998, z: 0}
    p1: {x: 1.87, y: 0.5499999, z: 0}
    uv0: {x: 0.6062743, y: 0.61016536, z: 0}
    uv1: {x: 0.65223736, y: 0.53964007, z: 0}
    flipped: 0
    gradientUv: []
    advance: 1.14
    channel: 0
  - p0: {x: 0.26, y: 3.4499998, z: 0}
    p1: {x: 2.33, y: 0.5499999, z: 0}
    uv0: {x: 0.55544746, y: 0.60384244, z: 0}
    uv1: {x: 0.60578793, y: 0.53331715, z: 0}
    flipped: 0
    gradientUv: []
    advance: 1.43
    channel: 0
  - p0: {x: 0.26999998, y: 3.4499998, z: 0}
    p1: {x: 2.1499999, y: 0.5499999, z: 0}
    uv0: {x: 0.6527237, y: 0.6172179, z: 0}
    uv1: {x: 0.6984436, y: 0.5466926, z: 0}
    flipped: 0
    gradientUv: []
    advance: 1.43
    channel: 0
  - p0: {x: 0, y: 0, z: 0}
    p1: {x: 0, y: 0, z: 0}
    uv0: {x: 0, y: 0, z: 0}
    uv1: {x: 0, y: 0, z: 0}
    flipped: 0
    gradientUv:
    - {x: 0, y: 0}
    - {x: 0, y: 0}
    - {x: 0, y: 0}
    - {x: 0, y: 0}
    advance: 0
    channel: 0
  - p0: {x: -0.02, y: 3.4399998, z: 0}
    p1: {x: 2.44, y: 0.5499999, z: 0}
    uv0: {x: 0.24975681, y: 0.5325875, z: 0}
    uv1: {x: 0.30958173, y: 0.46230543, z: 0}
    flipped: 0
    gradientUv: []
    advance: 1.7099999
    channel: 0
  - p0: {x: -0.02, y: 3.4399998, z: 0}
    p1: {x: 2.1499999, y: 0.5499999, z: 0}
    uv0: {x: 0.8032588, y: 0.5466926, z: 0}
    uv1: {x: 0.8560312, y: 0.4764105, z: 0}
    flipped: 0
    gradientUv: []
    advance: 1.7099999
    channel: 0
  - p0: {x: -0.02, y: 3.4399998, z: 0}
    p1: {x: 2.44, y: 0.5499999, z: 0}
    uv0: {x: 0.18944553, y: 0.5325875, z: 0}
    uv1: {x: 0.24927042, y: 0.46230543, z: 0}
    flipped: 0
    gradientUv: []
    advance: 1.7099999
    channel: 0
  - p0: {x: -0.04, y: 3.4499998, z: 0}
    p1: {x: 2.32, y: 0.5499999, z: 0}
    uv0: {x: 0.12037938, y: 0.60359925, z: 0}
    uv1: {x: 0.17777237, y: 0.53307396, z: 0}
    flipped: 0
    gradientUv: []
    advance: 1.7099999
    channel: 0
  - p0: {x: -0.04, y: 3.4499998, z: 0}
    p1: {x: 2.4199998, y: 0.5499999, z: 0}
    uv0: {x: 0.5746595, y: 0.681177, z: 0}
    uv1: {x: 0.6344844, y: 0.61065173, z: 0}
    flipped: 0
    gradientUv: []
    advance: 1.7099999
    channel: 0
  - p0: {x: -0.02, y: 3.4399998, z: 0}
    p1: {x: 2.1499999, y: 0.5499999, z: 0}
    uv0: {x: 0, y: 0.46157587, z: 0}
    uv1: {x: 0.052772373, y: 0.39129376, z: 0}
    flipped: 0
    gradientUv: []
    advance: 1.7099999
    channel: 0
  - p0: {x: 0, y: 0, z: 0}
    p1: {x: 0, y: 0, z: 0}
    uv0: {x: 0, y: 0, z: 0}
    uv1: {x: 0, y: 0, z: 0}
    flipped: 0
    gradientUv:
    - {x: 0, y: 0}
    - {x: 0, y: 0}
    - {x: 0, y: 0}
    - {x: 0, y: 0}
    advance: 0
    channel: 0
  - p0: {x: -0.02, y: 2.59, z: 0}
    p1: {x: 2.1499999, y: 0.54999995, z: 0}
    uv0: {x: 0.88083655, y: 0.47592413, z: 0}
    uv1: {x: 0.93360895, y: 0.42631325, z: 0}
    flipped: 0
    gradientUv: []
    advance: 1.7099999
    channel: 0
  - p0: {x: -0.02, y: 3.4399998, z: 0}
    p1: {x: 2.1499999, y: 0.5499999, z: 0}
    uv0: {x: 0.48370624, y: 0.5325875, z: 0}
    uv1: {x: 0.53647864, y: 0.46230543, z: 0}
    flipped: 0
    gradientUv: []
    advance: 1.7099999
    channel: 0
  - p0: {x: -0.02, y: 3.4399998, z: 0}
    p1: {x: 2.44, y: 0.5499999, z: 0}
    uv0: {x: 0.12913424, y: 0.5325875, z: 0}
    uv1: {x: 0.18895914, y: 0.46230543, z: 0}
    flipped: 0
    gradientUv: []
    advance: 1.7099999
    channel: 0
  - p0: {x: -0.02, y: 3.4399998, z: 0}
    p1: {x: 2.34, y: 0.5499999, z: 0}
    uv0: {x: 0.36794746, y: 0.5325875, z: 0}
    uv1: {x: 0.42534044, y: 0.46230543, z: 0}
    flipped: 0
    gradientUv: []
    advance: 1.7099999
    channel: 0
  - p0: {x: -0.02, y: 3.4399998, z: 0}
    p1: {x: 2.1499999, y: 0.5499999, z: 0}
    uv0: {x: 0.53696495, y: 0.5325875, z: 0}
    uv1: {x: 0.58973736, y: 0.46230543, z: 0}
    flipped: 0
    gradientUv: []
    advance: 1.7099999
    channel: 0
  - p0: {x: -0.19, y: 3.4399998, z: 0}
    p1: {x: 2.44, y: -0.010000104, z: 0}
    uv0: {x: 0.42607003, y: 0.83025295, z: 0}
    uv1: {x: 0.4900292, y: 0.7463522, z: 0}
    flipped: 0
    gradientUv: []
    advance: 1.7099999
    channel: 0
  charDictKeys: 
  charDictValues: []
  fontPlatforms: []
  fontPlatformGUIDs: []
  hasPlatformData: 0
  managedFont: 0
  needMaterialInstance: 0
  isPacked: 0
  premultipliedAlpha: 0
  spriteCollection: {fileID: 0}
  useDictionary: 0
  kerning: []
  largestWidth: 3.4299998
  material: {fileID: 2100000, guid: aeec2b62cd0ec36448b50944cbe65af5, type: 2}
  gradientTexture: {fileID: 0}
  textureGradients: 0
  gradientCount: 1
  texelSize: {x: 0.01, y: 0.01}
  invOrthoSize: 2
  halfTargetHeight: 50
