%YAML 1.1
%TAG !u! tag:unity3d.com,2011:
--- !u!1001 &100100000
Prefab:
  m_ObjectHideFlags: 1
  serializedVersion: 2
  m_Modification:
    m_TransformParent: {fileID: 0}
    m_Modifications: []
    m_RemovedComponents: []
  m_ParentPrefab: {fileID: 0}
  m_RootGameObject: {fileID: 1000013129480598}
  m_IsPrefabParent: 1
--- !u!1 &1000013129480598
GameObject:
  m_ObjectHideFlags: 0
  m_PrefabParentObject: {fileID: 0}
  m_PrefabInternal: {fileID: 100100000}
  serializedVersion: 4
  m_Component:
  - 4: {fileID: 4000010934777382}
  - 114: {fileID: 114000014207164006}
  m_Layer: 0
  m_Name: GeminiArenaUnderwater
  m_TagString: Untagged
  m_Icon: {fileID: 0}
  m_NavMeshLayer: 0
  m_StaticEditorFlags: 0
  m_IsActive: 1
--- !u!4 &4000010934777382
Transform:
  m_ObjectHideFlags: 1
  m_PrefabParentObject: {fileID: 0}
  m_PrefabInternal: {fileID: 100100000}
  m_GameObject: {fileID: 1000013129480598}
  m_LocalRotation: {x: 0, y: 0, z: 0, w: 1}
  m_LocalPosition: {x: 0, y: 0, z: 0}
  m_LocalScale: {x: 1, y: 1, z: 1}
  m_LocalEulerAnglesHint: {x: 0, y: 0, z: 0}
  m_Children: []
  m_Father: {fileID: 0}
  m_RootOrder: 0
--- !u!114 &114000014207164006
MonoBehaviour:
  m_ObjectHideFlags: 1
  m_PrefabParentObject: {fileID: 0}
  m_PrefabInternal: {fileID: 100100000}
  m_GameObject: {fileID: 1000013129480598}
  m_Enabled: 1
  m_EditorHideFlags: 0
  m_Script: {fileID: 11500000, guid: d546f34a90531a14eaba82a43b05b86b, type: 3}
  m_Name: 
  m_EditorClassIdentifier: 
  version: 3
  materialIdsValid: 1
  needMaterialInstance: 0
  spriteDefinitions:
  - name: boat pillar shadow
    boundsData:
    - {x: 0.00500001, y: -0.004999995, z: 0}
    - {x: 0.47, y: 0.83, z: 0}
    untrimmedBoundsData:
    - {x: 0.00500001, y: -0.004999995, z: 0}
    - {x: 0.47, y: 0.83, z: 0}
    texelSize: {x: 0.01, y: 0.01}
    positions:
    - {x: -0.22999999, y: -0.42, z: 0}
    - {x: 0.24000001, y: -0.42, z: 0}
    - {x: -0.22999999, y: 0.41, z: 0}
    - {x: 0.24000001, y: 0.41, z: 0}
    normals: []
    tangents: []
    uvs:
    - {x: 0.8925801, y: 0.3847676}
    - {x: 0.98437303, y: 0.3847676}
    - {x: 0.8925801, y: 0.54687303}
    - {x: 0.98437303, y: 0.54687303}
    normalizedUvs:
    - {x: 0, y: 0}
    - {x: 1, y: 0}
    - {x: 0, y: 1}
    - {x: 1, y: 1}
    indices: 000000000300000001000000020000000300000000000000
    material: {fileID: 2100000, guid: 400737e79ad4edd40ba8a6ae54c6442f, type: 2}
    materialId: 0
    sourceTextureGUID: 1a324e10db92d614eb1f57eb1f380930
    extractRegion: 0
    regionX: 0
    regionY: 0
    regionW: 0
    regionH: 0
    flipped: 0
    complexGeometry: 0
    physicsEngine: 0
    colliderType: 0
    customColliders: []
    colliderVertices: []
    colliderIndicesFwd: 
    colliderIndicesBack: 
    colliderConvex: 0
    colliderSmoothSphereCollisions: 0
    polygonCollider2D: []
    edgeCollider2D: []
    attachPoints: []
  - name: bottomleft cliff shadow
    boundsData:
    - {x: 0, y: -0.004999995, z: 0}
    - {x: 1.74, y: 2.71, z: 0}
    untrimmedBoundsData:
    - {x: 0, y: -0.004999995, z: 0}
    - {x: 1.74, y: 2.71, z: 0}
    texelSize: {x: 0.01, y: 0.01}
    positions:
    - {x: -0.87, y: -1.36, z: 0}
    - {x: 0.87, y: -1.36, z: 0}
    - {x: -0.87, y: 1.35, z: 0}
    - {x: 0.87, y: 1.35, z: 0}
    normals: []
    tangents: []
    uvs:
    - {x: 0.003908203, y: 0.49609572}
    - {x: 0.003908203, y: 0.83593553}
    - {x: 0.53320116, y: 0.49609572}
    - {x: 0.53320116, y: 0.83593553}
    normalizedUvs:
    - {x: 0, y: 0}
    - {x: 0, y: 1}
    - {x: 1, y: 0}
    - {x: 1, y: 1}
    indices: 000000000300000001000000020000000300000000000000
    material: {fileID: 2100000, guid: 400737e79ad4edd40ba8a6ae54c6442f, type: 2}
    materialId: 0
    sourceTextureGUID: 1a541235ab7a1e84bb6e14da592d6ba7
    extractRegion: 0
    regionX: 0
    regionY: 0
    regionW: 0
    regionH: 0
    flipped: 1
    complexGeometry: 0
    physicsEngine: 0
    colliderType: 0
    customColliders: []
    colliderVertices: []
    colliderIndicesFwd: 
    colliderIndicesBack: 
    colliderConvex: 0
    colliderSmoothSphereCollisions: 0
    polygonCollider2D: []
    edgeCollider2D: []
    attachPoints: []
  - name: topleft cliff shadow
    boundsData:
    - {x: 0, y: 0, z: 0}
    - {x: 3.6399999, y: 2.48, z: 0}
    untrimmedBoundsData:
    - {x: 0, y: 0, z: 0}
    - {x: 3.6399999, y: 2.48, z: 0}
    texelSize: {x: 0.01, y: 0.01}
    positions:
    - {x: -1.8199999, y: -1.24, z: 0}
    - {x: 1.8199999, y: -1.24, z: 0}
    - {x: -1.8199999, y: 1.24, z: 0}
    - {x: 1.8199999, y: 1.24, z: 0}
    normals: []
    tangents: []
    uvs:
    - {x: 0.003908203, y: 0.003908203}
    - {x: 0.7148418, y: 0.003908203}
    - {x: 0.003908203, y: 0.48827928}
    - {x: 0.7148418, y: 0.48827928}
    normalizedUvs:
    - {x: 0, y: 0}
    - {x: 1, y: 0}
    - {x: 0, y: 1}
    - {x: 1, y: 1}
    indices: 000000000300000001000000020000000300000000000000
    material: {fileID: 2100000, guid: 400737e79ad4edd40ba8a6ae54c6442f, type: 2}
    materialId: 0
    sourceTextureGUID: a30614771f17bf14cb33a321bc329305
    extractRegion: 0
    regionX: 0
    regionY: 0
    regionW: 0
    regionH: 0
    flipped: 0
    complexGeometry: 0
    physicsEngine: 0
    colliderType: 0
    customColliders: []
    colliderVertices: []
    colliderIndicesFwd: 
    colliderIndicesBack: 
    colliderConvex: 0
    colliderSmoothSphereCollisions: 0
    polygonCollider2D: []
    edgeCollider2D: []
    attachPoints: []
  - name: topleft pillar shadow
    boundsData:
    - {x: 0, y: -0.004999995, z: 0}
    - {x: 1.76, y: 0.89, z: 0}
    untrimmedBoundsData:
    - {x: 0, y: -0.004999995, z: 0}
    - {x: 1.76, y: 0.89, z: 0}
    texelSize: {x: 0.01, y: 0.01}
    positions:
    - {x: -0.88, y: -0.45, z: 0}
    - {x: 0.88, y: -0.45, z: 0}
    - {x: -0.88, y: 0.44, z: 0}
    - {x: 0.88, y: 0.44, z: 0}
    normals: []
    tangents: []
    uvs:
    - {x: 0.5410176, y: 0.49609572}
    - {x: 0.5410176, y: 0.8398418}
    - {x: 0.7148418, y: 0.49609572}
    - {x: 0.7148418, y: 0.8398418}
    normalizedUvs:
    - {x: 0, y: 0}
    - {x: 0, y: 1}
    - {x: 1, y: 0}
    - {x: 1, y: 1}
    indices: 000000000300000001000000020000000300000000000000
    material: {fileID: 2100000, guid: 400737e79ad4edd40ba8a6ae54c6442f, type: 2}
    materialId: 0
    sourceTextureGUID: b86ad1d9280473b44884466f111d6ce2
    extractRegion: 0
    regionX: 0
    regionY: 0
    regionW: 0
    regionH: 0
    flipped: 1
    complexGeometry: 0
    physicsEngine: 0
    colliderType: 0
    customColliders: []
    colliderVertices: []
    colliderIndicesFwd: 
    colliderIndicesBack: 
    colliderConvex: 0
    colliderSmoothSphereCollisions: 0
    polygonCollider2D: []
    edgeCollider2D: []
    attachPoints: []
  - name: bottom left pillar shadow
    boundsData:
    - {x: 0.004999995, y: -0.005000025, z: 0}
    - {x: 0.42999998, y: 0.72999996, z: 0}
    untrimmedBoundsData:
    - {x: 0.004999995, y: -0.005000025, z: 0}
    - {x: 0.42999998, y: 0.72999996, z: 0}
    texelSize: {x: 0.01, y: 0.01}
    positions:
    - {x: -0.21, y: -0.37, z: 0}
    - {x: 0.21999998, y: -0.37, z: 0}
    - {x: -0.21, y: 0.35999995, z: 0}
    - {x: 0.21999998, y: 0.35999995, z: 0}
    normals: []
    tangents: []
    uvs:
    - {x: 0.7226582, y: 0.45117384}
    - {x: 0.7226582, y: 0.5351543}
    - {x: 0.8652324, y: 0.45117384}
    - {x: 0.8652324, y: 0.5351543}
    normalizedUvs:
    - {x: 0, y: 0}
    - {x: 0, y: 1}
    - {x: 1, y: 0}
    - {x: 1, y: 1}
    indices: 000000000300000001000000020000000300000000000000
    material: {fileID: 2100000, guid: 400737e79ad4edd40ba8a6ae54c6442f, type: 2}
    materialId: 0
    sourceTextureGUID: a5a114e9ad36b9a41833a6599e98d2c9
    extractRegion: 0
    regionX: 0
    regionY: 0
    regionW: 0
    regionH: 0
    flipped: 1
    complexGeometry: 0
    physicsEngine: 0
    colliderType: 0
    customColliders: []
    colliderVertices: []
    colliderIndicesFwd: 
    colliderIndicesBack: 
    colliderConvex: 0
    colliderSmoothSphereCollisions: 0
    polygonCollider2D: []
    edgeCollider2D: []
    attachPoints: []
  - name: decking shadow
    boundsData:
    - {x: 0.004999995, y: -0.004999995, z: 0}
    - {x: 2.25, y: 0.83, z: 0}
    untrimmedBoundsData:
    - {x: 0.004999995, y: -0.004999995, z: 0}
    - {x: 2.25, y: 0.83, z: 0}
    texelSize: {x: 0.01, y: 0.01}
    positions:
    - {x: -1.12, y: -0.42, z: 0}
    - {x: 1.13, y: -0.42, z: 0}
    - {x: -1.12, y: 0.41, z: 0}
    - {x: 1.13, y: 0.41, z: 0}
    normals: []
    tangents: []
    uvs:
    - {x: 0.7226582, y: 0.003908203}
    - {x: 0.7226582, y: 0.4433574}
    - {x: 0.88476366, y: 0.003908203}
    - {x: 0.88476366, y: 0.4433574}
    normalizedUvs:
    - {x: 0, y: 0}
    - {x: 0, y: 1}
    - {x: 1, y: 0}
    - {x: 1, y: 1}
    indices: 000000000300000001000000020000000300000000000000
    material: {fileID: 2100000, guid: 400737e79ad4edd40ba8a6ae54c6442f, type: 2}
    materialId: 0
    sourceTextureGUID: cc80403afa9f86e4ab905c84c8aa416b
    extractRegion: 0
    regionX: 0
    regionY: 0
    regionW: 0
    regionH: 0
    flipped: 1
    complexGeometry: 0
    physicsEngine: 0
    colliderType: 0
    customColliders: []
    colliderVertices: []
    colliderIndicesFwd: 
    colliderIndicesBack: 
    colliderConvex: 0
    colliderSmoothSphereCollisions: 0
    polygonCollider2D: []
    edgeCollider2D: []
    attachPoints: []
  - name: boat water layer
    boundsData:
    - {x: 0.004999995, y: -0.004999995, z: 0}
    - {x: 1.91, y: 0.41, z: 0}
    untrimmedBoundsData:
    - {x: 0.004999995, y: -0.004999995, z: 0}
    - {x: 1.91, y: 0.41, z: 0}
    texelSize: {x: 0.01, y: 0.01}
    positions:
    - {x: -0.95, y: -0.21, z: 0}
    - {x: 0.96, y: -0.21, z: 0}
    - {x: -0.95, y: 0.2, z: 0}
    - {x: 0.96, y: 0.2, z: 0}
    normals: []
    tangents: []
    uvs:
    - {x: 0.8925801, y: 0.003908203}
    - {x: 0.8925801, y: 0.37695116}
    - {x: 0.9726543, y: 0.003908203}
    - {x: 0.9726543, y: 0.37695116}
    normalizedUvs:
    - {x: 0, y: 0}
    - {x: 0, y: 1}
    - {x: 1, y: 0}
    - {x: 1, y: 1}
    indices: 000000000300000001000000020000000300000000000000
    material: {fileID: 2100000, guid: 400737e79ad4edd40ba8a6ae54c6442f, type: 2}
    materialId: 0
    sourceTextureGUID: 6306db8ca15763d4a947f1ae55d9c04d
    extractRegion: 0
    regionX: 0
    regionY: 0
    regionW: 0
    regionH: 0
    flipped: 1
    complexGeometry: 0
    physicsEngine: 0
    colliderType: 0
    customColliders: []
    colliderVertices: []
    colliderIndicesFwd: 
    colliderIndicesBack: 
    colliderConvex: 0
    colliderSmoothSphereCollisions: 0
    polygonCollider2D: []
    edgeCollider2D: []
    attachPoints: []
  premultipliedAlpha: 1
  material: {fileID: 0}
  materials:
  - {fileID: 2100000, guid: 400737e79ad4edd40ba8a6ae54c6442f, type: 2}
  textures:
  - {fileID: 2800000, guid: 9162f67a61e1c5148bbbf9c7f797d2f0, type: 3}
  pngTextures: []
  materialPngTextureId: 00000000
  textureFilterMode: 1
  textureMipMaps: 0
  allowMultipleAtlases: 0
  spriteCollectionGUID: a3da8fdc6b1f8744f954fbfd9cdf8aab
  spriteCollectionName: GeminiArenaUnderwater
  assetName: 
  loadable: 0
  invOrthoSize: 2
  halfTargetHeight: 50
  buildKey: 494013968
  dataGuid: 4ee2ec778b5f2234b8fbaae857cfd311
  managedSpriteCollection: 0
  hasPlatformData: 0
  spriteCollectionPlatforms: []
  spriteCollectionPlatformGUIDs: []
