%YAML 1.1
%TAG !u! tag:unity3d.com,2011:
--- !u!114 &11400000
MonoBehaviour:
  m_ObjectHideFlags: 0
  m_PrefabParentObject: {fileID: 0}
  m_PrefabInternal: {fileID: 0}
  m_GameObject: {fileID: 0}
  m_Enabled: 1
  m_EditorHideFlags: 0
  m_Script: {fileID: 11500000, guid: ef4d10bfb7df02c4d9c1f766d8bdab1a, type: 3}
  m_Name: Level
  m_EditorClassIdentifier: 
  levelName: Trailer Boss
  blockLayoutTop: {fileID: 0}
  blockLayoutBottom: {fileID: 11400000, guid: ab40cfef41f3ab14b8a2ff1d831affe0, type: 2}
