%YAML 1.1
%TAG !u! tag:unity3d.com,2011:
--- !u!114 &11400000
MonoBehaviour:
  m_ObjectHideFlags: 0
  m_PrefabParentObject: {fileID: 0}
  m_PrefabInternal: {fileID: 0}
  m_GameObject: {fileID: 0}
  m_Enabled: 1
  m_EditorHideFlags: 0
  m_Script: {fileID: 11500000, guid: ef4d10bfb7df02c4d9c1f766d8bdab1a, type: 3}
  m_Name: Level 14
  m_EditorClassIdentifier: 
  levelName: CampaignLevel 8
  blockLayoutTop: {fileID: 11400000, guid: afff149146f851642b17a4cd72648306, type: 2}
  blockLayoutBottom: {fileID: 11400000, guid: c974891363349164580d2c6caa8b08cc, type: 2}
