%YAML 1.1
%TAG !u! tag:unity3d.com,2011:
--- !u!114 &11400000
MonoBehaviour:
  m_ObjectHideFlags: 0
  m_PrefabParentObject: {fileID: 0}
  m_PrefabInternal: {fileID: 0}
  m_GameObject: {fileID: 0}
  m_Enabled: 1
  m_EditorHideFlags: 0
  m_Script: {fileID: 11500000, guid: ef4d10bfb7df02c4d9c1f766d8bdab1a, type: 3}
  m_Name: Level 24
  m_EditorClassIdentifier: 
  levelName: CampaignLevel 19
  blockLayoutTop: {fileID: 11400000, guid: 67c37353b923dad40a58abfdd99a0edd, type: 2}
  blockLayoutBottom: {fileID: 11400000, guid: ca757f1ca999c8d4e9d9851ab06e93d9, type: 2}
  scriptPrefab: {fileID: 0}
