%YAML 1.1
%TAG !u! tag:unity3d.com,2011:
--- !u!114 &11400000
MonoBehaviour:
  m_ObjectHideFlags: 0
  m_PrefabParentObject: {fileID: 0}
  m_PrefabInternal: {fileID: 0}
  m_GameObject: {fileID: 0}
  m_Enabled: 1
  m_EditorHideFlags: 0
  m_Script: {fileID: 11500000, guid: ef4d10bfb7df02c4d9c1f766d8bdab1a, type: 3}
  m_Name: Level 11
  m_EditorClassIdentifier: 
  levelName: CampaignLevel 1
  blockLayoutTop: {fileID: 11400000, guid: 9e9d653c65abe22408217979fc2c011f, type: 2}
  blockLayoutBottom: {fileID: 11400000, guid: 6e7fa78c3ce91d349bc62095ff540995, type: 2}
