%YAML 1.1
%TAG !u! tag:unity3d.com,2011:
--- !u!1001 &100100000
Prefab:
  m_ObjectHideFlags: 1
  serializedVersion: 2
  m_Modification:
    m_TransformParent: {fileID: 0}
    m_Modifications: []
    m_RemovedComponents: []
  m_ParentPrefab: {fileID: 0}
  m_RootGameObject: {fileID: 1000010272804892}
  m_IsPrefabParent: 1
--- !u!1 &1000010272804892
GameObject:
  m_ObjectHideFlags: 0
  m_PrefabParentObject: {fileID: 0}
  m_PrefabInternal: {fileID: 100100000}
  serializedVersion: 4
  m_Component:
  - 4: {fileID: 4000013794229402}
  - 114: {fileID: 114000011625914816}
  m_Layer: 0
  m_Name: fff-forward-32data
  m_TagString: Untagged
  m_Icon: {fileID: 0}
  m_NavMeshLayer: 0
  m_StaticEditorFlags: 0
  m_IsActive: 0
--- !u!4 &4000013794229402
Transform:
  m_ObjectHideFlags: 1
  m_PrefabParentObject: {fileID: 0}
  m_PrefabInternal: {fileID: 100100000}
  m_GameObject: {fileID: 1000010272804892}
  m_LocalRotation: {x: 0, y: 0, z: 0, w: 1}
  m_LocalPosition: {x: 0, y: 0, z: 0}
  m_LocalScale: {x: 1, y: 1, z: 1}
  m_LocalEulerAnglesHint: {x: 0, y: 0, z: 0}
  m_Children: []
  m_Father: {fileID: 0}
  m_RootOrder: 0
--- !u!114 &114000011625914816
MonoBehaviour:
  m_ObjectHideFlags: 1
  m_PrefabParentObject: {fileID: 0}
  m_PrefabInternal: {fileID: 100100000}
  m_GameObject: {fileID: 1000010272804892}
  m_Enabled: 1
  m_EditorHideFlags: 0
  m_Script: {fileID: 11500000, guid: 023bfc31841d2f24ba7eb00462467382, type: 3}
  m_Name: 
  m_EditorClassIdentifier: 
  version: 2
  lineHeight: 0.32
  chars:
  - p0: {x: 0, y: 0, z: 0}
    p1: {x: 0, y: 0, z: 0}
    uv0: {x: 0, y: 0, z: 0}
    uv1: {x: 0, y: 0, z: 0}
    flipped: 0
    gradientUv:
    - {x: 0, y: 0}
    - {x: 0, y: 0}
    - {x: 0, y: 0}
    - {x: 0, y: 0}
    advance: 0
    channel: 0
  - p0: {x: 0, y: 0, z: 0}
    p1: {x: 0, y: 0, z: 0}
    uv0: {x: 0, y: 0, z: 0}
    uv1: {x: 0, y: 0, z: 0}
    flipped: 0
    gradientUv:
    - {x: 0, y: 0}
    - {x: 0, y: 0}
    - {x: 0, y: 0}
    - {x: 0, y: 0}
    advance: 0
    channel: 0
  - p0: {x: 0, y: 0, z: 0}
    p1: {x: 0, y: 0, z: 0}
    uv0: {x: 0, y: 0, z: 0}
    uv1: {x: 0, y: 0, z: 0}
    flipped: 0
    gradientUv:
    - {x: 0, y: 0}
    - {x: 0, y: 0}
    - {x: 0, y: 0}
    - {x: 0, y: 0}
    advance: 0
    channel: 0
  - p0: {x: 0, y: 0, z: 0}
    p1: {x: 0, y: 0, z: 0}
    uv0: {x: 0, y: 0, z: 0}
    uv1: {x: 0, y: 0, z: 0}
    flipped: 0
    gradientUv:
    - {x: 0, y: 0}
    - {x: 0, y: 0}
    - {x: 0, y: 0}
    - {x: 0, y: 0}
    advance: 0
    channel: 0
  - p0: {x: 0, y: 0, z: 0}
    p1: {x: 0, y: 0, z: 0}
    uv0: {x: 0, y: 0, z: 0}
    uv1: {x: 0, y: 0, z: 0}
    flipped: 0
    gradientUv:
    - {x: 0, y: 0}
    - {x: 0, y: 0}
    - {x: 0, y: 0}
    - {x: 0, y: 0}
    advance: 0
    channel: 0
  - p0: {x: 0, y: 0, z: 0}
    p1: {x: 0, y: 0, z: 0}
    uv0: {x: 0, y: 0, z: 0}
    uv1: {x: 0, y: 0, z: 0}
    flipped: 0
    gradientUv:
    - {x: 0, y: 0}
    - {x: 0, y: 0}
    - {x: 0, y: 0}
    - {x: 0, y: 0}
    advance: 0
    channel: 0
  - p0: {x: 0, y: 0, z: 0}
    p1: {x: 0, y: 0, z: 0}
    uv0: {x: 0, y: 0, z: 0}
    uv1: {x: 0, y: 0, z: 0}
    flipped: 0
    gradientUv:
    - {x: 0, y: 0}
    - {x: 0, y: 0}
    - {x: 0, y: 0}
    - {x: 0, y: 0}
    advance: 0
    channel: 0
  - p0: {x: 0, y: 0, z: 0}
    p1: {x: 0, y: 0, z: 0}
    uv0: {x: 0, y: 0, z: 0}
    uv1: {x: 0, y: 0, z: 0}
    flipped: 0
    gradientUv:
    - {x: 0, y: 0}
    - {x: 0, y: 0}
    - {x: 0, y: 0}
    - {x: 0, y: 0}
    advance: 0
    channel: 0
  - p0: {x: 0, y: 0, z: 0}
    p1: {x: 0, y: 0, z: 0}
    uv0: {x: 0, y: 0, z: 0}
    uv1: {x: 0, y: 0, z: 0}
    flipped: 0
    gradientUv:
    - {x: 0, y: 0}
    - {x: 0, y: 0}
    - {x: 0, y: 0}
    - {x: 0, y: 0}
    advance: 0
    channel: 0
  - p0: {x: 0, y: 0, z: 0}
    p1: {x: 0, y: 0, z: 0}
    uv0: {x: 0, y: 0, z: 0}
    uv1: {x: 0, y: 0, z: 0}
    flipped: 0
    gradientUv:
    - {x: 0, y: 0}
    - {x: 0, y: 0}
    - {x: 0, y: 0}
    - {x: 0, y: 0}
    advance: 0
    channel: 0
  - p0: {x: 0, y: 0, z: 0}
    p1: {x: 0, y: 0, z: 0}
    uv0: {x: 0, y: 0, z: 0}
    uv1: {x: 0, y: 0, z: 0}
    flipped: 0
    gradientUv:
    - {x: 0, y: 0}
    - {x: 0, y: 0}
    - {x: 0, y: 0}
    - {x: 0, y: 0}
    advance: 0
    channel: 0
  - p0: {x: 0, y: 0, z: 0}
    p1: {x: 0, y: 0, z: 0}
    uv0: {x: 0, y: 0, z: 0}
    uv1: {x: 0, y: 0, z: 0}
    flipped: 0
    gradientUv:
    - {x: 0, y: 0}
    - {x: 0, y: 0}
    - {x: 0, y: 0}
    - {x: 0, y: 0}
    advance: 0
    channel: 0
  - p0: {x: 0, y: 0, z: 0}
    p1: {x: 0, y: 0, z: 0}
    uv0: {x: 0, y: 0, z: 0}
    uv1: {x: 0, y: 0, z: 0}
    flipped: 0
    gradientUv:
    - {x: 0, y: 0}
    - {x: 0, y: 0}
    - {x: 0, y: 0}
    - {x: 0, y: 0}
    advance: 0
    channel: 0
  - p0: {x: 0, y: 0, z: 0}
    p1: {x: 0, y: 0, z: 0}
    uv0: {x: 0, y: 0, z: 0}
    uv1: {x: 0, y: 0, z: 0}
    flipped: 0
    gradientUv:
    - {x: 0, y: 0}
    - {x: 0, y: 0}
    - {x: 0, y: 0}
    - {x: 0, y: 0}
    advance: 0
    channel: 0
  - p0: {x: 0, y: 0, z: 0}
    p1: {x: 0, y: 0, z: 0}
    uv0: {x: 0, y: 0, z: 0}
    uv1: {x: 0, y: 0, z: 0}
    flipped: 0
    gradientUv:
    - {x: 0, y: 0}
    - {x: 0, y: 0}
    - {x: 0, y: 0}
    - {x: 0, y: 0}
    advance: 0
    channel: 0
  - p0: {x: 0, y: 0, z: 0}
    p1: {x: 0, y: 0, z: 0}
    uv0: {x: 0, y: 0, z: 0}
    uv1: {x: 0, y: 0, z: 0}
    flipped: 0
    gradientUv:
    - {x: 0, y: 0}
    - {x: 0, y: 0}
    - {x: 0, y: 0}
    - {x: 0, y: 0}
    advance: 0
    channel: 0
  - p0: {x: 0, y: 0, z: 0}
    p1: {x: 0, y: 0, z: 0}
    uv0: {x: 0, y: 0, z: 0}
    uv1: {x: 0, y: 0, z: 0}
    flipped: 0
    gradientUv:
    - {x: 0, y: 0}
    - {x: 0, y: 0}
    - {x: 0, y: 0}
    - {x: 0, y: 0}
    advance: 0
    channel: 0
  - p0: {x: 0, y: 0, z: 0}
    p1: {x: 0, y: 0, z: 0}
    uv0: {x: 0, y: 0, z: 0}
    uv1: {x: 0, y: 0, z: 0}
    flipped: 0
    gradientUv:
    - {x: 0, y: 0}
    - {x: 0, y: 0}
    - {x: 0, y: 0}
    - {x: 0, y: 0}
    advance: 0
    channel: 0
  - p0: {x: 0, y: 0, z: 0}
    p1: {x: 0, y: 0, z: 0}
    uv0: {x: 0, y: 0, z: 0}
    uv1: {x: 0, y: 0, z: 0}
    flipped: 0
    gradientUv:
    - {x: 0, y: 0}
    - {x: 0, y: 0}
    - {x: 0, y: 0}
    - {x: 0, y: 0}
    advance: 0
    channel: 0
  - p0: {x: 0, y: 0, z: 0}
    p1: {x: 0, y: 0, z: 0}
    uv0: {x: 0, y: 0, z: 0}
    uv1: {x: 0, y: 0, z: 0}
    flipped: 0
    gradientUv:
    - {x: 0, y: 0}
    - {x: 0, y: 0}
    - {x: 0, y: 0}
    - {x: 0, y: 0}
    advance: 0
    channel: 0
  - p0: {x: 0, y: 0, z: 0}
    p1: {x: 0, y: 0, z: 0}
    uv0: {x: 0, y: 0, z: 0}
    uv1: {x: 0, y: 0, z: 0}
    flipped: 0
    gradientUv:
    - {x: 0, y: 0}
    - {x: 0, y: 0}
    - {x: 0, y: 0}
    - {x: 0, y: 0}
    advance: 0
    channel: 0
  - p0: {x: 0, y: 0, z: 0}
    p1: {x: 0, y: 0, z: 0}
    uv0: {x: 0, y: 0, z: 0}
    uv1: {x: 0, y: 0, z: 0}
    flipped: 0
    gradientUv:
    - {x: 0, y: 0}
    - {x: 0, y: 0}
    - {x: 0, y: 0}
    - {x: 0, y: 0}
    advance: 0
    channel: 0
  - p0: {x: 0, y: 0, z: 0}
    p1: {x: 0, y: 0, z: 0}
    uv0: {x: 0, y: 0, z: 0}
    uv1: {x: 0, y: 0, z: 0}
    flipped: 0
    gradientUv:
    - {x: 0, y: 0}
    - {x: 0, y: 0}
    - {x: 0, y: 0}
    - {x: 0, y: 0}
    advance: 0
    channel: 0
  - p0: {x: 0, y: 0, z: 0}
    p1: {x: 0, y: 0, z: 0}
    uv0: {x: 0, y: 0, z: 0}
    uv1: {x: 0, y: 0, z: 0}
    flipped: 0
    gradientUv:
    - {x: 0, y: 0}
    - {x: 0, y: 0}
    - {x: 0, y: 0}
    - {x: 0, y: 0}
    advance: 0
    channel: 0
  - p0: {x: 0, y: 0, z: 0}
    p1: {x: 0, y: 0, z: 0}
    uv0: {x: 0, y: 0, z: 0}
    uv1: {x: 0, y: 0, z: 0}
    flipped: 0
    gradientUv:
    - {x: 0, y: 0}
    - {x: 0, y: 0}
    - {x: 0, y: 0}
    - {x: 0, y: 0}
    advance: 0
    channel: 0
  - p0: {x: 0, y: 0, z: 0}
    p1: {x: 0, y: 0, z: 0}
    uv0: {x: 0, y: 0, z: 0}
    uv1: {x: 0, y: 0, z: 0}
    flipped: 0
    gradientUv:
    - {x: 0, y: 0}
    - {x: 0, y: 0}
    - {x: 0, y: 0}
    - {x: 0, y: 0}
    advance: 0
    channel: 0
  - p0: {x: 0, y: 0, z: 0}
    p1: {x: 0, y: 0, z: 0}
    uv0: {x: 0, y: 0, z: 0}
    uv1: {x: 0, y: 0, z: 0}
    flipped: 0
    gradientUv:
    - {x: 0, y: 0}
    - {x: 0, y: 0}
    - {x: 0, y: 0}
    - {x: 0, y: 0}
    advance: 0
    channel: 0
  - p0: {x: 0, y: 0, z: 0}
    p1: {x: 0, y: 0, z: 0}
    uv0: {x: 0, y: 0, z: 0}
    uv1: {x: 0, y: 0, z: 0}
    flipped: 0
    gradientUv:
    - {x: 0, y: 0}
    - {x: 0, y: 0}
    - {x: 0, y: 0}
    - {x: 0, y: 0}
    advance: 0
    channel: 0
  - p0: {x: 0, y: 0, z: 0}
    p1: {x: 0, y: 0, z: 0}
    uv0: {x: 0, y: 0, z: 0}
    uv1: {x: 0, y: 0, z: 0}
    flipped: 0
    gradientUv:
    - {x: 0, y: 0}
    - {x: 0, y: 0}
    - {x: 0, y: 0}
    - {x: 0, y: 0}
    advance: 0
    channel: 0
  - p0: {x: 0, y: 0, z: 0}
    p1: {x: 0, y: 0, z: 0}
    uv0: {x: 0, y: 0, z: 0}
    uv1: {x: 0, y: 0, z: 0}
    flipped: 0
    gradientUv:
    - {x: 0, y: 0}
    - {x: 0, y: 0}
    - {x: 0, y: 0}
    - {x: 0, y: 0}
    advance: 0
    channel: 0
  - p0: {x: 0, y: 0, z: 0}
    p1: {x: 0, y: 0, z: 0}
    uv0: {x: 0, y: 0, z: 0}
    uv1: {x: 0, y: 0, z: 0}
    flipped: 0
    gradientUv:
    - {x: 0, y: 0}
    - {x: 0, y: 0}
    - {x: 0, y: 0}
    - {x: 0, y: 0}
    advance: 0
    channel: 0
  - p0: {x: 0, y: 0, z: 0}
    p1: {x: 0, y: 0, z: 0}
    uv0: {x: 0, y: 0, z: 0}
    uv1: {x: 0, y: 0, z: 0}
    flipped: 0
    gradientUv:
    - {x: 0, y: 0}
    - {x: 0, y: 0}
    - {x: 0, y: 0}
    - {x: 0, y: 0}
    advance: 0
    channel: 0
  - p0: {x: -0.01, y: 0.01, z: 0}
    p1: {x: 0.02, y: 0, z: 0}
    uv0: {x: 0.9765625, y: 1, z: 0}
    uv1: {x: 0.98828125, y: 0.99609375, z: 0}
    flipped: 0
    gradientUv: []
    advance: 0.07
    channel: 0
  - p0: {x: 0, y: 0.28, z: 0}
    p1: {x: 0.06, y: 0.050000004, z: 0}
    uv0: {x: 0.96484375, y: 0.78125, z: 0}
    uv1: {x: 0.98828125, y: 0.69140625, z: 0}
    flipped: 0
    gradientUv: []
    advance: 0.07
    channel: 0
  - p0: {x: 0, y: 0.28, z: 0}
    p1: {x: 0.13, y: 0.18, z: 0}
    uv0: {x: 0.72265625, y: 0.24609375, z: 0}
    uv1: {x: 0.7734375, y: 0.20703125, z: 0}
    flipped: 0
    gradientUv: []
    advance: 0.14
    channel: 0
  - p0: {x: 0, y: 0.25, z: 0}
    p1: {x: 0.17999999, y: 0.050000004, z: 0}
    uv0: {x: 0.19140625, y: 0.29296875, z: 0}
    uv1: {x: 0.26171875, y: 0.21484375, z: 0}
    flipped: 0
    gradientUv: []
    advance: 0.17999999
    channel: 0
  - p0: {x: 0, y: 0.29999998, z: 0}
    p1: {x: 0.16, y: 0.029999988, z: 0}
    uv0: {x: 0.64453125, y: 1, z: 0}
    uv1: {x: 0.70703125, y: 0.89453125, z: 0}
    flipped: 0
    gradientUv: []
    advance: 0.16
    channel: 0
  - p0: {x: 0, y: 0.28, z: 0}
    p1: {x: 0.19999999, y: 0.050000004, z: 0}
    uv0: {x: 0.578125, y: 0.78125, z: 0}
    uv1: {x: 0.65625, y: 0.69140625, z: 0}
    flipped: 0
    gradientUv: []
    advance: 0.19999999
    channel: 0
  - p0: {x: 0, y: 0.28, z: 0}
    p1: {x: 0.19999999, y: 0.050000004, z: 0}
    uv0: {x: 0.7421875, y: 0.78125, z: 0}
    uv1: {x: 0.8203125, y: 0.69140625, z: 0}
    flipped: 0
    gradientUv: []
    advance: 0.19999999
    channel: 0
  - p0: {x: 0, y: 0.28, z: 0}
    p1: {x: 0.06, y: 0.18, z: 0}
    uv0: {x: 0.83203125, y: 0.24609375, z: 0}
    uv1: {x: 0.85546875, y: 0.20703125, z: 0}
    flipped: 0
    gradientUv: []
    advance: 0.07
    channel: 0
  - p0: {x: 0, y: 0.29999998, z: 0}
    p1: {x: 0.089999996, y: 0.029999988, z: 0}
    uv0: {x: 0.171875, y: 0.77734375, z: 0}
    uv1: {x: 0.20703125, y: 0.671875, z: 0}
    flipped: 0
    gradientUv: []
    advance: 0.089999996
    channel: 0
  - p0: {x: 0, y: 0.29999998, z: 0}
    p1: {x: 0.089999996, y: 0.029999988, z: 0}
    uv0: {x: 0.1328125, y: 0.77734375, z: 0}
    uv1: {x: 0.16796875, y: 0.671875, z: 0}
    flipped: 0
    gradientUv: []
    advance: 0.089999996
    channel: 0
  - p0: {x: 0, y: 0.22999999, z: 0}
    p1: {x: 0.17999999, y: 0.11999999, z: 0}
    uv0: {x: 0.59375, y: 0.24609375, z: 0}
    uv1: {x: 0.6640625, y: 0.203125, z: 0}
    flipped: 0
    gradientUv: []
    advance: 0.17999999
    channel: 0
  - p0: {x: 0, y: 0.22999999, z: 0}
    p1: {x: 0.14999999, y: 0.049999993, z: 0}
    uv0: {x: 0.37890625, y: 0.29296875, z: 0}
    uv1: {x: 0.4375, y: 0.22265625, z: 0}
    flipped: 0
    gradientUv: []
    advance: 0.16
    channel: 0
  - p0: {x: 0, y: 0.099999994, z: 0}
    p1: {x: 0.06, y: -0.0000000037252903, z: 0}
    uv0: {x: 0.859375, y: 0.24609375, z: 0}
    uv1: {x: 0.8828125, y: 0.20703125, z: 0}
    flipped: 0
    gradientUv: []
    advance: 0.07
    channel: 0
  - p0: {x: 0, y: 0.16, z: 0}
    p1: {x: 0.13, y: 0.12, z: 0}
    uv0: {x: 0.07421875, y: 0.140625, z: 0}
    uv1: {x: 0.125, y: 0.125, z: 0}
    flipped: 0
    gradientUv: []
    advance: 0.14
    channel: 0
  - p0: {x: 0, y: 0.099999994, z: 0}
    p1: {x: 0.06, y: 0.049999997, z: 0}
    uv0: {x: 0.96875, y: 0.25390625, z: 0}
    uv1: {x: 0.9921875, y: 0.234375, z: 0}
    flipped: 0
    gradientUv: []
    advance: 0.07
    channel: 0
  - p0: {x: 0, y: 0.28, z: 0}
    p1: {x: 0.16, y: 0.050000004, z: 0}
    uv0: {x: 0.06640625, y: 0.57421875, z: 0}
    uv1: {x: 0.12890625, y: 0.484375, z: 0}
    flipped: 0
    gradientUv: []
    advance: 0.16
    channel: 0
  - p0: {x: 0, y: 0.28, z: 0}
    p1: {x: 0.13, y: 0.050000004, z: 0}
    uv0: {x: 0.546875, y: 0.5, z: 0}
    uv1: {x: 0.59765625, y: 0.41015625, z: 0}
    flipped: 0
    gradientUv: []
    advance: 0.14
    channel: 0
  - p0: {x: 0, y: 0.28, z: 0}
    p1: {x: 0.089999996, y: 0.050000004, z: 0}
    uv0: {x: 0.7734375, y: 0.40625, z: 0}
    uv1: {x: 0.80859375, y: 0.31640625, z: 0}
    flipped: 0
    gradientUv: []
    advance: 0.089999996
    channel: 0
  - p0: {x: 0, y: 0.28, z: 0}
    p1: {x: 0.13, y: 0.050000004, z: 0}
    uv0: {x: 0.4921875, y: 0.5, z: 0}
    uv1: {x: 0.54296875, y: 0.41015625, z: 0}
    flipped: 0
    gradientUv: []
    advance: 0.14
    channel: 0
  - p0: {x: 0, y: 0.28, z: 0}
    p1: {x: 0.13, y: 0.050000004, z: 0}
    uv0: {x: 0.58984375, y: 0.59375, z: 0}
    uv1: {x: 0.640625, y: 0.50390625, z: 0}
    flipped: 0
    gradientUv: []
    advance: 0.14
    channel: 0
  - p0: {x: 0, y: 0.28, z: 0}
    p1: {x: 0.13, y: 0.050000004, z: 0}
    uv0: {x: 0.4375, y: 0.5, z: 0}
    uv1: {x: 0.48828125, y: 0.41015625, z: 0}
    flipped: 0
    gradientUv: []
    advance: 0.14
    channel: 0
  - p0: {x: 0, y: 0.28, z: 0}
    p1: {x: 0.13, y: 0.050000004, z: 0}
    uv0: {x: 0.21875, y: 0.48046875, z: 0}
    uv1: {x: 0.26953125, y: 0.390625, z: 0}
    flipped: 0
    gradientUv: []
    advance: 0.14
    channel: 0
  - p0: {x: 0, y: 0.28, z: 0}
    p1: {x: 0.13, y: 0.050000004, z: 0}
    uv0: {x: 0.3828125, y: 0.4921875, z: 0}
    uv1: {x: 0.43359375, y: 0.40234375, z: 0}
    flipped: 0
    gradientUv: []
    advance: 0.14
    channel: 0
  - p0: {x: 0, y: 0.28, z: 0}
    p1: {x: 0.13, y: 0.050000004, z: 0}
    uv0: {x: 0.328125, y: 0.48046875, z: 0}
    uv1: {x: 0.37890625, y: 0.390625, z: 0}
    flipped: 0
    gradientUv: []
    advance: 0.14
    channel: 0
  - p0: {x: 0, y: 0.28, z: 0}
    p1: {x: 0.13, y: 0.050000004, z: 0}
    uv0: {x: 0.2734375, y: 0.48046875, z: 0}
    uv1: {x: 0.32421875, y: 0.390625, z: 0}
    flipped: 0
    gradientUv: []
    advance: 0.14
    channel: 0
  - p0: {x: 0, y: 0.28, z: 0}
    p1: {x: 0.13, y: 0.050000004, z: 0}
    uv0: {x: 0.1640625, y: 0.48046875, z: 0}
    uv1: {x: 0.21484375, y: 0.390625, z: 0}
    flipped: 0
    gradientUv: []
    advance: 0.14
    channel: 0
  - p0: {x: 0, y: 0.19, z: 0}
    p1: {x: 0.06, y: 0.07, z: 0}
    uv0: {x: 0.56640625, y: 0.24609375, z: 0}
    uv1: {x: 0.58984375, y: 0.19921875, z: 0}
    flipped: 0
    gradientUv: []
    advance: 0.07
    channel: 0
  - p0: {x: 0, y: 0.16, z: 0}
    p1: {x: 0.06, y: 0, z: 0}
    uv0: {x: 0.5390625, y: 0.24609375, z: 0}
    uv1: {x: 0.5625, y: 0.18359375, z: 0}
    flipped: 0
    gradientUv: []
    advance: 0.07
    channel: 0
  - p0: {x: 0, y: 0.21, z: 0}
    p1: {x: 0.14999999, y: 0.049999997, z: 0}
    uv0: {x: 0.6875, y: 0.3125, z: 0}
    uv1: {x: 0.74609375, y: 0.25, z: 0}
    flipped: 0
    gradientUv: []
    advance: 0.16
    channel: 0
  - p0: {x: 0, y: 0.17999999, z: 0}
    p1: {x: 0.13, y: 0.06999999, z: 0}
    uv0: {x: 0.66796875, y: 0.24609375, z: 0}
    uv1: {x: 0.71875, y: 0.203125, z: 0}
    flipped: 0
    gradientUv: []
    advance: 0.14
    channel: 0
  - p0: {x: 0, y: 0.21, z: 0}
    p1: {x: 0.14999999, y: 0.049999997, z: 0}
    uv0: {x: 0.75, y: 0.3125, z: 0}
    uv1: {x: 0.80859375, y: 0.25, z: 0}
    flipped: 0
    gradientUv: []
    advance: 0.16
    channel: 0
  - p0: {x: 0, y: 0.28, z: 0}
    p1: {x: 0.16, y: 0.050000004, z: 0}
    uv0: {x: 0.265625, y: 0.66796875, z: 0}
    uv1: {x: 0.328125, y: 0.578125, z: 0}
    flipped: 0
    gradientUv: []
    advance: 0.16
    channel: 0
  - p0: {x: 0, y: 0.25, z: 0}
    p1: {x: 0.16, y: 0.050000004, z: 0}
    uv0: {x: 0.265625, y: 0.29296875, z: 0}
    uv1: {x: 0.328125, y: 0.21484375, z: 0}
    flipped: 0
    gradientUv: []
    advance: 0.16
    channel: 0
  - p0: {x: 0, y: 0.28, z: 0}
    p1: {x: 0.16, y: 0.050000004, z: 0}
    uv0: {x: 0.06640625, y: 0.66796875, z: 0}
    uv1: {x: 0.12890625, y: 0.578125, z: 0}
    flipped: 0
    gradientUv: []
    advance: 0.16
    channel: 0
  - p0: {x: 0, y: 0.28, z: 0}
    p1: {x: 0.16, y: 0.050000004, z: 0}
    uv0: {x: 0.9296875, y: 0.6875, z: 0}
    uv1: {x: 0.9921875, y: 0.59765625, z: 0}
    flipped: 0
    gradientUv: []
    advance: 0.16
    channel: 0
  - p0: {x: 0, y: 0.28, z: 0}
    p1: {x: 0.16, y: 0.050000004, z: 0}
    uv0: {x: 0.86328125, y: 0.6875, z: 0}
    uv1: {x: 0.92578125, y: 0.59765625, z: 0}
    flipped: 0
    gradientUv: []
    advance: 0.16
    channel: 0
  - p0: {x: 0, y: 0.28, z: 0}
    p1: {x: 0.16, y: 0.050000004, z: 0}
    uv0: {x: 0, y: 0.57421875, z: 0}
    uv1: {x: 0.0625, y: 0.484375, z: 0}
    flipped: 0
    gradientUv: []
    advance: 0.16
    channel: 0
  - p0: {x: 0, y: 0.28, z: 0}
    p1: {x: 0.13, y: 0.050000004, z: 0}
    uv0: {x: 0.4375, y: 0.40625, z: 0}
    uv1: {x: 0.48828125, y: 0.31640625, z: 0}
    flipped: 0
    gradientUv: []
    advance: 0.14
    channel: 0
  - p0: {x: 0, y: 0.28, z: 0}
    p1: {x: 0.13, y: 0.050000004, z: 0}
    uv0: {x: 0.9296875, y: 0.5, z: 0}
    uv1: {x: 0.98046875, y: 0.41015625, z: 0}
    flipped: 0
    gradientUv: []
    advance: 0.14
    channel: 0
  - p0: {x: 0, y: 0.28, z: 0}
    p1: {x: 0.16, y: 0.050000004, z: 0}
    uv0: {x: 0.8984375, y: 0.78125, z: 0}
    uv1: {x: 0.9609375, y: 0.69140625, z: 0}
    flipped: 0
    gradientUv: []
    advance: 0.16
    channel: 0
  - p0: {x: 0, y: 0.28, z: 0}
    p1: {x: 0.16, y: 0.050000004, z: 0}
    uv0: {x: 0, y: 0.66796875, z: 0}
    uv1: {x: 0.0625, y: 0.578125, z: 0}
    flipped: 0
    gradientUv: []
    advance: 0.16
    channel: 0
  - p0: {x: 0, y: 0.28, z: 0}
    p1: {x: 0.06, y: 0.050000004, z: 0}
    uv0: {x: 0.97265625, y: 0.59375, z: 0}
    uv1: {x: 0.99609375, y: 0.50390625, z: 0}
    flipped: 0
    gradientUv: []
    advance: 0.07
    channel: 0
  - p0: {x: 0, y: 0.28, z: 0}
    p1: {x: 0.16, y: 0.050000004, z: 0}
    uv0: {x: 0.1328125, y: 0.66796875, z: 0}
    uv1: {x: 0.1953125, y: 0.578125, z: 0}
    flipped: 0
    gradientUv: []
    advance: 0.16
    channel: 0
  - p0: {x: 0, y: 0.28, z: 0}
    p1: {x: 0.16, y: 0.050000004, z: 0}
    uv0: {x: 0.19921875, y: 0.66796875, z: 0}
    uv1: {x: 0.26171875, y: 0.578125, z: 0}
    flipped: 0
    gradientUv: []
    advance: 0.16
    channel: 0
  - p0: {x: 0, y: 0.28, z: 0}
    p1: {x: 0.13, y: 0.050000004, z: 0}
    uv0: {x: 0.91796875, y: 0.59375, z: 0}
    uv1: {x: 0.96875, y: 0.50390625, z: 0}
    flipped: 0
    gradientUv: []
    advance: 0.14
    channel: 0
  - p0: {x: 0, y: 0.28, z: 0}
    p1: {x: 0.25, y: 0.050000004, z: 0}
    uv0: {x: 0.38671875, y: 0.78125, z: 0}
    uv1: {x: 0.484375, y: 0.69140625, z: 0}
    flipped: 0
    gradientUv: []
    advance: 0.25
    channel: 0
  - p0: {x: 0, y: 0.28, z: 0}
    p1: {x: 0.16, y: 0.050000004, z: 0}
    uv0: {x: 0.33203125, y: 0.6796875, z: 0}
    uv1: {x: 0.39453125, y: 0.58984375, z: 0}
    flipped: 0
    gradientUv: []
    advance: 0.16
    channel: 0
  - p0: {x: 0, y: 0.28, z: 0}
    p1: {x: 0.16, y: 0.050000004, z: 0}
    uv0: {x: 0.3984375, y: 0.6875, z: 0}
    uv1: {x: 0.4609375, y: 0.59765625, z: 0}
    flipped: 0
    gradientUv: []
    advance: 0.16
    channel: 0
  - p0: {x: 0, y: 0.28, z: 0}
    p1: {x: 0.16, y: 0.050000004, z: 0}
    uv0: {x: 0.46484375, y: 0.6875, z: 0}
    uv1: {x: 0.52734375, y: 0.59765625, z: 0}
    flipped: 0
    gradientUv: []
    advance: 0.16
    channel: 0
  - p0: {x: 0, y: 0.28, z: 0}
    p1: {x: 0.16, y: 0.000000007450581, z: 0}
    uv0: {x: 0.06640625, y: 1, z: 0}
    uv1: {x: 0.12890625, y: 0.890625, z: 0}
    flipped: 0
    gradientUv: []
    advance: 0.16
    channel: 0
  - p0: {x: 0, y: 0.28, z: 0}
    p1: {x: 0.16, y: 0.050000004, z: 0}
    uv0: {x: 0.19921875, y: 0.57421875, z: 0}
    uv1: {x: 0.26171875, y: 0.484375, z: 0}
    flipped: 0
    gradientUv: []
    advance: 0.16
    channel: 0
  - p0: {x: 0, y: 0.28, z: 0}
    p1: {x: 0.16, y: 0.050000004, z: 0}
    uv0: {x: 0.1328125, y: 0.57421875, z: 0}
    uv1: {x: 0.1953125, y: 0.484375, z: 0}
    flipped: 0
    gradientUv: []
    advance: 0.16
    channel: 0
  - p0: {x: 0, y: 0.28, z: 0}
    p1: {x: 0.14999999, y: 0.050000004, z: 0}
    uv0: {x: 0.52734375, y: 0.59375, z: 0}
    uv1: {x: 0.5859375, y: 0.50390625, z: 0}
    flipped: 0
    gradientUv: []
    advance: 0.16
    channel: 0
  - p0: {x: 0, y: 0.28, z: 0}
    p1: {x: 0.16, y: 0.050000004, z: 0}
    uv0: {x: 0.59765625, y: 0.6875, z: 0}
    uv1: {x: 0.66015625, y: 0.59765625, z: 0}
    flipped: 0
    gradientUv: []
    advance: 0.16
    channel: 0
  - p0: {x: 0, y: 0.28, z: 0}
    p1: {x: 0.16, y: 0.050000004, z: 0}
    uv0: {x: 0.53125, y: 0.6875, z: 0}
    uv1: {x: 0.59375, y: 0.59765625, z: 0}
    flipped: 0
    gradientUv: []
    advance: 0.16
    channel: 0
  - p0: {x: 0, y: 0.28, z: 0}
    p1: {x: 0.19999999, y: 0.050000004, z: 0}
    uv0: {x: 0.66015625, y: 0.78125, z: 0}
    uv1: {x: 0.73828125, y: 0.69140625, z: 0}
    flipped: 0
    gradientUv: []
    advance: 0.19999999
    channel: 0
  - p0: {x: 0, y: 0.28, z: 0}
    p1: {x: 0.16, y: 0.050000004, z: 0}
    uv0: {x: 0.6640625, y: 0.6875, z: 0}
    uv1: {x: 0.7265625, y: 0.59765625, z: 0}
    flipped: 0
    gradientUv: []
    advance: 0.16
    channel: 0
  - p0: {x: 0, y: 0.28, z: 0}
    p1: {x: 0.16, y: 0.050000004, z: 0}
    uv0: {x: 0.73046875, y: 0.6875, z: 0}
    uv1: {x: 0.79296875, y: 0.59765625, z: 0}
    flipped: 0
    gradientUv: []
    advance: 0.16
    channel: 0
  - p0: {x: 0, y: 0.28, z: 0}
    p1: {x: 0.16, y: 0.050000004, z: 0}
    uv0: {x: 0.796875, y: 0.6875, z: 0}
    uv1: {x: 0.859375, y: 0.59765625, z: 0}
    flipped: 0
    gradientUv: []
    advance: 0.16
    channel: 0
  - p0: {x: 0, y: 0.29999998, z: 0}
    p1: {x: 0.089999996, y: 0.029999988, z: 0}
    uv0: {x: 0.2109375, y: 0.77734375, z: 0}
    uv1: {x: 0.24609375, y: 0.671875, z: 0}
    flipped: 0
    gradientUv: []
    advance: 0.089999996
    channel: 0
  - p0: {x: 0, y: 0.28, z: 0}
    p1: {x: 0.14999999, y: 0.050000004, z: 0}
    uv0: {x: 0.46484375, y: 0.59375, z: 0}
    uv1: {x: 0.5234375, y: 0.50390625, z: 0}
    flipped: 0
    gradientUv: []
    advance: 0.16
    channel: 0
  - p0: {x: 0, y: 0.29999998, z: 0}
    p1: {x: 0.089999996, y: 0.029999988, z: 0}
    uv0: {x: 0.09375, y: 0.77734375, z: 0}
    uv1: {x: 0.12890625, y: 0.671875, z: 0}
    flipped: 0
    gradientUv: []
    advance: 0.089999996
    channel: 0
  - p0: {x: 0, y: 0.26999998, z: 0}
    p1: {x: 0.17999999, y: 0.17999998, z: 0}
    uv0: {x: 0, y: 0.140625, z: 0}
    uv1: {x: 0.0703125, y: 0.10546875, z: 0}
    flipped: 0
    gradientUv: []
    advance: 0.17999999
    channel: 0
  - p0: {x: 0, y: 0.03, z: 0}
    p1: {x: 0.14, y: 0, z: 0}
    uv0: {x: 0.12890625, y: 0.140625, z: 0}
    uv1: {x: 0.18359375, y: 0.12890625, z: 0}
    flipped: 0
    gradientUv: []
    advance: 0.14
    channel: 0
  - p0: {x: 0, y: 0.29999998, z: 0}
    p1: {x: 0.089999996, y: 0.24999999, z: 0}
    uv0: {x: 0.44140625, y: 0.24609375, z: 0}
    uv1: {x: 0.4765625, y: 0.2265625, z: 0}
    flipped: 0
    gradientUv: []
    advance: 0.089999996
    channel: 0
  - p0: {x: 0, y: 0.21, z: 0}
    p1: {x: 0.13, y: 0.049999997, z: 0}
    uv0: {x: 0.0546875, y: 0.20703125, z: 0}
    uv1: {x: 0.10546875, y: 0.14453125, z: 0}
    flipped: 0
    gradientUv: []
    advance: 0.14
    channel: 0
  - p0: {x: 0, y: 0.28, z: 0}
    p1: {x: 0.13, y: 0.050000004, z: 0}
    uv0: {x: 0.64453125, y: 0.59375, z: 0}
    uv1: {x: 0.6953125, y: 0.50390625, z: 0}
    flipped: 0
    gradientUv: []
    advance: 0.14
    channel: 0
  - p0: {x: 0, y: 0.21, z: 0}
    p1: {x: 0.13, y: 0.049999997, z: 0}
    uv0: {x: 0, y: 0.20703125, z: 0}
    uv1: {x: 0.05078125, y: 0.14453125, z: 0}
    flipped: 0
    gradientUv: []
    advance: 0.14
    channel: 0
  - p0: {x: 0, y: 0.28, z: 0}
    p1: {x: 0.13, y: 0.050000004, z: 0}
    uv0: {x: 0.4921875, y: 0.40625, z: 0}
    uv1: {x: 0.54296875, y: 0.31640625, z: 0}
    flipped: 0
    gradientUv: []
    advance: 0.14
    channel: 0
  - p0: {x: 0, y: 0.21, z: 0}
    p1: {x: 0.13, y: 0.049999997, z: 0}
    uv0: {x: 0.1640625, y: 0.20703125, z: 0}
    uv1: {x: 0.21484375, y: 0.14453125, z: 0}
    flipped: 0
    gradientUv: []
    advance: 0.14
    channel: 0
  - p0: {x: 0, y: 0.28, z: 0}
    p1: {x: 0.11, y: 0.050000004, z: 0}
    uv0: {x: 0.6484375, y: 0.40625, z: 0}
    uv1: {x: 0.69140625, y: 0.31640625, z: 0}
    flipped: 0
    gradientUv: []
    advance: 0.11
    channel: 0
  - p0: {x: 0, y: 0.21, z: 0}
    p1: {x: 0.13, y: -0.0000000018626451, z: 0}
    uv0: {x: 0.109375, y: 0.29296875, z: 0}
    uv1: {x: 0.16015625, y: 0.2109375, z: 0}
    flipped: 0
    gradientUv: []
    advance: 0.14
    channel: 0
  - p0: {x: 0, y: 0.28, z: 0}
    p1: {x: 0.13, y: 0.050000004, z: 0}
    uv0: {x: 0.1640625, y: 0.38671875, z: 0}
    uv1: {x: 0.21484375, y: 0.296875, z: 0}
    flipped: 0
    gradientUv: []
    advance: 0.14
    channel: 0
  - p0: {x: 0, y: 0.28, z: 0}
    p1: {x: 0.06, y: 0.050000004, z: 0}
    uv0: {x: 0.8125, y: 0.40625, z: 0}
    uv1: {x: 0.8359375, y: 0.31640625, z: 0}
    flipped: 0
    gradientUv: []
    advance: 0.07
    channel: 0
  - p0: {x: 0, y: 0.28, z: 0}
    p1: {x: 0.089999996, y: 0.000000007450581, z: 0}
    uv0: {x: 0.1875, y: 1, z: 0}
    uv1: {x: 0.22265625, y: 0.890625, z: 0}
    flipped: 0
    gradientUv: []
    advance: 0.089999996
    channel: 0
  - p0: {x: 0, y: 0.28, z: 0}
    p1: {x: 0.13, y: 0.050000004, z: 0}
    uv0: {x: 0, y: 0.38671875, z: 0}
    uv1: {x: 0.05078125, y: 0.296875, z: 0}
    flipped: 0
    gradientUv: []
    advance: 0.14
    channel: 0
  - p0: {x: 0, y: 0.28, z: 0}
    p1: {x: 0.06, y: 0.050000004, z: 0}
    uv0: {x: 0.83984375, y: 0.40625, z: 0}
    uv1: {x: 0.86328125, y: 0.31640625, z: 0}
    flipped: 0
    gradientUv: []
    advance: 0.07
    channel: 0
  - p0: {x: 0, y: 0.21, z: 0}
    p1: {x: 0.19999999, y: 0.049999997, z: 0}
    uv0: {x: 0.44140625, y: 0.3125, z: 0}
    uv1: {x: 0.51953125, y: 0.25, z: 0}
    flipped: 0
    gradientUv: []
    advance: 0.19999999
    channel: 0
  - p0: {x: 0, y: 0.21, z: 0}
    p1: {x: 0.13, y: 0.049999997, z: 0}
    uv0: {x: 0.8125, y: 0.3125, z: 0}
    uv1: {x: 0.86328125, y: 0.25, z: 0}
    flipped: 0
    gradientUv: []
    advance: 0.14
    channel: 0
  - p0: {x: 0, y: 0.21, z: 0}
    p1: {x: 0.13, y: 0.049999997, z: 0}
    uv0: {x: 0.8671875, y: 0.3203125, z: 0}
    uv1: {x: 0.91796875, y: 0.2578125, z: 0}
    flipped: 0
    gradientUv: []
    advance: 0.14
    channel: 0
  - p0: {x: 0, y: 0.21, z: 0}
    p1: {x: 0.13, y: -0.0000000018626451, z: 0}
    uv0: {x: 0.93359375, y: 0.40625, z: 0}
    uv1: {x: 0.984375, y: 0.32421875, z: 0}
    flipped: 0
    gradientUv: []
    advance: 0.14
    channel: 0
  - p0: {x: 0, y: 0.21, z: 0}
    p1: {x: 0.13, y: -0.0000000018626451, z: 0}
    uv0: {x: 0, y: 0.29296875, z: 0}
    uv1: {x: 0.05078125, y: 0.2109375, z: 0}
    flipped: 0
    gradientUv: []
    advance: 0.14
    channel: 0
  - p0: {x: 0, y: 0.21, z: 0}
    p1: {x: 0.11, y: 0.049999997, z: 0}
    uv0: {x: 0.4921875, y: 0.24609375, z: 0}
    uv1: {x: 0.53515625, y: 0.18359375, z: 0}
    flipped: 0
    gradientUv: []
    advance: 0.11
    channel: 0
  - p0: {x: 0, y: 0.21, z: 0}
    p1: {x: 0.13, y: 0.049999997, z: 0}
    uv0: {x: 0.21875, y: 0.2109375, z: 0}
    uv1: {x: 0.26953125, y: 0.1484375, z: 0}
    flipped: 0
    gradientUv: []
    advance: 0.14
    channel: 0
  - p0: {x: 0, y: 0.25, z: 0}
    p1: {x: 0.11, y: 0.050000004, z: 0}
    uv0: {x: 0.33203125, y: 0.29296875, z: 0}
    uv1: {x: 0.375, y: 0.21484375, z: 0}
    flipped: 0
    gradientUv: []
    advance: 0.11
    channel: 0
  - p0: {x: 0, y: 0.21, z: 0}
    p1: {x: 0.13, y: 0.049999997, z: 0}
    uv0: {x: 0.109375, y: 0.20703125, z: 0}
    uv1: {x: 0.16015625, y: 0.14453125, z: 0}
    flipped: 0
    gradientUv: []
    advance: 0.14
    channel: 0
  - p0: {x: 0, y: 0.21, z: 0}
    p1: {x: 0.13, y: 0.049999997, z: 0}
    uv0: {x: 0.328125, y: 0.2109375, z: 0}
    uv1: {x: 0.37890625, y: 0.1484375, z: 0}
    flipped: 0
    gradientUv: []
    advance: 0.14
    channel: 0
  - p0: {x: 0, y: 0.21, z: 0}
    p1: {x: 0.19999999, y: 0.049999997, z: 0}
    uv0: {x: 0.5234375, y: 0.3125, z: 0}
    uv1: {x: 0.6015625, y: 0.25, z: 0}
    flipped: 0
    gradientUv: []
    advance: 0.19999999
    channel: 0
  - p0: {x: 0, y: 0.21, z: 0}
    p1: {x: 0.13, y: 0.049999997, z: 0}
    uv0: {x: 0.3828125, y: 0.21875, z: 0}
    uv1: {x: 0.43359375, y: 0.15625, z: 0}
    flipped: 0
    gradientUv: []
    advance: 0.14
    channel: 0
  - p0: {x: 0, y: 0.21, z: 0}
    p1: {x: 0.13, y: -0.0000000018626451, z: 0}
    uv0: {x: 0.0546875, y: 0.29296875, z: 0}
    uv1: {x: 0.10546875, y: 0.2109375, z: 0}
    flipped: 0
    gradientUv: []
    advance: 0.14
    channel: 0
  - p0: {x: 0, y: 0.21, z: 0}
    p1: {x: 0.13, y: 0.049999997, z: 0}
    uv0: {x: 0.4375, y: 0.21875, z: 0}
    uv1: {x: 0.48828125, y: 0.15625, z: 0}
    flipped: 0
    gradientUv: []
    advance: 0.14
    channel: 0
  - p0: {x: 0, y: 0.29999998, z: 0}
    p1: {x: 0.11, y: 0.029999988, z: 0}
    uv0: {x: 0.9296875, y: 0.890625, z: 0}
    uv1: {x: 0.97265625, y: 0.78515625, z: 0}
    flipped: 0
    gradientUv: []
    advance: 0.11
    channel: 0
  - p0: {x: 0, y: 0.29999998, z: 0}
    p1: {x: 0.06, y: 0.029999988, z: 0}
    uv0: {x: 0.3046875, y: 0.78125, z: 0}
    uv1: {x: 0.328125, y: 0.67578125, z: 0}
    flipped: 0
    gradientUv: []
    advance: 0.07
    channel: 0
  - p0: {x: 0, y: 0.29999998, z: 0}
    p1: {x: 0.11, y: 0.029999988, z: 0}
    uv0: {x: 0, y: 0.77734375, z: 0}
    uv1: {x: 0.04296875, y: 0.671875, z: 0}
    flipped: 0
    gradientUv: []
    advance: 0.11
    channel: 0
  - p0: {x: 0, y: 0.21, z: 0}
    p1: {x: 0.19999999, y: 0.12, z: 0}
    uv0: {x: 0.88671875, y: 0.25390625, z: 0}
    uv1: {x: 0.96484375, y: 0.21875, z: 0}
    flipped: 0
    gradientUv: []
    advance: 0.19999999
    channel: 0
  - p0: {x: 0, y: 0, z: 0}
    p1: {x: 0, y: 0, z: 0}
    uv0: {x: 0, y: 0, z: 0}
    uv1: {x: 0, y: 0, z: 0}
    flipped: 0
    gradientUv:
    - {x: 0, y: 0}
    - {x: 0, y: 0}
    - {x: 0, y: 0}
    - {x: 0, y: 0}
    advance: 0
    channel: 0
  - p0: {x: 0, y: 0, z: 0}
    p1: {x: 0, y: 0, z: 0}
    uv0: {x: 0, y: 0, z: 0}
    uv1: {x: 0, y: 0, z: 0}
    flipped: 0
    gradientUv:
    - {x: 0, y: 0}
    - {x: 0, y: 0}
    - {x: 0, y: 0}
    - {x: 0, y: 0}
    advance: 0
    channel: 0
  - p0: {x: 0, y: 0, z: 0}
    p1: {x: 0, y: 0, z: 0}
    uv0: {x: 0, y: 0, z: 0}
    uv1: {x: 0, y: 0, z: 0}
    flipped: 0
    gradientUv:
    - {x: 0, y: 0}
    - {x: 0, y: 0}
    - {x: 0, y: 0}
    - {x: 0, y: 0}
    advance: 0
    channel: 0
  - p0: {x: 0, y: 0, z: 0}
    p1: {x: 0, y: 0, z: 0}
    uv0: {x: 0, y: 0, z: 0}
    uv1: {x: 0, y: 0, z: 0}
    flipped: 0
    gradientUv:
    - {x: 0, y: 0}
    - {x: 0, y: 0}
    - {x: 0, y: 0}
    - {x: 0, y: 0}
    advance: 0
    channel: 0
  - p0: {x: 0, y: 0, z: 0}
    p1: {x: 0, y: 0, z: 0}
    uv0: {x: 0, y: 0, z: 0}
    uv1: {x: 0, y: 0, z: 0}
    flipped: 0
    gradientUv:
    - {x: 0, y: 0}
    - {x: 0, y: 0}
    - {x: 0, y: 0}
    - {x: 0, y: 0}
    advance: 0
    channel: 0
  - p0: {x: 0, y: 0, z: 0}
    p1: {x: 0, y: 0, z: 0}
    uv0: {x: 0, y: 0, z: 0}
    uv1: {x: 0, y: 0, z: 0}
    flipped: 0
    gradientUv:
    - {x: 0, y: 0}
    - {x: 0, y: 0}
    - {x: 0, y: 0}
    - {x: 0, y: 0}
    advance: 0
    channel: 0
  - p0: {x: 0, y: 0, z: 0}
    p1: {x: 0, y: 0, z: 0}
    uv0: {x: 0, y: 0, z: 0}
    uv1: {x: 0, y: 0, z: 0}
    flipped: 0
    gradientUv:
    - {x: 0, y: 0}
    - {x: 0, y: 0}
    - {x: 0, y: 0}
    - {x: 0, y: 0}
    advance: 0
    channel: 0
  - p0: {x: 0, y: 0, z: 0}
    p1: {x: 0, y: 0, z: 0}
    uv0: {x: 0, y: 0, z: 0}
    uv1: {x: 0, y: 0, z: 0}
    flipped: 0
    gradientUv:
    - {x: 0, y: 0}
    - {x: 0, y: 0}
    - {x: 0, y: 0}
    - {x: 0, y: 0}
    advance: 0
    channel: 0
  - p0: {x: 0, y: 0, z: 0}
    p1: {x: 0, y: 0, z: 0}
    uv0: {x: 0, y: 0, z: 0}
    uv1: {x: 0, y: 0, z: 0}
    flipped: 0
    gradientUv:
    - {x: 0, y: 0}
    - {x: 0, y: 0}
    - {x: 0, y: 0}
    - {x: 0, y: 0}
    advance: 0
    channel: 0
  - p0: {x: 0, y: 0, z: 0}
    p1: {x: 0, y: 0, z: 0}
    uv0: {x: 0, y: 0, z: 0}
    uv1: {x: 0, y: 0, z: 0}
    flipped: 0
    gradientUv:
    - {x: 0, y: 0}
    - {x: 0, y: 0}
    - {x: 0, y: 0}
    - {x: 0, y: 0}
    advance: 0
    channel: 0
  - p0: {x: 0, y: 0, z: 0}
    p1: {x: 0, y: 0, z: 0}
    uv0: {x: 0, y: 0, z: 0}
    uv1: {x: 0, y: 0, z: 0}
    flipped: 0
    gradientUv:
    - {x: 0, y: 0}
    - {x: 0, y: 0}
    - {x: 0, y: 0}
    - {x: 0, y: 0}
    advance: 0
    channel: 0
  - p0: {x: 0, y: 0, z: 0}
    p1: {x: 0, y: 0, z: 0}
    uv0: {x: 0, y: 0, z: 0}
    uv1: {x: 0, y: 0, z: 0}
    flipped: 0
    gradientUv:
    - {x: 0, y: 0}
    - {x: 0, y: 0}
    - {x: 0, y: 0}
    - {x: 0, y: 0}
    advance: 0
    channel: 0
  - p0: {x: 0, y: 0, z: 0}
    p1: {x: 0, y: 0, z: 0}
    uv0: {x: 0, y: 0, z: 0}
    uv1: {x: 0, y: 0, z: 0}
    flipped: 0
    gradientUv:
    - {x: 0, y: 0}
    - {x: 0, y: 0}
    - {x: 0, y: 0}
    - {x: 0, y: 0}
    advance: 0
    channel: 0
  - p0: {x: 0, y: 0, z: 0}
    p1: {x: 0, y: 0, z: 0}
    uv0: {x: 0, y: 0, z: 0}
    uv1: {x: 0, y: 0, z: 0}
    flipped: 0
    gradientUv:
    - {x: 0, y: 0}
    - {x: 0, y: 0}
    - {x: 0, y: 0}
    - {x: 0, y: 0}
    advance: 0
    channel: 0
  - p0: {x: 0, y: 0, z: 0}
    p1: {x: 0, y: 0, z: 0}
    uv0: {x: 0, y: 0, z: 0}
    uv1: {x: 0, y: 0, z: 0}
    flipped: 0
    gradientUv:
    - {x: 0, y: 0}
    - {x: 0, y: 0}
    - {x: 0, y: 0}
    - {x: 0, y: 0}
    advance: 0
    channel: 0
  - p0: {x: 0, y: 0, z: 0}
    p1: {x: 0, y: 0, z: 0}
    uv0: {x: 0, y: 0, z: 0}
    uv1: {x: 0, y: 0, z: 0}
    flipped: 0
    gradientUv:
    - {x: 0, y: 0}
    - {x: 0, y: 0}
    - {x: 0, y: 0}
    - {x: 0, y: 0}
    advance: 0
    channel: 0
  - p0: {x: 0, y: 0, z: 0}
    p1: {x: 0, y: 0, z: 0}
    uv0: {x: 0, y: 0, z: 0}
    uv1: {x: 0, y: 0, z: 0}
    flipped: 0
    gradientUv:
    - {x: 0, y: 0}
    - {x: 0, y: 0}
    - {x: 0, y: 0}
    - {x: 0, y: 0}
    advance: 0
    channel: 0
  - p0: {x: 0, y: 0, z: 0}
    p1: {x: 0, y: 0, z: 0}
    uv0: {x: 0, y: 0, z: 0}
    uv1: {x: 0, y: 0, z: 0}
    flipped: 0
    gradientUv:
    - {x: 0, y: 0}
    - {x: 0, y: 0}
    - {x: 0, y: 0}
    - {x: 0, y: 0}
    advance: 0
    channel: 0
  - p0: {x: 0, y: 0, z: 0}
    p1: {x: 0, y: 0, z: 0}
    uv0: {x: 0, y: 0, z: 0}
    uv1: {x: 0, y: 0, z: 0}
    flipped: 0
    gradientUv:
    - {x: 0, y: 0}
    - {x: 0, y: 0}
    - {x: 0, y: 0}
    - {x: 0, y: 0}
    advance: 0
    channel: 0
  - p0: {x: 0, y: 0, z: 0}
    p1: {x: 0, y: 0, z: 0}
    uv0: {x: 0, y: 0, z: 0}
    uv1: {x: 0, y: 0, z: 0}
    flipped: 0
    gradientUv:
    - {x: 0, y: 0}
    - {x: 0, y: 0}
    - {x: 0, y: 0}
    - {x: 0, y: 0}
    advance: 0
    channel: 0
  - p0: {x: 0, y: 0, z: 0}
    p1: {x: 0, y: 0, z: 0}
    uv0: {x: 0, y: 0, z: 0}
    uv1: {x: 0, y: 0, z: 0}
    flipped: 0
    gradientUv:
    - {x: 0, y: 0}
    - {x: 0, y: 0}
    - {x: 0, y: 0}
    - {x: 0, y: 0}
    advance: 0
    channel: 0
  - p0: {x: 0, y: 0, z: 0}
    p1: {x: 0, y: 0, z: 0}
    uv0: {x: 0, y: 0, z: 0}
    uv1: {x: 0, y: 0, z: 0}
    flipped: 0
    gradientUv:
    - {x: 0, y: 0}
    - {x: 0, y: 0}
    - {x: 0, y: 0}
    - {x: 0, y: 0}
    advance: 0
    channel: 0
  - p0: {x: 0, y: 0, z: 0}
    p1: {x: 0, y: 0, z: 0}
    uv0: {x: 0, y: 0, z: 0}
    uv1: {x: 0, y: 0, z: 0}
    flipped: 0
    gradientUv:
    - {x: 0, y: 0}
    - {x: 0, y: 0}
    - {x: 0, y: 0}
    - {x: 0, y: 0}
    advance: 0
    channel: 0
  - p0: {x: 0, y: 0, z: 0}
    p1: {x: 0, y: 0, z: 0}
    uv0: {x: 0, y: 0, z: 0}
    uv1: {x: 0, y: 0, z: 0}
    flipped: 0
    gradientUv:
    - {x: 0, y: 0}
    - {x: 0, y: 0}
    - {x: 0, y: 0}
    - {x: 0, y: 0}
    advance: 0
    channel: 0
  - p0: {x: 0, y: 0, z: 0}
    p1: {x: 0, y: 0, z: 0}
    uv0: {x: 0, y: 0, z: 0}
    uv1: {x: 0, y: 0, z: 0}
    flipped: 0
    gradientUv:
    - {x: 0, y: 0}
    - {x: 0, y: 0}
    - {x: 0, y: 0}
    - {x: 0, y: 0}
    advance: 0
    channel: 0
  - p0: {x: 0, y: 0, z: 0}
    p1: {x: 0, y: 0, z: 0}
    uv0: {x: 0, y: 0, z: 0}
    uv1: {x: 0, y: 0, z: 0}
    flipped: 0
    gradientUv:
    - {x: 0, y: 0}
    - {x: 0, y: 0}
    - {x: 0, y: 0}
    - {x: 0, y: 0}
    advance: 0
    channel: 0
  - p0: {x: 0, y: 0, z: 0}
    p1: {x: 0, y: 0, z: 0}
    uv0: {x: 0, y: 0, z: 0}
    uv1: {x: 0, y: 0, z: 0}
    flipped: 0
    gradientUv:
    - {x: 0, y: 0}
    - {x: 0, y: 0}
    - {x: 0, y: 0}
    - {x: 0, y: 0}
    advance: 0
    channel: 0
  - p0: {x: 0, y: 0, z: 0}
    p1: {x: 0, y: 0, z: 0}
    uv0: {x: 0, y: 0, z: 0}
    uv1: {x: 0, y: 0, z: 0}
    flipped: 0
    gradientUv:
    - {x: 0, y: 0}
    - {x: 0, y: 0}
    - {x: 0, y: 0}
    - {x: 0, y: 0}
    advance: 0
    channel: 0
  - p0: {x: 0, y: 0, z: 0}
    p1: {x: 0, y: 0, z: 0}
    uv0: {x: 0, y: 0, z: 0}
    uv1: {x: 0, y: 0, z: 0}
    flipped: 0
    gradientUv:
    - {x: 0, y: 0}
    - {x: 0, y: 0}
    - {x: 0, y: 0}
    - {x: 0, y: 0}
    advance: 0
    channel: 0
  - p0: {x: 0, y: 0, z: 0}
    p1: {x: 0, y: 0, z: 0}
    uv0: {x: 0, y: 0, z: 0}
    uv1: {x: 0, y: 0, z: 0}
    flipped: 0
    gradientUv:
    - {x: 0, y: 0}
    - {x: 0, y: 0}
    - {x: 0, y: 0}
    - {x: 0, y: 0}
    advance: 0
    channel: 0
  - p0: {x: 0, y: 0, z: 0}
    p1: {x: 0, y: 0, z: 0}
    uv0: {x: 0, y: 0, z: 0}
    uv1: {x: 0, y: 0, z: 0}
    flipped: 0
    gradientUv:
    - {x: 0, y: 0}
    - {x: 0, y: 0}
    - {x: 0, y: 0}
    - {x: 0, y: 0}
    advance: 0
    channel: 0
  - p0: {x: 0, y: 0, z: 0}
    p1: {x: 0, y: 0, z: 0}
    uv0: {x: 0, y: 0, z: 0}
    uv1: {x: 0, y: 0, z: 0}
    flipped: 0
    gradientUv:
    - {x: 0, y: 0}
    - {x: 0, y: 0}
    - {x: 0, y: 0}
    - {x: 0, y: 0}
    advance: 0
    channel: 0
  - p0: {x: 0, y: 0, z: 0}
    p1: {x: 0, y: 0, z: 0}
    uv0: {x: 0, y: 0, z: 0}
    uv1: {x: 0, y: 0, z: 0}
    flipped: 0
    gradientUv:
    - {x: 0, y: 0}
    - {x: 0, y: 0}
    - {x: 0, y: 0}
    - {x: 0, y: 0}
    advance: 0
    channel: 0
  - p0: {x: 0, y: 0, z: 0}
    p1: {x: 0, y: 0, z: 0}
    uv0: {x: 0, y: 0, z: 0}
    uv1: {x: 0, y: 0, z: 0}
    flipped: 0
    gradientUv:
    - {x: 0, y: 0}
    - {x: 0, y: 0}
    - {x: 0, y: 0}
    - {x: 0, y: 0}
    advance: 0
    channel: 0
  - p0: {x: 0, y: 0.21, z: 0}
    p1: {x: 0.06, y: -0.0000000018626451, z: 0}
    uv0: {x: 0.1640625, y: 0.29296875, z: 0}
    uv1: {x: 0.1875, y: 0.2109375, z: 0}
    flipped: 0
    gradientUv: []
    advance: 0.07
    channel: 0
  - p0: {x: 0, y: 0, z: 0}
    p1: {x: 0, y: 0, z: 0}
    uv0: {x: 0, y: 0, z: 0}
    uv1: {x: 0, y: 0, z: 0}
    flipped: 0
    gradientUv:
    - {x: 0, y: 0}
    - {x: 0, y: 0}
    - {x: 0, y: 0}
    - {x: 0, y: 0}
    advance: 0
    channel: 0
  - p0: {x: 0, y: 0.28, z: 0}
    p1: {x: 0.17999999, y: 0.050000004, z: 0}
    uv0: {x: 0.82421875, y: 0.78125, z: 0}
    uv1: {x: 0.89453125, y: 0.69140625, z: 0}
    flipped: 0
    gradientUv: []
    advance: 0.17999999
    channel: 0
  - p0: {x: 0, y: 0, z: 0}
    p1: {x: 0, y: 0, z: 0}
    uv0: {x: 0, y: 0, z: 0}
    uv1: {x: 0, y: 0, z: 0}
    flipped: 0
    gradientUv:
    - {x: 0, y: 0}
    - {x: 0, y: 0}
    - {x: 0, y: 0}
    - {x: 0, y: 0}
    advance: 0
    channel: 0
  - p0: {x: 0, y: 0.28, z: 0}
    p1: {x: 0.16, y: 0.050000004, z: 0}
    uv0: {x: 0.33203125, y: 0.5859375, z: 0}
    uv1: {x: 0.39453125, y: 0.49609375, z: 0}
    flipped: 0
    gradientUv: []
    advance: 0.16
    channel: 0
  - p0: {x: 0, y: 0, z: 0}
    p1: {x: 0, y: 0, z: 0}
    uv0: {x: 0, y: 0, z: 0}
    uv1: {x: 0, y: 0, z: 0}
    flipped: 0
    gradientUv:
    - {x: 0, y: 0}
    - {x: 0, y: 0}
    - {x: 0, y: 0}
    - {x: 0, y: 0}
    advance: 0
    channel: 0
  - p0: {x: 0, y: 0, z: 0}
    p1: {x: 0, y: 0, z: 0}
    uv0: {x: 0, y: 0, z: 0}
    uv1: {x: 0, y: 0, z: 0}
    flipped: 0
    gradientUv:
    - {x: 0, y: 0}
    - {x: 0, y: 0}
    - {x: 0, y: 0}
    - {x: 0, y: 0}
    advance: 0
    channel: 0
  - p0: {x: 0, y: 0, z: 0}
    p1: {x: 0, y: 0, z: 0}
    uv0: {x: 0, y: 0, z: 0}
    uv1: {x: 0, y: 0, z: 0}
    flipped: 0
    gradientUv:
    - {x: 0, y: 0}
    - {x: 0, y: 0}
    - {x: 0, y: 0}
    - {x: 0, y: 0}
    advance: 0
    channel: 0
  - p0: {x: 0, y: 0.29999998, z: 0}
    p1: {x: 0.26999998, y: 0.029999988, z: 0}
    uv0: {x: 0.3359375, y: 1, z: 0}
    uv1: {x: 0.44140625, y: 0.89453125, z: 0}
    flipped: 0
    gradientUv: []
    advance: 0.26999998
    channel: 0
  - p0: {x: 0, y: 0, z: 0}
    p1: {x: 0, y: 0, z: 0}
    uv0: {x: 0, y: 0, z: 0}
    uv1: {x: 0, y: 0, z: 0}
    flipped: 0
    gradientUv:
    - {x: 0, y: 0}
    - {x: 0, y: 0}
    - {x: 0, y: 0}
    - {x: 0, y: 0}
    advance: 0
    channel: 0
  - p0: {x: 0, y: 0, z: 0}
    p1: {x: 0, y: 0, z: 0}
    uv0: {x: 0, y: 0, z: 0}
    uv1: {x: 0, y: 0, z: 0}
    flipped: 0
    gradientUv:
    - {x: 0, y: 0}
    - {x: 0, y: 0}
    - {x: 0, y: 0}
    - {x: 0, y: 0}
    advance: 0
    channel: 0
  - p0: {x: 0, y: 0, z: 0}
    p1: {x: 0, y: 0, z: 0}
    uv0: {x: 0, y: 0, z: 0}
    uv1: {x: 0, y: 0, z: 0}
    flipped: 0
    gradientUv:
    - {x: 0, y: 0}
    - {x: 0, y: 0}
    - {x: 0, y: 0}
    - {x: 0, y: 0}
    advance: 0
    channel: 0
  - p0: {x: 0, y: 0, z: 0}
    p1: {x: 0, y: 0, z: 0}
    uv0: {x: 0, y: 0, z: 0}
    uv1: {x: 0, y: 0, z: 0}
    flipped: 0
    gradientUv:
    - {x: 0, y: 0}
    - {x: 0, y: 0}
    - {x: 0, y: 0}
    - {x: 0, y: 0}
    advance: 0
    channel: 0
  - p0: {x: 0, y: 0.29999998, z: 0}
    p1: {x: 0.26999998, y: 0.029999988, z: 0}
    uv0: {x: 0.2265625, y: 1, z: 0}
    uv1: {x: 0.33203125, y: 0.89453125, z: 0}
    flipped: 0
    gradientUv: []
    advance: 0.26999998
    channel: 0
  - p0: {x: 0, y: 0, z: 0}
    p1: {x: 0, y: 0, z: 0}
    uv0: {x: 0, y: 0, z: 0}
    uv1: {x: 0, y: 0, z: 0}
    flipped: 0
    gradientUv:
    - {x: 0, y: 0}
    - {x: 0, y: 0}
    - {x: 0, y: 0}
    - {x: 0, y: 0}
    advance: 0
    channel: 0
  - p0: {x: 0, y: 0, z: 0}
    p1: {x: 0, y: 0, z: 0}
    uv0: {x: 0, y: 0, z: 0}
    uv1: {x: 0, y: 0, z: 0}
    flipped: 0
    gradientUv:
    - {x: 0, y: 0}
    - {x: 0, y: 0}
    - {x: 0, y: 0}
    - {x: 0, y: 0}
    advance: 0
    channel: 0
  - p0: {x: 0, y: 0, z: 0}
    p1: {x: 0, y: 0, z: 0}
    uv0: {x: 0, y: 0, z: 0}
    uv1: {x: 0, y: 0, z: 0}
    flipped: 0
    gradientUv:
    - {x: 0, y: 0}
    - {x: 0, y: 0}
    - {x: 0, y: 0}
    - {x: 0, y: 0}
    advance: 0
    channel: 0
  - p0: {x: 0, y: 0, z: 0}
    p1: {x: 0, y: 0, z: 0}
    uv0: {x: 0, y: 0, z: 0}
    uv1: {x: 0, y: 0, z: 0}
    flipped: 0
    gradientUv:
    - {x: 0, y: 0}
    - {x: 0, y: 0}
    - {x: 0, y: 0}
    - {x: 0, y: 0}
    advance: 0
    channel: 0
  - p0: {x: 0, y: 0, z: 0}
    p1: {x: 0, y: 0, z: 0}
    uv0: {x: 0, y: 0, z: 0}
    uv1: {x: 0, y: 0, z: 0}
    flipped: 0
    gradientUv:
    - {x: 0, y: 0}
    - {x: 0, y: 0}
    - {x: 0, y: 0}
    - {x: 0, y: 0}
    advance: 0
    channel: 0
  - p0: {x: 0, y: 0, z: 0}
    p1: {x: 0, y: 0, z: 0}
    uv0: {x: 0, y: 0, z: 0}
    uv1: {x: 0, y: 0, z: 0}
    flipped: 0
    gradientUv:
    - {x: 0, y: 0}
    - {x: 0, y: 0}
    - {x: 0, y: 0}
    - {x: 0, y: 0}
    advance: 0
    channel: 0
  - p0: {x: 0, y: 0, z: 0}
    p1: {x: 0, y: 0, z: 0}
    uv0: {x: 0, y: 0, z: 0}
    uv1: {x: 0, y: 0, z: 0}
    flipped: 0
    gradientUv:
    - {x: 0, y: 0}
    - {x: 0, y: 0}
    - {x: 0, y: 0}
    - {x: 0, y: 0}
    advance: 0
    channel: 0
  - p0: {x: 0, y: 0, z: 0}
    p1: {x: 0, y: 0, z: 0}
    uv0: {x: 0, y: 0, z: 0}
    uv1: {x: 0, y: 0, z: 0}
    flipped: 0
    gradientUv:
    - {x: 0, y: 0}
    - {x: 0, y: 0}
    - {x: 0, y: 0}
    - {x: 0, y: 0}
    advance: 0
    channel: 0
  - p0: {x: 0, y: 0, z: 0}
    p1: {x: 0, y: 0, z: 0}
    uv0: {x: 0, y: 0, z: 0}
    uv1: {x: 0, y: 0, z: 0}
    flipped: 0
    gradientUv:
    - {x: 0, y: 0}
    - {x: 0, y: 0}
    - {x: 0, y: 0}
    - {x: 0, y: 0}
    advance: 0
    channel: 0
  - p0: {x: 0, y: 0, z: 0}
    p1: {x: 0, y: 0, z: 0}
    uv0: {x: 0, y: 0, z: 0}
    uv1: {x: 0, y: 0, z: 0}
    flipped: 0
    gradientUv:
    - {x: 0, y: 0}
    - {x: 0, y: 0}
    - {x: 0, y: 0}
    - {x: 0, y: 0}
    advance: 0
    channel: 0
  - p0: {x: 0, y: 0, z: 0}
    p1: {x: 0, y: 0, z: 0}
    uv0: {x: 0, y: 0, z: 0}
    uv1: {x: 0, y: 0, z: 0}
    flipped: 0
    gradientUv:
    - {x: 0, y: 0}
    - {x: 0, y: 0}
    - {x: 0, y: 0}
    - {x: 0, y: 0}
    advance: 0
    channel: 0
  - p0: {x: 0, y: 0.28, z: 0}
    p1: {x: 0.13, y: 0.18, z: 0}
    uv0: {x: 0.77734375, y: 0.24609375, z: 0}
    uv1: {x: 0.828125, y: 0.20703125, z: 0}
    flipped: 0
    gradientUv: []
    advance: 0.14
    channel: 0
  - p0: {x: 0, y: 0, z: 0}
    p1: {x: 0, y: 0, z: 0}
    uv0: {x: 0, y: 0, z: 0}
    uv1: {x: 0, y: 0, z: 0}
    flipped: 0
    gradientUv:
    - {x: 0, y: 0}
    - {x: 0, y: 0}
    - {x: 0, y: 0}
    - {x: 0, y: 0}
    advance: 0
    channel: 0
  - p0: {x: 0, y: 0, z: 0}
    p1: {x: 0, y: 0, z: 0}
    uv0: {x: 0, y: 0, z: 0}
    uv1: {x: 0, y: 0, z: 0}
    flipped: 0
    gradientUv:
    - {x: 0, y: 0}
    - {x: 0, y: 0}
    - {x: 0, y: 0}
    - {x: 0, y: 0}
    advance: 0
    channel: 0
  - p0: {x: 0, y: 0, z: 0}
    p1: {x: 0, y: 0, z: 0}
    uv0: {x: 0, y: 0, z: 0}
    uv1: {x: 0, y: 0, z: 0}
    flipped: 0
    gradientUv:
    - {x: 0, y: 0}
    - {x: 0, y: 0}
    - {x: 0, y: 0}
    - {x: 0, y: 0}
    advance: 0
    channel: 0
  - p0: {x: 0, y: 0, z: 0}
    p1: {x: 0, y: 0, z: 0}
    uv0: {x: 0, y: 0, z: 0}
    uv1: {x: 0, y: 0, z: 0}
    flipped: 0
    gradientUv:
    - {x: 0, y: 0}
    - {x: 0, y: 0}
    - {x: 0, y: 0}
    - {x: 0, y: 0}
    advance: 0
    channel: 0
  - p0: {x: 0, y: 0.21, z: 0}
    p1: {x: 0.16, y: -0.0000000018626451, z: 0}
    uv0: {x: 0.8671875, y: 0.40625, z: 0}
    uv1: {x: 0.9296875, y: 0.32421875, z: 0}
    flipped: 0
    gradientUv: []
    advance: 0.16
    channel: 0
  - p0: {x: 0, y: 0.32, z: 0}
    p1: {x: 0.16, y: 0.049999997, z: 0}
    uv0: {x: 0.578125, y: 1, z: 0}
    uv1: {x: 0.640625, y: 0.89453125, z: 0}
    flipped: 0
    gradientUv: []
    advance: 0.16
    channel: 0
  - p0: {x: 0, y: 0.32, z: 0}
    p1: {x: 0.16, y: 0.049999997, z: 0}
    uv0: {x: 0.51171875, y: 1, z: 0}
    uv1: {x: 0.57421875, y: 0.89453125, z: 0}
    flipped: 0
    gradientUv: []
    advance: 0.16
    channel: 0
  - p0: {x: 0, y: 0.32, z: 0}
    p1: {x: 0.16, y: 0.049999997, z: 0}
    uv0: {x: 0.4453125, y: 1, z: 0}
    uv1: {x: 0.5078125, y: 0.89453125, z: 0}
    flipped: 0
    gradientUv: []
    advance: 0.16
    channel: 0
  - p0: {x: 0, y: 0.32, z: 0}
    p1: {x: 0.16, y: 0.049999997, z: 0}
    uv0: {x: 0.77734375, y: 1, z: 0}
    uv1: {x: 0.83984375, y: 0.89453125, z: 0}
    flipped: 0
    gradientUv: []
    advance: 0.16
    channel: 0
  - p0: {x: 0, y: 0.32, z: 0}
    p1: {x: 0.16, y: 0.049999997, z: 0}
    uv0: {x: 0.7109375, y: 1, z: 0}
    uv1: {x: 0.7734375, y: 0.89453125, z: 0}
    flipped: 0
    gradientUv: []
    advance: 0.16
    channel: 0
  - p0: {x: 0, y: 0.32, z: 0}
    p1: {x: 0.16, y: 0.049999997, z: 0}
    uv0: {x: 0.84375, y: 1, z: 0}
    uv1: {x: 0.90625, y: 0.89453125, z: 0}
    flipped: 0
    gradientUv: []
    advance: 0.16
    channel: 0
  - p0: {x: 0, y: 0.28, z: 0}
    p1: {x: 0.22, y: 0.050000004, z: 0}
    uv0: {x: 0.48828125, y: 0.78125, z: 0}
    uv1: {x: 0.57421875, y: 0.69140625, z: 0}
    flipped: 0
    gradientUv: []
    advance: 0.22999999
    channel: 0
  - p0: {x: 0, y: 0.28, z: 0}
    p1: {x: 0.16, y: 0.000000007450581, z: 0}
    uv0: {x: 0, y: 1, z: 0}
    uv1: {x: 0.0625, y: 0.890625, z: 0}
    flipped: 0
    gradientUv: []
    advance: 0.16
    channel: 0
  - p0: {x: 0, y: 0.32, z: 0}
    p1: {x: 0.13, y: 0.049999997, z: 0}
    uv0: {x: 0.765625, y: 0.890625, z: 0}
    uv1: {x: 0.81640625, y: 0.78515625, z: 0}
    flipped: 0
    gradientUv: []
    advance: 0.14
    channel: 0
  - p0: {x: 0, y: 0.32, z: 0}
    p1: {x: 0.13, y: 0.049999997, z: 0}
    uv0: {x: 0.8203125, y: 0.890625, z: 0}
    uv1: {x: 0.87109375, y: 0.78515625, z: 0}
    flipped: 0
    gradientUv: []
    advance: 0.14
    channel: 0
  - p0: {x: 0, y: 0.32, z: 0}
    p1: {x: 0.13, y: 0.049999997, z: 0}
    uv0: {x: 0.875, y: 0.890625, z: 0}
    uv1: {x: 0.92578125, y: 0.78515625, z: 0}
    flipped: 0
    gradientUv: []
    advance: 0.14
    channel: 0
  - p0: {x: 0, y: 0.32, z: 0}
    p1: {x: 0.13, y: 0.049999997, z: 0}
    uv0: {x: 0.7109375, y: 0.890625, z: 0}
    uv1: {x: 0.76171875, y: 0.78515625, z: 0}
    flipped: 0
    gradientUv: []
    advance: 0.14
    channel: 0
  - p0: {x: 0.01, y: 0.32, z: 0}
    p1: {x: 0.07, y: 0.049999997, z: 0}
    uv0: {x: 0.27734375, y: 0.78125, z: 0}
    uv1: {x: 0.30078125, y: 0.67578125, z: 0}
    flipped: 0
    gradientUv: []
    advance: 0.07
    channel: 0
  - p0: {x: -0.01, y: 0.32, z: 0}
    p1: {x: 0.049999997, y: 0.049999997, z: 0}
    uv0: {x: 0.25, y: 0.77734375, z: 0}
    uv1: {x: 0.2734375, y: 0.671875, z: 0}
    flipped: 0
    gradientUv: []
    advance: 0.07
    channel: 0
  - p0: {x: -0.03, y: 0.32, z: 0}
    p1: {x: 0.099999994, y: 0.049999997, z: 0}
    uv0: {x: 0.65625, y: 0.890625, z: 0}
    uv1: {x: 0.70703125, y: 0.78515625, z: 0}
    flipped: 0
    gradientUv: []
    advance: 0.07
    channel: 0
  - p0: {x: -0.02, y: 0.32, z: 0}
    p1: {x: 0.089999996, y: 0.049999997, z: 0}
    uv0: {x: 0.046875, y: 0.77734375, z: 0}
    uv1: {x: 0.08984375, y: 0.671875, z: 0}
    flipped: 0
    gradientUv: []
    advance: 0.07
    channel: 0
  - p0: {x: 0, y: 0, z: 0}
    p1: {x: 0, y: 0, z: 0}
    uv0: {x: 0, y: 0, z: 0}
    uv1: {x: 0, y: 0, z: 0}
    flipped: 0
    gradientUv:
    - {x: 0, y: 0}
    - {x: 0, y: 0}
    - {x: 0, y: 0}
    - {x: 0, y: 0}
    advance: 0
    channel: 0
  - p0: {x: 0, y: 0.32, z: 0}
    p1: {x: 0.16, y: 0.049999997, z: 0}
    uv0: {x: 0.46484375, y: 0.890625, z: 0}
    uv1: {x: 0.52734375, y: 0.78515625, z: 0}
    flipped: 0
    gradientUv: []
    advance: 0.16
    channel: 0
  - p0: {x: 0, y: 0.32, z: 0}
    p1: {x: 0.16, y: 0.049999997, z: 0}
    uv0: {x: 0.3984375, y: 0.890625, z: 0}
    uv1: {x: 0.4609375, y: 0.78515625, z: 0}
    flipped: 0
    gradientUv: []
    advance: 0.16
    channel: 0
  - p0: {x: 0, y: 0.32, z: 0}
    p1: {x: 0.16, y: 0.049999997, z: 0}
    uv0: {x: 0.06640625, y: 0.88671875, z: 0}
    uv1: {x: 0.12890625, y: 0.78125, z: 0}
    flipped: 0
    gradientUv: []
    advance: 0.16
    channel: 0
  - p0: {x: -0.01, y: 0.32, z: 0}
    p1: {x: 0.14, y: 0.049999997, z: 0}
    uv0: {x: 0.59375, y: 0.890625, z: 0}
    uv1: {x: 0.65234375, y: 0.78515625, z: 0}
    flipped: 0
    gradientUv: []
    advance: 0.16
    channel: 0
  - p0: {x: -0.01, y: 0.32, z: 0}
    p1: {x: 0.14, y: 0.049999997, z: 0}
    uv0: {x: 0.53125, y: 0.890625, z: 0}
    uv1: {x: 0.58984375, y: 0.78515625, z: 0}
    flipped: 0
    gradientUv: []
    advance: 0.16
    channel: 0
  - p0: {x: 0, y: 0.32, z: 0}
    p1: {x: 0.16, y: 0.049999997, z: 0}
    uv0: {x: 0.33203125, y: 0.890625, z: 0}
    uv1: {x: 0.39453125, y: 0.78515625, z: 0}
    flipped: 0
    gradientUv: []
    advance: 0.16
    channel: 0
  - p0: {x: 0, y: 0, z: 0}
    p1: {x: 0, y: 0, z: 0}
    uv0: {x: 0, y: 0, z: 0}
    uv1: {x: 0, y: 0, z: 0}
    flipped: 0
    gradientUv:
    - {x: 0, y: 0}
    - {x: 0, y: 0}
    - {x: 0, y: 0}
    - {x: 0, y: 0}
    advance: 0
    channel: 0
  - p0: {x: 0, y: 0.28, z: 0}
    p1: {x: 0.16, y: 0.050000004, z: 0}
    uv0: {x: 0.265625, y: 0.57421875, z: 0}
    uv1: {x: 0.328125, y: 0.484375, z: 0}
    flipped: 0
    gradientUv: []
    advance: 0.16
    channel: 0
  - p0: {x: 0, y: 0.32, z: 0}
    p1: {x: 0.16, y: 0.049999997, z: 0}
    uv0: {x: 0.265625, y: 0.890625, z: 0}
    uv1: {x: 0.328125, y: 0.78515625, z: 0}
    flipped: 0
    gradientUv: []
    advance: 0.16
    channel: 0
  - p0: {x: 0, y: 0.32, z: 0}
    p1: {x: 0.16, y: 0.049999997, z: 0}
    uv0: {x: 0.19921875, y: 0.88671875, z: 0}
    uv1: {x: 0.26171875, y: 0.78125, z: 0}
    flipped: 0
    gradientUv: []
    advance: 0.16
    channel: 0
  - p0: {x: 0, y: 0.32, z: 0}
    p1: {x: 0.16, y: 0.049999997, z: 0}
    uv0: {x: 0.1328125, y: 0.88671875, z: 0}
    uv1: {x: 0.1953125, y: 0.78125, z: 0}
    flipped: 0
    gradientUv: []
    advance: 0.16
    channel: 0
  - p0: {x: 0, y: 0.32, z: 0}
    p1: {x: 0.16, y: 0.049999997, z: 0}
    uv0: {x: 0, y: 0.88671875, z: 0}
    uv1: {x: 0.0625, y: 0.78125, z: 0}
    flipped: 0
    gradientUv: []
    advance: 0.16
    channel: 0
  - p0: {x: 0, y: 0.32, z: 0}
    p1: {x: 0.16, y: 0.049999997, z: 0}
    uv0: {x: 0.91015625, y: 1, z: 0}
    uv1: {x: 0.97265625, y: 0.89453125, z: 0}
    flipped: 0
    gradientUv: []
    advance: 0.16
    channel: 0
  - p0: {x: 0, y: 0, z: 0}
    p1: {x: 0, y: 0, z: 0}
    uv0: {x: 0, y: 0, z: 0}
    uv1: {x: 0, y: 0, z: 0}
    flipped: 0
    gradientUv:
    - {x: 0, y: 0}
    - {x: 0, y: 0}
    - {x: 0, y: 0}
    - {x: 0, y: 0}
    advance: 0
    channel: 0
  - p0: {x: 0, y: 0.28, z: 0}
    p1: {x: 0.16, y: 0.050000004, z: 0}
    uv0: {x: 0.3984375, y: 0.59375, z: 0}
    uv1: {x: 0.4609375, y: 0.50390625, z: 0}
    flipped: 0
    gradientUv: []
    advance: 0.16
    channel: 0
  - p0: {x: 0, y: 0.28, z: 0}
    p1: {x: 0.13, y: 0.050000004, z: 0}
    uv0: {x: 0.6015625, y: 0.5, z: 0}
    uv1: {x: 0.65234375, y: 0.41015625, z: 0}
    flipped: 0
    gradientUv: []
    advance: 0.14
    channel: 0
  - p0: {x: 0, y: 0.28, z: 0}
    p1: {x: 0.13, y: 0.050000004, z: 0}
    uv0: {x: 0.65625, y: 0.5, z: 0}
    uv1: {x: 0.70703125, y: 0.41015625, z: 0}
    flipped: 0
    gradientUv: []
    advance: 0.14
    channel: 0
  - p0: {x: 0, y: 0.28, z: 0}
    p1: {x: 0.13, y: 0.050000004, z: 0}
    uv0: {x: 0.7109375, y: 0.5, z: 0}
    uv1: {x: 0.76171875, y: 0.41015625, z: 0}
    flipped: 0
    gradientUv: []
    advance: 0.14
    channel: 0
  - p0: {x: 0, y: 0.28, z: 0}
    p1: {x: 0.13, y: 0.050000004, z: 0}
    uv0: {x: 0.765625, y: 0.5, z: 0}
    uv1: {x: 0.81640625, y: 0.41015625, z: 0}
    flipped: 0
    gradientUv: []
    advance: 0.14
    channel: 0
  - p0: {x: 0, y: 0.28, z: 0}
    p1: {x: 0.13, y: 0.050000004, z: 0}
    uv0: {x: 0.8203125, y: 0.5, z: 0}
    uv1: {x: 0.87109375, y: 0.41015625, z: 0}
    flipped: 0
    gradientUv: []
    advance: 0.14
    channel: 0
  - p0: {x: 0, y: 0.29999998, z: 0}
    p1: {x: 0.13, y: 0.04999999, z: 0}
    uv0: {x: 0.33203125, y: 0.78125, z: 0}
    uv1: {x: 0.3828125, y: 0.68359375, z: 0}
    flipped: 0
    gradientUv: []
    advance: 0.14
    channel: 0
  - p0: {x: 0, y: 0.21, z: 0}
    p1: {x: 0.19999999, y: 0.049999997, z: 0}
    uv0: {x: 0.60546875, y: 0.3125, z: 0}
    uv1: {x: 0.68359375, y: 0.25, z: 0}
    flipped: 0
    gradientUv: []
    advance: 0.19999999
    channel: 0
  - p0: {x: 0, y: 0.21, z: 0}
    p1: {x: 0.13, y: 0.049999997, z: 0}
    uv0: {x: 0.921875, y: 0.3203125, z: 0}
    uv1: {x: 0.97265625, y: 0.2578125, z: 0}
    flipped: 0
    gradientUv: []
    advance: 0.14
    channel: 0
  - p0: {x: 0, y: 0.28, z: 0}
    p1: {x: 0.13, y: 0.050000004, z: 0}
    uv0: {x: 0.109375, y: 0.48046875, z: 0}
    uv1: {x: 0.16015625, y: 0.390625, z: 0}
    flipped: 0
    gradientUv: []
    advance: 0.14
    channel: 0
  - p0: {x: 0, y: 0.28, z: 0}
    p1: {x: 0.13, y: 0.050000004, z: 0}
    uv0: {x: 0.0546875, y: 0.38671875, z: 0}
    uv1: {x: 0.10546875, y: 0.296875, z: 0}
    flipped: 0
    gradientUv: []
    advance: 0.14
    channel: 0
  - p0: {x: 0, y: 0.28, z: 0}
    p1: {x: 0.13, y: 0.050000004, z: 0}
    uv0: {x: 0.109375, y: 0.38671875, z: 0}
    uv1: {x: 0.16015625, y: 0.296875, z: 0}
    flipped: 0
    gradientUv: []
    advance: 0.14
    channel: 0
  - p0: {x: 0, y: 0.28, z: 0}
    p1: {x: 0.13, y: 0.050000004, z: 0}
    uv0: {x: 0.21875, y: 0.38671875, z: 0}
    uv1: {x: 0.26953125, y: 0.296875, z: 0}
    flipped: 0
    gradientUv: []
    advance: 0.14
    channel: 0
  - p0: {x: 0, y: 0.28, z: 0}
    p1: {x: 0.089999996, y: 0.050000004, z: 0}
    uv0: {x: 0.734375, y: 0.40625, z: 0}
    uv1: {x: 0.76953125, y: 0.31640625, z: 0}
    flipped: 0
    gradientUv: []
    advance: 0.089999996
    channel: 0
  - p0: {x: 0, y: 0.28, z: 0}
    p1: {x: 0.089999996, y: 0.050000004, z: 0}
    uv0: {x: 0.6953125, y: 0.40625, z: 0}
    uv1: {x: 0.73046875, y: 0.31640625, z: 0}
    flipped: 0
    gradientUv: []
    advance: 0.089999996
    channel: 0
  - p0: {x: -0.01, y: 0.28, z: 0}
    p1: {x: 0.12, y: 0.050000004, z: 0}
    uv0: {x: 0.2734375, y: 0.38671875, z: 0}
    uv1: {x: 0.32421875, y: 0.296875, z: 0}
    flipped: 0
    gradientUv: []
    advance: 0.11
    channel: 0
  - p0: {x: 0, y: 0.28, z: 0}
    p1: {x: 0.11, y: 0.050000004, z: 0}
    uv0: {x: 0.6015625, y: 0.40625, z: 0}
    uv1: {x: 0.64453125, y: 0.31640625, z: 0}
    flipped: 0
    gradientUv: []
    advance: 0.11
    channel: 0
  - p0: {x: 0, y: 0, z: 0}
    p1: {x: 0, y: 0, z: 0}
    uv0: {x: 0, y: 0, z: 0}
    uv1: {x: 0, y: 0, z: 0}
    flipped: 0
    gradientUv:
    - {x: 0, y: 0}
    - {x: 0, y: 0}
    - {x: 0, y: 0}
    - {x: 0, y: 0}
    advance: 0
    channel: 0
  - p0: {x: 0, y: 0.28, z: 0}
    p1: {x: 0.13, y: 0.050000004, z: 0}
    uv0: {x: 0.875, y: 0.5, z: 0}
    uv1: {x: 0.92578125, y: 0.41015625, z: 0}
    flipped: 0
    gradientUv: []
    advance: 0.14
    channel: 0
  - p0: {x: 0, y: 0.28, z: 0}
    p1: {x: 0.13, y: 0.050000004, z: 0}
    uv0: {x: 0.328125, y: 0.38671875, z: 0}
    uv1: {x: 0.37890625, y: 0.296875, z: 0}
    flipped: 0
    gradientUv: []
    advance: 0.14
    channel: 0
  - p0: {x: 0, y: 0.28, z: 0}
    p1: {x: 0.13, y: 0.050000004, z: 0}
    uv0: {x: 0.3828125, y: 0.3984375, z: 0}
    uv1: {x: 0.43359375, y: 0.30859375, z: 0}
    flipped: 0
    gradientUv: []
    advance: 0.14
    channel: 0
  - p0: {x: -0.01, y: 0.28, z: 0}
    p1: {x: 0.12, y: 0.050000004, z: 0}
    uv0: {x: 0.546875, y: 0.40625, z: 0}
    uv1: {x: 0.59765625, y: 0.31640625, z: 0}
    flipped: 0
    gradientUv: []
    advance: 0.14
    channel: 0
  - p0: {x: -0.01, y: 0.28, z: 0}
    p1: {x: 0.12, y: 0.050000004, z: 0}
    uv0: {x: 0.69921875, y: 0.59375, z: 0}
    uv1: {x: 0.75, y: 0.50390625, z: 0}
    flipped: 0
    gradientUv: []
    advance: 0.14
    channel: 0
  - p0: {x: 0, y: 0.28, z: 0}
    p1: {x: 0.13, y: 0.050000004, z: 0}
    uv0: {x: 0.75390625, y: 0.59375, z: 0}
    uv1: {x: 0.8046875, y: 0.50390625, z: 0}
    flipped: 0
    gradientUv: []
    advance: 0.14
    channel: 0
  - p0: {x: 0, y: 0, z: 0}
    p1: {x: 0, y: 0, z: 0}
    uv0: {x: 0, y: 0, z: 0}
    uv1: {x: 0, y: 0, z: 0}
    flipped: 0
    gradientUv:
    - {x: 0, y: 0}
    - {x: 0, y: 0}
    - {x: 0, y: 0}
    - {x: 0, y: 0}
    advance: 0
    channel: 0
  - p0: {x: 0, y: 0.21, z: 0}
    p1: {x: 0.13, y: 0.049999997, z: 0}
    uv0: {x: 0.2734375, y: 0.2109375, z: 0}
    uv1: {x: 0.32421875, y: 0.1484375, z: 0}
    flipped: 0
    gradientUv: []
    advance: 0.14
    channel: 0
  - p0: {x: 0, y: 0.28, z: 0}
    p1: {x: 0.13, y: 0.050000004, z: 0}
    uv0: {x: 0.80859375, y: 0.59375, z: 0}
    uv1: {x: 0.859375, y: 0.50390625, z: 0}
    flipped: 0
    gradientUv: []
    advance: 0.14
    channel: 0
  - p0: {x: 0, y: 0.28, z: 0}
    p1: {x: 0.13, y: 0.050000004, z: 0}
    uv0: {x: 0.86328125, y: 0.59375, z: 0}
    uv1: {x: 0.9140625, y: 0.50390625, z: 0}
    flipped: 0
    gradientUv: []
    advance: 0.14
    channel: 0
  - p0: {x: 0, y: 0.28, z: 0}
    p1: {x: 0.13, y: 0.050000004, z: 0}
    uv0: {x: 0, y: 0.48046875, z: 0}
    uv1: {x: 0.05078125, y: 0.390625, z: 0}
    flipped: 0
    gradientUv: []
    advance: 0.14
    channel: 0
  - p0: {x: 0, y: 0.28, z: 0}
    p1: {x: 0.13, y: 0.050000004, z: 0}
    uv0: {x: 0.0546875, y: 0.48046875, z: 0}
    uv1: {x: 0.10546875, y: 0.390625, z: 0}
    flipped: 0
    gradientUv: []
    advance: 0.14
    channel: 0
  - p0: {x: 0, y: 0.28, z: 0}
    p1: {x: 0.13, y: 0.000000007450581, z: 0}
    uv0: {x: 0.1328125, y: 1, z: 0}
    uv1: {x: 0.18359375, y: 0.890625, z: 0}
    flipped: 0
    gradientUv: []
    advance: 0.14
    channel: 0
  charDictKeys: 
  charDictValues: []
  fontPlatforms: []
  fontPlatformGUIDs: []
  hasPlatformData: 0
  managedFont: 0
  needMaterialInstance: 0
  isPacked: 0
  premultipliedAlpha: 0
  spriteCollection: {fileID: 0}
  useDictionary: 0
  kerning: []
  largestWidth: 0.26999998
  material: {fileID: 2100000, guid: 8f5ace4df590e2147adf9c05bf93bb4c, type: 2}
  gradientTexture: {fileID: 0}
  textureGradients: 0
  gradientCount: 1
  texelSize: {x: 0.01, y: 0.01}
  invOrthoSize: 2
  halfTargetHeight: 50
