%YAML 1.1
%TAG !u! tag:unity3d.com,2011:
--- !u!1 &135976
GameObject:
  m_ObjectHideFlags: 0
  m_PrefabParentObject: {fileID: 0}
  m_PrefabInternal: {fileID: 100100000}
  serializedVersion: 4
  m_Component:
  - 4: {fileID: 494228}
  - 114: {fileID: 11449806}
  m_Layer: 0
  m_Name: male_up
  m_TagString: Untagged
  m_Icon: {fileID: 0}
  m_NavMeshLayer: 0
  m_StaticEditorFlags: 0
  m_IsActive: 1
--- !u!4 &494228
Transform:
  m_ObjectHideFlags: 1
  m_PrefabParentObject: {fileID: 0}
  m_PrefabInternal: {fileID: 100100000}
  m_GameObject: {fileID: 135976}
  m_LocalRotation: {x: 0, y: 0, z: 0, w: 1}
  m_LocalPosition: {x: 0, y: 0, z: 0}
  m_LocalScale: {x: 1, y: 1, z: 1}
  m_LocalEulerAnglesHint: {x: 0, y: 0, z: 0}
  m_Children: []
  m_Father: {fileID: 0}
  m_RootOrder: 0
--- !u!114 &11449806
MonoBehaviour:
  m_ObjectHideFlags: 1
  m_PrefabParentObject: {fileID: 0}
  m_PrefabInternal: {fileID: 100100000}
  m_GameObject: {fileID: 135976}
  m_Enabled: 1
  m_EditorHideFlags: 0
  m_Script: {fileID: 11500000, guid: d546f34a90531a14eaba82a43b05b86b, type: 3}
  m_Name: 
  m_EditorClassIdentifier: 
  version: 3
  materialIdsValid: 1
  needMaterialInstance: 0
  spriteDefinitions:
  - name: leg
    boundsData:
    - {x: 0, y: 0, z: 0}
    - {x: 0.14, y: 0.12, z: 0}
    untrimmedBoundsData:
    - {x: 0, y: 0, z: 0}
    - {x: 0.14, y: 0.12, z: 0}
    texelSize: {x: 0.01, y: 0.01}
    positions:
    - {x: -0.07, y: -0.06, z: 0}
    - {x: 0.07, y: -0.06, z: 0}
    - {x: -0.07, y: 0.06, z: 0}
    - {x: 0.07, y: 0.06, z: 0}
    normals: []
    tangents: []
    uvs:
    - {x: 0.17188281, y: 0.4921953}
    - {x: 0.17188281, y: 0.6015547}
    - {x: 0.2656172, y: 0.4921953}
    - {x: 0.2656172, y: 0.6015547}
    normalizedUvs:
    - {x: 0, y: 0}
    - {x: 0, y: 1}
    - {x: 1, y: 0}
    - {x: 1, y: 1}
    indices: 000000000300000001000000020000000300000000000000
    material: {fileID: 2100000, guid: 9f7779a48057059408d20773add6c805, type: 2}
    materialId: 0
    sourceTextureGUID: 19782430fe24293419cbbff6ce07c32d
    extractRegion: 0
    regionX: 0
    regionY: 0
    regionW: 0
    regionH: 0
    flipped: 1
    complexGeometry: 0
    physicsEngine: 0
    colliderType: 0
    customColliders: []
    colliderVertices: []
    colliderIndicesFwd: 
    colliderIndicesBack: 
    colliderConvex: 0
    colliderSmoothSphereCollisions: 0
    polygonCollider2D: []
    edgeCollider2D: []
    attachPoints: []
  - name: shield_up
    boundsData:
    - {x: 0, y: -0.00500001, z: 0}
    - {x: 0.45999998, y: 0.42999998, z: 0}
    untrimmedBoundsData:
    - {x: 0, y: -0.00500001, z: 0}
    - {x: 0.45999998, y: 0.42999998, z: 0}
    texelSize: {x: 0.01, y: 0.01}
    positions:
    - {x: -0.22999999, y: -0.22, z: 0}
    - {x: 0.22999999, y: -0.22, z: 0}
    - {x: -0.22999999, y: 0.20999998, z: 0}
    - {x: 0.22999999, y: 0.20999998, z: 0}
    normals: []
    tangents: []
    uvs:
    - {x: 0.5156328, y: 0.3984453}
    - {x: 0.8749922, y: 0.3984453}
    - {x: 0.5156328, y: 0.7343672}
    - {x: 0.8749922, y: 0.7343672}
    normalizedUvs:
    - {x: 0, y: 0}
    - {x: 1, y: 0}
    - {x: 0, y: 1}
    - {x: 1, y: 1}
    indices: 000000000300000001000000020000000300000000000000
    material: {fileID: 2100000, guid: 9f7779a48057059408d20773add6c805, type: 2}
    materialId: 0
    sourceTextureGUID: a43d606041c9dcb4faceb90c2f472c33
    extractRegion: 0
    regionX: 0
    regionY: 0
    regionW: 0
    regionH: 0
    flipped: 0
    complexGeometry: 0
    physicsEngine: 0
    colliderType: 0
    customColliders: []
    colliderVertices: []
    colliderIndicesFwd: 
    colliderIndicesBack: 
    colliderConvex: 0
    colliderSmoothSphereCollisions: 0
    polygonCollider2D: []
    edgeCollider2D: []
    attachPoints: []
  - name: cape_up
    boundsData:
    - {x: 0, y: -0.004999995, z: 0}
    - {x: 0.58, y: 0.45, z: 0}
    untrimmedBoundsData:
    - {x: 0, y: -0.004999995, z: 0}
    - {x: 0.58, y: 0.45, z: 0}
    texelSize: {x: 0.01, y: 0.01}
    positions:
    - {x: -0.29, y: -0.22999999, z: 0}
    - {x: 0.29, y: -0.22999999, z: 0}
    - {x: -0.29, y: 0.22, z: 0}
    - {x: 0.29, y: 0.22, z: 0}
    normals: []
    tangents: []
    uvs:
    - {x: 0.5156328, y: 0.015632812}
    - {x: 0.9687422, y: 0.015632812}
    - {x: 0.5156328, y: 0.3671797}
    - {x: 0.9687422, y: 0.3671797}
    normalizedUvs:
    - {x: 0, y: 0}
    - {x: 1, y: 0}
    - {x: 0, y: 1}
    - {x: 1, y: 1}
    indices: 000000000300000001000000020000000300000000000000
    material: {fileID: 2100000, guid: 9f7779a48057059408d20773add6c805, type: 2}
    materialId: 0
    sourceTextureGUID: 260cf34293abec44bac28c7c0a8ba66f
    extractRegion: 0
    regionX: 0
    regionY: 0
    regionW: 0
    regionH: 0
    flipped: 0
    complexGeometry: 0
    physicsEngine: 0
    colliderType: 0
    customColliders: []
    colliderVertices: []
    colliderIndicesFwd: 
    colliderIndicesBack: 
    colliderConvex: 0
    colliderSmoothSphereCollisions: 0
    polygonCollider2D: []
    edgeCollider2D: []
    attachPoints: []
  - name: ear_up
    boundsData:
    - {x: 0, y: -0.0050000027, z: 0}
    - {x: 0.16, y: 0.21, z: 0}
    untrimmedBoundsData:
    - {x: 0, y: -0.0050000027, z: 0}
    - {x: 0.16, y: 0.21, z: 0}
    texelSize: {x: 0.01, y: 0.01}
    positions:
    - {x: -0.08, y: -0.11, z: 0}
    - {x: 0.08, y: -0.11, z: 0}
    - {x: -0.08, y: 0.099999994, z: 0}
    - {x: 0.08, y: 0.099999994, z: 0}
    normals: []
    tangents: []
    uvs:
    - {x: 0.015632812, y: 0.4921953}
    - {x: 0.14061719, y: 0.4921953}
    - {x: 0.015632812, y: 0.6562422}
    - {x: 0.14061719, y: 0.6562422}
    normalizedUvs:
    - {x: 0, y: 0}
    - {x: 0.99999994, y: 0}
    - {x: 0, y: 1}
    - {x: 0.99999994, y: 1}
    indices: 000000000300000001000000020000000300000000000000
    material: {fileID: 2100000, guid: 9f7779a48057059408d20773add6c805, type: 2}
    materialId: 0
    sourceTextureGUID: 272aca5454e6d44409eca9ab64425b81
    extractRegion: 0
    regionX: 0
    regionY: 0
    regionW: 0
    regionH: 0
    flipped: 0
    complexGeometry: 0
    physicsEngine: 0
    colliderType: 0
    customColliders: []
    colliderVertices: []
    colliderIndicesFwd: 
    colliderIndicesBack: 
    colliderConvex: 0
    colliderSmoothSphereCollisions: 0
    polygonCollider2D: []
    edgeCollider2D: []
    attachPoints: []
  - name: arm
    boundsData:
    - {x: 0.004999995, y: -0.0050000027, z: 0}
    - {x: 0.22999999, y: 0.22999999, z: 0}
    untrimmedBoundsData:
    - {x: 0.004999995, y: -0.0050000027, z: 0}
    - {x: 0.22999999, y: 0.22999999, z: 0}
    texelSize: {x: 0.01, y: 0.01}
    positions:
    - {x: -0.11, y: -0.12, z: 0}
    - {x: 0.11999999, y: -0.12, z: 0}
    - {x: -0.11, y: 0.10999999, z: 0}
    - {x: 0.11999999, y: 0.10999999, z: 0}
    normals: []
    tangents: []
    uvs:
    - {x: 0.015632812, y: 0.7656328}
    - {x: 0.19530469, y: 0.7656328}
    - {x: 0.015632812, y: 0.9453047}
    - {x: 0.19530469, y: 0.9453047}
    normalizedUvs:
    - {x: 0, y: 0}
    - {x: 1, y: 0}
    - {x: 0, y: 1}
    - {x: 1, y: 1}
    indices: 000000000300000001000000020000000300000000000000
    material: {fileID: 2100000, guid: 9f7779a48057059408d20773add6c805, type: 2}
    materialId: 0
    sourceTextureGUID: b7c4f3d7b3d7d9e4c86b260a55471324
    extractRegion: 0
    regionX: 0
    regionY: 0
    regionW: 0
    regionH: 0
    flipped: 0
    complexGeometry: 0
    physicsEngine: 0
    colliderType: 0
    customColliders: []
    colliderVertices: []
    colliderIndicesFwd: 
    colliderIndicesBack: 
    colliderConvex: 0
    colliderSmoothSphereCollisions: 0
    polygonCollider2D: []
    edgeCollider2D: []
    attachPoints: []
  - name: headhair_up
    boundsData:
    - {x: 0, y: -0.004999995, z: 0}
    - {x: 0.59999996, y: 0.57, z: 0}
    untrimmedBoundsData:
    - {x: 0, y: -0.004999995, z: 0}
    - {x: 0.59999996, y: 0.57, z: 0}
    texelSize: {x: 0.01, y: 0.01}
    positions:
    - {x: -0.29999998, y: -0.29, z: 0}
    - {x: 0.29999998, y: -0.29, z: 0}
    - {x: -0.29999998, y: 0.28, z: 0}
    - {x: 0.29999998, y: 0.28, z: 0}
    normals: []
    tangents: []
    uvs:
    - {x: 0.015632812, y: 0.015632812}
    - {x: 0.4843672, y: 0.015632812}
    - {x: 0.015632812, y: 0.4609297}
    - {x: 0.4843672, y: 0.4609297}
    normalizedUvs:
    - {x: 0, y: 0}
    - {x: 1, y: 0}
    - {x: 0, y: 1}
    - {x: 1, y: 1}
    indices: 000000000300000001000000020000000300000000000000
    material: {fileID: 2100000, guid: 9f7779a48057059408d20773add6c805, type: 2}
    materialId: 0
    sourceTextureGUID: 25617ec96c0de3946ae3b9a5d76c6942
    extractRegion: 0
    regionX: 0
    regionY: 0
    regionW: 0
    regionH: 0
    flipped: 0
    complexGeometry: 0
    physicsEngine: 0
    colliderType: 0
    customColliders: []
    colliderVertices: []
    colliderIndicesFwd: 
    colliderIndicesBack: 
    colliderConvex: 0
    colliderSmoothSphereCollisions: 0
    polygonCollider2D: []
    edgeCollider2D: []
    attachPoints: []
  - name: haircrown
    boundsData:
    - {x: 0, y: -0.004999999, z: 0}
    - {x: 0.19999999, y: 0.089999996, z: 0}
    untrimmedBoundsData:
    - {x: 0, y: -0.004999999, z: 0}
    - {x: 0.19999999, y: 0.089999996, z: 0}
    texelSize: {x: 0.01, y: 0.01}
    positions:
    - {x: -0.099999994, y: -0.049999997, z: 0}
    - {x: 0.099999994, y: -0.049999997, z: 0}
    - {x: -0.099999994, y: 0.04, z: 0}
    - {x: 0.099999994, y: 0.04, z: 0}
    normals: []
    tangents: []
    uvs:
    - {x: 0.9062578, y: 0.3984453}
    - {x: 0.9062578, y: 0.5546797}
    - {x: 0.9765547, y: 0.3984453}
    - {x: 0.9765547, y: 0.5546797}
    normalizedUvs:
    - {x: 0, y: 0}
    - {x: 0, y: 1}
    - {x: 1, y: 0}
    - {x: 1, y: 1}
    indices: 000000000300000001000000020000000300000000000000
    material: {fileID: 2100000, guid: 9f7779a48057059408d20773add6c805, type: 2}
    materialId: 0
    sourceTextureGUID: c70efa6afcc877b418cf32a39b46e775
    extractRegion: 0
    regionX: 0
    regionY: 0
    regionW: 0
    regionH: 0
    flipped: 1
    complexGeometry: 0
    physicsEngine: 0
    colliderType: 0
    customColliders: []
    colliderVertices: []
    colliderIndicesFwd: 
    colliderIndicesBack: 
    colliderConvex: 0
    colliderSmoothSphereCollisions: 0
    polygonCollider2D: []
    edgeCollider2D: []
    attachPoints: []
  - name: hairtuft
    boundsData:
    - {x: 0.0050000027, y: 0, z: 0}
    - {x: 0.11, y: 0.14, z: 0}
    untrimmedBoundsData:
    - {x: 0.0050000027, y: 0, z: 0}
    - {x: 0.11, y: 0.14, z: 0}
    texelSize: {x: 0.01, y: 0.01}
    positions:
    - {x: -0.049999997, y: -0.07, z: 0}
    - {x: 0.060000002, y: -0.07, z: 0}
    - {x: -0.049999997, y: 0.07, z: 0}
    - {x: 0.060000002, y: 0.07, z: 0}
    normals: []
    tangents: []
    uvs:
    - {x: 0.17188281, y: 0.6328203}
    - {x: 0.17188281, y: 0.7187422}
    - {x: 0.2812422, y: 0.6328203}
    - {x: 0.2812422, y: 0.7187422}
    normalizedUvs:
    - {x: 0, y: 0}
    - {x: 0, y: 1}
    - {x: 1, y: 0}
    - {x: 1, y: 1}
    indices: 000000000300000001000000020000000300000000000000
    material: {fileID: 2100000, guid: 9f7779a48057059408d20773add6c805, type: 2}
    materialId: 0
    sourceTextureGUID: e01d125f219c6874aa0294f2f4826a20
    extractRegion: 0
    regionX: 0
    regionY: 0
    regionW: 0
    regionH: 0
    flipped: 1
    complexGeometry: 0
    physicsEngine: 0
    colliderType: 0
    customColliders: []
    colliderVertices: []
    colliderIndicesFwd: 
    colliderIndicesBack: 
    colliderConvex: 0
    colliderSmoothSphereCollisions: 0
    polygonCollider2D: []
    edgeCollider2D: []
    attachPoints: []
  premultipliedAlpha: 1
  material: {fileID: 0}
  materials:
  - {fileID: 2100000, guid: 9f7779a48057059408d20773add6c805, type: 2}
  textures:
  - {fileID: 2800000, guid: af843f24c200d984f91693da9d11f6d0, type: 3}
  pngTextures: []
  materialPngTextureId: 00000000
  textureFilterMode: 1
  textureMipMaps: 0
  allowMultipleAtlases: 0
  spriteCollectionGUID: 3db6624bf20ce3845a0cb211b0453818
  spriteCollectionName: male_up
  assetName: 
  loadable: 0
  invOrthoSize: 2
  halfTargetHeight: 50
  buildKey: 1745821206
  dataGuid: e3555535aa48bf249b6ae0784e06e517
  managedSpriteCollection: 0
  hasPlatformData: 0
  spriteCollectionPlatforms: []
  spriteCollectionPlatformGUIDs: []
--- !u!1001 &100100000
Prefab:
  m_ObjectHideFlags: 1
  serializedVersion: 2
  m_Modification:
    m_TransformParent: {fileID: 0}
    m_Modifications: []
    m_RemovedComponents: []
  m_ParentPrefab: {fileID: 0}
  m_RootGameObject: {fileID: 135976}
  m_IsPrefabParent: 1
