%YAML 1.1
%TAG !u! tag:unity3d.com,2011:
--- !u!1001 &100100000
Prefab:
  m_ObjectHideFlags: 1
  serializedVersion: 2
  m_Modification:
    m_TransformParent: {fileID: 0}
    m_Modifications: []
    m_RemovedComponents: []
  m_ParentPrefab: {fileID: 0}
  m_RootGameObject: {fileID: 1000011465967900}
  m_IsPrefabParent: 1
--- !u!1 &1000011465967900
GameObject:
  m_ObjectHideFlags: 0
  m_PrefabParentObject: {fileID: 0}
  m_PrefabInternal: {fileID: 100100000}
  serializedVersion: 4
  m_Component:
  - 4: {fileID: 4000012742801496}
  - 114: {fileID: 114000010476334280}
  m_Layer: 0
  m_Name: stonehead_ability_2
  m_TagString: Untagged
  m_Icon: {fileID: 0}
  m_NavMeshLayer: 0
  m_StaticEditorFlags: 0
  m_IsActive: 1
--- !u!4 &4000012742801496
Transform:
  m_ObjectHideFlags: 1
  m_PrefabParentObject: {fileID: 0}
  m_PrefabInternal: {fileID: 100100000}
  m_GameObject: {fileID: 1000011465967900}
  m_LocalRotation: {x: 0, y: 0, z: 0, w: 1}
  m_LocalPosition: {x: 0, y: 0, z: 0}
  m_LocalScale: {x: 1, y: 1, z: 1}
  m_LocalEulerAnglesHint: {x: 0, y: 0, z: 0}
  m_Children: []
  m_Father: {fileID: 0}
  m_RootOrder: 0
--- !u!114 &114000010476334280
MonoBehaviour:
  m_ObjectHideFlags: 1
  m_PrefabParentObject: {fileID: 0}
  m_PrefabInternal: {fileID: 100100000}
  m_GameObject: {fileID: 1000011465967900}
  m_Enabled: 1
  m_EditorHideFlags: 0
  m_Script: {fileID: 11500000, guid: d546f34a90531a14eaba82a43b05b86b, type: 3}
  m_Name: 
  m_EditorClassIdentifier: 
  version: 3
  materialIdsValid: 1
  needMaterialInstance: 0
  spriteDefinitions:
  - name: bone1
    boundsData:
    - {x: 0, y: 0, z: 0}
    - {x: 0.5, y: 0.5, z: 0}
    untrimmedBoundsData:
    - {x: 0, y: 0, z: 0}
    - {x: 0.5, y: 0.5, z: 0}
    texelSize: {x: 0.01, y: 0.01}
    positions:
    - {x: -0.25, y: -0.25, z: 0}
    - {x: 0.25, y: -0.25, z: 0}
    - {x: -0.25, y: 0.25, z: 0}
    - {x: 0.25, y: 0.25, z: 0}
    normals: []
    tangents: []
    uvs:
    - {x: 0.5859453, y: 0.015632812}
    - {x: 0.9765547, y: 0.015632812}
    - {x: 0.5859453, y: 0.4062422}
    - {x: 0.9765547, y: 0.4062422}
    normalizedUvs:
    - {x: 0, y: 0}
    - {x: 1, y: 0}
    - {x: 0, y: 1}
    - {x: 1, y: 1}
    indices: 000000000300000001000000020000000300000000000000
    material: {fileID: 2100000, guid: 86b6e8bba85b95843a0af676be909726, type: 2}
    materialId: 0
    sourceTextureGUID: 5b84a9b661bc9884badac5752819ab9d
    extractRegion: 0
    regionX: 0
    regionY: 0
    regionW: 0
    regionH: 0
    flipped: 0
    complexGeometry: 0
    physicsEngine: 0
    colliderType: 0
    customColliders: []
    colliderVertices: []
    colliderIndicesFwd: 
    colliderIndicesBack: 
    colliderConvex: 0
    colliderSmoothSphereCollisions: 0
    polygonCollider2D: []
    edgeCollider2D: []
    attachPoints: []
  - name: bone2
    boundsData:
    - {x: 0, y: 0, z: 0}
    - {x: 0.42, y: 0.42, z: 0}
    untrimmedBoundsData:
    - {x: 0, y: 0, z: 0}
    - {x: 0.42, y: 0.42, z: 0}
    texelSize: {x: 0.01, y: 0.01}
    positions:
    - {x: -0.21, y: -0.21, z: 0}
    - {x: 0.21, y: -0.21, z: 0}
    - {x: -0.21, y: 0.21, z: 0}
    - {x: 0.21, y: 0.21, z: 0}
    normals: []
    tangents: []
    uvs:
    - {x: 0.015632812, y: 0.6406328}
    - {x: 0.3437422, y: 0.6406328}
    - {x: 0.015632812, y: 0.9687422}
    - {x: 0.3437422, y: 0.9687422}
    normalizedUvs:
    - {x: 0, y: 0}
    - {x: 1, y: 0}
    - {x: 0, y: 1}
    - {x: 1, y: 1}
    indices: 000000000300000001000000020000000300000000000000
    material: {fileID: 2100000, guid: 86b6e8bba85b95843a0af676be909726, type: 2}
    materialId: 0
    sourceTextureGUID: d864ffd3ba7927d44b217859591df534
    extractRegion: 0
    regionX: 0
    regionY: 0
    regionW: 0
    regionH: 0
    flipped: 0
    complexGeometry: 0
    physicsEngine: 0
    colliderType: 0
    customColliders: []
    colliderVertices: []
    colliderIndicesFwd: 
    colliderIndicesBack: 
    colliderConvex: 0
    colliderSmoothSphereCollisions: 0
    polygonCollider2D: []
    edgeCollider2D: []
    attachPoints: []
  - name: eye
    boundsData:
    - {x: 0, y: 0, z: 0}
    - {x: 0.06, y: 0.099999994, z: 0}
    untrimmedBoundsData:
    - {x: 0, y: 0, z: 0}
    - {x: 0.06, y: 0.099999994, z: 0}
    texelSize: {x: 0.01, y: 0.01}
    positions:
    - {x: -0.03, y: -0.049999997, z: 0}
    - {x: 0.03, y: -0.049999997, z: 0}
    - {x: -0.03, y: 0.049999997, z: 0}
    - {x: 0.03, y: 0.049999997, z: 0}
    normals: []
    tangents: []
    uvs:
    - {x: 0.7656328, y: 0.4375078}
    - {x: 0.7656328, y: 0.4843672}
    - {x: 0.8437422, y: 0.4375078}
    - {x: 0.8437422, y: 0.4843672}
    normalizedUvs:
    - {x: 0, y: 0}
    - {x: 0, y: 1}
    - {x: 1, y: 0}
    - {x: 1, y: 1}
    indices: 000000000300000001000000020000000300000000000000
    material: {fileID: 2100000, guid: 86b6e8bba85b95843a0af676be909726, type: 2}
    materialId: 0
    sourceTextureGUID: 355eaf7ac58eea249b23435c688347d9
    extractRegion: 0
    regionX: 0
    regionY: 0
    regionW: 0
    regionH: 0
    flipped: 1
    complexGeometry: 0
    physicsEngine: 0
    colliderType: 0
    customColliders: []
    colliderVertices: []
    colliderIndicesFwd: 
    colliderIndicesBack: 
    colliderConvex: 0
    colliderSmoothSphereCollisions: 0
    polygonCollider2D: []
    edgeCollider2D: []
    attachPoints: []
  - name: 
    boundsData:
    - {x: 0.31, y: -0.31, z: 0}
    - {x: 0.64, y: 0.64, z: 0}
    untrimmedBoundsData:
    - {x: 0.31, y: -0.31, z: 0}
    - {x: 0.64, y: 0.64, z: 0}
    texelSize: {x: 0.01, y: 0.01}
    positions:
    - {x: -0.01, y: -0.63, z: 0}
    - {x: 0.63, y: -0.63, z: 0}
    - {x: -0.01, y: 0.00999999, z: 0}
    - {x: 0.63, y: 0.00999999, z: 0}
    normals: []
    tangents: []
    uvs:
    - {x: 0.4609453, y: 0.9609453}
    - {x: 0.4765547, y: 0.9609453}
    - {x: 0.4609453, y: 0.9765547}
    - {x: 0.4765547, y: 0.9765547}
    normalizedUvs:
    - {x: 0, y: 0}
    - {x: 1, y: 0}
    - {x: 0, y: 1}
    - {x: 1, y: 1}
    indices: 000000000300000001000000020000000300000000000000
    material: {fileID: 2100000, guid: 86b6e8bba85b95843a0af676be909726, type: 2}
    materialId: 0
    sourceTextureGUID: 
    extractRegion: 0
    regionX: 0
    regionY: 0
    regionW: 0
    regionH: 0
    flipped: 0
    complexGeometry: 0
    physicsEngine: 0
    colliderType: 0
    customColliders: []
    colliderVertices: []
    colliderIndicesFwd: 
    colliderIndicesBack: 
    colliderConvex: 0
    colliderSmoothSphereCollisions: 0
    polygonCollider2D: []
    edgeCollider2D: []
    attachPoints: []
  - name: spiritbody
    boundsData:
    - {x: 0.004999995, y: 0, z: 0}
    - {x: 0.69, y: 0.76, z: 0}
    untrimmedBoundsData:
    - {x: 0.004999995, y: 0, z: 0}
    - {x: 0.69, y: 0.76, z: 0}
    texelSize: {x: 0.01, y: 0.01}
    positions:
    - {x: -0.34, y: -0.38, z: 0}
    - {x: 0.35, y: -0.38, z: 0}
    - {x: -0.34, y: 0.38, z: 0}
    - {x: 0.35, y: 0.38, z: 0}
    normals: []
    tangents: []
    uvs:
    - {x: 0.015632812, y: 0.015632812}
    - {x: 0.5546797, y: 0.015632812}
    - {x: 0.015632812, y: 0.6093672}
    - {x: 0.5546797, y: 0.6093672}
    normalizedUvs:
    - {x: 0, y: 0}
    - {x: 1, y: 0}
    - {x: 0, y: 1}
    - {x: 1, y: 1}
    indices: 000000000300000001000000020000000300000000000000
    material: {fileID: 2100000, guid: 86b6e8bba85b95843a0af676be909726, type: 2}
    materialId: 0
    sourceTextureGUID: 7ef109cc023dc93469c8ae4d312eb1f3
    extractRegion: 0
    regionX: 0
    regionY: 0
    regionW: 0
    regionH: 0
    flipped: 0
    complexGeometry: 0
    physicsEngine: 0
    colliderType: 0
    customColliders: []
    colliderVertices: []
    colliderIndicesFwd: 
    colliderIndicesBack: 
    colliderConvex: 0
    colliderSmoothSphereCollisions: 0
    polygonCollider2D: []
    edgeCollider2D: []
    attachPoints: []
  - name: spiritbuckle
    boundsData:
    - {x: 0.0050000027, y: -0.004999995, z: 0}
    - {x: 0.19, y: 0.19, z: 0}
    untrimmedBoundsData:
    - {x: 0.0050000027, y: -0.004999995, z: 0}
    - {x: 0.19, y: 0.19, z: 0}
    texelSize: {x: 0.01, y: 0.01}
    positions:
    - {x: -0.089999996, y: -0.099999994, z: 0}
    - {x: 0.1, y: -0.099999994, z: 0}
    - {x: -0.089999996, y: 0.09, z: 0}
    - {x: 0.1, y: 0.09, z: 0}
    normals: []
    tangents: []
    uvs:
    - {x: 0.5859453, y: 0.4375078}
    - {x: 0.7343672, y: 0.4375078}
    - {x: 0.5859453, y: 0.5859297}
    - {x: 0.7343672, y: 0.5859297}
    normalizedUvs:
    - {x: 0, y: 0}
    - {x: 1, y: 0}
    - {x: 0, y: 1}
    - {x: 1, y: 1}
    indices: 000000000300000001000000020000000300000000000000
    material: {fileID: 2100000, guid: 86b6e8bba85b95843a0af676be909726, type: 2}
    materialId: 0
    sourceTextureGUID: 8b0a7e5024bc21e499607192fe0760c8
    extractRegion: 0
    regionX: 0
    regionY: 0
    regionW: 0
    regionH: 0
    flipped: 0
    complexGeometry: 0
    physicsEngine: 0
    colliderType: 0
    customColliders: []
    colliderVertices: []
    colliderIndicesFwd: 
    colliderIndicesBack: 
    colliderConvex: 0
    colliderSmoothSphereCollisions: 0
    polygonCollider2D: []
    edgeCollider2D: []
    attachPoints: []
  - name: spiritear
    boundsData:
    - {x: 0.004999995, y: -0.004999995, z: 0}
    - {x: 0.26999998, y: 0.37, z: 0}
    untrimmedBoundsData:
    - {x: 0.004999995, y: -0.004999995, z: 0}
    - {x: 0.26999998, y: 0.37, z: 0}
    texelSize: {x: 0.01, y: 0.01}
    positions:
    - {x: -0.13, y: -0.19, z: 0}
    - {x: 0.13999999, y: -0.19, z: 0}
    - {x: -0.13, y: 0.18, z: 0}
    - {x: 0.13999999, y: 0.18, z: 0}
    normals: []
    tangents: []
    uvs:
    - {x: 0.3750078, y: 0.6406328}
    - {x: 0.5859297, y: 0.6406328}
    - {x: 0.3750078, y: 0.9296797}
    - {x: 0.5859297, y: 0.9296797}
    normalizedUvs:
    - {x: 0, y: 0}
    - {x: 1, y: 0}
    - {x: 0, y: 1}
    - {x: 1, y: 1}
    indices: 000000000300000001000000020000000300000000000000
    material: {fileID: 2100000, guid: 86b6e8bba85b95843a0af676be909726, type: 2}
    materialId: 0
    sourceTextureGUID: 859e3724a8302524591a84df1632c9d8
    extractRegion: 0
    regionX: 0
    regionY: 0
    regionW: 0
    regionH: 0
    flipped: 0
    complexGeometry: 0
    physicsEngine: 0
    colliderType: 0
    customColliders: []
    colliderVertices: []
    colliderIndicesFwd: 
    colliderIndicesBack: 
    colliderConvex: 0
    colliderSmoothSphereCollisions: 0
    polygonCollider2D: []
    edgeCollider2D: []
    attachPoints: []
  - name: undereye
    boundsData:
    - {x: 0.005, y: -0.005, z: 0}
    - {x: 0.07, y: 0.03, z: 0}
    untrimmedBoundsData:
    - {x: 0.005, y: -0.005, z: 0}
    - {x: 0.07, y: 0.03, z: 0}
    texelSize: {x: 0.01, y: 0.01}
    positions:
    - {x: -0.03, y: -0.02, z: 0}
    - {x: 0.04, y: -0.02, z: 0}
    - {x: -0.03, y: 0.01, z: 0}
    - {x: 0.04, y: 0.01, z: 0}
    normals: []
    tangents: []
    uvs:
    - {x: 0.3750078, y: 0.9609453}
    - {x: 0.4296797, y: 0.9609453}
    - {x: 0.3750078, y: 0.9843672}
    - {x: 0.4296797, y: 0.9843672}
    normalizedUvs:
    - {x: 0, y: 0}
    - {x: 1, y: 0}
    - {x: 0, y: 1}
    - {x: 1, y: 1}
    indices: 000000000300000001000000020000000300000000000000
    material: {fileID: 2100000, guid: 86b6e8bba85b95843a0af676be909726, type: 2}
    materialId: 0
    sourceTextureGUID: ff22a99d2e3bb344eb8bb4df0fa62ec1
    extractRegion: 0
    regionX: 0
    regionY: 0
    regionW: 0
    regionH: 0
    flipped: 0
    complexGeometry: 0
    physicsEngine: 0
    colliderType: 0
    customColliders: []
    colliderVertices: []
    colliderIndicesFwd: 
    colliderIndicesBack: 
    colliderConvex: 0
    colliderSmoothSphereCollisions: 0
    polygonCollider2D: []
    edgeCollider2D: []
    attachPoints: []
  premultipliedAlpha: 1
  material: {fileID: 0}
  materials:
  - {fileID: 2100000, guid: 86b6e8bba85b95843a0af676be909726, type: 2}
  textures:
  - {fileID: 2800000, guid: 773ae7949a275734294a22629a8c7e99, type: 3}
  pngTextures: []
  materialPngTextureId: 00000000
  textureFilterMode: 1
  textureMipMaps: 0
  allowMultipleAtlases: 0
  spriteCollectionGUID: bcd572ecd82d13a428056132732c5fcb
  spriteCollectionName: stonehead_ability_2
  assetName: 
  loadable: 0
  invOrthoSize: 2
  halfTargetHeight: 50
  buildKey: 27982900
  dataGuid: 1557f64dda7094e49834f4344e12c452
  managedSpriteCollection: 0
  hasPlatformData: 0
  spriteCollectionPlatforms: []
  spriteCollectionPlatformGUIDs: []
