%YAML 1.1
%TAG !u! tag:unity3d.com,2011:
--- !u!78 &1
TagManager:
  serializedVersion: 2
  tags:
  - Block
  - ArenaTeamTop
  - ArenaTeamBottom
  - Ball
  - Pad
  layers:
  - Default
  - TransparentFX
  - Ignore Raycast
  - 
  - Water
  - UI
  - 
  - 
  - Pad
  - Balls Trigger
  - Balls
  - Blocks
  - Player
  - Environment
  - BlocksTrigger
  - PlayerTrigger
  - PowerUpProjectile
  - 
  - 
  - 
  - ArenaTeamTop
  - ArenaTeamBottom
  - PlayerTop
  - PlayerBottom
  - 
  - 
  - 
  - 
  - 
  - 
  - 
  - 
  m_SortingLayers:
  - name: Background
    uniqueID: 2268477557
    locked: 0
  - name: Shadows
    uniqueID: 3657413017
    locked: 0
  - name: Default
    uniqueID: 0
    locked: 0
  - name: Effects
    uniqueID: 897730975
    locked: 0
  - name: Clouds
    uniqueID: 4001570783
    locked: 0
  - name: UI
    uniqueID: 2864873239
    locked: 0
