%YAML 1.1
%TAG !u! tag:unity3d.com,2011:
--- !u!1001 &100100000
Prefab:
  m_ObjectHideFlags: 1
  serializedVersion: 2
  m_Modification:
    m_TransformParent: {fileID: 0}
    m_Modifications: []
    m_RemovedComponents: []
  m_ParentPrefab: {fileID: 0}
  m_RootGameObject: {fileID: 1000010332461680}
  m_IsPrefabParent: 1
--- !u!1 &1000010332461680
GameObject:
  m_ObjectHideFlags: 0
  m_PrefabParentObject: {fileID: 0}
  m_PrefabInternal: {fileID: 100100000}
  serializedVersion: 4
  m_Component:
  - 4: {fileID: 4000011176038802}
  - 114: {fileID: 114000012386142668}
  m_Layer: 0
  m_Name: bomb_guy_down
  m_TagString: Untagged
  m_Icon: {fileID: 0}
  m_NavMeshLayer: 0
  m_StaticEditorFlags: 0
  m_IsActive: 1
--- !u!4 &4000011176038802
Transform:
  m_ObjectHideFlags: 1
  m_PrefabParentObject: {fileID: 0}
  m_PrefabInternal: {fileID: 100100000}
  m_GameObject: {fileID: 1000010332461680}
  m_LocalRotation: {x: 0, y: 0, z: 0, w: 1}
  m_LocalPosition: {x: 0, y: 0, z: 0}
  m_LocalScale: {x: 1, y: 1, z: 1}
  m_LocalEulerAnglesHint: {x: 0, y: 0, z: 0}
  m_Children: []
  m_Father: {fileID: 0}
  m_RootOrder: 0
--- !u!114 &114000012386142668
MonoBehaviour:
  m_ObjectHideFlags: 1
  m_PrefabParentObject: {fileID: 0}
  m_PrefabInternal: {fileID: 100100000}
  m_GameObject: {fileID: 1000010332461680}
  m_Enabled: 1
  m_EditorHideFlags: 0
  m_Script: {fileID: 11500000, guid: d546f34a90531a14eaba82a43b05b86b, type: 3}
  m_Name: 
  m_EditorClassIdentifier: 
  version: 3
  materialIdsValid: 1
  needMaterialInstance: 0
  spriteDefinitions:
  - name: arm
    boundsData:
    - {x: 0.004999995, y: -0.0050000027, z: 0}
    - {x: 0.22999999, y: 0.22999999, z: 0}
    untrimmedBoundsData:
    - {x: 0.004999995, y: -0.0050000027, z: 0}
    - {x: 0.22999999, y: 0.22999999, z: 0}
    texelSize: {x: 0.01, y: 0.01}
    positions:
    - {x: -0.11, y: -0.12, z: 0}
    - {x: 0.11999999, y: -0.12, z: 0}
    - {x: -0.11, y: 0.10999999, z: 0}
    - {x: 0.11999999, y: 0.10999999, z: 0}
    normals: []
    tangents: []
    uvs:
    - {x: 0.4843828, y: 0.2656289}
    - {x: 0.6640547, y: 0.2656289}
    - {x: 0.4843828, y: 0.35546485}
    - {x: 0.6640547, y: 0.35546485}
    normalizedUvs:
    - {x: 0, y: 0}
    - {x: 1, y: 0}
    - {x: 0, y: 1}
    - {x: 1, y: 1}
    indices: 000000000300000001000000020000000300000000000000
    material: {fileID: 2100000, guid: 15a2d3d5518c71b4ea3fa633e4aa17c0, type: 2}
    materialId: 0
    sourceTextureGUID: 03147840e387a31498cca7e1adc08add
    extractRegion: 0
    regionX: 0
    regionY: 0
    regionW: 0
    regionH: 0
    flipped: 0
    complexGeometry: 0
    physicsEngine: 0
    colliderType: 0
    customColliders: []
    colliderVertices: []
    colliderIndicesFwd: 
    colliderIndicesBack: 
    colliderConvex: 0
    colliderSmoothSphereCollisions: 0
    polygonCollider2D: []
    edgeCollider2D: []
    attachPoints: []
  - name: body
    boundsData:
    - {x: 0.004999995, y: 0, z: 0}
    - {x: 0.42999998, y: 0.35999998, z: 0}
    untrimmedBoundsData:
    - {x: 0.004999995, y: 0, z: 0}
    - {x: 0.42999998, y: 0.35999998, z: 0}
    texelSize: {x: 0.01, y: 0.01}
    positions:
    - {x: -0.21, y: -0.17999999, z: 0}
    - {x: 0.21999998, y: -0.17999999, z: 0}
    - {x: -0.21, y: 0.17999999, z: 0}
    - {x: 0.21999998, y: 0.17999999, z: 0}
    normals: []
    tangents: []
    uvs:
    - {x: 0.6953203, y: 0.2890664}
    - {x: 0.6953203, y: 0.45702735}
    - {x: 0.9765547, y: 0.2890664}
    - {x: 0.9765547, y: 0.45702735}
    normalizedUvs:
    - {x: 0, y: 0}
    - {x: 0, y: 1}
    - {x: 1, y: 0}
    - {x: 1, y: 1}
    indices: 000000000300000001000000020000000300000000000000
    material: {fileID: 2100000, guid: 15a2d3d5518c71b4ea3fa633e4aa17c0, type: 2}
    materialId: 0
    sourceTextureGUID: 7aab3d2cfe88c114a96fc255bab68c40
    extractRegion: 0
    regionX: 0
    regionY: 0
    regionW: 0
    regionH: 0
    flipped: 1
    complexGeometry: 0
    physicsEngine: 0
    colliderType: 0
    customColliders: []
    colliderVertices: []
    colliderIndicesFwd: 
    colliderIndicesBack: 
    colliderConvex: 0
    colliderSmoothSphereCollisions: 0
    polygonCollider2D: []
    edgeCollider2D: []
    attachPoints: []
  - name: eye
    boundsData:
    - {x: 0.004999999, y: -0.0050000027, z: 0}
    - {x: 0.089999996, y: 0.13, z: 0}
    untrimmedBoundsData:
    - {x: 0.004999999, y: -0.0050000027, z: 0}
    - {x: 0.089999996, y: 0.13, z: 0}
    texelSize: {x: 0.01, y: 0.01}
    positions:
    - {x: -0.04, y: -0.07, z: 0}
    - {x: 0.049999997, y: -0.07, z: 0}
    - {x: -0.04, y: 0.059999995, z: 0}
    - {x: 0.049999997, y: 0.059999995, z: 0}
    normals: []
    tangents: []
    uvs:
    - {x: 0.8671953, y: 0.5351602}
    - {x: 0.8671953, y: 0.57030857}
    - {x: 0.9687422, y: 0.5351602}
    - {x: 0.9687422, y: 0.57030857}
    normalizedUvs:
    - {x: 0, y: 0}
    - {x: 0, y: 1}
    - {x: 1, y: 0}
    - {x: 1, y: 1}
    indices: 000000000300000001000000020000000300000000000000
    material: {fileID: 2100000, guid: 15a2d3d5518c71b4ea3fa633e4aa17c0, type: 2}
    materialId: 0
    sourceTextureGUID: e944266ea8df86a41b65cb6ae527bff8
    extractRegion: 0
    regionX: 0
    regionY: 0
    regionW: 0
    regionH: 0
    flipped: 1
    complexGeometry: 0
    physicsEngine: 0
    colliderType: 0
    customColliders: []
    colliderVertices: []
    colliderIndicesFwd: 
    colliderIndicesBack: 
    colliderConvex: 0
    colliderSmoothSphereCollisions: 0
    polygonCollider2D: []
    edgeCollider2D: []
    attachPoints: []
  - name: flameparticle1_bombguy
    boundsData:
    - {x: 0.004999999, y: 0, z: 0}
    - {x: 0.049999997, y: 0.16, z: 0}
    untrimmedBoundsData:
    - {x: 0.004999999, y: 0, z: 0}
    - {x: 0.049999997, y: 0.16, z: 0}
    texelSize: {x: 0.01, y: 0.01}
    positions:
    - {x: -0.02, y: -0.08, z: 0}
    - {x: 0.029999997, y: -0.08, z: 0}
    - {x: -0.02, y: 0.08, z: 0}
    - {x: 0.029999997, y: 0.08, z: 0}
    normals: []
    tangents: []
    uvs:
    - {x: 0.9453203, y: 0.007816406}
    - {x: 0.9843672, y: 0.007816406}
    - {x: 0.9453203, y: 0.070308596}
    - {x: 0.9843672, y: 0.070308596}
    normalizedUvs:
    - {x: 0, y: 0}
    - {x: 1, y: 0}
    - {x: 0, y: 0.99999994}
    - {x: 1, y: 0.99999994}
    indices: 000000000300000001000000020000000300000000000000
    material: {fileID: 2100000, guid: 15a2d3d5518c71b4ea3fa633e4aa17c0, type: 2}
    materialId: 0
    sourceTextureGUID: 79d909f73f6d68043879edff987e0c27
    extractRegion: 0
    regionX: 0
    regionY: 0
    regionW: 0
    regionH: 0
    flipped: 0
    complexGeometry: 0
    physicsEngine: 0
    colliderType: 0
    customColliders: []
    colliderVertices: []
    colliderIndicesFwd: 
    colliderIndicesBack: 
    colliderConvex: 0
    colliderSmoothSphereCollisions: 0
    polygonCollider2D: []
    edgeCollider2D: []
    attachPoints: []
  - name: flameparticle2_bombguy
    boundsData:
    - {x: 0.004999999, y: -0.004999999, z: 0}
    - {x: 0.049999997, y: 0.089999996, z: 0}
    untrimmedBoundsData:
    - {x: 0.004999999, y: -0.004999999, z: 0}
    - {x: 0.049999997, y: 0.089999996, z: 0}
    texelSize: {x: 0.01, y: 0.01}
    positions:
    - {x: -0.02, y: -0.049999997, z: 0}
    - {x: 0.029999997, y: -0.049999997, z: 0}
    - {x: -0.02, y: 0.04, z: 0}
    - {x: 0.029999997, y: 0.04, z: 0}
    normals: []
    tangents: []
    uvs:
    - {x: 0.9453203, y: 0.085941404}
    - {x: 0.9843672, y: 0.085941404}
    - {x: 0.9453203, y: 0.121089846}
    - {x: 0.9843672, y: 0.121089846}
    normalizedUvs:
    - {x: 0, y: 0}
    - {x: 1, y: 0}
    - {x: 0, y: 1}
    - {x: 1, y: 1}
    indices: 000000000300000001000000020000000300000000000000
    material: {fileID: 2100000, guid: 15a2d3d5518c71b4ea3fa633e4aa17c0, type: 2}
    materialId: 0
    sourceTextureGUID: 55e464790c3c1c6419b3c46d6d7c6b97
    extractRegion: 0
    regionX: 0
    regionY: 0
    regionW: 0
    regionH: 0
    flipped: 0
    complexGeometry: 0
    physicsEngine: 0
    colliderType: 0
    customColliders: []
    colliderVertices: []
    colliderIndicesFwd: 
    colliderIndicesBack: 
    colliderConvex: 0
    colliderSmoothSphereCollisions: 0
    polygonCollider2D: []
    edgeCollider2D: []
    attachPoints: []
  - name: flame_bombguy
    boundsData:
    - {x: 0.004999995, y: -0.00500001, z: 0}
    - {x: 0.22999999, y: 0.42999998, z: 0}
    untrimmedBoundsData:
    - {x: 0.004999995, y: -0.00500001, z: 0}
    - {x: 0.22999999, y: 0.42999998, z: 0}
    texelSize: {x: 0.01, y: 0.01}
    positions:
    - {x: -0.11, y: -0.22, z: 0}
    - {x: 0.11999999, y: -0.22, z: 0}
    - {x: -0.11, y: 0.20999998, z: 0}
    - {x: 0.11999999, y: 0.20999998, z: 0}
    normals: []
    tangents: []
    uvs:
    - {x: 0.7343828, y: 0.007816406}
    - {x: 0.9140547, y: 0.007816406}
    - {x: 0.7343828, y: 0.17577735}
    - {x: 0.9140547, y: 0.17577735}
    normalizedUvs:
    - {x: 0, y: 0}
    - {x: 1, y: 0}
    - {x: 0, y: 1}
    - {x: 1, y: 1}
    indices: 000000000300000001000000020000000300000000000000
    material: {fileID: 2100000, guid: 15a2d3d5518c71b4ea3fa633e4aa17c0, type: 2}
    materialId: 0
    sourceTextureGUID: e939e89f8b0a2e54d8ff39dbe625a59f
    extractRegion: 0
    regionX: 0
    regionY: 0
    regionW: 0
    regionH: 0
    flipped: 0
    complexGeometry: 0
    physicsEngine: 0
    colliderType: 0
    customColliders: []
    colliderVertices: []
    colliderIndicesFwd: 
    colliderIndicesBack: 
    colliderConvex: 0
    colliderSmoothSphereCollisions: 0
    polygonCollider2D: []
    edgeCollider2D: []
    attachPoints: []
  - name: fuse
    boundsData:
    - {x: 0, y: -0.0050000027, z: 0}
    - {x: 0.28, y: 0.21, z: 0}
    untrimmedBoundsData:
    - {x: 0, y: -0.0050000027, z: 0}
    - {x: 0.28, y: 0.21, z: 0}
    texelSize: {x: 0.01, y: 0.01}
    positions:
    - {x: -0.14, y: -0.11, z: 0}
    - {x: 0.14, y: -0.11, z: 0}
    - {x: -0.14, y: 0.099999994, z: 0}
    - {x: 0.14, y: 0.099999994, z: 0}
    normals: []
    tangents: []
    uvs:
    - {x: 0.7343828, y: 0.19141015}
    - {x: 0.9531172, y: 0.19141015}
    - {x: 0.7343828, y: 0.2734336}
    - {x: 0.9531172, y: 0.2734336}
    normalizedUvs:
    - {x: 0, y: 0}
    - {x: 1, y: 0}
    - {x: 0, y: 1}
    - {x: 1, y: 1}
    indices: 000000000300000001000000020000000300000000000000
    material: {fileID: 2100000, guid: 15a2d3d5518c71b4ea3fa633e4aa17c0, type: 2}
    materialId: 0
    sourceTextureGUID: e2577cf017160b542ab6e05caebc3919
    extractRegion: 0
    regionX: 0
    regionY: 0
    regionW: 0
    regionH: 0
    flipped: 0
    complexGeometry: 0
    physicsEngine: 0
    colliderType: 0
    customColliders: []
    colliderVertices: []
    colliderIndicesFwd: 
    colliderIndicesBack: 
    colliderConvex: 0
    colliderSmoothSphereCollisions: 0
    polygonCollider2D: []
    edgeCollider2D: []
    attachPoints: []
  - name: fuse_top
    boundsData:
    - {x: 0, y: 0, z: 0}
    - {x: 0.22, y: 0.22, z: 0}
    untrimmedBoundsData:
    - {x: 0, y: 0, z: 0}
    - {x: 0.22, y: 0.22, z: 0}
    texelSize: {x: 0.01, y: 0.01}
    positions:
    - {x: -0.11, y: -0.11, z: 0}
    - {x: 0.11, y: -0.11, z: 0}
    - {x: -0.11, y: 0.11, z: 0}
    - {x: 0.11, y: 0.11, z: 0}
    normals: []
    tangents: []
    uvs:
    - {x: 0.4843828, y: 0.37109765}
    - {x: 0.6562422, y: 0.37109765}
    - {x: 0.4843828, y: 0.45702735}
    - {x: 0.6562422, y: 0.45702735}
    normalizedUvs:
    - {x: 0, y: 0}
    - {x: 1, y: 0}
    - {x: 0, y: 1}
    - {x: 1, y: 1}
    indices: 000000000300000001000000020000000300000000000000
    material: {fileID: 2100000, guid: 15a2d3d5518c71b4ea3fa633e4aa17c0, type: 2}
    materialId: 0
    sourceTextureGUID: 3151164c333bd00429b7c4f6456a11e3
    extractRegion: 0
    regionX: 0
    regionY: 0
    regionW: 0
    regionH: 0
    flipped: 0
    complexGeometry: 0
    physicsEngine: 0
    colliderType: 0
    customColliders: []
    colliderVertices: []
    colliderIndicesFwd: 
    colliderIndicesBack: 
    colliderConvex: 0
    colliderSmoothSphereCollisions: 0
    polygonCollider2D: []
    edgeCollider2D: []
    attachPoints: []
  - name: headbase
    boundsData:
    - {x: 0, y: 0, z: 0}
    - {x: 0.53999996, y: 0.56, z: 0}
    untrimmedBoundsData:
    - {x: 0, y: 0, z: 0}
    - {x: 0.53999996, y: 0.56, z: 0}
    texelSize: {x: 0.01, y: 0.01}
    positions:
    - {x: -0.26999998, y: -0.28, z: 0}
    - {x: 0.26999998, y: -0.28, z: 0}
    - {x: -0.26999998, y: 0.28, z: 0}
    - {x: 0.26999998, y: 0.28, z: 0}
    normals: []
    tangents: []
    uvs:
    - {x: 0.015632812, y: 0.2656289}
    - {x: 0.015632812, y: 0.4765586}
    - {x: 0.4531172, y: 0.2656289}
    - {x: 0.4531172, y: 0.4765586}
    normalizedUvs:
    - {x: 0, y: 0}
    - {x: 0, y: 1}
    - {x: 1, y: 0}
    - {x: 1, y: 1}
    indices: 000000000300000001000000020000000300000000000000
    material: {fileID: 2100000, guid: 15a2d3d5518c71b4ea3fa633e4aa17c0, type: 2}
    materialId: 0
    sourceTextureGUID: 306c98066895b404499832720a9f52d1
    extractRegion: 0
    regionX: 0
    regionY: 0
    regionW: 0
    regionH: 0
    flipped: 1
    complexGeometry: 0
    physicsEngine: 0
    colliderType: 0
    customColliders: []
    colliderVertices: []
    colliderIndicesFwd: 
    colliderIndicesBack: 
    colliderConvex: 0
    colliderSmoothSphereCollisions: 0
    polygonCollider2D: []
    edgeCollider2D: []
    attachPoints: []
  - name: leg
    boundsData:
    - {x: 0, y: 0, z: 0}
    - {x: 0.16, y: 0.17999999, z: 0}
    untrimmedBoundsData:
    - {x: 0, y: 0, z: 0}
    - {x: 0.16, y: 0.17999999, z: 0}
    texelSize: {x: 0.01, y: 0.01}
    positions:
    - {x: -0.08, y: -0.089999996, z: 0}
    - {x: 0.08, y: -0.089999996, z: 0}
    - {x: -0.08, y: 0.089999996, z: 0}
    - {x: 0.08, y: 0.089999996, z: 0}
    normals: []
    tangents: []
    uvs:
    - {x: 0.3984453, y: 0.66406643}
    - {x: 0.3984453, y: 0.72655857}
    - {x: 0.5390547, y: 0.66406643}
    - {x: 0.5390547, y: 0.72655857}
    normalizedUvs:
    - {x: 0, y: 0}
    - {x: 0, y: 1}
    - {x: 1, y: 0}
    - {x: 1, y: 1}
    indices: 000000000300000001000000020000000300000000000000
    material: {fileID: 2100000, guid: 15a2d3d5518c71b4ea3fa633e4aa17c0, type: 2}
    materialId: 0
    sourceTextureGUID: 0b2b7c25fab5db141b7b1c5900e0d39c
    extractRegion: 0
    regionX: 0
    regionY: 0
    regionW: 0
    regionH: 0
    flipped: 1
    complexGeometry: 0
    physicsEngine: 0
    colliderType: 0
    customColliders: []
    colliderVertices: []
    colliderIndicesFwd: 
    colliderIndicesBack: 
    colliderConvex: 0
    colliderSmoothSphereCollisions: 0
    polygonCollider2D: []
    edgeCollider2D: []
    attachPoints: []
  - name: match_bombguy
    boundsData:
    - {x: 0, y: 0, z: 0}
    - {x: 0.88, y: 0.62, z: 0}
    untrimmedBoundsData:
    - {x: 0, y: 0, z: 0}
    - {x: 0.88, y: 0.62, z: 0}
    texelSize: {x: 0.01, y: 0.01}
    positions:
    - {x: -0.44, y: -0.31, z: 0}
    - {x: 0.44, y: -0.31, z: 0}
    - {x: -0.44, y: 0.31, z: 0}
    - {x: 0.44, y: 0.31, z: 0}
    normals: []
    tangents: []
    uvs:
    - {x: 0.015632812, y: 0.007816406}
    - {x: 0.7031172, y: 0.007816406}
    - {x: 0.015632812, y: 0.2499961}
    - {x: 0.7031172, y: 0.2499961}
    normalizedUvs:
    - {x: 0, y: 0}
    - {x: 1, y: 0}
    - {x: 0, y: 1}
    - {x: 1, y: 1}
    indices: 000000000300000001000000020000000300000000000000
    material: {fileID: 2100000, guid: 15a2d3d5518c71b4ea3fa633e4aa17c0, type: 2}
    materialId: 0
    sourceTextureGUID: 5a5ab74b1d1996844915225efdf3e677
    extractRegion: 0
    regionX: 0
    regionY: 0
    regionW: 0
    regionH: 0
    flipped: 0
    complexGeometry: 0
    physicsEngine: 0
    colliderType: 0
    customColliders: []
    colliderVertices: []
    colliderIndicesFwd: 
    colliderIndicesBack: 
    colliderConvex: 0
    colliderSmoothSphereCollisions: 0
    polygonCollider2D: []
    edgeCollider2D: []
    attachPoints: []
  - name: shield0
    boundsData:
    - {x: 0.004999995, y: -0.004999995, z: 0}
    - {x: 0.45, y: 0.45, z: 0}
    untrimmedBoundsData:
    - {x: 0.004999995, y: -0.004999995, z: 0}
    - {x: 0.45, y: 0.45, z: 0}
    texelSize: {x: 0.01, y: 0.01}
    positions:
    - {x: -0.22, y: -0.22999999, z: 0}
    - {x: 0.22999999, y: -0.22999999, z: 0}
    - {x: -0.22, y: 0.22, z: 0}
    - {x: 0.22999999, y: 0.22, z: 0}
    normals: []
    tangents: []
    uvs:
    - {x: 0.4843828, y: 0.47266015}
    - {x: 0.8359297, y: 0.47266015}
    - {x: 0.4843828, y: 0.64843357}
    - {x: 0.8359297, y: 0.64843357}
    normalizedUvs:
    - {x: 0, y: 0}
    - {x: 1, y: 0}
    - {x: 0, y: 1}
    - {x: 1, y: 1}
    indices: 000000000300000001000000020000000300000000000000
    material: {fileID: 2100000, guid: 15a2d3d5518c71b4ea3fa633e4aa17c0, type: 2}
    materialId: 0
    sourceTextureGUID: e8a12f3e0f3d7a845bab6f929218dcd8
    extractRegion: 0
    regionX: 0
    regionY: 0
    regionW: 0
    regionH: 0
    flipped: 0
    complexGeometry: 0
    physicsEngine: 0
    colliderType: 0
    customColliders: []
    colliderVertices: []
    colliderIndicesFwd: 
    colliderIndicesBack: 
    colliderConvex: 0
    colliderSmoothSphereCollisions: 0
    polygonCollider2D: []
    edgeCollider2D: []
    attachPoints: []
  - name: shield1
    boundsData:
    - {x: 0.004999995, y: -0.004999995, z: 0}
    - {x: 0.45, y: 0.45, z: 0}
    untrimmedBoundsData:
    - {x: 0.004999995, y: -0.004999995, z: 0}
    - {x: 0.45, y: 0.45, z: 0}
    texelSize: {x: 0.01, y: 0.01}
    positions:
    - {x: -0.22, y: -0.22999999, z: 0}
    - {x: 0.22999999, y: -0.22999999, z: 0}
    - {x: -0.22, y: 0.22, z: 0}
    - {x: 0.22999999, y: 0.22, z: 0}
    normals: []
    tangents: []
    uvs:
    - {x: 0.015632812, y: 0.4921914}
    - {x: 0.3671797, y: 0.4921914}
    - {x: 0.015632812, y: 0.6679648}
    - {x: 0.3671797, y: 0.6679648}
    normalizedUvs:
    - {x: 0, y: 0}
    - {x: 1, y: 0}
    - {x: 0, y: 1}
    - {x: 1, y: 1}
    indices: 000000000300000001000000020000000300000000000000
    material: {fileID: 2100000, guid: 15a2d3d5518c71b4ea3fa633e4aa17c0, type: 2}
    materialId: 0
    sourceTextureGUID: 6883176572a9fc8469b59bdccb5a8d8b
    extractRegion: 0
    regionX: 0
    regionY: 0
    regionW: 0
    regionH: 0
    flipped: 0
    complexGeometry: 0
    physicsEngine: 0
    colliderType: 0
    customColliders: []
    colliderVertices: []
    colliderIndicesFwd: 
    colliderIndicesBack: 
    colliderConvex: 0
    colliderSmoothSphereCollisions: 0
    polygonCollider2D: []
    edgeCollider2D: []
    attachPoints: []
  - name: squint
    boundsData:
    - {x: 0.004999997, y: 0, z: 0}
    - {x: 0.13, y: 0.12, z: 0}
    untrimmedBoundsData:
    - {x: 0.004999997, y: 0, z: 0}
    - {x: 0.13, y: 0.12, z: 0}
    texelSize: {x: 0.01, y: 0.01}
    positions:
    - {x: -0.06, y: -0.06, z: 0}
    - {x: 0.06999999, y: -0.06, z: 0}
    - {x: -0.06, y: 0.06, z: 0}
    - {x: 0.06999999, y: 0.06, z: 0}
    normals: []
    tangents: []
    uvs:
    - {x: 0.8671953, y: 0.47266015}
    - {x: 0.9687422, y: 0.47266015}
    - {x: 0.8671953, y: 0.5195273}
    - {x: 0.9687422, y: 0.5195273}
    normalizedUvs:
    - {x: 0, y: 0}
    - {x: 1, y: 0}
    - {x: 0, y: 1}
    - {x: 1, y: 1}
    indices: 000000000300000001000000020000000300000000000000
    material: {fileID: 2100000, guid: 15a2d3d5518c71b4ea3fa633e4aa17c0, type: 2}
    materialId: 0
    sourceTextureGUID: cc11d7431ae0673489c7f304124ec19c
    extractRegion: 0
    regionX: 0
    regionY: 0
    regionW: 0
    regionH: 0
    flipped: 0
    complexGeometry: 0
    physicsEngine: 0
    colliderType: 0
    customColliders: []
    colliderVertices: []
    colliderIndicesFwd: 
    colliderIndicesBack: 
    colliderConvex: 0
    colliderSmoothSphereCollisions: 0
    polygonCollider2D: []
    edgeCollider2D: []
    attachPoints: []
  premultipliedAlpha: 1
  material: {fileID: 0}
  materials:
  - {fileID: 2100000, guid: 15a2d3d5518c71b4ea3fa633e4aa17c0, type: 2}
  textures:
  - {fileID: 2800000, guid: 74a0e8af48f088142b45977ec8456919, type: 3}
  pngTextures: []
  materialPngTextureId: 00000000
  textureFilterMode: 1
  textureMipMaps: 0
  allowMultipleAtlases: 0
  spriteCollectionGUID: 454028a92dde739459a7ae0e01a62266
  spriteCollectionName: bomb_guy_down
  assetName: 
  loadable: 0
  invOrthoSize: 2
  halfTargetHeight: 50
  buildKey: 2096135023
  dataGuid: cdb526abc1b031442a6b3b689b1093e4
  managedSpriteCollection: 0
  hasPlatformData: 0
  spriteCollectionPlatforms: []
  spriteCollectionPlatformGUIDs: []
