%YAML 1.1
%TAG !u! tag:unity3d.com,2011:
--- !u!114 &11400000
MonoBehaviour:
  m_ObjectHideFlags: 0
  m_PrefabParentObject: {fileID: 0}
  m_PrefabInternal: {fileID: 0}
  m_GameObject: {fileID: 0}
  m_Enabled: 1
  m_EditorHideFlags: 0
  m_Script: {fileID: 11500000, guid: 0d0c6dc8a5522bb4e9d90c59259cb642, type: 3}
  m_Name: SoundSetting 16
  m_EditorClassIdentifier: 
  audioClips:
  - {fileID: 8300000, guid: d1659f2044d717b48a378273d8e2d6ef, type: 3}
  volume: 1
  delay: 0
