%YAML 1.1
%TAG !u! tag:unity3d.com,2011:
--- !u!1001 &100100000
Prefab:
  m_ObjectHideFlags: 1
  serializedVersion: 2
  m_Modification:
    m_TransformParent: {fileID: 0}
    m_Modifications: []
    m_RemovedComponents: []
  m_ParentPrefab: {fileID: 0}
  m_RootGameObject: {fileID: 1000010812519430}
  m_IsPrefabParent: 1
--- !u!1 &1000010812519430
GameObject:
  m_ObjectHideFlags: 0
  m_PrefabParentObject: {fileID: 0}
  m_PrefabInternal: {fileID: 100100000}
  serializedVersion: 4
  m_Component:
  - 4: {fileID: 4000013303517756}
  - 114: {fileID: 114000011181324910}
  m_Layer: 0
  m_Name: tree_head_down
  m_TagString: Untagged
  m_Icon: {fileID: 0}
  m_NavMeshLayer: 0
  m_StaticEditorFlags: 0
  m_IsActive: 1
--- !u!4 &4000013303517756
Transform:
  m_ObjectHideFlags: 1
  m_PrefabParentObject: {fileID: 0}
  m_PrefabInternal: {fileID: 100100000}
  m_GameObject: {fileID: 1000010812519430}
  m_LocalRotation: {x: 0, y: 0, z: 0, w: 1}
  m_LocalPosition: {x: 0, y: 0, z: 0}
  m_LocalScale: {x: 1, y: 1, z: 1}
  m_LocalEulerAnglesHint: {x: 0, y: 0, z: 0}
  m_Children: []
  m_Father: {fileID: 0}
  m_RootOrder: 0
--- !u!114 &114000011181324910
MonoBehaviour:
  m_ObjectHideFlags: 1
  m_PrefabParentObject: {fileID: 0}
  m_PrefabInternal: {fileID: 100100000}
  m_GameObject: {fileID: 1000010812519430}
  m_Enabled: 1
  m_EditorHideFlags: 0
  m_Script: {fileID: 11500000, guid: d546f34a90531a14eaba82a43b05b86b, type: 3}
  m_Name: 
  m_EditorClassIdentifier: 
  version: 3
  materialIdsValid: 1
  needMaterialInstance: 0
  spriteDefinitions:
  - name: arm
    boundsData:
    - {x: 0.004999995, y: -0.0050000027, z: 0}
    - {x: 0.22999999, y: 0.22999999, z: 0}
    untrimmedBoundsData:
    - {x: 0.004999995, y: -0.0050000027, z: 0}
    - {x: 0.22999999, y: 0.22999999, z: 0}
    texelSize: {x: 0.01, y: 0.01}
    positions:
    - {x: -0.11, y: -0.12, z: 0}
    - {x: 0.11999999, y: -0.12, z: 0}
    - {x: -0.11, y: 0.10999999, z: 0}
    - {x: 0.11999999, y: 0.10999999, z: 0}
    normals: []
    tangents: []
    uvs:
    - {x: 0.7812578, y: 0.4843828}
    - {x: 0.9609297, y: 0.4843828}
    - {x: 0.7812578, y: 0.6640547}
    - {x: 0.9609297, y: 0.6640547}
    normalizedUvs:
    - {x: 0, y: 0}
    - {x: 1, y: 0}
    - {x: 0, y: 1}
    - {x: 1, y: 1}
    indices: 000000000300000001000000020000000300000000000000
    material: {fileID: 2100000, guid: 9f9a369441fadcc4aa188d523003d648, type: 2}
    materialId: 0
    sourceTextureGUID: ea1f2ea8225418342b1095084a568c97
    extractRegion: 0
    regionX: 0
    regionY: 0
    regionW: 0
    regionH: 0
    flipped: 0
    complexGeometry: 0
    physicsEngine: 0
    colliderType: 0
    customColliders: []
    colliderVertices: []
    colliderIndicesFwd: 
    colliderIndicesBack: 
    colliderConvex: 0
    colliderSmoothSphereCollisions: 0
    polygonCollider2D: []
    edgeCollider2D: []
    attachPoints: []
  - name: body
    boundsData:
    - {x: 0.004999995, y: -0.004999995, z: 0}
    - {x: 0.42999998, y: 0.39, z: 0}
    untrimmedBoundsData:
    - {x: 0.004999995, y: -0.004999995, z: 0}
    - {x: 0.42999998, y: 0.39, z: 0}
    texelSize: {x: 0.01, y: 0.01}
    positions:
    - {x: -0.21, y: -0.19999999, z: 0}
    - {x: 0.21999998, y: -0.19999999, z: 0}
    - {x: -0.21, y: 0.19, z: 0}
    - {x: 0.21999998, y: 0.19, z: 0}
    normals: []
    tangents: []
    uvs:
    - {x: 0.5234453, y: 0.015632812}
    - {x: 0.8593672, y: 0.015632812}
    - {x: 0.5234453, y: 0.3203047}
    - {x: 0.8593672, y: 0.3203047}
    normalizedUvs:
    - {x: 0, y: 0}
    - {x: 1, y: 0}
    - {x: 0, y: 1}
    - {x: 1, y: 1}
    indices: 000000000300000001000000020000000300000000000000
    material: {fileID: 2100000, guid: 9f9a369441fadcc4aa188d523003d648, type: 2}
    materialId: 0
    sourceTextureGUID: 6968ab061fc18b945a16c9678e072686
    extractRegion: 0
    regionX: 0
    regionY: 0
    regionW: 0
    regionH: 0
    flipped: 0
    complexGeometry: 0
    physicsEngine: 0
    colliderType: 0
    customColliders: []
    colliderVertices: []
    colliderIndicesFwd: 
    colliderIndicesBack: 
    colliderConvex: 0
    colliderSmoothSphereCollisions: 0
    polygonCollider2D: []
    edgeCollider2D: []
    attachPoints: []
  - name: eye
    boundsData:
    - {x: 0, y: -0.0050000027, z: 0}
    - {x: 0.08, y: 0.14999999, z: 0}
    untrimmedBoundsData:
    - {x: 0, y: -0.0050000027, z: 0}
    - {x: 0.08, y: 0.14999999, z: 0}
    texelSize: {x: 0.01, y: 0.01}
    positions:
    - {x: -0.04, y: -0.08, z: 0}
    - {x: 0.04, y: -0.08, z: 0}
    - {x: -0.04, y: 0.06999999, z: 0}
    - {x: 0.04, y: 0.06999999, z: 0}
    normals: []
    tangents: []
    uvs:
    - {x: 0.8046953, y: 0.3515703}
    - {x: 0.8046953, y: 0.4140547}
    - {x: 0.9218672, y: 0.3515703}
    - {x: 0.9218672, y: 0.4140547}
    normalizedUvs:
    - {x: 0, y: 0}
    - {x: 0, y: 1}
    - {x: 1, y: 0}
    - {x: 1, y: 1}
    indices: 000000000300000001000000020000000300000000000000
    material: {fileID: 2100000, guid: 9f9a369441fadcc4aa188d523003d648, type: 2}
    materialId: 0
    sourceTextureGUID: e122c7b5ebc50964a982235d37a88f67
    extractRegion: 0
    regionX: 0
    regionY: 0
    regionW: 0
    regionH: 0
    flipped: 1
    complexGeometry: 0
    physicsEngine: 0
    colliderType: 0
    customColliders: []
    colliderVertices: []
    colliderIndicesFwd: 
    colliderIndicesBack: 
    colliderConvex: 0
    colliderSmoothSphereCollisions: 0
    polygonCollider2D: []
    edgeCollider2D: []
    attachPoints: []
  - name: headbase
    boundsData:
    - {x: 0.005000025, y: 0, z: 0}
    - {x: 0.61, y: 0.64, z: 0}
    untrimmedBoundsData:
    - {x: 0.005000025, y: 0, z: 0}
    - {x: 0.61, y: 0.64, z: 0}
    texelSize: {x: 0.01, y: 0.01}
    positions:
    - {x: -0.29999998, y: -0.32, z: 0}
    - {x: 0.31000003, y: -0.32, z: 0}
    - {x: -0.29999998, y: 0.32, z: 0}
    - {x: 0.31000003, y: 0.32, z: 0}
    normals: []
    tangents: []
    uvs:
    - {x: 0.015632812, y: 0.015632812}
    - {x: 0.4921797, y: 0.015632812}
    - {x: 0.015632812, y: 0.5156172}
    - {x: 0.4921797, y: 0.5156172}
    normalizedUvs:
    - {x: 0, y: 0}
    - {x: 1, y: 0}
    - {x: 0, y: 1}
    - {x: 1, y: 1}
    indices: 000000000300000001000000020000000300000000000000
    material: {fileID: 2100000, guid: 9f9a369441fadcc4aa188d523003d648, type: 2}
    materialId: 0
    sourceTextureGUID: 233546a7c80e79646ad51c849697609d
    extractRegion: 0
    regionX: 0
    regionY: 0
    regionW: 0
    regionH: 0
    flipped: 0
    complexGeometry: 0
    physicsEngine: 0
    colliderType: 0
    customColliders: []
    colliderVertices: []
    colliderIndicesFwd: 
    colliderIndicesBack: 
    colliderConvex: 0
    colliderSmoothSphereCollisions: 0
    polygonCollider2D: []
    edgeCollider2D: []
    attachPoints: []
  - name: leg
    boundsData:
    - {x: 0, y: 0, z: 0}
    - {x: 0.16, y: 0.17999999, z: 0}
    untrimmedBoundsData:
    - {x: 0, y: 0, z: 0}
    - {x: 0.16, y: 0.17999999, z: 0}
    texelSize: {x: 0.01, y: 0.01}
    positions:
    - {x: -0.08, y: -0.089999996, z: 0}
    - {x: 0.08, y: -0.089999996, z: 0}
    - {x: -0.08, y: 0.089999996, z: 0}
    - {x: 0.08, y: 0.089999996, z: 0}
    normals: []
    tangents: []
    uvs:
    - {x: 0.5234453, y: 0.3515703}
    - {x: 0.6484297, y: 0.3515703}
    - {x: 0.5234453, y: 0.4921797}
    - {x: 0.6484297, y: 0.4921797}
    normalizedUvs:
    - {x: 0, y: 0}
    - {x: 1, y: 0}
    - {x: 0, y: 1}
    - {x: 1, y: 1}
    indices: 000000000300000001000000020000000300000000000000
    material: {fileID: 2100000, guid: 9f9a369441fadcc4aa188d523003d648, type: 2}
    materialId: 0
    sourceTextureGUID: 7e050e46beb804248842576f29bf5c9e
    extractRegion: 0
    regionX: 0
    regionY: 0
    regionW: 0
    regionH: 0
    flipped: 0
    complexGeometry: 0
    physicsEngine: 0
    colliderType: 0
    customColliders: []
    colliderVertices: []
    colliderIndicesFwd: 
    colliderIndicesBack: 
    colliderConvex: 0
    colliderSmoothSphereCollisions: 0
    polygonCollider2D: []
    edgeCollider2D: []
    attachPoints: []
  - name: shield0
    boundsData:
    - {x: 0.004999995, y: -0.004999995, z: 0}
    - {x: 0.45, y: 0.45, z: 0}
    untrimmedBoundsData:
    - {x: 0.004999995, y: -0.004999995, z: 0}
    - {x: 0.45, y: 0.45, z: 0}
    texelSize: {x: 0.01, y: 0.01}
    positions:
    - {x: -0.22, y: -0.22999999, z: 0}
    - {x: 0.22999999, y: -0.22999999, z: 0}
    - {x: -0.22, y: 0.22, z: 0}
    - {x: 0.22999999, y: 0.22, z: 0}
    normals: []
    tangents: []
    uvs:
    - {x: 0.015632812, y: 0.5468828}
    - {x: 0.3671797, y: 0.5468828}
    - {x: 0.015632812, y: 0.8984297}
    - {x: 0.3671797, y: 0.8984297}
    normalizedUvs:
    - {x: 0, y: 0}
    - {x: 1, y: 0}
    - {x: 0, y: 1}
    - {x: 1, y: 1}
    indices: 000000000300000001000000020000000300000000000000
    material: {fileID: 2100000, guid: 9f9a369441fadcc4aa188d523003d648, type: 2}
    materialId: 0
    sourceTextureGUID: 8f1fca865031f7c458ff4fbfa2764d75
    extractRegion: 0
    regionX: 0
    regionY: 0
    regionW: 0
    regionH: 0
    flipped: 0
    complexGeometry: 0
    physicsEngine: 0
    colliderType: 0
    customColliders: []
    colliderVertices: []
    colliderIndicesFwd: 
    colliderIndicesBack: 
    colliderConvex: 0
    colliderSmoothSphereCollisions: 0
    polygonCollider2D: []
    edgeCollider2D: []
    attachPoints: []
  - name: shield1
    boundsData:
    - {x: 0.004999995, y: -0.004999995, z: 0}
    - {x: 0.45, y: 0.45, z: 0}
    untrimmedBoundsData:
    - {x: 0.004999995, y: -0.004999995, z: 0}
    - {x: 0.45, y: 0.45, z: 0}
    texelSize: {x: 0.01, y: 0.01}
    positions:
    - {x: -0.22, y: -0.22999999, z: 0}
    - {x: 0.22999999, y: -0.22999999, z: 0}
    - {x: -0.22, y: 0.22, z: 0}
    - {x: 0.22999999, y: 0.22, z: 0}
    normals: []
    tangents: []
    uvs:
    - {x: 0.3984453, y: 0.5468828}
    - {x: 0.7499922, y: 0.5468828}
    - {x: 0.3984453, y: 0.8984297}
    - {x: 0.7499922, y: 0.8984297}
    normalizedUvs:
    - {x: 0, y: 0}
    - {x: 1, y: 0}
    - {x: 0, y: 1}
    - {x: 1, y: 1}
    indices: 000000000300000001000000020000000300000000000000
    material: {fileID: 2100000, guid: 9f9a369441fadcc4aa188d523003d648, type: 2}
    materialId: 0
    sourceTextureGUID: 2a68e4b802ffcef40903442083630a0f
    extractRegion: 0
    regionX: 0
    regionY: 0
    regionW: 0
    regionH: 0
    flipped: 0
    complexGeometry: 0
    physicsEngine: 0
    colliderType: 0
    customColliders: []
    colliderVertices: []
    colliderIndicesFwd: 
    colliderIndicesBack: 
    colliderConvex: 0
    colliderSmoothSphereCollisions: 0
    polygonCollider2D: []
    edgeCollider2D: []
    attachPoints: []
  - name: squint
    boundsData:
    - {x: 0.004999997, y: 0, z: 0}
    - {x: 0.13, y: 0.12, z: 0}
    untrimmedBoundsData:
    - {x: 0.004999997, y: 0, z: 0}
    - {x: 0.13, y: 0.12, z: 0}
    texelSize: {x: 0.01, y: 0.01}
    positions:
    - {x: -0.06, y: -0.06, z: 0}
    - {x: 0.06999999, y: -0.06, z: 0}
    - {x: -0.06, y: 0.06, z: 0}
    - {x: 0.06999999, y: 0.06, z: 0}
    normals: []
    tangents: []
    uvs:
    - {x: 0.6796953, y: 0.3515703}
    - {x: 0.6796953, y: 0.4531172}
    - {x: 0.7734297, y: 0.3515703}
    - {x: 0.7734297, y: 0.4531172}
    normalizedUvs:
    - {x: 0, y: 0}
    - {x: 0, y: 1}
    - {x: 1, y: 0}
    - {x: 1, y: 1}
    indices: 000000000300000001000000020000000300000000000000
    material: {fileID: 2100000, guid: 9f9a369441fadcc4aa188d523003d648, type: 2}
    materialId: 0
    sourceTextureGUID: f31a745058f5b3448a1310e6cefb73d6
    extractRegion: 0
    regionX: 0
    regionY: 0
    regionW: 0
    regionH: 0
    flipped: 1
    complexGeometry: 0
    physicsEngine: 0
    colliderType: 0
    customColliders: []
    colliderVertices: []
    colliderIndicesFwd: 
    colliderIndicesBack: 
    colliderConvex: 0
    colliderSmoothSphereCollisions: 0
    polygonCollider2D: []
    edgeCollider2D: []
    attachPoints: []
  premultipliedAlpha: 1
  material: {fileID: 0}
  materials:
  - {fileID: 2100000, guid: 9f9a369441fadcc4aa188d523003d648, type: 2}
  textures:
  - {fileID: 2800000, guid: 9d1957ae5edd22c45996e9be3d888f4b, type: 3}
  pngTextures: []
  materialPngTextureId: 00000000
  textureFilterMode: 1
  textureMipMaps: 0
  allowMultipleAtlases: 0
  spriteCollectionGUID: 9ffedc47d7d66044b82344a970894540
  spriteCollectionName: tree_head_down
  assetName: 
  loadable: 0
  invOrthoSize: 2
  halfTargetHeight: 50
  buildKey: 1986569992
  dataGuid: ee5a0c37c8eae9a469fb5e88430161c1
  managedSpriteCollection: 0
  hasPlatformData: 0
  spriteCollectionPlatforms: []
  spriteCollectionPlatformGUIDs: []
