%YAML 1.1
%TAG !u! tag:unity3d.com,2011:
--- !u!1001 &100100000
Prefab:
  m_ObjectHideFlags: 1
  serializedVersion: 2
  m_Modification:
    m_TransformParent: {fileID: 0}
    m_Modifications: []
    m_RemovedComponents: []
  m_ParentPrefab: {fileID: 0}
  m_RootGameObject: {fileID: 1924335675011216}
  m_IsPrefabParent: 1
--- !u!1 &1924335675011216
GameObject:
  m_ObjectHideFlags: 0
  m_PrefabParentObject: {fileID: 0}
  m_PrefabInternal: {fileID: 100100000}
  serializedVersion: 5
  m_Component:
  - component: {fileID: 4972633315866528}
  - component: {fileID: 114353354389656152}
  m_Layer: 0
  m_Name: iceking_boss_ability_1
  m_TagString: Untagged
  m_Icon: {fileID: 0}
  m_NavMeshLayer: 0
  m_StaticEditorFlags: 0
  m_IsActive: 1
--- !u!4 &4972633315866528
Transform:
  m_ObjectHideFlags: 1
  m_PrefabParentObject: {fileID: 0}
  m_PrefabInternal: {fileID: 100100000}
  m_GameObject: {fileID: 1924335675011216}
  m_LocalRotation: {x: 0, y: 0, z: 0, w: 1}
  m_LocalPosition: {x: 0, y: 0, z: 0}
  m_LocalScale: {x: 1, y: 1, z: 1}
  m_Children: []
  m_Father: {fileID: 0}
  m_RootOrder: 0
  m_LocalEulerAnglesHint: {x: 0, y: 0, z: 0}
--- !u!114 &114353354389656152
MonoBehaviour:
  m_ObjectHideFlags: 1
  m_PrefabParentObject: {fileID: 0}
  m_PrefabInternal: {fileID: 100100000}
  m_GameObject: {fileID: 1924335675011216}
  m_Enabled: 1
  m_EditorHideFlags: 0
  m_Script: {fileID: 11500000, guid: d546f34a90531a14eaba82a43b05b86b, type: 3}
  m_Name: 
  m_EditorClassIdentifier: 
  version: 3
  materialIdsValid: 1
  needMaterialInstance: 0
  spriteDefinitions:
  - name: blizzard1
    boundsData:
    - {x: 0, y: 0, z: 0}
    - {x: 0.08, y: 0.26, z: 0}
    untrimmedBoundsData:
    - {x: 0, y: 0, z: 0}
    - {x: 0.08, y: 0.26, z: 0}
    texelSize: {x: 0.01, y: 0.01}
    positions:
    - {x: -0.04, y: -0.13, z: 0}
    - {x: 0.04, y: -0.13, z: 0}
    - {x: -0.04, y: 0.13, z: 0}
    - {x: 0.04, y: 0.13, z: 0}
    normals: []
    tangents: []
    uvs:
    - {x: 0.7656328, y: 0.4609414}
    - {x: 0.7656328, y: 0.4921836}
    - {x: 0.9687422, y: 0.4609414}
    - {x: 0.9687422, y: 0.4921836}
    normalizedUvs:
    - {x: 0, y: 0}
    - {x: 0, y: 1}
    - {x: 1, y: 0}
    - {x: 1, y: 1}
    indices: 000000000300000001000000020000000300000000000000
    material: {fileID: 2100000, guid: a64d6bb928b125d44b4d56b620a12d57, type: 2}
    materialId: 0
    sourceTextureGUID: 52bc70ef1daff5c488ec8e2b7873c26c
    extractRegion: 0
    regionX: 0
    regionY: 0
    regionW: 0
    regionH: 0
    flipped: 1
    complexGeometry: 0
    physicsEngine: 0
    colliderType: 0
    customColliders: []
    colliderVertices: []
    colliderIndicesFwd: 
    colliderIndicesBack: 
    colliderConvex: 0
    colliderSmoothSphereCollisions: 0
    polygonCollider2D: []
    edgeCollider2D: []
    attachPoints: []
  - name: blizzard2
    boundsData:
    - {x: 0, y: -0.004999995, z: 0}
    - {x: 0.08, y: 0.17, z: 0}
    untrimmedBoundsData:
    - {x: 0, y: -0.004999995, z: 0}
    - {x: 0.08, y: 0.17, z: 0}
    texelSize: {x: 0.01, y: 0.01}
    positions:
    - {x: -0.04, y: -0.089999996, z: 0}
    - {x: 0.04, y: -0.089999996, z: 0}
    - {x: -0.04, y: 0.080000006, z: 0}
    - {x: 0.04, y: 0.080000006, z: 0}
    normals: []
    tangents: []
    uvs:
    - {x: 0.5781328, y: 0.46484765}
    - {x: 0.5781328, y: 0.49608985}
    - {x: 0.7109297, y: 0.46484765}
    - {x: 0.7109297, y: 0.49608985}
    normalizedUvs:
    - {x: 0, y: 0}
    - {x: 0, y: 1}
    - {x: 1, y: 0}
    - {x: 1, y: 1}
    indices: 000000000300000001000000020000000300000000000000
    material: {fileID: 2100000, guid: a64d6bb928b125d44b4d56b620a12d57, type: 2}
    materialId: 0
    sourceTextureGUID: 5eafc0dee9404414db363902ae0112c9
    extractRegion: 0
    regionX: 0
    regionY: 0
    regionW: 0
    regionH: 0
    flipped: 1
    complexGeometry: 0
    physicsEngine: 0
    colliderType: 0
    customColliders: []
    colliderVertices: []
    colliderIndicesFwd: 
    colliderIndicesBack: 
    colliderConvex: 0
    colliderSmoothSphereCollisions: 0
    polygonCollider2D: []
    edgeCollider2D: []
    attachPoints: []
  - name: blizzard3
    boundsData:
    - {x: 0, y: -0.004999999, z: 0}
    - {x: 0.08, y: 0.11, z: 0}
    untrimmedBoundsData:
    - {x: 0, y: -0.004999999, z: 0}
    - {x: 0.08, y: 0.11, z: 0}
    texelSize: {x: 0.01, y: 0.01}
    positions:
    - {x: -0.04, y: -0.06, z: 0}
    - {x: 0.04, y: -0.06, z: 0}
    - {x: -0.04, y: 0.05, z: 0}
    - {x: 0.04, y: 0.05, z: 0}
    normals: []
    tangents: []
    uvs:
    - {x: 0.7421953, y: 0.50781643}
    - {x: 0.7421953, y: 0.53905857}
    - {x: 0.8281172, y: 0.50781643}
    - {x: 0.8281172, y: 0.53905857}
    normalizedUvs:
    - {x: 0, y: 0}
    - {x: 0, y: 1}
    - {x: 1, y: 0}
    - {x: 1, y: 1}
    indices: 000000000300000001000000020000000300000000000000
    material: {fileID: 2100000, guid: a64d6bb928b125d44b4d56b620a12d57, type: 2}
    materialId: 0
    sourceTextureGUID: c1b8feee2d79c204d952e9a3671cbce7
    extractRegion: 0
    regionX: 0
    regionY: 0
    regionW: 0
    regionH: 0
    flipped: 1
    complexGeometry: 0
    physicsEngine: 0
    colliderType: 0
    customColliders: []
    colliderVertices: []
    colliderIndicesFwd: 
    colliderIndicesBack: 
    colliderConvex: 0
    colliderSmoothSphereCollisions: 0
    polygonCollider2D: []
    edgeCollider2D: []
    attachPoints: []
  - name: blizzard4
    boundsData:
    - {x: 0.004999999, y: 0, z: 0}
    - {x: 0.049999997, y: 0.08, z: 0}
    untrimmedBoundsData:
    - {x: 0.004999999, y: 0, z: 0}
    - {x: 0.049999997, y: 0.08, z: 0}
    texelSize: {x: 0.01, y: 0.01}
    positions:
    - {x: -0.02, y: -0.04, z: 0}
    - {x: 0.029999997, y: -0.04, z: 0}
    - {x: -0.02, y: 0.04, z: 0}
    - {x: 0.029999997, y: 0.04, z: 0}
    normals: []
    tangents: []
    uvs:
    - {x: 0.015632812, y: 0.9726602}
    - {x: 0.015632812, y: 0.99218357}
    - {x: 0.078117184, y: 0.9726602}
    - {x: 0.078117184, y: 0.99218357}
    normalizedUvs:
    - {x: 0, y: 0}
    - {x: 0, y: 1}
    - {x: 1, y: 0}
    - {x: 1, y: 1}
    indices: 000000000300000001000000020000000300000000000000
    material: {fileID: 2100000, guid: a64d6bb928b125d44b4d56b620a12d57, type: 2}
    materialId: 0
    sourceTextureGUID: 458f5c3c13ef4f549b31c22d9406f1f1
    extractRegion: 0
    regionX: 0
    regionY: 0
    regionW: 0
    regionH: 0
    flipped: 1
    complexGeometry: 0
    physicsEngine: 0
    colliderType: 0
    customColliders: []
    colliderVertices: []
    colliderIndicesFwd: 
    colliderIndicesBack: 
    colliderConvex: 0
    colliderSmoothSphereCollisions: 0
    polygonCollider2D: []
    edgeCollider2D: []
    attachPoints: []
  - name: shard1
    boundsData:
    - {x: 0, y: 0, z: 0}
    - {x: 0.12, y: 0.19999999, z: 0}
    untrimmedBoundsData:
    - {x: 0, y: 0, z: 0}
    - {x: 0.12, y: 0.19999999, z: 0}
    texelSize: {x: 0.01, y: 0.01}
    positions:
    - {x: -0.06, y: -0.099999994, z: 0}
    - {x: 0.06, y: -0.099999994, z: 0}
    - {x: -0.06, y: 0.099999994, z: 0}
    - {x: 0.06, y: 0.099999994, z: 0}
    normals: []
    tangents: []
    uvs:
    - {x: 0.5781328, y: 0.40234765}
    - {x: 0.5781328, y: 0.44921485}
    - {x: 0.7343672, y: 0.40234765}
    - {x: 0.7343672, y: 0.44921485}
    normalizedUvs:
    - {x: 0, y: 0}
    - {x: 0, y: 1}
    - {x: 1, y: 0}
    - {x: 1, y: 1}
    indices: 000000000300000001000000020000000300000000000000
    material: {fileID: 2100000, guid: a64d6bb928b125d44b4d56b620a12d57, type: 2}
    materialId: 0
    sourceTextureGUID: bc3864434308b4a4da6f9e4062cf2492
    extractRegion: 0
    regionX: 0
    regionY: 0
    regionW: 0
    regionH: 0
    flipped: 1
    complexGeometry: 0
    physicsEngine: 0
    colliderType: 0
    customColliders: []
    colliderVertices: []
    colliderIndicesFwd: 
    colliderIndicesBack: 
    colliderConvex: 0
    colliderSmoothSphereCollisions: 0
    polygonCollider2D: []
    edgeCollider2D: []
    attachPoints: []
  - name: shard2
    boundsData:
    - {x: 0, y: 0, z: 0}
    - {x: 0.16, y: 0.28, z: 0}
    untrimmedBoundsData:
    - {x: 0, y: 0, z: 0}
    - {x: 0.16, y: 0.28, z: 0}
    texelSize: {x: 0.01, y: 0.01}
    positions:
    - {x: -0.08, y: -0.14, z: 0}
    - {x: 0.08, y: -0.14, z: 0}
    - {x: -0.08, y: 0.14, z: 0}
    - {x: 0.08, y: 0.14, z: 0}
    normals: []
    tangents: []
    uvs:
    - {x: 0.8125078, y: 0.121097654}
    - {x: 0.9374922, y: 0.121097654}
    - {x: 0.8125078, y: 0.23046485}
    - {x: 0.9374922, y: 0.23046485}
    normalizedUvs:
    - {x: 0, y: 0}
    - {x: 1, y: 0}
    - {x: 0, y: 1}
    - {x: 1, y: 1}
    indices: 000000000300000001000000020000000300000000000000
    material: {fileID: 2100000, guid: a64d6bb928b125d44b4d56b620a12d57, type: 2}
    materialId: 0
    sourceTextureGUID: a2cb1d9b9bb4d82488a51e949a5bb46d
    extractRegion: 0
    regionX: 0
    regionY: 0
    regionW: 0
    regionH: 0
    flipped: 0
    complexGeometry: 0
    physicsEngine: 0
    colliderType: 0
    customColliders: []
    colliderVertices: []
    colliderIndicesFwd: 
    colliderIndicesBack: 
    colliderConvex: 0
    colliderSmoothSphereCollisions: 0
    polygonCollider2D: []
    edgeCollider2D: []
    attachPoints: []
  - name: shard3
    boundsData:
    - {x: 0.0050000027, y: -0.0050000027, z: 0}
    - {x: 0.21, y: 0.21, z: 0}
    untrimmedBoundsData:
    - {x: 0.0050000027, y: -0.0050000027, z: 0}
    - {x: 0.21, y: 0.21, z: 0}
    texelSize: {x: 0.01, y: 0.01}
    positions:
    - {x: -0.099999994, y: -0.11, z: 0}
    - {x: 0.11, y: -0.11, z: 0}
    - {x: -0.099999994, y: 0.099999994, z: 0}
    - {x: 0.11, y: 0.099999994, z: 0}
    normals: []
    tangents: []
    uvs:
    - {x: 0.5781328, y: 0.3046914}
    - {x: 0.7421797, y: 0.3046914}
    - {x: 0.5781328, y: 0.38671485}
    - {x: 0.7421797, y: 0.38671485}
    normalizedUvs:
    - {x: 0, y: 0}
    - {x: 1, y: 0}
    - {x: 0, y: 1}
    - {x: 1, y: 1}
    indices: 000000000300000001000000020000000300000000000000
    material: {fileID: 2100000, guid: a64d6bb928b125d44b4d56b620a12d57, type: 2}
    materialId: 0
    sourceTextureGUID: b716236454037ad47af61badffea1238
    extractRegion: 0
    regionX: 0
    regionY: 0
    regionW: 0
    regionH: 0
    flipped: 0
    complexGeometry: 0
    physicsEngine: 0
    colliderType: 0
    customColliders: []
    colliderVertices: []
    colliderIndicesFwd: 
    colliderIndicesBack: 
    colliderConvex: 0
    colliderSmoothSphereCollisions: 0
    polygonCollider2D: []
    edgeCollider2D: []
    attachPoints: []
  - name: shard4
    boundsData:
    - {x: 0, y: 0, z: 0}
    - {x: 0.16, y: 0.28, z: 0}
    untrimmedBoundsData:
    - {x: 0, y: 0, z: 0}
    - {x: 0.16, y: 0.28, z: 0}
    texelSize: {x: 0.01, y: 0.01}
    positions:
    - {x: -0.08, y: -0.14, z: 0}
    - {x: 0.08, y: -0.14, z: 0}
    - {x: -0.08, y: 0.14, z: 0}
    - {x: 0.08, y: 0.14, z: 0}
    normals: []
    tangents: []
    uvs:
    - {x: 0.8125078, y: 0.24609765}
    - {x: 0.9374922, y: 0.24609765}
    - {x: 0.8125078, y: 0.35546485}
    - {x: 0.9374922, y: 0.35546485}
    normalizedUvs:
    - {x: 0, y: 0}
    - {x: 1, y: 0}
    - {x: 0, y: 1}
    - {x: 1, y: 1}
    indices: 000000000300000001000000020000000300000000000000
    material: {fileID: 2100000, guid: a64d6bb928b125d44b4d56b620a12d57, type: 2}
    materialId: 0
    sourceTextureGUID: 138d7f57671208544b15d8d629181489
    extractRegion: 0
    regionX: 0
    regionY: 0
    regionW: 0
    regionH: 0
    flipped: 0
    complexGeometry: 0
    physicsEngine: 0
    colliderType: 0
    customColliders: []
    colliderVertices: []
    colliderIndicesFwd: 
    colliderIndicesBack: 
    colliderConvex: 0
    colliderSmoothSphereCollisions: 0
    polygonCollider2D: []
    edgeCollider2D: []
    attachPoints: []
  - name: shard5
    boundsData:
    - {x: 0.0050000027, y: -0.004999995, z: 0}
    - {x: 0.19, y: 0.25, z: 0}
    untrimmedBoundsData:
    - {x: 0.0050000027, y: -0.004999995, z: 0}
    - {x: 0.19, y: 0.25, z: 0}
    texelSize: {x: 0.01, y: 0.01}
    positions:
    - {x: -0.089999996, y: -0.13, z: 0}
    - {x: 0.1, y: -0.13, z: 0}
    - {x: -0.089999996, y: 0.120000005, z: 0}
    - {x: 0.1, y: 0.120000005, z: 0}
    normals: []
    tangents: []
    uvs:
    - {x: 0.8125078, y: 0.007816406}
    - {x: 0.9609297, y: 0.007816406}
    - {x: 0.8125078, y: 0.105464846}
    - {x: 0.9609297, y: 0.105464846}
    normalizedUvs:
    - {x: 0, y: 0}
    - {x: 1, y: 0}
    - {x: 0, y: 1}
    - {x: 1, y: 1}
    indices: 000000000300000001000000020000000300000000000000
    material: {fileID: 2100000, guid: a64d6bb928b125d44b4d56b620a12d57, type: 2}
    materialId: 0
    sourceTextureGUID: f674bacff06b6d04b9b8d8a7e65aa168
    extractRegion: 0
    regionX: 0
    regionY: 0
    regionW: 0
    regionH: 0
    flipped: 0
    complexGeometry: 0
    physicsEngine: 0
    colliderType: 0
    customColliders: []
    colliderVertices: []
    colliderIndicesFwd: 
    colliderIndicesBack: 
    colliderConvex: 0
    colliderSmoothSphereCollisions: 0
    polygonCollider2D: []
    edgeCollider2D: []
    attachPoints: []
  - name: shard6
    boundsData:
    - {x: 0.0050000027, y: -0.004999995, z: 0}
    - {x: 0.21, y: 0.19, z: 0}
    untrimmedBoundsData:
    - {x: 0.0050000027, y: -0.004999995, z: 0}
    - {x: 0.21, y: 0.19, z: 0}
    texelSize: {x: 0.01, y: 0.01}
    positions:
    - {x: -0.099999994, y: -0.099999994, z: 0}
    - {x: 0.11, y: -0.099999994, z: 0}
    - {x: -0.099999994, y: 0.09, z: 0}
    - {x: 0.11, y: 0.09, z: 0}
    normals: []
    tangents: []
    uvs:
    - {x: 0.7734453, y: 0.37109765}
    - {x: 0.9374922, y: 0.37109765}
    - {x: 0.7734453, y: 0.4453086}
    - {x: 0.9374922, y: 0.4453086}
    normalizedUvs:
    - {x: 0, y: 0}
    - {x: 1, y: 0}
    - {x: 0, y: 1}
    - {x: 1, y: 1}
    indices: 000000000300000001000000020000000300000000000000
    material: {fileID: 2100000, guid: a64d6bb928b125d44b4d56b620a12d57, type: 2}
    materialId: 0
    sourceTextureGUID: 777131d5060ebf44281cf6911d636fb0
    extractRegion: 0
    regionX: 0
    regionY: 0
    regionW: 0
    regionH: 0
    flipped: 0
    complexGeometry: 0
    physicsEngine: 0
    colliderType: 0
    customColliders: []
    colliderVertices: []
    colliderIndicesFwd: 
    colliderIndicesBack: 
    colliderConvex: 0
    colliderSmoothSphereCollisions: 0
    polygonCollider2D: []
    edgeCollider2D: []
    attachPoints: []
  - name: wall1
    boundsData:
    - {x: 0, y: 0, z: 0}
    - {x: 0.71999997, y: 0.97999996, z: 0}
    untrimmedBoundsData:
    - {x: 0, y: 0, z: 0}
    - {x: 0.71999997, y: 0.97999996, z: 0}
    texelSize: {x: 0.01, y: 0.01}
    positions:
    - {x: -0.35999998, y: -0.48999998, z: 0}
    - {x: 0.35999998, y: -0.48999998, z: 0}
    - {x: -0.35999998, y: 0.48999998, z: 0}
    - {x: 0.35999998, y: 0.48999998, z: 0}
    normals: []
    tangents: []
    uvs:
    - {x: 0.015632812, y: 0.007816406}
    - {x: 0.015632812, y: 0.2890586}
    - {x: 0.7812422, y: 0.007816406}
    - {x: 0.7812422, y: 0.2890586}
    normalizedUvs:
    - {x: 0, y: 0}
    - {x: 0, y: 1}
    - {x: 1, y: 0}
    - {x: 1, y: 1}
    indices: 000000000300000001000000020000000300000000000000
    material: {fileID: 2100000, guid: a64d6bb928b125d44b4d56b620a12d57, type: 2}
    materialId: 0
    sourceTextureGUID: aad7dde9b1435994db0ae8edb8caf207
    extractRegion: 0
    regionX: 0
    regionY: 0
    regionW: 0
    regionH: 0
    flipped: 1
    complexGeometry: 0
    physicsEngine: 0
    colliderType: 0
    customColliders: []
    colliderVertices: []
    colliderIndicesFwd: 
    colliderIndicesBack: 
    colliderConvex: 0
    colliderSmoothSphereCollisions: 0
    polygonCollider2D: []
    edgeCollider2D: []
    attachPoints: []
  - name: wall2
    boundsData:
    - {x: 0, y: -0.005000025, z: 0}
    - {x: 0.68, y: 0.98999995, z: 0}
    untrimmedBoundsData:
    - {x: 0, y: -0.005000025, z: 0}
    - {x: 0.68, y: 0.98999995, z: 0}
    texelSize: {x: 0.01, y: 0.01}
    positions:
    - {x: -0.34, y: -0.5, z: 0}
    - {x: 0.34, y: -0.5, z: 0}
    - {x: -0.34, y: 0.48999995, z: 0}
    - {x: 0.34, y: 0.48999995, z: 0}
    normals: []
    tangents: []
    uvs:
    - {x: 0.015632812, y: 0.3046914}
    - {x: 0.5468672, y: 0.3046914}
    - {x: 0.015632812, y: 0.6914023}
    - {x: 0.5468672, y: 0.6914023}
    normalizedUvs:
    - {x: 0, y: 0}
    - {x: 1, y: 0}
    - {x: 0, y: 1}
    - {x: 1, y: 1}
    indices: 000000000300000001000000020000000300000000000000
    material: {fileID: 2100000, guid: a64d6bb928b125d44b4d56b620a12d57, type: 2}
    materialId: 0
    sourceTextureGUID: 4895e62d195913940b511bf7536b5142
    extractRegion: 0
    regionX: 0
    regionY: 0
    regionW: 0
    regionH: 0
    flipped: 0
    complexGeometry: 0
    physicsEngine: 0
    colliderType: 0
    customColliders: []
    colliderVertices: []
    colliderIndicesFwd: 
    colliderIndicesBack: 
    colliderConvex: 0
    colliderSmoothSphereCollisions: 0
    polygonCollider2D: []
    edgeCollider2D: []
    attachPoints: []
  - name: wall3
    boundsData:
    - {x: 0, y: -0.004999995, z: 0}
    - {x: 0.64, y: 1.01, z: 0}
    untrimmedBoundsData:
    - {x: 0, y: -0.004999995, z: 0}
    - {x: 0.64, y: 1.01, z: 0}
    texelSize: {x: 0.01, y: 0.01}
    positions:
    - {x: -0.32, y: -0.51, z: 0}
    - {x: 0.32, y: -0.51, z: 0}
    - {x: -0.32, y: 0.5, z: 0}
    - {x: 0.32, y: 0.5, z: 0}
    normals: []
    tangents: []
    uvs:
    - {x: 0.015632812, y: 0.7070352}
    - {x: 0.015632812, y: 0.9570273}
    - {x: 0.8046797, y: 0.7070352}
    - {x: 0.8046797, y: 0.9570273}
    normalizedUvs:
    - {x: 0, y: 0}
    - {x: 0, y: 1}
    - {x: 1, y: 0}
    - {x: 1, y: 1}
    indices: 000000000300000001000000020000000300000000000000
    material: {fileID: 2100000, guid: a64d6bb928b125d44b4d56b620a12d57, type: 2}
    materialId: 0
    sourceTextureGUID: cdd001bd828c3dd4ab801f528476bf25
    extractRegion: 0
    regionX: 0
    regionY: 0
    regionW: 0
    regionH: 0
    flipped: 1
    complexGeometry: 0
    physicsEngine: 0
    colliderType: 0
    customColliders: []
    colliderVertices: []
    colliderIndicesFwd: 
    colliderIndicesBack: 
    colliderConvex: 0
    colliderSmoothSphereCollisions: 0
    polygonCollider2D: []
    edgeCollider2D: []
    attachPoints: []
  premultipliedAlpha: 1
  material: {fileID: 0}
  materials:
  - {fileID: 2100000, guid: a64d6bb928b125d44b4d56b620a12d57, type: 2}
  textures:
  - {fileID: 2800000, guid: bbb20da1791a5a14da6fe89e7effda67, type: 3}
  pngTextures: []
  materialPngTextureId: 00000000
  textureFilterMode: 1
  textureMipMaps: 0
  allowMultipleAtlases: 0
  spriteCollectionGUID: 49c0ee795077f9d43a8c4ee8d7a6072d
  spriteCollectionName: iceking_boss_ability_1
  assetName: 
  loadable: 0
  invOrthoSize: 2
  halfTargetHeight: 50
  buildKey: 595171443
  dataGuid: 8ef9ead873db4a94ab8eb74f131a11fc
  managedSpriteCollection: 0
  hasPlatformData: 0
  spriteCollectionPlatforms: []
  spriteCollectionPlatformGUIDs: []
