%YAML 1.1
%TAG !u! tag:unity3d.com,2011:
--- !u!1001 &100100000
Prefab:
  m_ObjectHideFlags: 1
  serializedVersion: 2
  m_Modification:
    m_TransformParent: {fileID: 0}
    m_Modifications: []
    m_RemovedComponents: []
  m_ParentPrefab: {fileID: 0}
  m_RootGameObject: {fileID: 1000013049182090}
  m_IsPrefabParent: 1
--- !u!1 &1000013049182090
GameObject:
  m_ObjectHideFlags: 0
  m_PrefabParentObject: {fileID: 0}
  m_PrefabInternal: {fileID: 100100000}
  serializedVersion: 4
  m_Component:
  - 4: {fileID: 4000012028083064}
  - 114: {fileID: 114000012364655150}
  m_Layer: 0
  m_Name: grunt_up
  m_TagString: Untagged
  m_Icon: {fileID: 0}
  m_NavMeshLayer: 0
  m_StaticEditorFlags: 0
  m_IsActive: 1
--- !u!4 &4000012028083064
Transform:
  m_ObjectHideFlags: 1
  m_PrefabParentObject: {fileID: 0}
  m_PrefabInternal: {fileID: 100100000}
  m_GameObject: {fileID: 1000013049182090}
  m_LocalRotation: {x: 0, y: 0, z: 0, w: 1}
  m_LocalPosition: {x: 0, y: 0, z: 0}
  m_LocalScale: {x: 1, y: 1, z: 1}
  m_LocalEulerAnglesHint: {x: 0, y: 0, z: 0}
  m_Children: []
  m_Father: {fileID: 0}
  m_RootOrder: 0
--- !u!114 &114000012364655150
MonoBehaviour:
  m_ObjectHideFlags: 1
  m_PrefabParentObject: {fileID: 0}
  m_PrefabInternal: {fileID: 100100000}
  m_GameObject: {fileID: 1000013049182090}
  m_Enabled: 1
  m_EditorHideFlags: 0
  m_Script: {fileID: 11500000, guid: d546f34a90531a14eaba82a43b05b86b, type: 3}
  m_Name: 
  m_EditorClassIdentifier: 
  version: 3
  materialIdsValid: 1
  needMaterialInstance: 0
  spriteDefinitions:
  - name: arm
    boundsData:
    - {x: 0.004999995, y: -0.0050000027, z: 0}
    - {x: 0.22999999, y: 0.22999999, z: 0}
    untrimmedBoundsData:
    - {x: 0.004999995, y: -0.0050000027, z: 0}
    - {x: 0.22999999, y: 0.22999999, z: 0}
    texelSize: {x: 0.01, y: 0.01}
    positions:
    - {x: -0.11, y: -0.12, z: 0}
    - {x: 0.11999999, y: -0.12, z: 0}
    - {x: -0.11, y: 0.10999999, z: 0}
    - {x: 0.11999999, y: 0.10999999, z: 0}
    normals: []
    tangents: []
    uvs:
    - {x: 0.7890703, y: 0.007816406}
    - {x: 0.9687422, y: 0.007816406}
    - {x: 0.7890703, y: 0.097652346}
    - {x: 0.9687422, y: 0.097652346}
    normalizedUvs:
    - {x: 0, y: 0}
    - {x: 1, y: 0}
    - {x: 0, y: 1}
    - {x: 1, y: 1}
    indices: 000000000300000001000000020000000300000000000000
    material: {fileID: 2100000, guid: 9fcc56b4853027e4a900a196252e8863, type: 2}
    materialId: 0
    sourceTextureGUID: 4a68d56832e257b48967c0484d283a85
    extractRegion: 0
    regionX: 0
    regionY: 0
    regionW: 0
    regionH: 0
    flipped: 0
    complexGeometry: 0
    physicsEngine: 0
    colliderType: 0
    customColliders: []
    colliderVertices: []
    colliderIndicesFwd: 
    colliderIndicesBack: 
    colliderConvex: 0
    colliderSmoothSphereCollisions: 0
    polygonCollider2D: []
    edgeCollider2D: []
    attachPoints: []
  - name: body
    boundsData:
    - {x: 0.004999995, y: 0, z: 0}
    - {x: 0.45, y: 0.35999998, z: 0}
    untrimmedBoundsData:
    - {x: 0.004999995, y: 0, z: 0}
    - {x: 0.45, y: 0.35999998, z: 0}
    texelSize: {x: 0.01, y: 0.01}
    positions:
    - {x: -0.22, y: -0.17999999, z: 0}
    - {x: 0.22999999, y: -0.17999999, z: 0}
    - {x: -0.22, y: 0.17999999, z: 0}
    - {x: 0.22999999, y: 0.17999999, z: 0}
    normals: []
    tangents: []
    uvs:
    - {x: 0.5234453, y: 0.27734765}
    - {x: 0.8749922, y: 0.27734765}
    - {x: 0.5234453, y: 0.41796485}
    - {x: 0.8749922, y: 0.41796485}
    normalizedUvs:
    - {x: 0, y: 0}
    - {x: 1, y: 0}
    - {x: 0, y: 1}
    - {x: 1, y: 1}
    indices: 000000000300000001000000020000000300000000000000
    material: {fileID: 2100000, guid: 9fcc56b4853027e4a900a196252e8863, type: 2}
    materialId: 0
    sourceTextureGUID: b9cb2ab6021f6bd4ba04ff5cee1a8689
    extractRegion: 0
    regionX: 0
    regionY: 0
    regionW: 0
    regionH: 0
    flipped: 0
    complexGeometry: 0
    physicsEngine: 0
    colliderType: 0
    customColliders: []
    colliderVertices: []
    colliderIndicesFwd: 
    colliderIndicesBack: 
    colliderConvex: 0
    colliderSmoothSphereCollisions: 0
    polygonCollider2D: []
    edgeCollider2D: []
    attachPoints: []
  - name: grunt_up
    boundsData:
    - {x: 0.004999995, y: -0.004999995, z: 0}
    - {x: 0.65, y: 0.95, z: 0}
    untrimmedBoundsData:
    - {x: 0.004999995, y: -0.004999995, z: 0}
    - {x: 0.65, y: 0.95, z: 0}
    texelSize: {x: 0.01, y: 0.01}
    positions:
    - {x: -0.32, y: -0.48, z: 0}
    - {x: 0.32999998, y: -0.48, z: 0}
    - {x: -0.32, y: 0.47, z: 0}
    - {x: 0.32999998, y: 0.47, z: 0}
    normals: []
    tangents: []
    uvs:
    - {x: 0.015632812, y: 0.007816406}
    - {x: 0.015632812, y: 0.26171485}
    - {x: 0.7578047, y: 0.007816406}
    - {x: 0.7578047, y: 0.26171485}
    normalizedUvs:
    - {x: 0, y: 0}
    - {x: 0, y: 1}
    - {x: 1, y: 0}
    - {x: 1, y: 1}
    indices: 000000000300000001000000020000000300000000000000
    material: {fileID: 2100000, guid: 9fcc56b4853027e4a900a196252e8863, type: 2}
    materialId: 0
    sourceTextureGUID: 7fd69a4c4e1cecc4897f4affeb0f36c9
    extractRegion: 0
    regionX: 0
    regionY: 0
    regionW: 0
    regionH: 0
    flipped: 1
    complexGeometry: 0
    physicsEngine: 0
    colliderType: 0
    customColliders: []
    colliderVertices: []
    colliderIndicesFwd: 
    colliderIndicesBack: 
    colliderConvex: 0
    colliderSmoothSphereCollisions: 0
    polygonCollider2D: []
    edgeCollider2D: []
    attachPoints: []
  - name: headhair_up
    boundsData:
    - {x: 0.004999995, y: -0.004999995, z: 0}
    - {x: 0.57, y: 0.61, z: 0}
    untrimmedBoundsData:
    - {x: 0.004999995, y: -0.004999995, z: 0}
    - {x: 0.57, y: 0.61, z: 0}
    texelSize: {x: 0.01, y: 0.01}
    positions:
    - {x: -0.28, y: -0.31, z: 0}
    - {x: 0.29, y: -0.31, z: 0}
    - {x: -0.28, y: 0.3, z: 0}
    - {x: 0.29, y: 0.3, z: 0}
    normals: []
    tangents: []
    uvs:
    - {x: 0.015632812, y: 0.27734765}
    - {x: 0.015632812, y: 0.4999961}
    - {x: 0.4921797, y: 0.27734765}
    - {x: 0.4921797, y: 0.4999961}
    normalizedUvs:
    - {x: 0, y: 0}
    - {x: 0, y: 1}
    - {x: 1, y: 0}
    - {x: 1, y: 1}
    indices: 000000000300000001000000020000000300000000000000
    material: {fileID: 2100000, guid: 9fcc56b4853027e4a900a196252e8863, type: 2}
    materialId: 0
    sourceTextureGUID: 29bc73bc34a111248a079d5061a4f653
    extractRegion: 0
    regionX: 0
    regionY: 0
    regionW: 0
    regionH: 0
    flipped: 1
    complexGeometry: 0
    physicsEngine: 0
    colliderType: 0
    customColliders: []
    colliderVertices: []
    colliderIndicesFwd: 
    colliderIndicesBack: 
    colliderConvex: 0
    colliderSmoothSphereCollisions: 0
    polygonCollider2D: []
    edgeCollider2D: []
    attachPoints: []
  - name: helmettuft
    boundsData:
    - {x: 0.004999995, y: -0.004999995, z: 0}
    - {x: 0.26999998, y: 0.29, z: 0}
    untrimmedBoundsData:
    - {x: 0.004999995, y: -0.004999995, z: 0}
    - {x: 0.26999998, y: 0.29, z: 0}
    texelSize: {x: 0.01, y: 0.01}
    positions:
    - {x: -0.13, y: -0.14999999, z: 0}
    - {x: 0.13999999, y: -0.14999999, z: 0}
    - {x: -0.13, y: 0.14, z: 0}
    - {x: 0.13999999, y: 0.14, z: 0}
    normals: []
    tangents: []
    uvs:
    - {x: 0.015632812, y: 0.51562893}
    - {x: 0.015632812, y: 0.6210898}
    - {x: 0.24217969, y: 0.51562893}
    - {x: 0.24217969, y: 0.6210898}
    normalizedUvs:
    - {x: 0, y: 0}
    - {x: 0, y: 1}
    - {x: 1, y: 0}
    - {x: 1, y: 1}
    indices: 000000000300000001000000020000000300000000000000
    material: {fileID: 2100000, guid: 9fcc56b4853027e4a900a196252e8863, type: 2}
    materialId: 0
    sourceTextureGUID: 07cefcdf0491dd0479e5409e14cb537a
    extractRegion: 0
    regionX: 0
    regionY: 0
    regionW: 0
    regionH: 0
    flipped: 1
    complexGeometry: 0
    physicsEngine: 0
    colliderType: 0
    customColliders: []
    colliderVertices: []
    colliderIndicesFwd: 
    colliderIndicesBack: 
    colliderConvex: 0
    colliderSmoothSphereCollisions: 0
    polygonCollider2D: []
    edgeCollider2D: []
    attachPoints: []
  - name: leg
    boundsData:
    - {x: 0, y: 0, z: 0}
    - {x: 0.16, y: 0.17999999, z: 0}
    untrimmedBoundsData:
    - {x: 0, y: 0, z: 0}
    - {x: 0.16, y: 0.17999999, z: 0}
    texelSize: {x: 0.01, y: 0.01}
    positions:
    - {x: -0.08, y: -0.089999996, z: 0}
    - {x: 0.08, y: -0.089999996, z: 0}
    - {x: -0.08, y: 0.089999996, z: 0}
    - {x: 0.08, y: 0.089999996, z: 0}
    normals: []
    tangents: []
    uvs:
    - {x: 0.7890703, y: 0.113285154}
    - {x: 0.7890703, y: 0.17577735}
    - {x: 0.9296797, y: 0.113285154}
    - {x: 0.9296797, y: 0.17577735}
    normalizedUvs:
    - {x: 0, y: 0}
    - {x: 0, y: 1}
    - {x: 1, y: 0}
    - {x: 1, y: 1}
    indices: 000000000300000001000000020000000300000000000000
    material: {fileID: 2100000, guid: 9fcc56b4853027e4a900a196252e8863, type: 2}
    materialId: 0
    sourceTextureGUID: b006a9f44d06ead40aa28a5a03e28941
    extractRegion: 0
    regionX: 0
    regionY: 0
    regionW: 0
    regionH: 0
    flipped: 1
    complexGeometry: 0
    physicsEngine: 0
    colliderType: 0
    customColliders: []
    colliderVertices: []
    colliderIndicesFwd: 
    colliderIndicesBack: 
    colliderConvex: 0
    colliderSmoothSphereCollisions: 0
    polygonCollider2D: []
    edgeCollider2D: []
    attachPoints: []
  - name: shield_up
    boundsData:
    - {x: 0, y: 0, z: 0}
    - {x: 0.35999998, y: 0.42, z: 0}
    untrimmedBoundsData:
    - {x: 0, y: 0, z: 0}
    - {x: 0.35999998, y: 0.42, z: 0}
    texelSize: {x: 0.01, y: 0.01}
    positions:
    - {x: -0.17999999, y: -0.21, z: 0}
    - {x: 0.17999999, y: -0.21, z: 0}
    - {x: -0.17999999, y: 0.21, z: 0}
    - {x: 0.17999999, y: 0.21, z: 0}
    normals: []
    tangents: []
    uvs:
    - {x: 0.5234453, y: 0.43359765}
    - {x: 0.5234453, y: 0.5742148}
    - {x: 0.8515547, y: 0.43359765}
    - {x: 0.8515547, y: 0.5742148}
    normalizedUvs:
    - {x: 0, y: 0}
    - {x: 0, y: 1}
    - {x: 1, y: 0}
    - {x: 1, y: 1}
    indices: 000000000300000001000000020000000300000000000000
    material: {fileID: 2100000, guid: 9fcc56b4853027e4a900a196252e8863, type: 2}
    materialId: 0
    sourceTextureGUID: 2e65c985808682e429a805a1b6ee317d
    extractRegion: 0
    regionX: 0
    regionY: 0
    regionW: 0
    regionH: 0
    flipped: 1
    complexGeometry: 0
    physicsEngine: 0
    colliderType: 0
    customColliders: []
    colliderVertices: []
    colliderIndicesFwd: 
    colliderIndicesBack: 
    colliderConvex: 0
    colliderSmoothSphereCollisions: 0
    polygonCollider2D: []
    edgeCollider2D: []
    attachPoints: []
  premultipliedAlpha: 1
  material: {fileID: 0}
  materials:
  - {fileID: 2100000, guid: 9fcc56b4853027e4a900a196252e8863, type: 2}
  textures:
  - {fileID: 2800000, guid: 8a110a1822fcb3a459d375606926e42f, type: 3}
  pngTextures: []
  materialPngTextureId: 00000000
  textureFilterMode: 1
  textureMipMaps: 0
  allowMultipleAtlases: 0
  spriteCollectionGUID: 8afd8c21b1607a54794374d0d34e74c6
  spriteCollectionName: grunt_up
  assetName: 
  loadable: 0
  invOrthoSize: 2
  halfTargetHeight: 50
  buildKey: 834563354
  dataGuid: 8b212b024e873c5439cc3ae7e7215d5c
  managedSpriteCollection: 0
  hasPlatformData: 0
  spriteCollectionPlatforms: []
  spriteCollectionPlatformGUIDs: []
