%YAML 1.1
%TAG !u! tag:unity3d.com,2011:
--- !u!1001 &100100000
Prefab:
  m_ObjectHideFlags: 1
  serializedVersion: 2
  m_Modification:
    m_TransformParent: {fileID: 0}
    m_Modifications: []
    m_RemovedComponents: []
  m_ParentPrefab: {fileID: 0}
  m_RootGameObject: {fileID: 1000013238753302}
  m_IsPrefabParent: 1
--- !u!1 &1000013238753302
GameObject:
  m_ObjectHideFlags: 0
  m_PrefabParentObject: {fileID: 0}
  m_PrefabInternal: {fileID: 100100000}
  serializedVersion: 4
  m_Component:
  - 4: {fileID: 4000013235681324}
  - 114: {fileID: 114000010042975538}
  m_Layer: 0
  m_Name: fireball
  m_TagString: Untagged
  m_Icon: {fileID: 0}
  m_NavMeshLayer: 0
  m_StaticEditorFlags: 0
  m_IsActive: 1
--- !u!4 &4000013235681324
Transform:
  m_ObjectHideFlags: 1
  m_PrefabParentObject: {fileID: 0}
  m_PrefabInternal: {fileID: 100100000}
  m_GameObject: {fileID: 1000013238753302}
  m_LocalRotation: {x: 0, y: 0, z: 0, w: 1}
  m_LocalPosition: {x: 0, y: 0, z: 0}
  m_LocalScale: {x: 1, y: 1, z: 1}
  m_LocalEulerAnglesHint: {x: 0, y: 0, z: 0}
  m_Children: []
  m_Father: {fileID: 0}
  m_RootOrder: 0
--- !u!114 &114000010042975538
MonoBehaviour:
  m_ObjectHideFlags: 1
  m_PrefabParentObject: {fileID: 0}
  m_PrefabInternal: {fileID: 100100000}
  m_GameObject: {fileID: 1000013238753302}
  m_Enabled: 1
  m_EditorHideFlags: 0
  m_Script: {fileID: 11500000, guid: d546f34a90531a14eaba82a43b05b86b, type: 3}
  m_Name: 
  m_EditorClassIdentifier: 
  version: 3
  materialIdsValid: 1
  needMaterialInstance: 0
  spriteDefinitions:
  - name: fire1
    boundsData:
    - {x: 0.004999999, y: -0.0050000027, z: 0}
    - {x: 0.049999997, y: 0.22999999, z: 0}
    untrimmedBoundsData:
    - {x: 0.004999999, y: -0.0050000027, z: 0}
    - {x: 0.049999997, y: 0.22999999, z: 0}
    texelSize: {x: 0.01, y: 0.01}
    positions:
    - {x: -0.02, y: -0.12, z: 0}
    - {x: 0.029999997, y: -0.12, z: 0}
    - {x: -0.02, y: 0.10999999, z: 0}
    - {x: 0.029999997, y: 0.10999999, z: 0}
    normals: []
    tangents: []
    uvs:
    - {x: 0.6171953, y: 0.5781328}
    - {x: 0.6171953, y: 0.6171797}
    - {x: 0.7968672, y: 0.5781328}
    - {x: 0.7968672, y: 0.6171797}
    normalizedUvs:
    - {x: 0, y: 0}
    - {x: 0, y: 1}
    - {x: 1, y: 0}
    - {x: 1, y: 1}
    indices: 000000000300000001000000020000000300000000000000
    material: {fileID: 2100000, guid: 54e1490bf3a694f4c8d1931043ca2dd7, type: 2}
    materialId: 0
    sourceTextureGUID: 223084297ccdc904789ac99054250e7e
    extractRegion: 0
    regionX: 0
    regionY: 0
    regionW: 0
    regionH: 0
    flipped: 1
    complexGeometry: 0
    physicsEngine: 0
    colliderType: 0
    customColliders: []
    colliderVertices: []
    colliderIndicesFwd: 
    colliderIndicesBack: 
    colliderConvex: 0
    colliderSmoothSphereCollisions: 0
    polygonCollider2D: []
    edgeCollider2D: []
    attachPoints: []
  - name: fire2
    boundsData:
    - {x: 0.004999999, y: -0.0050000027, z: 0}
    - {x: 0.049999997, y: 0.13, z: 0}
    untrimmedBoundsData:
    - {x: 0.004999999, y: -0.0050000027, z: 0}
    - {x: 0.049999997, y: 0.13, z: 0}
    texelSize: {x: 0.01, y: 0.01}
    positions:
    - {x: -0.02, y: -0.07, z: 0}
    - {x: 0.029999997, y: -0.07, z: 0}
    - {x: -0.02, y: 0.059999995, z: 0}
    - {x: 0.029999997, y: 0.059999995, z: 0}
    normals: []
    tangents: []
    uvs:
    - {x: 0.8281328, y: 0.5781328}
    - {x: 0.8281328, y: 0.6171797}
    - {x: 0.9296797, y: 0.5781328}
    - {x: 0.9296797, y: 0.6171797}
    normalizedUvs:
    - {x: 0, y: 0}
    - {x: 0, y: 1}
    - {x: 1, y: 0}
    - {x: 1, y: 1}
    indices: 000000000300000001000000020000000300000000000000
    material: {fileID: 2100000, guid: 54e1490bf3a694f4c8d1931043ca2dd7, type: 2}
    materialId: 0
    sourceTextureGUID: 5a5dba1038110124a8c2854e1e25dc76
    extractRegion: 0
    regionX: 0
    regionY: 0
    regionW: 0
    regionH: 0
    flipped: 1
    complexGeometry: 0
    physicsEngine: 0
    colliderType: 0
    customColliders: []
    colliderVertices: []
    colliderIndicesFwd: 
    colliderIndicesBack: 
    colliderConvex: 0
    colliderSmoothSphereCollisions: 0
    polygonCollider2D: []
    edgeCollider2D: []
    attachPoints: []
  - name: fireball
    boundsData:
    - {x: 0, y: -0.004999995, z: 0}
    - {x: 0.58, y: 0.84999996, z: 0}
    untrimmedBoundsData:
    - {x: 0, y: -0.004999995, z: 0}
    - {x: 0.58, y: 0.84999996, z: 0}
    texelSize: {x: 0.01, y: 0.01}
    positions:
    - {x: -0.29, y: -0.42999998, z: 0}
    - {x: 0.29, y: -0.42999998, z: 0}
    - {x: -0.29, y: 0.42, z: 0}
    - {x: 0.29, y: 0.42, z: 0}
    normals: []
    tangents: []
    uvs:
    - {x: 0.015632812, y: 0.015632812}
    - {x: 0.4687422, y: 0.015632812}
    - {x: 0.015632812, y: 0.6796797}
    - {x: 0.4687422, y: 0.6796797}
    normalizedUvs:
    - {x: 0, y: 0}
    - {x: 1, y: 0}
    - {x: 0, y: 1}
    - {x: 1, y: 1}
    indices: 000000000300000001000000020000000300000000000000
    material: {fileID: 2100000, guid: 54e1490bf3a694f4c8d1931043ca2dd7, type: 2}
    materialId: 0
    sourceTextureGUID: 204819103280f2041bf989fe457ecb12
    extractRegion: 0
    regionX: 0
    regionY: 0
    regionW: 0
    regionH: 0
    flipped: 0
    complexGeometry: 0
    physicsEngine: 0
    colliderType: 0
    customColliders: []
    colliderVertices: []
    colliderIndicesFwd: 
    colliderIndicesBack: 
    colliderConvex: 0
    colliderSmoothSphereCollisions: 0
    polygonCollider2D: []
    edgeCollider2D: []
    attachPoints: []
  - name: fire
    boundsData:
    - {x: 0.004999995, y: 0, z: 0}
    - {x: 0.61, y: 0.58, z: 0}
    untrimmedBoundsData:
    - {x: 0.004999995, y: 0, z: 0}
    - {x: 0.63, y: 0.59999996, z: 0}
    texelSize: {x: 0.01, y: 0.01}
    positions:
    - {x: -0.3, y: -0.29, z: 0}
    - {x: 0.31, y: -0.29, z: 0}
    - {x: -0.3, y: 0.29, z: 0}
    - {x: 0.31, y: 0.29, z: 0}
    normals: []
    tangents: []
    uvs:
    - {x: 0.5000078, y: 0.015632812}
    - {x: 0.9765547, y: 0.015632812}
    - {x: 0.5000078, y: 0.4687422}
    - {x: 0.9765547, y: 0.4687422}
    normalizedUvs:
    - {x: 0, y: 0}
    - {x: 1, y: 0}
    - {x: 0, y: 1}
    - {x: 1, y: 1}
    indices: 000000000300000001000000020000000300000000000000
    material: {fileID: 2100000, guid: 54e1490bf3a694f4c8d1931043ca2dd7, type: 2}
    materialId: 0
    sourceTextureGUID: da6609f552831d3478c0d5299bbc78fd
    extractRegion: 0
    regionX: 0
    regionY: 0
    regionW: 0
    regionH: 0
    flipped: 0
    complexGeometry: 0
    physicsEngine: 0
    colliderType: 0
    customColliders: []
    colliderVertices: []
    colliderIndicesFwd: 
    colliderIndicesBack: 
    colliderConvex: 0
    colliderSmoothSphereCollisions: 0
    polygonCollider2D: []
    edgeCollider2D: []
    attachPoints: []
  - name: flame 1
    boundsData:
    - {x: -9.313226e-10, y: -0.0000000037252903, z: 0}
    - {x: 0.04, y: 0.16, z: 0}
    untrimmedBoundsData:
    - {x: 0, y: 0, z: 0}
    - {x: 0.06, y: 0.17999999, z: 0}
    texelSize: {x: 0.01, y: 0.01}
    positions:
    - {x: -0.02, y: -0.08, z: 0}
    - {x: 0.019999998, y: -0.08, z: 0}
    - {x: -0.02, y: 0.07999999, z: 0}
    - {x: 0.019999998, y: 0.07999999, z: 0}
    normals: []
    tangents: []
    uvs:
    - {x: 0.6171953, y: 0.6484453}
    - {x: 0.6171953, y: 0.6796797}
    - {x: 0.7421797, y: 0.6484453}
    - {x: 0.7421797, y: 0.6796797}
    normalizedUvs:
    - {x: 0, y: 0}
    - {x: 0, y: 1}
    - {x: 1, y: 0}
    - {x: 1, y: 1}
    indices: 000000000300000001000000020000000300000000000000
    material: {fileID: 2100000, guid: 54e1490bf3a694f4c8d1931043ca2dd7, type: 2}
    materialId: 0
    sourceTextureGUID: 6c7fda383b144c4408f834809912e3bf
    extractRegion: 0
    regionX: 0
    regionY: 0
    regionW: 0
    regionH: 0
    flipped: 1
    complexGeometry: 0
    physicsEngine: 0
    colliderType: 0
    customColliders: []
    colliderVertices: []
    colliderIndicesFwd: 
    colliderIndicesBack: 
    colliderConvex: 0
    colliderSmoothSphereCollisions: 0
    polygonCollider2D: []
    edgeCollider2D: []
    attachPoints: []
  - name: flame 2
    boundsData:
    - {x: 0, y: 0, z: 0}
    - {x: 0.06, y: 0.35999998, z: 0}
    untrimmedBoundsData:
    - {x: 0, y: 0, z: 0}
    - {x: 0.08, y: 0.38, z: 0}
    texelSize: {x: 0.01, y: 0.01}
    positions:
    - {x: -0.03, y: -0.17999999, z: 0}
    - {x: 0.03, y: -0.17999999, z: 0}
    - {x: -0.03, y: 0.17999999, z: 0}
    - {x: 0.03, y: 0.17999999, z: 0}
    normals: []
    tangents: []
    uvs:
    - {x: 0.5000078, y: 0.5000078}
    - {x: 0.5000078, y: 0.5468672}
    - {x: 0.7812422, y: 0.5000078}
    - {x: 0.7812422, y: 0.5468672}
    normalizedUvs:
    - {x: 0, y: 0}
    - {x: 0, y: 1}
    - {x: 1, y: 0}
    - {x: 1, y: 1}
    indices: 000000000300000001000000020000000300000000000000
    material: {fileID: 2100000, guid: 54e1490bf3a694f4c8d1931043ca2dd7, type: 2}
    materialId: 0
    sourceTextureGUID: 1b2f6e7f45bc0004e94eb5a037ab76e8
    extractRegion: 0
    regionX: 0
    regionY: 0
    regionW: 0
    regionH: 0
    flipped: 1
    complexGeometry: 0
    physicsEngine: 0
    colliderType: 0
    customColliders: []
    colliderVertices: []
    colliderIndicesFwd: 
    colliderIndicesBack: 
    colliderConvex: 0
    colliderSmoothSphereCollisions: 0
    polygonCollider2D: []
    edgeCollider2D: []
    attachPoints: []
  - name: floor scorch
    boundsData:
    - {x: 0, y: -0.004999995, z: 0}
    - {x: 0.78, y: 0.32999998, z: 0}
    untrimmedBoundsData:
    - {x: 0, y: -0.004999995, z: 0}
    - {x: 0.79999995, y: 0.35, z: 0}
    texelSize: {x: 0.01, y: 0.01}
    positions:
    - {x: -0.39, y: -0.16999999, z: 0}
    - {x: 0.39, y: -0.16999999, z: 0}
    - {x: -0.39, y: 0.16, z: 0}
    - {x: 0.39, y: 0.16, z: 0}
    normals: []
    tangents: []
    uvs:
    - {x: 0.015632812, y: 0.7109453}
    - {x: 0.6249922, y: 0.7109453}
    - {x: 0.015632812, y: 0.9687422}
    - {x: 0.6249922, y: 0.9687422}
    normalizedUvs:
    - {x: 0, y: 0}
    - {x: 1, y: 0}
    - {x: 0, y: 1}
    - {x: 1, y: 1}
    indices: 000000000300000001000000020000000300000000000000
    material: {fileID: 2100000, guid: 54e1490bf3a694f4c8d1931043ca2dd7, type: 2}
    materialId: 0
    sourceTextureGUID: a388a5a3dd1b18643b0ed1324b3a593e
    extractRegion: 0
    regionX: 0
    regionY: 0
    regionW: 0
    regionH: 0
    flipped: 0
    complexGeometry: 0
    physicsEngine: 0
    colliderType: 0
    customColliders: []
    colliderVertices: []
    colliderIndicesFwd: 
    colliderIndicesBack: 
    colliderConvex: 0
    colliderSmoothSphereCollisions: 0
    polygonCollider2D: []
    edgeCollider2D: []
    attachPoints: []
  - name: small fire
    boundsData:
    - {x: 0.004999997, y: -0.0050000027, z: 0}
    - {x: 0.11, y: 0.13, z: 0}
    untrimmedBoundsData:
    - {x: 0.004999997, y: -0.0050000027, z: 0}
    - {x: 0.13, y: 0.14999999, z: 0}
    texelSize: {x: 0.01, y: 0.01}
    positions:
    - {x: -0.05, y: -0.07, z: 0}
    - {x: 0.059999995, y: -0.07, z: 0}
    - {x: -0.05, y: 0.059999995, z: 0}
    - {x: 0.059999995, y: 0.059999995, z: 0}
    normals: []
    tangents: []
    uvs:
    - {x: 0.5000078, y: 0.5781328}
    - {x: 0.5859297, y: 0.5781328}
    - {x: 0.5000078, y: 0.6796797}
    - {x: 0.5859297, y: 0.6796797}
    normalizedUvs:
    - {x: 0, y: 0}
    - {x: 1, y: 0}
    - {x: 0, y: 1}
    - {x: 1, y: 1}
    indices: 000000000300000001000000020000000300000000000000
    material: {fileID: 2100000, guid: 54e1490bf3a694f4c8d1931043ca2dd7, type: 2}
    materialId: 0
    sourceTextureGUID: 31c8e1edc630c594b917813bf3460fee
    extractRegion: 0
    regionX: 0
    regionY: 0
    regionW: 0
    regionH: 0
    flipped: 0
    complexGeometry: 0
    physicsEngine: 0
    colliderType: 0
    customColliders: []
    colliderVertices: []
    colliderIndicesFwd: 
    colliderIndicesBack: 
    colliderConvex: 0
    colliderSmoothSphereCollisions: 0
    polygonCollider2D: []
    edgeCollider2D: []
    attachPoints: []
  - name: small floor scorch
    boundsData:
    - {x: 0, y: 0, z: 0}
    - {x: 0.14, y: 0.06, z: 0}
    untrimmedBoundsData:
    - {x: 0, y: 0, z: 0}
    - {x: 0.16, y: 0.08, z: 0}
    texelSize: {x: 0.01, y: 0.01}
    positions:
    - {x: -0.07, y: -0.03, z: 0}
    - {x: 0.07, y: -0.03, z: 0}
    - {x: -0.07, y: 0.03, z: 0}
    - {x: 0.07, y: 0.03, z: 0}
    normals: []
    tangents: []
    uvs:
    - {x: 0.8125078, y: 0.5000078}
    - {x: 0.9218672, y: 0.5000078}
    - {x: 0.8125078, y: 0.5468672}
    - {x: 0.9218672, y: 0.5468672}
    normalizedUvs:
    - {x: 0, y: 0}
    - {x: 1, y: 0}
    - {x: 0, y: 1}
    - {x: 1, y: 1}
    indices: 000000000300000001000000020000000300000000000000
    material: {fileID: 2100000, guid: 54e1490bf3a694f4c8d1931043ca2dd7, type: 2}
    materialId: 0
    sourceTextureGUID: 0ebcd876dda0b48489d740f3024ce79d
    extractRegion: 0
    regionX: 0
    regionY: 0
    regionW: 0
    regionH: 0
    flipped: 0
    complexGeometry: 0
    physicsEngine: 0
    colliderType: 0
    customColliders: []
    colliderVertices: []
    colliderIndicesFwd: 
    colliderIndicesBack: 
    colliderConvex: 0
    colliderSmoothSphereCollisions: 0
    polygonCollider2D: []
    edgeCollider2D: []
    attachPoints: []
  premultipliedAlpha: 1
  material: {fileID: 0}
  materials:
  - {fileID: 2100000, guid: 54e1490bf3a694f4c8d1931043ca2dd7, type: 2}
  textures:
  - {fileID: 2800000, guid: d8e94d4733a423c439670e48859457ac, type: 3}
  pngTextures: []
  materialPngTextureId: 00000000
  textureFilterMode: 1
  textureMipMaps: 0
  allowMultipleAtlases: 0
  spriteCollectionGUID: 67013dbd22ce2fe4996984aad5a061de
  spriteCollectionName: fireball
  assetName: 
  loadable: 0
  invOrthoSize: 2
  halfTargetHeight: 50
  buildKey: 844377374
  dataGuid: dc986619d1416254a9e4e19d8a33c1c1
  managedSpriteCollection: 0
  hasPlatformData: 0
  spriteCollectionPlatforms: []
  spriteCollectionPlatformGUIDs: []
