%YAML 1.1
%TAG !u! tag:unity3d.com,2011:
--- !u!1001 &100100000
Prefab:
  m_ObjectHideFlags: 1
  serializedVersion: 2
  m_Modification:
    m_TransformParent: {fileID: 0}
    m_Modifications: []
    m_RemovedComponents: []
  m_ParentPrefab: {fileID: 0}
  m_RootGameObject: {fileID: 1000013808335326}
  m_IsPrefabParent: 1
--- !u!1 &1000013808335326
GameObject:
  m_ObjectHideFlags: 0
  m_PrefabParentObject: {fileID: 0}
  m_PrefabInternal: {fileID: 100100000}
  serializedVersion: 4
  m_Component:
  - 4: {fileID: 4000013714513178}
  - 114: {fileID: 114000013358776434}
  m_Layer: 0
  m_Name: SkyArena
  m_TagString: Untagged
  m_Icon: {fileID: 0}
  m_NavMeshLayer: 0
  m_StaticEditorFlags: 0
  m_IsActive: 1
--- !u!4 &4000013714513178
Transform:
  m_ObjectHideFlags: 1
  m_PrefabParentObject: {fileID: 0}
  m_PrefabInternal: {fileID: 100100000}
  m_GameObject: {fileID: 1000013808335326}
  m_LocalRotation: {x: 0, y: 0, z: 0, w: 1}
  m_LocalPosition: {x: 0, y: 0, z: 0}
  m_LocalScale: {x: 1, y: 1, z: 1}
  m_LocalEulerAnglesHint: {x: 0, y: 0, z: 0}
  m_Children: []
  m_Father: {fileID: 0}
  m_RootOrder: 0
--- !u!114 &114000013358776434
MonoBehaviour:
  m_ObjectHideFlags: 1
  m_PrefabParentObject: {fileID: 0}
  m_PrefabInternal: {fileID: 100100000}
  m_GameObject: {fileID: 1000013808335326}
  m_Enabled: 1
  m_EditorHideFlags: 0
  m_Script: {fileID: 11500000, guid: d546f34a90531a14eaba82a43b05b86b, type: 3}
  m_Name: 
  m_EditorClassIdentifier: 
  version: 3
  materialIdsValid: 1
  needMaterialInstance: 0
  spriteDefinitions:
  - name: arena
    boundsData:
    - {x: 0.0049996376, y: -0.0050001144, z: 0}
    - {x: 9.889999, y: 11.349999, z: 0}
    untrimmedBoundsData:
    - {x: 0.0049996376, y: -0.0050001144, z: 0}
    - {x: 9.889999, y: 11.349999, z: 0}
    texelSize: {x: 0.01, y: 0.01}
    positions:
    - {x: -4.94, y: -5.68, z: 0}
    - {x: 4.9499993, y: -5.68, z: 0}
    - {x: -4.94, y: 5.6699996, z: 0}
    - {x: 4.9499993, y: 5.6699996, z: 0}
    normals: []
    tangents: []
    uvs:
    - {x: 0.0009770507, y: 0.0009770507}
    - {x: 0.48388624, y: 0.0009770507}
    - {x: 0.0009770507, y: 0.5551753}
    - {x: 0.48388624, y: 0.5551753}
    normalizedUvs:
    - {x: 0, y: 0}
    - {x: 1, y: 0}
    - {x: 0, y: 1}
    - {x: 1, y: 1}
    indices: 000000000300000001000000020000000300000000000000
    material: {fileID: 2100000, guid: 37b41a5b937cf4a4387c4c3fa2903068, type: 2}
    materialId: 0
    sourceTextureGUID: da958e76e00f7564a9ca9cda6c12b2d7
    extractRegion: 0
    regionX: 0
    regionY: 0
    regionW: 0
    regionH: 0
    flipped: 0
    complexGeometry: 0
    physicsEngine: 0
    colliderType: 0
    customColliders: []
    colliderVertices: []
    colliderIndicesFwd: 
    colliderIndicesBack: 
    colliderConvex: 0
    colliderSmoothSphereCollisions: 0
    polygonCollider2D: []
    edgeCollider2D: []
    attachPoints: []
  - name: cloud1
    boundsData:
    - {x: 0, y: 0, z: 0}
    - {x: 2.3999999, y: 1.9799999, z: 0}
    untrimmedBoundsData:
    - {x: 0, y: 0, z: 0}
    - {x: 2.3999999, y: 1.9799999, z: 0}
    texelSize: {x: 0.01, y: 0.01}
    positions:
    - {x: -1.1999999, y: -0.98999995, z: 0}
    - {x: 1.1999999, y: -0.98999995, z: 0}
    - {x: -1.1999999, y: 0.98999995, z: 0}
    - {x: 1.1999999, y: 0.98999995, z: 0}
    normals: []
    tangents: []
    uvs:
    - {x: 0.0009770507, y: 0.89697313}
    - {x: 0.11816357, y: 0.89697313}
    - {x: 0.0009770507, y: 0.99365187}
    - {x: 0.11816357, y: 0.99365187}
    normalizedUvs:
    - {x: 0, y: 0}
    - {x: 1, y: 0}
    - {x: 0, y: 1}
    - {x: 1, y: 1}
    indices: 000000000300000001000000020000000300000000000000
    material: {fileID: 2100000, guid: 37b41a5b937cf4a4387c4c3fa2903068, type: 2}
    materialId: 0
    sourceTextureGUID: 9700ab9c039b1b84899f08d33c96029a
    extractRegion: 0
    regionX: 0
    regionY: 0
    regionW: 0
    regionH: 0
    flipped: 0
    complexGeometry: 0
    physicsEngine: 0
    colliderType: 0
    customColliders: []
    colliderVertices: []
    colliderIndicesFwd: 
    colliderIndicesBack: 
    colliderConvex: 0
    colliderSmoothSphereCollisions: 0
    polygonCollider2D: []
    edgeCollider2D: []
    attachPoints: []
  - name: cloud10
    boundsData:
    - {x: 0, y: -0.004999995, z: 0}
    - {x: 0.97999996, y: 0.83, z: 0}
    untrimmedBoundsData:
    - {x: 0, y: -0.004999995, z: 0}
    - {x: 0.97999996, y: 0.83, z: 0}
    texelSize: {x: 0.01, y: 0.01}
    positions:
    - {x: -0.48999998, y: -0.42, z: 0}
    - {x: 0.48999998, y: -0.42, z: 0}
    - {x: -0.48999998, y: 0.41, z: 0}
    - {x: 0.48999998, y: 0.41, z: 0}
    normals: []
    tangents: []
    uvs:
    - {x: 0.32861376, y: 0.89697313}
    - {x: 0.37646437, y: 0.89697313}
    - {x: 0.32861376, y: 0.9374995}
    - {x: 0.37646437, y: 0.9374995}
    normalizedUvs:
    - {x: 0, y: 0}
    - {x: 1, y: 0}
    - {x: 0, y: 1}
    - {x: 1, y: 1}
    indices: 000000000300000001000000020000000300000000000000
    material: {fileID: 2100000, guid: 37b41a5b937cf4a4387c4c3fa2903068, type: 2}
    materialId: 0
    sourceTextureGUID: 8d809929b93bab2429722d0943fa0a85
    extractRegion: 0
    regionX: 0
    regionY: 0
    regionW: 0
    regionH: 0
    flipped: 0
    complexGeometry: 0
    physicsEngine: 0
    colliderType: 0
    customColliders: []
    colliderVertices: []
    colliderIndicesFwd: 
    colliderIndicesBack: 
    colliderConvex: 0
    colliderSmoothSphereCollisions: 0
    polygonCollider2D: []
    edgeCollider2D: []
    attachPoints: []
  - name: cloud2
    boundsData:
    - {x: 0, y: 0, z: 0}
    - {x: 2.6599998, y: 2.6399999, z: 0}
    untrimmedBoundsData:
    - {x: 0, y: 0, z: 0}
    - {x: 2.6599998, y: 2.6399999, z: 0}
    texelSize: {x: 0.01, y: 0.01}
    positions:
    - {x: -1.3299999, y: -1.3199999, z: 0}
    - {x: 1.3299999, y: -1.3199999, z: 0}
    - {x: -1.3299999, y: 1.3199999, z: 0}
    - {x: 1.3299999, y: 1.3199999, z: 0}
    normals: []
    tangents: []
    uvs:
    - {x: 0.3876958, y: 0.8554692}
    - {x: 0.3876958, y: 0.9853511}
    - {x: 0.5166011, y: 0.8554692}
    - {x: 0.5166011, y: 0.9853511}
    normalizedUvs:
    - {x: 0, y: 0}
    - {x: 0, y: 1}
    - {x: 1, y: 0}
    - {x: 1, y: 1}
    indices: 000000000300000001000000020000000300000000000000
    material: {fileID: 2100000, guid: 37b41a5b937cf4a4387c4c3fa2903068, type: 2}
    materialId: 0
    sourceTextureGUID: 8379c7713abe92c4aa49d33332a01188
    extractRegion: 0
    regionX: 0
    regionY: 0
    regionW: 0
    regionH: 0
    flipped: 1
    complexGeometry: 0
    physicsEngine: 0
    colliderType: 0
    customColliders: []
    colliderVertices: []
    colliderIndicesFwd: 
    colliderIndicesBack: 
    colliderConvex: 0
    colliderSmoothSphereCollisions: 0
    polygonCollider2D: []
    edgeCollider2D: []
    attachPoints: []
  - name: cloud3
    boundsData:
    - {x: 0.004999995, y: 0, z: 0}
    - {x: 1.01, y: 0.78, z: 0}
    untrimmedBoundsData:
    - {x: 0.004999995, y: 0, z: 0}
    - {x: 1.01, y: 0.78, z: 0}
    texelSize: {x: 0.01, y: 0.01}
    positions:
    - {x: -0.5, y: -0.39, z: 0}
    - {x: 0.51, y: -0.39, z: 0}
    - {x: -0.5, y: 0.39, z: 0}
    - {x: 0.51, y: 0.39, z: 0}
    normals: []
    tangents: []
    uvs:
    - {x: 0.33642626, y: 0.8554692}
    - {x: 0.3857417, y: 0.8554692}
    - {x: 0.33642626, y: 0.8935542}
    - {x: 0.3857417, y: 0.8935542}
    normalizedUvs:
    - {x: 0, y: 0}
    - {x: 1, y: 0}
    - {x: 0, y: 1}
    - {x: 1, y: 1}
    indices: 000000000300000001000000020000000300000000000000
    material: {fileID: 2100000, guid: 37b41a5b937cf4a4387c4c3fa2903068, type: 2}
    materialId: 0
    sourceTextureGUID: 65cc214f956713846ba89e0a49b191a0
    extractRegion: 0
    regionX: 0
    regionY: 0
    regionW: 0
    regionH: 0
    flipped: 0
    complexGeometry: 0
    physicsEngine: 0
    colliderType: 0
    customColliders: []
    colliderVertices: []
    colliderIndicesFwd: 
    colliderIndicesBack: 
    colliderConvex: 0
    colliderSmoothSphereCollisions: 0
    polygonCollider2D: []
    edgeCollider2D: []
    attachPoints: []
  - name: cloud4
    boundsData:
    - {x: 0, y: 0, z: 0}
    - {x: 0.22, y: 0.24, z: 0}
    untrimmedBoundsData:
    - {x: 0, y: 0, z: 0}
    - {x: 0.22, y: 0.24, z: 0}
    texelSize: {x: 0.01, y: 0.01}
    positions:
    - {x: -0.11, y: -0.12, z: 0}
    - {x: 0.11, y: -0.12, z: 0}
    - {x: -0.11, y: 0.12, z: 0}
    - {x: 0.11, y: 0.12, z: 0}
    normals: []
    tangents: []
    uvs:
    - {x: 0.25830126, y: 0.94580126}
    - {x: 0.2690425, y: 0.94580126}
    - {x: 0.25830126, y: 0.95751905}
    - {x: 0.2690425, y: 0.95751905}
    normalizedUvs:
    - {x: 0, y: 0}
    - {x: 1, y: 0}
    - {x: 0, y: 1}
    - {x: 1, y: 1}
    indices: 000000000300000001000000020000000300000000000000
    material: {fileID: 2100000, guid: 37b41a5b937cf4a4387c4c3fa2903068, type: 2}
    materialId: 0
    sourceTextureGUID: a330662c5df8c0245bc475e4ecb0e58e
    extractRegion: 0
    regionX: 0
    regionY: 0
    regionW: 0
    regionH: 0
    flipped: 0
    complexGeometry: 0
    physicsEngine: 0
    colliderType: 0
    customColliders: []
    colliderVertices: []
    colliderIndicesFwd: 
    colliderIndicesBack: 
    colliderConvex: 0
    colliderSmoothSphereCollisions: 0
    polygonCollider2D: []
    edgeCollider2D: []
    attachPoints: []
  - name: cloud5
    boundsData:
    - {x: 0.00500001, y: -0.004999995, z: 0}
    - {x: 0.47, y: 0.41, z: 0}
    untrimmedBoundsData:
    - {x: 0.00500001, y: -0.004999995, z: 0}
    - {x: 0.47, y: 0.41, z: 0}
    texelSize: {x: 0.01, y: 0.01}
    positions:
    - {x: -0.22999999, y: -0.21, z: 0}
    - {x: 0.24000001, y: -0.21, z: 0}
    - {x: -0.22999999, y: 0.2, z: 0}
    - {x: 0.24000001, y: 0.2, z: 0}
    normals: []
    tangents: []
    uvs:
    - {x: 0.19384815, y: 0.96142626}
    - {x: 0.19384815, y: 0.9843745}
    - {x: 0.2138667, y: 0.96142626}
    - {x: 0.2138667, y: 0.9843745}
    normalizedUvs:
    - {x: 0, y: 0}
    - {x: 0, y: 1}
    - {x: 1, y: 0}
    - {x: 1, y: 1}
    indices: 000000000300000001000000020000000300000000000000
    material: {fileID: 2100000, guid: 37b41a5b937cf4a4387c4c3fa2903068, type: 2}
    materialId: 0
    sourceTextureGUID: 0a63f8a3c119fc44e9002b6b960b28d9
    extractRegion: 0
    regionX: 0
    regionY: 0
    regionW: 0
    regionH: 0
    flipped: 1
    complexGeometry: 0
    physicsEngine: 0
    colliderType: 0
    customColliders: []
    colliderVertices: []
    colliderIndicesFwd: 
    colliderIndicesBack: 
    colliderConvex: 0
    colliderSmoothSphereCollisions: 0
    polygonCollider2D: []
    edgeCollider2D: []
    attachPoints: []
  - name: cloud6
    boundsData:
    - {x: 0, y: -0.005000055, z: 0}
    - {x: 1.86, y: 1.4699999, z: 0}
    untrimmedBoundsData:
    - {x: 0, y: -0.005000055, z: 0}
    - {x: 1.86, y: 1.4699999, z: 0}
    texelSize: {x: 0.01, y: 0.01}
    positions:
    - {x: -0.93, y: -0.74, z: 0}
    - {x: 0.93, y: -0.74, z: 0}
    - {x: -0.93, y: 0.7299999, z: 0}
    - {x: 0.93, y: 0.7299999, z: 0}
    normals: []
    tangents: []
    uvs:
    - {x: 0.12011768, y: 0.89697313}
    - {x: 0.12011768, y: 0.9877925}
    - {x: 0.19189404, y: 0.89697313}
    - {x: 0.19189404, y: 0.9877925}
    normalizedUvs:
    - {x: 0, y: 0}
    - {x: 0, y: 1}
    - {x: 1, y: 0}
    - {x: 1, y: 1}
    indices: 000000000300000001000000020000000300000000000000
    material: {fileID: 2100000, guid: 37b41a5b937cf4a4387c4c3fa2903068, type: 2}
    materialId: 0
    sourceTextureGUID: a4b2a6504aab7d94d99d381e00c0a384
    extractRegion: 0
    regionX: 0
    regionY: 0
    regionW: 0
    regionH: 0
    flipped: 1
    complexGeometry: 0
    physicsEngine: 0
    colliderType: 0
    customColliders: []
    colliderVertices: []
    colliderIndicesFwd: 
    colliderIndicesBack: 
    colliderConvex: 0
    colliderSmoothSphereCollisions: 0
    polygonCollider2D: []
    edgeCollider2D: []
    attachPoints: []
  - name: cloud7
    boundsData:
    - {x: 0.004999995, y: 0, z: 0}
    - {x: 0.39, y: 0.48, z: 0}
    untrimmedBoundsData:
    - {x: 0.004999995, y: 0, z: 0}
    - {x: 0.39, y: 0.48, z: 0}
    texelSize: {x: 0.01, y: 0.01}
    positions:
    - {x: -0.19, y: -0.24, z: 0}
    - {x: 0.19999999, y: -0.24, z: 0}
    - {x: -0.19, y: 0.24, z: 0}
    - {x: 0.19999999, y: 0.24, z: 0}
    normals: []
    tangents: []
    uvs:
    - {x: 0.2158208, y: 0.96142626}
    - {x: 0.23486279, y: 0.96142626}
    - {x: 0.2158208, y: 0.9848628}
    - {x: 0.23486279, y: 0.9848628}
    normalizedUvs:
    - {x: 0, y: 0}
    - {x: 1, y: 0}
    - {x: 0, y: 1}
    - {x: 1, y: 1}
    indices: 000000000300000001000000020000000300000000000000
    material: {fileID: 2100000, guid: 37b41a5b937cf4a4387c4c3fa2903068, type: 2}
    materialId: 0
    sourceTextureGUID: 7edf3ab671dcd9c489e2456e5c2f3a0b
    extractRegion: 0
    regionX: 0
    regionY: 0
    regionW: 0
    regionH: 0
    flipped: 0
    complexGeometry: 0
    physicsEngine: 0
    colliderType: 0
    customColliders: []
    colliderVertices: []
    colliderIndicesFwd: 
    colliderIndicesBack: 
    colliderConvex: 0
    colliderSmoothSphereCollisions: 0
    polygonCollider2D: []
    edgeCollider2D: []
    attachPoints: []
  - name: cloud8
    boundsData:
    - {x: 0, y: 0, z: 0}
    - {x: 0.35999998, y: 0.22, z: 0}
    untrimmedBoundsData:
    - {x: 0, y: 0, z: 0}
    - {x: 0.35999998, y: 0.22, z: 0}
    texelSize: {x: 0.01, y: 0.01}
    positions:
    - {x: -0.17999999, y: -0.11, z: 0}
    - {x: 0.17999999, y: -0.11, z: 0}
    - {x: -0.17999999, y: 0.11, z: 0}
    - {x: 0.17999999, y: 0.11, z: 0}
    normals: []
    tangents: []
    uvs:
    - {x: 0.2548833, y: 0.96142626}
    - {x: 0.2548833, y: 0.9790034}
    - {x: 0.26562452, y: 0.96142626}
    - {x: 0.26562452, y: 0.9790034}
    normalizedUvs:
    - {x: 0, y: 0}
    - {x: 0, y: 1}
    - {x: 1, y: 0}
    - {x: 1, y: 1}
    indices: 000000000300000001000000020000000300000000000000
    material: {fileID: 2100000, guid: 37b41a5b937cf4a4387c4c3fa2903068, type: 2}
    materialId: 0
    sourceTextureGUID: 6791a630eeb267d489f7a0d308000437
    extractRegion: 0
    regionX: 0
    regionY: 0
    regionW: 0
    regionH: 0
    flipped: 1
    complexGeometry: 0
    physicsEngine: 0
    colliderType: 0
    customColliders: []
    colliderVertices: []
    colliderIndicesFwd: 
    colliderIndicesBack: 
    colliderConvex: 0
    colliderSmoothSphereCollisions: 0
    polygonCollider2D: []
    edgeCollider2D: []
    attachPoints: []
  - name: cloud9
    boundsData:
    - {x: 0.004999995, y: 0, z: 0}
    - {x: 0.32999998, y: 0.39999998, z: 0}
    untrimmedBoundsData:
    - {x: 0.004999995, y: 0, z: 0}
    - {x: 0.32999998, y: 0.39999998, z: 0}
    texelSize: {x: 0.01, y: 0.01}
    positions:
    - {x: -0.16, y: -0.19999999, z: 0}
    - {x: 0.16999999, y: -0.19999999, z: 0}
    - {x: -0.16, y: 0.19999999, z: 0}
    - {x: 0.16999999, y: 0.19999999, z: 0}
    normals: []
    tangents: []
    uvs:
    - {x: 0.2368169, y: 0.96142626}
    - {x: 0.2529292, y: 0.96142626}
    - {x: 0.2368169, y: 0.98095655}
    - {x: 0.2529292, y: 0.98095655}
    normalizedUvs:
    - {x: 0, y: 0}
    - {x: 1, y: 0}
    - {x: 0, y: 1}
    - {x: 1, y: 1}
    indices: 000000000300000001000000020000000300000000000000
    material: {fileID: 2100000, guid: 37b41a5b937cf4a4387c4c3fa2903068, type: 2}
    materialId: 0
    sourceTextureGUID: a075b49fd694017418de509575850047
    extractRegion: 0
    regionX: 0
    regionY: 0
    regionW: 0
    regionH: 0
    flipped: 0
    complexGeometry: 0
    physicsEngine: 0
    colliderType: 0
    customColliders: []
    colliderVertices: []
    colliderIndicesFwd: 
    colliderIndicesBack: 
    colliderConvex: 0
    colliderSmoothSphereCollisions: 0
    polygonCollider2D: []
    edgeCollider2D: []
    attachPoints: []
  - name: island1
    boundsData:
    - {x: 0, y: -0.004999995, z: 0}
    - {x: 1.4599999, y: 0.84999996, z: 0}
    untrimmedBoundsData:
    - {x: 0, y: -0.004999995, z: 0}
    - {x: 1.4599999, y: 0.84999996, z: 0}
    texelSize: {x: 0.01, y: 0.01}
    positions:
    - {x: -0.72999996, y: -0.42999998, z: 0}
    - {x: 0.72999996, y: -0.42999998, z: 0}
    - {x: -0.72999996, y: 0.42, z: 0}
    - {x: 0.72999996, y: 0.42, z: 0}
    normals: []
    tangents: []
    uvs:
    - {x: 0.31347704, y: 0.94580126}
    - {x: 0.38476515, y: 0.94580126}
    - {x: 0.31347704, y: 0.9873042}
    - {x: 0.38476515, y: 0.9873042}
    normalizedUvs:
    - {x: 0, y: 0}
    - {x: 1, y: 0}
    - {x: 0, y: 1}
    - {x: 1, y: 1}
    indices: 000000000300000001000000020000000300000000000000
    material: {fileID: 2100000, guid: 37b41a5b937cf4a4387c4c3fa2903068, type: 2}
    materialId: 0
    sourceTextureGUID: fe78c2cdf0687f749843d2e50ea90298
    extractRegion: 0
    regionX: 0
    regionY: 0
    regionW: 0
    regionH: 0
    flipped: 0
    complexGeometry: 0
    physicsEngine: 0
    colliderType: 0
    customColliders: []
    colliderVertices: []
    colliderIndicesFwd: 
    colliderIndicesBack: 
    colliderConvex: 0
    colliderSmoothSphereCollisions: 0
    polygonCollider2D: []
    edgeCollider2D: []
    attachPoints: []
  - name: island2
    boundsData:
    - {x: 0, y: -0.004999995, z: 0}
    - {x: 0.9, y: 0.57, z: 0}
    untrimmedBoundsData:
    - {x: 0, y: -0.004999995, z: 0}
    - {x: 0.9, y: 0.57, z: 0}
    texelSize: {x: 0.01, y: 0.01}
    positions:
    - {x: -0.45, y: -0.29, z: 0}
    - {x: 0.45, y: -0.29, z: 0}
    - {x: -0.45, y: 0.28, z: 0}
    - {x: 0.45, y: 0.28, z: 0}
    normals: []
    tangents: []
    uvs:
    - {x: 0.2675786, y: 0.95947313}
    - {x: 0.31152296, y: 0.95947313}
    - {x: 0.2675786, y: 0.9873042}
    - {x: 0.31152296, y: 0.9873042}
    normalizedUvs:
    - {x: 0, y: 0}
    - {x: 1, y: 0}
    - {x: 0, y: 1}
    - {x: 1, y: 1}
    indices: 000000000300000001000000020000000300000000000000
    material: {fileID: 2100000, guid: 37b41a5b937cf4a4387c4c3fa2903068, type: 2}
    materialId: 0
    sourceTextureGUID: 2decccc9a4fd48748960d24a6918778e
    extractRegion: 0
    regionX: 0
    regionY: 0
    regionW: 0
    regionH: 0
    flipped: 0
    complexGeometry: 0
    physicsEngine: 0
    colliderType: 0
    customColliders: []
    colliderVertices: []
    colliderIndicesFwd: 
    colliderIndicesBack: 
    colliderConvex: 0
    colliderSmoothSphereCollisions: 0
    polygonCollider2D: []
    edgeCollider2D: []
    attachPoints: []
  - name: island3
    boundsData:
    - {x: 0, y: 0, z: 0}
    - {x: 1.4, y: 0.96, z: 0}
    untrimmedBoundsData:
    - {x: 0, y: 0, z: 0}
    - {x: 1.4, y: 0.96, z: 0}
    texelSize: {x: 0.01, y: 0.01}
    positions:
    - {x: -0.7, y: -0.48, z: 0}
    - {x: 0.7, y: -0.48, z: 0}
    - {x: -0.7, y: 0.48, z: 0}
    - {x: 0.7, y: 0.48, z: 0}
    normals: []
    tangents: []
    uvs:
    - {x: 0.25830126, y: 0.89697313}
    - {x: 0.32665968, y: 0.89697313}
    - {x: 0.25830126, y: 0.9438472}
    - {x: 0.32665968, y: 0.9438472}
    normalizedUvs:
    - {x: 0, y: 0}
    - {x: 1, y: 0}
    - {x: 0, y: 1}
    - {x: 1, y: 1}
    indices: 000000000300000001000000020000000300000000000000
    material: {fileID: 2100000, guid: 37b41a5b937cf4a4387c4c3fa2903068, type: 2}
    materialId: 0
    sourceTextureGUID: 50c1319bb900b1948b9a09485ff307df
    extractRegion: 0
    regionX: 0
    regionY: 0
    regionW: 0
    regionH: 0
    flipped: 0
    complexGeometry: 0
    physicsEngine: 0
    colliderType: 0
    customColliders: []
    colliderVertices: []
    colliderIndicesFwd: 
    colliderIndicesBack: 
    colliderConvex: 0
    colliderSmoothSphereCollisions: 0
    polygonCollider2D: []
    edgeCollider2D: []
    attachPoints: []
  - name: propeller bottom
    boundsData:
    - {x: 0.004999995, y: -0.004999995, z: 0}
    - {x: 2.73, y: 3.81, z: 0}
    untrimmedBoundsData:
    - {x: 0.004999995, y: -0.004999995, z: 0}
    - {x: 2.73, y: 3.81, z: 0}
    texelSize: {x: 0.01, y: 0.01}
    positions:
    - {x: -1.36, y: -1.91, z: 0}
    - {x: 1.37, y: -1.91, z: 0}
    - {x: -1.36, y: 1.9, z: 0}
    - {x: 1.37, y: 1.9, z: 0}
    normals: []
    tangents: []
    uvs:
    - {x: 0.48584032, y: 0.20605518}
    - {x: 0.61914015, y: 0.20605518}
    - {x: 0.48584032, y: 0.39208937}
    - {x: 0.61914015, y: 0.39208937}
    normalizedUvs:
    - {x: 0, y: 0}
    - {x: 1, y: 0}
    - {x: 0, y: 1}
    - {x: 1, y: 1}
    indices: 000000000300000001000000020000000300000000000000
    material: {fileID: 2100000, guid: 37b41a5b937cf4a4387c4c3fa2903068, type: 2}
    materialId: 0
    sourceTextureGUID: 8436ab652062b59498ea2958e3c7c57c
    extractRegion: 0
    regionX: 0
    regionY: 0
    regionW: 0
    regionH: 0
    flipped: 0
    complexGeometry: 0
    physicsEngine: 0
    colliderType: 0
    customColliders: []
    colliderVertices: []
    colliderIndicesFwd: 
    colliderIndicesBack: 
    colliderConvex: 0
    colliderSmoothSphereCollisions: 0
    polygonCollider2D: []
    edgeCollider2D: []
    attachPoints: []
  - name: propeller top
    boundsData:
    - {x: 0.004999995, y: -0.004999995, z: 0}
    - {x: 2.27, y: 2.37, z: 0}
    untrimmedBoundsData:
    - {x: 0.004999995, y: -0.004999995, z: 0}
    - {x: 2.27, y: 2.37, z: 0}
    texelSize: {x: 0.01, y: 0.01}
    positions:
    - {x: -1.13, y: -1.1899999, z: 0}
    - {x: 1.14, y: -1.1899999, z: 0}
    - {x: -1.13, y: 1.18, z: 0}
    - {x: 1.14, y: 1.18, z: 0}
    normals: []
    tangents: []
    uvs:
    - {x: 0.51855516, y: 0.8554692}
    - {x: 0.62939405, y: 0.8554692}
    - {x: 0.51855516, y: 0.9711909}
    - {x: 0.62939405, y: 0.9711909}
    normalizedUvs:
    - {x: 0, y: 0}
    - {x: 1, y: 0}
    - {x: 0, y: 1}
    - {x: 1, y: 1}
    indices: 000000000300000001000000020000000300000000000000
    material: {fileID: 2100000, guid: 37b41a5b937cf4a4387c4c3fa2903068, type: 2}
    materialId: 0
    sourceTextureGUID: 5b93d90991d4de242bb679f9441999f3
    extractRegion: 0
    regionX: 0
    regionY: 0
    regionW: 0
    regionH: 0
    flipped: 0
    complexGeometry: 0
    physicsEngine: 0
    colliderType: 0
    customColliders: []
    colliderVertices: []
    colliderIndicesFwd: 
    colliderIndicesBack: 
    colliderConvex: 0
    colliderSmoothSphereCollisions: 0
    polygonCollider2D: []
    edgeCollider2D: []
    attachPoints: []
  - name: propellers
    boundsData:
    - {x: 0.0050001144, y: 0, z: 0}
    - {x: 6.83, y: 6.92, z: 0}
    untrimmedBoundsData:
    - {x: 0.0050001144, y: 0, z: 0}
    - {x: 6.83, y: 6.92, z: 0}
    texelSize: {x: 0.01, y: 0.01}
    positions:
    - {x: -3.4099998, y: -3.46, z: 0}
    - {x: 3.42, y: -3.46, z: 0}
    - {x: -3.4099998, y: 3.46, z: 0}
    - {x: 3.42, y: 3.46, z: 0}
    normals: []
    tangents: []
    uvs:
    - {x: 0.0009770507, y: 0.5571294}
    - {x: 0.33447218, y: 0.5571294}
    - {x: 0.0009770507, y: 0.89501905}
    - {x: 0.33447218, y: 0.89501905}
    normalizedUvs:
    - {x: 0, y: 0}
    - {x: 0.99999994, y: 0}
    - {x: 0, y: 1}
    - {x: 0.99999994, y: 1}
    indices: 000000000300000001000000020000000300000000000000
    material: {fileID: 2100000, guid: 37b41a5b937cf4a4387c4c3fa2903068, type: 2}
    materialId: 0
    sourceTextureGUID: 4c0924b2b2638d643a869ec8c7fc40f9
    extractRegion: 0
    regionX: 0
    regionY: 0
    regionW: 0
    regionH: 0
    flipped: 0
    complexGeometry: 0
    physicsEngine: 0
    colliderType: 0
    customColliders: []
    colliderVertices: []
    colliderIndicesFwd: 
    colliderIndicesBack: 
    colliderConvex: 0
    colliderSmoothSphereCollisions: 0
    polygonCollider2D: []
    edgeCollider2D: []
    attachPoints: []
  - name: sail1
    boundsData:
    - {x: 0.004999876, y: -0.0050001144, z: 0}
    - {x: 5.5499997, y: 6.0699997, z: 0}
    untrimmedBoundsData:
    - {x: 0.004999876, y: -0.0050001144, z: 0}
    - {x: 5.5499997, y: 6.0699997, z: 0}
    texelSize: {x: 0.01, y: 0.01}
    positions:
    - {x: -2.77, y: -3.04, z: 0}
    - {x: 2.7799997, y: -3.04, z: 0}
    - {x: -2.77, y: 3.0299997, z: 0}
    - {x: 2.7799997, y: 3.0299997, z: 0}
    normals: []
    tangents: []
    uvs:
    - {x: 0.33642626, y: 0.5571294}
    - {x: 0.6074214, y: 0.5571294}
    - {x: 0.33642626, y: 0.85351515}
    - {x: 0.6074214, y: 0.85351515}
    normalizedUvs:
    - {x: 0, y: 0}
    - {x: 1, y: 0}
    - {x: 0, y: 1}
    - {x: 1, y: 1}
    indices: 000000000300000001000000020000000300000000000000
    material: {fileID: 2100000, guid: 37b41a5b937cf4a4387c4c3fa2903068, type: 2}
    materialId: 0
    sourceTextureGUID: f3bdeb38773986243a2abaa42d40a97d
    extractRegion: 0
    regionX: 0
    regionY: 0
    regionW: 0
    regionH: 0
    flipped: 0
    complexGeometry: 0
    physicsEngine: 0
    colliderType: 0
    customColliders: []
    colliderVertices: []
    colliderIndicesFwd: 
    colliderIndicesBack: 
    colliderConvex: 0
    colliderSmoothSphereCollisions: 0
    polygonCollider2D: []
    edgeCollider2D: []
    attachPoints: []
  - name: sail2
    boundsData:
    - {x: 0.0050001144, y: 0, z: 0}
    - {x: 5.69, y: 4.16, z: 0}
    untrimmedBoundsData:
    - {x: 0.0050001144, y: 0, z: 0}
    - {x: 5.69, y: 4.16, z: 0}
    texelSize: {x: 0.01, y: 0.01}
    positions:
    - {x: -2.84, y: -2.08, z: 0}
    - {x: 2.8500001, y: -2.08, z: 0}
    - {x: -2.84, y: 2.08, z: 0}
    - {x: 2.8500001, y: 2.08, z: 0}
    normals: []
    tangents: []
    uvs:
    - {x: 0.48584032, y: 0.0009770507}
    - {x: 0.7636714, y: 0.0009770507}
    - {x: 0.48584032, y: 0.20410107}
    - {x: 0.7636714, y: 0.20410107}
    normalizedUvs:
    - {x: 0, y: 0}
    - {x: 1, y: 0}
    - {x: 0, y: 1}
    - {x: 1, y: 1}
    indices: 000000000300000001000000020000000300000000000000
    material: {fileID: 2100000, guid: 37b41a5b937cf4a4387c4c3fa2903068, type: 2}
    materialId: 0
    sourceTextureGUID: 229a97e4277ce5d488ff60e5b58497ed
    extractRegion: 0
    regionX: 0
    regionY: 0
    regionW: 0
    regionH: 0
    flipped: 0
    complexGeometry: 0
    physicsEngine: 0
    colliderType: 0
    customColliders: []
    colliderVertices: []
    colliderIndicesFwd: 
    colliderIndicesBack: 
    colliderConvex: 0
    colliderSmoothSphereCollisions: 0
    polygonCollider2D: []
    edgeCollider2D: []
    attachPoints: []
  - name: sky
    boundsData:
    - {x: 0, y: 0, z: 0}
    - {x: 1.28, y: 1.28, z: 0}
    untrimmedBoundsData:
    - {x: 0, y: 0, z: 0}
    - {x: 1.28, y: 1.28, z: 0}
    texelSize: {x: 0.01, y: 0.01}
    positions:
    - {x: -0.64, y: -0.64, z: 0}
    - {x: 0.64, y: -0.64, z: 0}
    - {x: -0.64, y: 0.64, z: 0}
    - {x: 0.64, y: 0.64, z: 0}
    normals: []
    tangents: []
    uvs:
    - {x: 0.19384815, y: 0.89697313}
    - {x: 0.25634718, y: 0.89697313}
    - {x: 0.19384815, y: 0.9594722}
    - {x: 0.25634718, y: 0.9594722}
    normalizedUvs:
    - {x: 0, y: 0}
    - {x: 1, y: 0}
    - {x: 0, y: 1}
    - {x: 1, y: 1}
    indices: 000000000300000001000000020000000300000000000000
    material: {fileID: 2100000, guid: 37b41a5b937cf4a4387c4c3fa2903068, type: 2}
    materialId: 0
    sourceTextureGUID: f653f04bc9bd87247933fbb2c2f18f47
    extractRegion: 0
    regionX: 0
    regionY: 0
    regionW: 0
    regionH: 0
    flipped: 0
    complexGeometry: 0
    physicsEngine: 0
    colliderType: 0
    customColliders: []
    colliderVertices: []
    colliderIndicesFwd: 
    colliderIndicesBack: 
    colliderConvex: 0
    colliderSmoothSphereCollisions: 0
    polygonCollider2D: []
    edgeCollider2D: []
    attachPoints: []
  - name: sky-overlay
    boundsData:
    - {x: 0, y: 0, z: 0}
    - {x: 0.08, y: 10.8, z: 0}
    untrimmedBoundsData:
    - {x: 0, y: 0, z: 0}
    - {x: 0.08, y: 10.8, z: 0}
    texelSize: {x: 0.01, y: 0.01}
    positions:
    - {x: -0.04, y: -5.4, z: 0}
    - {x: 0.04, y: -5.4, z: 0}
    - {x: -0.04, y: 5.4, z: 0}
    - {x: 0.04, y: 5.4, z: 0}
    normals: []
    tangents: []
    uvs:
    - {x: 0.12011768, y: 0.9897466}
    - {x: 0.12011768, y: 0.99365187}
    - {x: 0.64746046, y: 0.9897466}
    - {x: 0.64746046, y: 0.99365187}
    normalizedUvs:
    - {x: 0, y: 0}
    - {x: 0, y: 1}
    - {x: 1, y: 0}
    - {x: 1, y: 1}
    indices: 000000000300000001000000020000000300000000000000
    material: {fileID: 2100000, guid: 37b41a5b937cf4a4387c4c3fa2903068, type: 2}
    materialId: 0
    sourceTextureGUID: 4919f34e653d83e448d1deaaf6f3a429
    extractRegion: 0
    regionX: 0
    regionY: 0
    regionW: 0
    regionH: 0
    flipped: 1
    complexGeometry: 0
    physicsEngine: 0
    colliderType: 0
    customColliders: []
    colliderVertices: []
    colliderIndicesFwd: 
    colliderIndicesBack: 
    colliderConvex: 0
    colliderSmoothSphereCollisions: 0
    polygonCollider2D: []
    edgeCollider2D: []
    attachPoints: []
  premultipliedAlpha: 1
  material: {fileID: 0}
  materials:
  - {fileID: 2100000, guid: 37b41a5b937cf4a4387c4c3fa2903068, type: 2}
  textures:
  - {fileID: 2800000, guid: 6f83b711ea37eb9429fd4b6d89834965, type: 3}
  pngTextures: []
  materialPngTextureId: 00000000
  textureFilterMode: 1
  textureMipMaps: 0
  allowMultipleAtlases: 0
  spriteCollectionGUID: 784243f6b7ef3904fa9e19cc958b41d7
  spriteCollectionName: SkyArena
  assetName: 
  loadable: 0
  invOrthoSize: 2
  halfTargetHeight: 50
  buildKey: 92829678
  dataGuid: 6fe293f58f451d644b383fe06f119ab0
  managedSpriteCollection: 0
  hasPlatformData: 0
  spriteCollectionPlatforms: []
  spriteCollectionPlatformGUIDs: []
