%YAML 1.1
%TAG !u! tag:unity3d.com,2011:
--- !u!1001 &100100000
Prefab:
  m_ObjectHideFlags: 1
  serializedVersion: 2
  m_Modification:
    m_TransformParent: {fileID: 0}
    m_Modifications: []
    m_RemovedComponents: []
  m_ParentPrefab: {fileID: 0}
  m_RootGameObject: {fileID: 1045149494930376}
  m_IsPrefabParent: 1
--- !u!1 &1045149494930376
GameObject:
  m_ObjectHideFlags: 0
  m_PrefabParentObject: {fileID: 0}
  m_PrefabInternal: {fileID: 100100000}
  serializedVersion: 5
  m_Component:
  - component: {fileID: 4776955776768148}
  - component: {fileID: 114318691448474378}
  m_Layer: 0
  m_Name: Overworld Clouds
  m_TagString: Untagged
  m_Icon: {fileID: 0}
  m_NavMeshLayer: 0
  m_StaticEditorFlags: 0
  m_IsActive: 1
--- !u!4 &4776955776768148
Transform:
  m_ObjectHideFlags: 1
  m_PrefabParentObject: {fileID: 0}
  m_PrefabInternal: {fileID: 100100000}
  m_GameObject: {fileID: 1045149494930376}
  m_LocalRotation: {x: 0, y: 0, z: 0, w: 1}
  m_LocalPosition: {x: 0, y: 0, z: 0}
  m_LocalScale: {x: 1, y: 1, z: 1}
  m_Children: []
  m_Father: {fileID: 0}
  m_RootOrder: 0
  m_LocalEulerAnglesHint: {x: 0, y: 0, z: 0}
--- !u!114 &114318691448474378
MonoBehaviour:
  m_ObjectHideFlags: 1
  m_PrefabParentObject: {fileID: 0}
  m_PrefabInternal: {fileID: 100100000}
  m_GameObject: {fileID: 1045149494930376}
  m_Enabled: 1
  m_EditorHideFlags: 0
  m_Script: {fileID: 11500000, guid: d546f34a90531a14eaba82a43b05b86b, type: 3}
  m_Name: 
  m_EditorClassIdentifier: 
  version: 3
  materialIdsValid: 1
  needMaterialInstance: 0
  spriteDefinitions:
  - name: cloud1
    boundsData:
    - {x: 0.004999995, y: -0.004999995, z: 0}
    - {x: 2.81, y: 2.45, z: 0}
    untrimmedBoundsData:
    - {x: 0.004999995, y: -0.004999995, z: 0}
    - {x: 2.81, y: 2.45, z: 0}
    texelSize: {x: 0.01, y: 0.01}
    positions:
    - {x: -1.4, y: -1.23, z: 0}
    - {x: 1.41, y: -1.23, z: 0}
    - {x: -1.4, y: 1.22, z: 0}
    - {x: 1.41, y: 1.22, z: 0}
    normals: []
    tangents: []
    uvs:
    - {x: 0.003908203, y: 0.24902442}
    - {x: 0.5527324, y: 0.24902442}
    - {x: 0.003908203, y: 0.48828027}
    - {x: 0.5527324, y: 0.48828027}
    normalizedUvs:
    - {x: 0, y: 0}
    - {x: 1, y: 0}
    - {x: 0, y: 1}
    - {x: 1, y: 1}
    indices: 000000000300000001000000020000000300000000000000
    material: {fileID: 2100000, guid: a2cdcddbcdf080f40aaf64b189f97d15, type: 2}
    materialId: 0
    sourceTextureGUID: 56a05cdc77fd7bb4282cd59c6070d1b5
    extractRegion: 0
    regionX: 0
    regionY: 0
    regionW: 0
    regionH: 0
    flipped: 0
    complexGeometry: 0
    physicsEngine: 0
    colliderType: 0
    customColliders: []
    colliderVertices: []
    colliderIndicesFwd: 
    colliderIndicesBack: 
    colliderConvex: 0
    colliderSmoothSphereCollisions: 0
    polygonCollider2D: []
    edgeCollider2D: []
    attachPoints: []
  - name: cloud2
    boundsData:
    - {x: 0, y: -0.004999995, z: 0}
    - {x: 3.1399999, y: 2.49, z: 0}
    untrimmedBoundsData:
    - {x: 0, y: -0.004999995, z: 0}
    - {x: 3.1399999, y: 2.49, z: 0}
    texelSize: {x: 0.01, y: 0.01}
    positions:
    - {x: -1.5699999, y: -1.25, z: 0}
    - {x: 1.5699999, y: -1.25, z: 0}
    - {x: -1.5699999, y: 1.24, z: 0}
    - {x: 1.5699999, y: 1.24, z: 0}
    normals: []
    tangents: []
    uvs:
    - {x: 0.003908203, y: 0.0019541015}
    - {x: 0.61718553, y: 0.0019541015}
    - {x: 0.003908203, y: 0.2451162}
    - {x: 0.61718553, y: 0.2451162}
    normalizedUvs:
    - {x: 0, y: 0}
    - {x: 1, y: 0}
    - {x: 0, y: 1}
    - {x: 1, y: 1}
    indices: 000000000300000001000000020000000300000000000000
    material: {fileID: 2100000, guid: a2cdcddbcdf080f40aaf64b189f97d15, type: 2}
    materialId: 0
    sourceTextureGUID: 0f33b90d0d4d3ab43aeb7e1c74a0e944
    extractRegion: 0
    regionX: 0
    regionY: 0
    regionW: 0
    regionH: 0
    flipped: 0
    complexGeometry: 0
    physicsEngine: 0
    colliderType: 0
    customColliders: []
    colliderVertices: []
    colliderIndicesFwd: 
    colliderIndicesBack: 
    colliderConvex: 0
    colliderSmoothSphereCollisions: 0
    polygonCollider2D: []
    edgeCollider2D: []
    attachPoints: []
  - name: cloud3
    boundsData:
    - {x: 0.004999995, y: 0, z: 0}
    - {x: 2.37, y: 2.18, z: 0}
    untrimmedBoundsData:
    - {x: 0.004999995, y: 0, z: 0}
    - {x: 2.37, y: 2.18, z: 0}
    texelSize: {x: 0.01, y: 0.01}
    positions:
    - {x: -1.18, y: -1.09, z: 0}
    - {x: 1.1899999, y: -1.09, z: 0}
    - {x: -1.18, y: 1.09, z: 0}
    - {x: 1.1899999, y: 1.09, z: 0}
    normals: []
    tangents: []
    uvs:
    - {x: 0.56054884, y: 0.24902442}
    - {x: 0.56054884, y: 0.48046777}
    - {x: 0.98632616, y: 0.24902442}
    - {x: 0.98632616, y: 0.48046777}
    normalizedUvs:
    - {x: 0, y: 0}
    - {x: 0, y: 1}
    - {x: 1, y: 0}
    - {x: 1, y: 1}
    indices: 000000000300000001000000020000000300000000000000
    material: {fileID: 2100000, guid: a2cdcddbcdf080f40aaf64b189f97d15, type: 2}
    materialId: 0
    sourceTextureGUID: 6b6b65da5ba08be42be0c957ea7a099d
    extractRegion: 0
    regionX: 0
    regionY: 0
    regionW: 0
    regionH: 0
    flipped: 1
    complexGeometry: 0
    physicsEngine: 0
    colliderType: 0
    customColliders: []
    colliderVertices: []
    colliderIndicesFwd: 
    colliderIndicesBack: 
    colliderConvex: 0
    colliderSmoothSphereCollisions: 0
    polygonCollider2D: []
    edgeCollider2D: []
    attachPoints: []
  - name: cloud4
    boundsData:
    - {x: 0, y: 0, z: 0}
    - {x: 2.82, y: 2.32, z: 0}
    untrimmedBoundsData:
    - {x: 0, y: 0, z: 0}
    - {x: 2.82, y: 2.32, z: 0}
    texelSize: {x: 0.01, y: 0.01}
    positions:
    - {x: -1.41, y: -1.16, z: 0}
    - {x: 1.41, y: -1.16, z: 0}
    - {x: -1.41, y: 1.16, z: 0}
    - {x: 1.41, y: 1.16, z: 0}
    normals: []
    tangents: []
    uvs:
    - {x: 0.003908203, y: 0.49218848}
    - {x: 0.55468553, y: 0.49218848}
    - {x: 0.003908203, y: 0.71874905}
    - {x: 0.55468553, y: 0.71874905}
    normalizedUvs:
    - {x: 0, y: 0}
    - {x: 1, y: 0}
    - {x: 0, y: 1}
    - {x: 1, y: 1}
    indices: 000000000300000001000000020000000300000000000000
    material: {fileID: 2100000, guid: a2cdcddbcdf080f40aaf64b189f97d15, type: 2}
    materialId: 0
    sourceTextureGUID: 6e9999cbd6e3072409948ac17287e7a9
    extractRegion: 0
    regionX: 0
    regionY: 0
    regionW: 0
    regionH: 0
    flipped: 0
    complexGeometry: 0
    physicsEngine: 0
    colliderType: 0
    customColliders: []
    colliderVertices: []
    colliderIndicesFwd: 
    colliderIndicesBack: 
    colliderConvex: 0
    colliderSmoothSphereCollisions: 0
    polygonCollider2D: []
    edgeCollider2D: []
    attachPoints: []
  - name: cloud5
    boundsData:
    - {x: 0.004999995, y: -0.004999995, z: 0}
    - {x: 2.1499999, y: 1.63, z: 0}
    untrimmedBoundsData:
    - {x: 0.004999995, y: -0.004999995, z: 0}
    - {x: 2.1499999, y: 1.63, z: 0}
    texelSize: {x: 0.01, y: 0.01}
    positions:
    - {x: -1.0699999, y: -0.82, z: 0}
    - {x: 1.0799999, y: -0.82, z: 0}
    - {x: -1.0699999, y: 0.81, z: 0}
    - {x: 1.0799999, y: 0.81, z: 0}
    normals: []
    tangents: []
    uvs:
    - {x: 0.62500197, y: 0.0019541015}
    - {x: 0.62500197, y: 0.21191308}
    - {x: 0.9433574, y: 0.0019541015}
    - {x: 0.9433574, y: 0.21191308}
    normalizedUvs:
    - {x: 0, y: 0}
    - {x: 0, y: 1}
    - {x: 1, y: 0}
    - {x: 1, y: 1}
    indices: 000000000300000001000000020000000300000000000000
    material: {fileID: 2100000, guid: a2cdcddbcdf080f40aaf64b189f97d15, type: 2}
    materialId: 0
    sourceTextureGUID: a06e75c1d0c1c48458b6496114e6059a
    extractRegion: 0
    regionX: 0
    regionY: 0
    regionW: 0
    regionH: 0
    flipped: 1
    complexGeometry: 0
    physicsEngine: 0
    colliderType: 0
    customColliders: []
    colliderVertices: []
    colliderIndicesFwd: 
    colliderIndicesBack: 
    colliderConvex: 0
    colliderSmoothSphereCollisions: 0
    polygonCollider2D: []
    edgeCollider2D: []
    attachPoints: []
  premultipliedAlpha: 1
  material: {fileID: 0}
  materials:
  - {fileID: 2100000, guid: a2cdcddbcdf080f40aaf64b189f97d15, type: 2}
  textures:
  - {fileID: 2800000, guid: 1bb65fea275ab98479ba50b3e3bb1958, type: 3}
  pngTextures: []
  materialPngTextureId: 00000000
  textureFilterMode: 1
  textureMipMaps: 0
  allowMultipleAtlases: 0
  spriteCollectionGUID: 3522f764dd93c7b4a85a4be7095675a4
  spriteCollectionName: Overworld Clouds
  assetName: 
  loadable: 0
  invOrthoSize: 2
  halfTargetHeight: 50
  buildKey: 1771769635
  dataGuid: 4c2d0861a428b5244b3d6ddcb5389a79
  managedSpriteCollection: 0
  hasPlatformData: 0
  spriteCollectionPlatforms: []
  spriteCollectionPlatformGUIDs: []
