%YAML 1.1
%TAG !u! tag:unity3d.com,2011:
--- !u!1001 &100100000
Prefab:
  m_ObjectHideFlags: 1
  serializedVersion: 2
  m_Modification:
    m_TransformParent: {fileID: 0}
    m_Modifications: []
    m_RemovedComponents: []
  m_ParentPrefab: {fileID: 0}
  m_RootGameObject: {fileID: 1242545538664052}
  m_IsPrefabParent: 1
--- !u!1 &1242545538664052
GameObject:
  m_ObjectHideFlags: 0
  m_PrefabParentObject: {fileID: 0}
  m_PrefabInternal: {fileID: 100100000}
  serializedVersion: 5
  m_Component:
  - component: {fileID: 4201228523368918}
  - component: {fileID: 114685432291573356}
  m_Layer: 0
  m_Name: BlocksTiles
  m_TagString: Untagged
  m_Icon: {fileID: 0}
  m_NavMeshLayer: 0
  m_StaticEditorFlags: 0
  m_IsActive: 1
--- !u!4 &4201228523368918
Transform:
  m_ObjectHideFlags: 1
  m_PrefabParentObject: {fileID: 0}
  m_PrefabInternal: {fileID: 100100000}
  m_GameObject: {fileID: 1242545538664052}
  m_LocalRotation: {x: 0, y: 0, z: 0, w: 1}
  m_LocalPosition: {x: 0, y: 0, z: 0}
  m_LocalScale: {x: 1, y: 1, z: 1}
  m_Children: []
  m_Father: {fileID: 0}
  m_RootOrder: 0
  m_LocalEulerAnglesHint: {x: 0, y: 0, z: 0}
--- !u!114 &114685432291573356
MonoBehaviour:
  m_ObjectHideFlags: 1
  m_PrefabParentObject: {fileID: 0}
  m_PrefabInternal: {fileID: 100100000}
  m_GameObject: {fileID: 1242545538664052}
  m_Enabled: 1
  m_EditorHideFlags: 0
  m_Script: {fileID: 11500000, guid: d546f34a90531a14eaba82a43b05b86b, type: 3}
  m_Name: 
  m_EditorClassIdentifier: 
  version: 3
  materialIdsValid: 1
  needMaterialInstance: 0
  spriteDefinitions:
  - name: tiles/0
    boundsData:
    - {x: 0.004999995, y: 0, z: 0}
    - {x: 0.78999996, y: 0.38, z: 0}
    untrimmedBoundsData:
    - {x: 0.004999995, y: 0, z: 0}
    - {x: 0.78999996, y: 0.38, z: 0}
    texelSize: {x: 0.01, y: 0.01}
    positions:
    - {x: -0.39, y: -0.19, z: 0}
    - {x: 0.39999998, y: -0.19, z: 0}
    - {x: -0.39, y: 0.19, z: 0}
    - {x: 0.39999998, y: 0.19, z: 0}
    normals: []
    tangents: []
    uvs:
    - {x: 0.007816406, y: 0.003908203}
    - {x: 0.31640235, y: 0.003908203}
    - {x: 0.007816406, y: 0.07812305}
    - {x: 0.31640235, y: 0.07812305}
    normalizedUvs:
    - {x: 0, y: 0}
    - {x: 1, y: 0}
    - {x: 0, y: 1}
    - {x: 1, y: 1}
    indices: 000000000300000001000000020000000300000000000000
    material: {fileID: 2100000, guid: eed915fc12268a14ab4b6552a673d3d8, type: 2}
    materialId: 0
    sourceTextureGUID: b2614a7f3ffbc104b95ad1ea1dd2c883
    extractRegion: 1
    regionX: 0
    regionY: 351
    regionW: 79
    regionH: 38
    flipped: 0
    complexGeometry: 0
    physicsEngine: 0
    colliderType: 0
    customColliders: []
    colliderVertices: []
    colliderIndicesFwd: 
    colliderIndicesBack: 
    colliderConvex: 0
    colliderSmoothSphereCollisions: 0
    polygonCollider2D: []
    edgeCollider2D: []
    attachPoints: []
  - name: tiles/1
    boundsData:
    - {x: 0.004999995, y: 0, z: 0}
    - {x: 0.78999996, y: 0.38, z: 0}
    untrimmedBoundsData:
    - {x: 0.004999995, y: 0, z: 0}
    - {x: 0.78999996, y: 0.38, z: 0}
    texelSize: {x: 0.01, y: 0.01}
    positions:
    - {x: -0.39, y: -0.19, z: 0}
    - {x: 0.39999998, y: -0.19, z: 0}
    - {x: -0.39, y: 0.19, z: 0}
    - {x: 0.39999998, y: 0.19, z: 0}
    normals: []
    tangents: []
    uvs:
    - {x: 0.33203515, y: 0.003908203}
    - {x: 0.64062107, y: 0.003908203}
    - {x: 0.33203515, y: 0.07812305}
    - {x: 0.64062107, y: 0.07812305}
    normalizedUvs:
    - {x: 0, y: 0}
    - {x: 1, y: 0}
    - {x: 0, y: 1}
    - {x: 1, y: 1}
    indices: 000000000300000001000000020000000300000000000000
    material: {fileID: 2100000, guid: eed915fc12268a14ab4b6552a673d3d8, type: 2}
    materialId: 0
    sourceTextureGUID: b2614a7f3ffbc104b95ad1ea1dd2c883
    extractRegion: 1
    regionX: 80
    regionY: 351
    regionW: 79
    regionH: 38
    flipped: 0
    complexGeometry: 0
    physicsEngine: 0
    colliderType: 0
    customColliders: []
    colliderVertices: []
    colliderIndicesFwd: 
    colliderIndicesBack: 
    colliderConvex: 0
    colliderSmoothSphereCollisions: 0
    polygonCollider2D: []
    edgeCollider2D: []
    attachPoints: []
  - name: tiles/2
    boundsData:
    - {x: 0.004999995, y: 0, z: 0}
    - {x: 0.78999996, y: 0.38, z: 0}
    untrimmedBoundsData:
    - {x: 0.004999995, y: 0, z: 0}
    - {x: 0.78999996, y: 0.38, z: 0}
    texelSize: {x: 0.01, y: 0.01}
    positions:
    - {x: -0.39, y: -0.19, z: 0}
    - {x: 0.39999998, y: -0.19, z: 0}
    - {x: -0.39, y: 0.19, z: 0}
    - {x: 0.39999998, y: 0.19, z: 0}
    normals: []
    tangents: []
    uvs:
    - {x: 0.65625393, y: 0.003908203}
    - {x: 0.9648398, y: 0.003908203}
    - {x: 0.65625393, y: 0.07812305}
    - {x: 0.9648398, y: 0.07812305}
    normalizedUvs:
    - {x: 0, y: 0}
    - {x: 1, y: 0}
    - {x: 0, y: 1}
    - {x: 1, y: 1}
    indices: 000000000300000001000000020000000300000000000000
    material: {fileID: 2100000, guid: eed915fc12268a14ab4b6552a673d3d8, type: 2}
    materialId: 0
    sourceTextureGUID: b2614a7f3ffbc104b95ad1ea1dd2c883
    extractRegion: 1
    regionX: 160
    regionY: 351
    regionW: 79
    regionH: 38
    flipped: 0
    complexGeometry: 0
    physicsEngine: 0
    colliderType: 0
    customColliders: []
    colliderVertices: []
    colliderIndicesFwd: 
    colliderIndicesBack: 
    colliderConvex: 0
    colliderSmoothSphereCollisions: 0
    polygonCollider2D: []
    edgeCollider2D: []
    attachPoints: []
  - name: tiles/3
    boundsData:
    - {x: -0.000000014901161, y: 0, z: 0}
    - {x: 0.78, y: 0.38, z: 0}
    untrimmedBoundsData:
    - {x: 0.004999995, y: 0, z: 0}
    - {x: 0.78999996, y: 0.38, z: 0}
    texelSize: {x: 0.01, y: 0.01}
    positions:
    - {x: -0.39, y: -0.19, z: 0}
    - {x: 0.38999996, y: -0.19, z: 0}
    - {x: -0.39, y: 0.19, z: 0}
    - {x: 0.38999996, y: 0.19, z: 0}
    normals: []
    tangents: []
    uvs:
    - {x: 0.65625393, y: 0.33203322}
    - {x: 0.96093357, y: 0.33203322}
    - {x: 0.65625393, y: 0.40624803}
    - {x: 0.96093357, y: 0.40624803}
    normalizedUvs:
    - {x: 0, y: 0}
    - {x: 1, y: 0}
    - {x: 0, y: 1}
    - {x: 1, y: 1}
    indices: 000000000300000001000000020000000300000000000000
    material: {fileID: 2100000, guid: eed915fc12268a14ab4b6552a673d3d8, type: 2}
    materialId: 0
    sourceTextureGUID: b2614a7f3ffbc104b95ad1ea1dd2c883
    extractRegion: 1
    regionX: 240
    regionY: 351
    regionW: 79
    regionH: 38
    flipped: 0
    complexGeometry: 0
    physicsEngine: 0
    colliderType: 0
    customColliders: []
    colliderVertices: []
    colliderIndicesFwd: 
    colliderIndicesBack: 
    colliderConvex: 0
    colliderSmoothSphereCollisions: 0
    polygonCollider2D: []
    edgeCollider2D: []
    attachPoints: []
  - name: tiles/4
    boundsData:
    - {x: 0.004999995, y: 0.0050000036, z: 0}
    - {x: 0.010000007, y: 0.010000007, z: 0}
    untrimmedBoundsData:
    - {x: 0.004999995, y: 0, z: 0}
    - {x: 0.78999996, y: 0.38, z: 0}
    texelSize: {x: 0.01, y: 0.01}
    positions:
    - {x: -0.00000000869926, y: 0, z: 0}
    - {x: 0.009999999, y: 0, z: 0}
    - {x: -0.00000000869926, y: 0.010000007, z: 0}
    - {x: 0.009999999, y: 0.010000007, z: 0}
    normals: []
    tangents: []
    uvs:
    - {x: 0.9804727, y: 0.003908203}
    - {x: 0.96874607, y: 0.003908203}
    - {x: 0.9804727, y: -0.0019550782}
    - {x: 0.96874607, y: -0.0019550782}
    normalizedUvs:
    - {x: 1, y: 1}
    - {x: 0, y: 1}
    - {x: 1, y: 0}
    - {x: 0, y: 0}
    indices: 000000000300000001000000020000000300000000000000
    material: {fileID: 2100000, guid: eed915fc12268a14ab4b6552a673d3d8, type: 2}
    materialId: 0
    sourceTextureGUID: b2614a7f3ffbc104b95ad1ea1dd2c883
    extractRegion: 1
    regionX: 320
    regionY: 351
    regionW: 79
    regionH: 38
    flipped: 0
    complexGeometry: 0
    physicsEngine: 0
    colliderType: 0
    customColliders: []
    colliderVertices: []
    colliderIndicesFwd: 
    colliderIndicesBack: 
    colliderConvex: 0
    colliderSmoothSphereCollisions: 0
    polygonCollider2D: []
    edgeCollider2D: []
    attachPoints: []
  - name: tiles/5
    boundsData:
    - {x: 0.004999995, y: 0.0050000036, z: 0}
    - {x: 0.010000007, y: 0.010000007, z: 0}
    untrimmedBoundsData:
    - {x: 0.004999995, y: 0, z: 0}
    - {x: 0.78999996, y: 0.38, z: 0}
    texelSize: {x: 0.01, y: 0.01}
    positions:
    - {x: -0.00000000869926, y: 0, z: 0}
    - {x: 0.009999999, y: 0, z: 0}
    - {x: -0.00000000869926, y: 0.010000007, z: 0}
    - {x: 0.009999999, y: 0.010000007, z: 0}
    normals: []
    tangents: []
    uvs:
    - {x: 0.9804727, y: 0.003908203}
    - {x: 0.96874607, y: 0.003908203}
    - {x: 0.9804727, y: -0.0019550782}
    - {x: 0.96874607, y: -0.0019550782}
    normalizedUvs:
    - {x: 1, y: 1}
    - {x: 0, y: 1}
    - {x: 1, y: 0}
    - {x: 0, y: 0}
    indices: 000000000300000001000000020000000300000000000000
    material: {fileID: 2100000, guid: eed915fc12268a14ab4b6552a673d3d8, type: 2}
    materialId: 0
    sourceTextureGUID: b2614a7f3ffbc104b95ad1ea1dd2c883
    extractRegion: 1
    regionX: 400
    regionY: 351
    regionW: 79
    regionH: 38
    flipped: 0
    complexGeometry: 0
    physicsEngine: 0
    colliderType: 0
    customColliders: []
    colliderVertices: []
    colliderIndicesFwd: 
    colliderIndicesBack: 
    colliderConvex: 0
    colliderSmoothSphereCollisions: 0
    polygonCollider2D: []
    edgeCollider2D: []
    attachPoints: []
  - name: tiles/6
    boundsData:
    - {x: 0.004999995, y: 0.0050000036, z: 0}
    - {x: 0.010000007, y: 0.010000007, z: 0}
    untrimmedBoundsData:
    - {x: 0.004999995, y: 0, z: 0}
    - {x: 0.78999996, y: 0.38, z: 0}
    texelSize: {x: 0.01, y: 0.01}
    positions:
    - {x: -0.00000000869926, y: 0, z: 0}
    - {x: 0.009999999, y: 0, z: 0}
    - {x: -0.00000000869926, y: 0.010000007, z: 0}
    - {x: 0.009999999, y: 0.010000007, z: 0}
    normals: []
    tangents: []
    uvs:
    - {x: 0.9804727, y: 0.003908203}
    - {x: 0.96874607, y: 0.003908203}
    - {x: 0.9804727, y: -0.0019550782}
    - {x: 0.96874607, y: -0.0019550782}
    normalizedUvs:
    - {x: 1, y: 1}
    - {x: 0, y: 1}
    - {x: 1, y: 0}
    - {x: 0, y: 0}
    indices: 000000000300000001000000020000000300000000000000
    material: {fileID: 2100000, guid: eed915fc12268a14ab4b6552a673d3d8, type: 2}
    materialId: 0
    sourceTextureGUID: b2614a7f3ffbc104b95ad1ea1dd2c883
    extractRegion: 1
    regionX: 0
    regionY: 312
    regionW: 79
    regionH: 38
    flipped: 0
    complexGeometry: 0
    physicsEngine: 0
    colliderType: 0
    customColliders: []
    colliderVertices: []
    colliderIndicesFwd: 
    colliderIndicesBack: 
    colliderConvex: 0
    colliderSmoothSphereCollisions: 0
    polygonCollider2D: []
    edgeCollider2D: []
    attachPoints: []
  - name: tiles/7
    boundsData:
    - {x: 0.004999995, y: 0.0050000036, z: 0}
    - {x: 0.010000007, y: 0.010000007, z: 0}
    untrimmedBoundsData:
    - {x: 0.004999995, y: 0, z: 0}
    - {x: 0.78999996, y: 0.38, z: 0}
    texelSize: {x: 0.01, y: 0.01}
    positions:
    - {x: -0.00000000869926, y: 0, z: 0}
    - {x: 0.009999999, y: 0, z: 0}
    - {x: -0.00000000869926, y: 0.010000007, z: 0}
    - {x: 0.009999999, y: 0.010000007, z: 0}
    normals: []
    tangents: []
    uvs:
    - {x: 0.9804727, y: 0.003908203}
    - {x: 0.96874607, y: 0.003908203}
    - {x: 0.9804727, y: -0.0019550782}
    - {x: 0.96874607, y: -0.0019550782}
    normalizedUvs:
    - {x: 1, y: 1}
    - {x: 0, y: 1}
    - {x: 1, y: 0}
    - {x: 0, y: 0}
    indices: 000000000300000001000000020000000300000000000000
    material: {fileID: 2100000, guid: eed915fc12268a14ab4b6552a673d3d8, type: 2}
    materialId: 0
    sourceTextureGUID: b2614a7f3ffbc104b95ad1ea1dd2c883
    extractRegion: 1
    regionX: 80
    regionY: 312
    regionW: 79
    regionH: 38
    flipped: 0
    complexGeometry: 0
    physicsEngine: 0
    colliderType: 0
    customColliders: []
    colliderVertices: []
    colliderIndicesFwd: 
    colliderIndicesBack: 
    colliderConvex: 0
    colliderSmoothSphereCollisions: 0
    polygonCollider2D: []
    edgeCollider2D: []
    attachPoints: []
  - name: tiles/8
    boundsData:
    - {x: 0.004999995, y: 0.0050000036, z: 0}
    - {x: 0.010000007, y: 0.010000007, z: 0}
    untrimmedBoundsData:
    - {x: 0.004999995, y: 0, z: 0}
    - {x: 0.78999996, y: 0.38, z: 0}
    texelSize: {x: 0.01, y: 0.01}
    positions:
    - {x: -0.00000000869926, y: 0, z: 0}
    - {x: 0.009999999, y: 0, z: 0}
    - {x: -0.00000000869926, y: 0.010000007, z: 0}
    - {x: 0.009999999, y: 0.010000007, z: 0}
    normals: []
    tangents: []
    uvs:
    - {x: 0.9804727, y: 0.003908203}
    - {x: 0.96874607, y: 0.003908203}
    - {x: 0.9804727, y: -0.0019550782}
    - {x: 0.96874607, y: -0.0019550782}
    normalizedUvs:
    - {x: 1, y: 1}
    - {x: 0, y: 1}
    - {x: 1, y: 0}
    - {x: 0, y: 0}
    indices: 000000000300000001000000020000000300000000000000
    material: {fileID: 2100000, guid: eed915fc12268a14ab4b6552a673d3d8, type: 2}
    materialId: 0
    sourceTextureGUID: b2614a7f3ffbc104b95ad1ea1dd2c883
    extractRegion: 1
    regionX: 160
    regionY: 312
    regionW: 79
    regionH: 38
    flipped: 0
    complexGeometry: 0
    physicsEngine: 0
    colliderType: 0
    customColliders: []
    colliderVertices: []
    colliderIndicesFwd: 
    colliderIndicesBack: 
    colliderConvex: 0
    colliderSmoothSphereCollisions: 0
    polygonCollider2D: []
    edgeCollider2D: []
    attachPoints: []
  - name: tiles/9
    boundsData:
    - {x: 0.004999995, y: 0.0050000036, z: 0}
    - {x: 0.010000007, y: 0.010000007, z: 0}
    untrimmedBoundsData:
    - {x: 0.004999995, y: 0, z: 0}
    - {x: 0.78999996, y: 0.38, z: 0}
    texelSize: {x: 0.01, y: 0.01}
    positions:
    - {x: -0.00000000869926, y: 0, z: 0}
    - {x: 0.009999999, y: 0, z: 0}
    - {x: -0.00000000869926, y: 0.010000007, z: 0}
    - {x: 0.009999999, y: 0.010000007, z: 0}
    normals: []
    tangents: []
    uvs:
    - {x: 0.9804727, y: 0.003908203}
    - {x: 0.96874607, y: 0.003908203}
    - {x: 0.9804727, y: -0.0019550782}
    - {x: 0.96874607, y: -0.0019550782}
    normalizedUvs:
    - {x: 1, y: 1}
    - {x: 0, y: 1}
    - {x: 1, y: 0}
    - {x: 0, y: 0}
    indices: 000000000300000001000000020000000300000000000000
    material: {fileID: 2100000, guid: eed915fc12268a14ab4b6552a673d3d8, type: 2}
    materialId: 0
    sourceTextureGUID: b2614a7f3ffbc104b95ad1ea1dd2c883
    extractRegion: 1
    regionX: 240
    regionY: 312
    regionW: 79
    regionH: 38
    flipped: 0
    complexGeometry: 0
    physicsEngine: 0
    colliderType: 0
    customColliders: []
    colliderVertices: []
    colliderIndicesFwd: 
    colliderIndicesBack: 
    colliderConvex: 0
    colliderSmoothSphereCollisions: 0
    polygonCollider2D: []
    edgeCollider2D: []
    attachPoints: []
  - name: tiles/10
    boundsData:
    - {x: 0.004999995, y: 0.0050000036, z: 0}
    - {x: 0.010000007, y: 0.010000007, z: 0}
    untrimmedBoundsData:
    - {x: 0.004999995, y: 0, z: 0}
    - {x: 0.78999996, y: 0.38, z: 0}
    texelSize: {x: 0.01, y: 0.01}
    positions:
    - {x: -0.00000000869926, y: 0, z: 0}
    - {x: 0.009999999, y: 0, z: 0}
    - {x: -0.00000000869926, y: 0.010000007, z: 0}
    - {x: 0.009999999, y: 0.010000007, z: 0}
    normals: []
    tangents: []
    uvs:
    - {x: 0.9804727, y: 0.003908203}
    - {x: 0.96874607, y: 0.003908203}
    - {x: 0.9804727, y: -0.0019550782}
    - {x: 0.96874607, y: -0.0019550782}
    normalizedUvs:
    - {x: 1, y: 1}
    - {x: 0, y: 1}
    - {x: 1, y: 0}
    - {x: 0, y: 0}
    indices: 000000000300000001000000020000000300000000000000
    material: {fileID: 2100000, guid: eed915fc12268a14ab4b6552a673d3d8, type: 2}
    materialId: 0
    sourceTextureGUID: b2614a7f3ffbc104b95ad1ea1dd2c883
    extractRegion: 1
    regionX: 320
    regionY: 312
    regionW: 79
    regionH: 38
    flipped: 0
    complexGeometry: 0
    physicsEngine: 0
    colliderType: 0
    customColliders: []
    colliderVertices: []
    colliderIndicesFwd: 
    colliderIndicesBack: 
    colliderConvex: 0
    colliderSmoothSphereCollisions: 0
    polygonCollider2D: []
    edgeCollider2D: []
    attachPoints: []
  - name: tiles/11
    boundsData:
    - {x: 0.004999995, y: 0.0050000036, z: 0}
    - {x: 0.010000007, y: 0.010000007, z: 0}
    untrimmedBoundsData:
    - {x: 0.004999995, y: 0, z: 0}
    - {x: 0.78999996, y: 0.38, z: 0}
    texelSize: {x: 0.01, y: 0.01}
    positions:
    - {x: -0.00000000869926, y: 0, z: 0}
    - {x: 0.009999999, y: 0, z: 0}
    - {x: -0.00000000869926, y: 0.010000007, z: 0}
    - {x: 0.009999999, y: 0.010000007, z: 0}
    normals: []
    tangents: []
    uvs:
    - {x: 0.9804727, y: 0.003908203}
    - {x: 0.96874607, y: 0.003908203}
    - {x: 0.9804727, y: -0.0019550782}
    - {x: 0.96874607, y: -0.0019550782}
    normalizedUvs:
    - {x: 1, y: 1}
    - {x: 0, y: 1}
    - {x: 1, y: 0}
    - {x: 0, y: 0}
    indices: 000000000300000001000000020000000300000000000000
    material: {fileID: 2100000, guid: eed915fc12268a14ab4b6552a673d3d8, type: 2}
    materialId: 0
    sourceTextureGUID: b2614a7f3ffbc104b95ad1ea1dd2c883
    extractRegion: 1
    regionX: 400
    regionY: 312
    regionW: 79
    regionH: 38
    flipped: 0
    complexGeometry: 0
    physicsEngine: 0
    colliderType: 0
    customColliders: []
    colliderVertices: []
    colliderIndicesFwd: 
    colliderIndicesBack: 
    colliderConvex: 0
    colliderSmoothSphereCollisions: 0
    polygonCollider2D: []
    edgeCollider2D: []
    attachPoints: []
  - name: tiles/12
    boundsData:
    - {x: 0.004999995, y: 0.0050000036, z: 0}
    - {x: 0.010000007, y: 0.010000007, z: 0}
    untrimmedBoundsData:
    - {x: 0.004999995, y: 0, z: 0}
    - {x: 0.78999996, y: 0.38, z: 0}
    texelSize: {x: 0.01, y: 0.01}
    positions:
    - {x: -0.00000000869926, y: 0, z: 0}
    - {x: 0.009999999, y: 0, z: 0}
    - {x: -0.00000000869926, y: 0.010000007, z: 0}
    - {x: 0.009999999, y: 0.010000007, z: 0}
    normals: []
    tangents: []
    uvs:
    - {x: 0.9804727, y: 0.003908203}
    - {x: 0.96874607, y: 0.003908203}
    - {x: 0.9804727, y: -0.0019550782}
    - {x: 0.96874607, y: -0.0019550782}
    normalizedUvs:
    - {x: 1, y: 1}
    - {x: 0, y: 1}
    - {x: 1, y: 0}
    - {x: 0, y: 0}
    indices: 000000000300000001000000020000000300000000000000
    material: {fileID: 2100000, guid: eed915fc12268a14ab4b6552a673d3d8, type: 2}
    materialId: 0
    sourceTextureGUID: b2614a7f3ffbc104b95ad1ea1dd2c883
    extractRegion: 1
    regionX: 0
    regionY: 273
    regionW: 79
    regionH: 38
    flipped: 0
    complexGeometry: 0
    physicsEngine: 0
    colliderType: 0
    customColliders: []
    colliderVertices: []
    colliderIndicesFwd: 
    colliderIndicesBack: 
    colliderConvex: 0
    colliderSmoothSphereCollisions: 0
    polygonCollider2D: []
    edgeCollider2D: []
    attachPoints: []
  - name: tiles/13
    boundsData:
    - {x: 0.004999995, y: 0.0050000036, z: 0}
    - {x: 0.010000007, y: 0.010000007, z: 0}
    untrimmedBoundsData:
    - {x: 0.004999995, y: 0, z: 0}
    - {x: 0.78999996, y: 0.38, z: 0}
    texelSize: {x: 0.01, y: 0.01}
    positions:
    - {x: -0.00000000869926, y: 0, z: 0}
    - {x: 0.009999999, y: 0, z: 0}
    - {x: -0.00000000869926, y: 0.010000007, z: 0}
    - {x: 0.009999999, y: 0.010000007, z: 0}
    normals: []
    tangents: []
    uvs:
    - {x: 0.9804727, y: 0.003908203}
    - {x: 0.96874607, y: 0.003908203}
    - {x: 0.9804727, y: -0.0019550782}
    - {x: 0.96874607, y: -0.0019550782}
    normalizedUvs:
    - {x: 1, y: 1}
    - {x: 0, y: 1}
    - {x: 1, y: 0}
    - {x: 0, y: 0}
    indices: 000000000300000001000000020000000300000000000000
    material: {fileID: 2100000, guid: eed915fc12268a14ab4b6552a673d3d8, type: 2}
    materialId: 0
    sourceTextureGUID: b2614a7f3ffbc104b95ad1ea1dd2c883
    extractRegion: 1
    regionX: 80
    regionY: 273
    regionW: 79
    regionH: 38
    flipped: 0
    complexGeometry: 0
    physicsEngine: 0
    colliderType: 0
    customColliders: []
    colliderVertices: []
    colliderIndicesFwd: 
    colliderIndicesBack: 
    colliderConvex: 0
    colliderSmoothSphereCollisions: 0
    polygonCollider2D: []
    edgeCollider2D: []
    attachPoints: []
  - name: tiles/14
    boundsData:
    - {x: 0.004999995, y: 0.0050000036, z: 0}
    - {x: 0.010000007, y: 0.010000007, z: 0}
    untrimmedBoundsData:
    - {x: 0.004999995, y: 0, z: 0}
    - {x: 0.78999996, y: 0.38, z: 0}
    texelSize: {x: 0.01, y: 0.01}
    positions:
    - {x: -0.00000000869926, y: 0, z: 0}
    - {x: 0.009999999, y: 0, z: 0}
    - {x: -0.00000000869926, y: 0.010000007, z: 0}
    - {x: 0.009999999, y: 0.010000007, z: 0}
    normals: []
    tangents: []
    uvs:
    - {x: 0.9804727, y: 0.003908203}
    - {x: 0.96874607, y: 0.003908203}
    - {x: 0.9804727, y: -0.0019550782}
    - {x: 0.96874607, y: -0.0019550782}
    normalizedUvs:
    - {x: 1, y: 1}
    - {x: 0, y: 1}
    - {x: 1, y: 0}
    - {x: 0, y: 0}
    indices: 000000000300000001000000020000000300000000000000
    material: {fileID: 2100000, guid: eed915fc12268a14ab4b6552a673d3d8, type: 2}
    materialId: 0
    sourceTextureGUID: b2614a7f3ffbc104b95ad1ea1dd2c883
    extractRegion: 1
    regionX: 160
    regionY: 273
    regionW: 79
    regionH: 38
    flipped: 0
    complexGeometry: 0
    physicsEngine: 0
    colliderType: 0
    customColliders: []
    colliderVertices: []
    colliderIndicesFwd: 
    colliderIndicesBack: 
    colliderConvex: 0
    colliderSmoothSphereCollisions: 0
    polygonCollider2D: []
    edgeCollider2D: []
    attachPoints: []
  - name: tiles/15
    boundsData:
    - {x: 0.004999995, y: 0.0050000036, z: 0}
    - {x: 0.010000007, y: 0.010000007, z: 0}
    untrimmedBoundsData:
    - {x: 0.004999995, y: 0, z: 0}
    - {x: 0.78999996, y: 0.38, z: 0}
    texelSize: {x: 0.01, y: 0.01}
    positions:
    - {x: -0.00000000869926, y: 0, z: 0}
    - {x: 0.009999999, y: 0, z: 0}
    - {x: -0.00000000869926, y: 0.010000007, z: 0}
    - {x: 0.009999999, y: 0.010000007, z: 0}
    normals: []
    tangents: []
    uvs:
    - {x: 0.9804727, y: 0.003908203}
    - {x: 0.96874607, y: 0.003908203}
    - {x: 0.9804727, y: -0.0019550782}
    - {x: 0.96874607, y: -0.0019550782}
    normalizedUvs:
    - {x: 1, y: 1}
    - {x: 0, y: 1}
    - {x: 1, y: 0}
    - {x: 0, y: 0}
    indices: 000000000300000001000000020000000300000000000000
    material: {fileID: 2100000, guid: eed915fc12268a14ab4b6552a673d3d8, type: 2}
    materialId: 0
    sourceTextureGUID: b2614a7f3ffbc104b95ad1ea1dd2c883
    extractRegion: 1
    regionX: 240
    regionY: 273
    regionW: 79
    regionH: 38
    flipped: 0
    complexGeometry: 0
    physicsEngine: 0
    colliderType: 0
    customColliders: []
    colliderVertices: []
    colliderIndicesFwd: 
    colliderIndicesBack: 
    colliderConvex: 0
    colliderSmoothSphereCollisions: 0
    polygonCollider2D: []
    edgeCollider2D: []
    attachPoints: []
  - name: tiles/16
    boundsData:
    - {x: 0.004999995, y: 0.0050000036, z: 0}
    - {x: 0.010000007, y: 0.010000007, z: 0}
    untrimmedBoundsData:
    - {x: 0.004999995, y: 0, z: 0}
    - {x: 0.78999996, y: 0.38, z: 0}
    texelSize: {x: 0.01, y: 0.01}
    positions:
    - {x: -0.00000000869926, y: 0, z: 0}
    - {x: 0.009999999, y: 0, z: 0}
    - {x: -0.00000000869926, y: 0.010000007, z: 0}
    - {x: 0.009999999, y: 0.010000007, z: 0}
    normals: []
    tangents: []
    uvs:
    - {x: 0.9804727, y: 0.003908203}
    - {x: 0.96874607, y: 0.003908203}
    - {x: 0.9804727, y: -0.0019550782}
    - {x: 0.96874607, y: -0.0019550782}
    normalizedUvs:
    - {x: 1, y: 1}
    - {x: 0, y: 1}
    - {x: 1, y: 0}
    - {x: 0, y: 0}
    indices: 000000000300000001000000020000000300000000000000
    material: {fileID: 2100000, guid: eed915fc12268a14ab4b6552a673d3d8, type: 2}
    materialId: 0
    sourceTextureGUID: b2614a7f3ffbc104b95ad1ea1dd2c883
    extractRegion: 1
    regionX: 320
    regionY: 273
    regionW: 79
    regionH: 38
    flipped: 0
    complexGeometry: 0
    physicsEngine: 0
    colliderType: 0
    customColliders: []
    colliderVertices: []
    colliderIndicesFwd: 
    colliderIndicesBack: 
    colliderConvex: 0
    colliderSmoothSphereCollisions: 0
    polygonCollider2D: []
    edgeCollider2D: []
    attachPoints: []
  - name: tiles/17
    boundsData:
    - {x: 0.004999995, y: 0.0050000036, z: 0}
    - {x: 0.010000007, y: 0.010000007, z: 0}
    untrimmedBoundsData:
    - {x: 0.004999995, y: 0, z: 0}
    - {x: 0.78999996, y: 0.38, z: 0}
    texelSize: {x: 0.01, y: 0.01}
    positions:
    - {x: -0.00000000869926, y: 0, z: 0}
    - {x: 0.009999999, y: 0, z: 0}
    - {x: -0.00000000869926, y: 0.010000007, z: 0}
    - {x: 0.009999999, y: 0.010000007, z: 0}
    normals: []
    tangents: []
    uvs:
    - {x: 0.9804727, y: 0.003908203}
    - {x: 0.96874607, y: 0.003908203}
    - {x: 0.9804727, y: -0.0019550782}
    - {x: 0.96874607, y: -0.0019550782}
    normalizedUvs:
    - {x: 1, y: 1}
    - {x: 0, y: 1}
    - {x: 1, y: 0}
    - {x: 0, y: 0}
    indices: 000000000300000001000000020000000300000000000000
    material: {fileID: 2100000, guid: eed915fc12268a14ab4b6552a673d3d8, type: 2}
    materialId: 0
    sourceTextureGUID: b2614a7f3ffbc104b95ad1ea1dd2c883
    extractRegion: 1
    regionX: 400
    regionY: 273
    regionW: 79
    regionH: 38
    flipped: 0
    complexGeometry: 0
    physicsEngine: 0
    colliderType: 0
    customColliders: []
    colliderVertices: []
    colliderIndicesFwd: 
    colliderIndicesBack: 
    colliderConvex: 0
    colliderSmoothSphereCollisions: 0
    polygonCollider2D: []
    edgeCollider2D: []
    attachPoints: []
  - name: tiles/18
    boundsData:
    - {x: 0.004999995, y: 0, z: 0}
    - {x: 0.78999996, y: 0.38, z: 0}
    untrimmedBoundsData:
    - {x: 0.004999995, y: 0, z: 0}
    - {x: 0.78999996, y: 0.38, z: 0}
    texelSize: {x: 0.01, y: 0.01}
    positions:
    - {x: -0.39, y: -0.19, z: 0}
    - {x: 0.39999998, y: -0.19, z: 0}
    - {x: -0.39, y: 0.19, z: 0}
    - {x: 0.39999998, y: 0.19, z: 0}
    normals: []
    tangents: []
    uvs:
    - {x: 0.007816406, y: 0.08593945}
    - {x: 0.31640235, y: 0.08593945}
    - {x: 0.007816406, y: 0.1601543}
    - {x: 0.31640235, y: 0.1601543}
    normalizedUvs:
    - {x: 0, y: 0}
    - {x: 1, y: 0}
    - {x: 0, y: 1}
    - {x: 1, y: 1}
    indices: 000000000300000001000000020000000300000000000000
    material: {fileID: 2100000, guid: eed915fc12268a14ab4b6552a673d3d8, type: 2}
    materialId: 0
    sourceTextureGUID: b2614a7f3ffbc104b95ad1ea1dd2c883
    extractRegion: 1
    regionX: 0
    regionY: 234
    regionW: 79
    regionH: 38
    flipped: 0
    complexGeometry: 0
    physicsEngine: 0
    colliderType: 0
    customColliders: []
    colliderVertices: []
    colliderIndicesFwd: 
    colliderIndicesBack: 
    colliderConvex: 0
    colliderSmoothSphereCollisions: 0
    polygonCollider2D: []
    edgeCollider2D: []
    attachPoints: []
  - name: tiles/19
    boundsData:
    - {x: 0.004999995, y: 0, z: 0}
    - {x: 0.78999996, y: 0.38, z: 0}
    untrimmedBoundsData:
    - {x: 0.004999995, y: 0, z: 0}
    - {x: 0.78999996, y: 0.38, z: 0}
    texelSize: {x: 0.01, y: 0.01}
    positions:
    - {x: -0.39, y: -0.19, z: 0}
    - {x: 0.39999998, y: -0.19, z: 0}
    - {x: -0.39, y: 0.19, z: 0}
    - {x: 0.39999998, y: 0.19, z: 0}
    normals: []
    tangents: []
    uvs:
    - {x: 0.33203515, y: 0.08593945}
    - {x: 0.64062107, y: 0.08593945}
    - {x: 0.33203515, y: 0.1601543}
    - {x: 0.64062107, y: 0.1601543}
    normalizedUvs:
    - {x: 0, y: 0}
    - {x: 1, y: 0}
    - {x: 0, y: 1}
    - {x: 1, y: 1}
    indices: 000000000300000001000000020000000300000000000000
    material: {fileID: 2100000, guid: eed915fc12268a14ab4b6552a673d3d8, type: 2}
    materialId: 0
    sourceTextureGUID: b2614a7f3ffbc104b95ad1ea1dd2c883
    extractRegion: 1
    regionX: 80
    regionY: 234
    regionW: 79
    regionH: 38
    flipped: 0
    complexGeometry: 0
    physicsEngine: 0
    colliderType: 0
    customColliders: []
    colliderVertices: []
    colliderIndicesFwd: 
    colliderIndicesBack: 
    colliderConvex: 0
    colliderSmoothSphereCollisions: 0
    polygonCollider2D: []
    edgeCollider2D: []
    attachPoints: []
  - name: tiles/20
    boundsData:
    - {x: 0.004999995, y: 0, z: 0}
    - {x: 0.78999996, y: 0.38, z: 0}
    untrimmedBoundsData:
    - {x: 0.004999995, y: 0, z: 0}
    - {x: 0.78999996, y: 0.38, z: 0}
    texelSize: {x: 0.01, y: 0.01}
    positions:
    - {x: -0.39, y: -0.19, z: 0}
    - {x: 0.39999998, y: -0.19, z: 0}
    - {x: -0.39, y: 0.19, z: 0}
    - {x: 0.39999998, y: 0.19, z: 0}
    normals: []
    tangents: []
    uvs:
    - {x: 0.65625393, y: 0.08593945}
    - {x: 0.9648398, y: 0.08593945}
    - {x: 0.65625393, y: 0.1601543}
    - {x: 0.9648398, y: 0.1601543}
    normalizedUvs:
    - {x: 0, y: 0}
    - {x: 1, y: 0}
    - {x: 0, y: 1}
    - {x: 1, y: 1}
    indices: 000000000300000001000000020000000300000000000000
    material: {fileID: 2100000, guid: eed915fc12268a14ab4b6552a673d3d8, type: 2}
    materialId: 0
    sourceTextureGUID: b2614a7f3ffbc104b95ad1ea1dd2c883
    extractRegion: 1
    regionX: 160
    regionY: 234
    regionW: 79
    regionH: 38
    flipped: 0
    complexGeometry: 0
    physicsEngine: 0
    colliderType: 0
    customColliders: []
    colliderVertices: []
    colliderIndicesFwd: 
    colliderIndicesBack: 
    colliderConvex: 0
    colliderSmoothSphereCollisions: 0
    polygonCollider2D: []
    edgeCollider2D: []
    attachPoints: []
  - name: tiles/21
    boundsData:
    - {x: 0.004999995, y: 0.0050000036, z: 0}
    - {x: 0.010000007, y: 0.010000007, z: 0}
    untrimmedBoundsData:
    - {x: 0.004999995, y: 0, z: 0}
    - {x: 0.78999996, y: 0.38, z: 0}
    texelSize: {x: 0.01, y: 0.01}
    positions:
    - {x: -0.00000000869926, y: 0, z: 0}
    - {x: 0.009999999, y: 0, z: 0}
    - {x: -0.00000000869926, y: 0.010000007, z: 0}
    - {x: 0.009999999, y: 0.010000007, z: 0}
    normals: []
    tangents: []
    uvs:
    - {x: 0.9804727, y: 0.003908203}
    - {x: 0.96874607, y: 0.003908203}
    - {x: 0.9804727, y: -0.0019550782}
    - {x: 0.96874607, y: -0.0019550782}
    normalizedUvs:
    - {x: 1, y: 1}
    - {x: 0, y: 1}
    - {x: 1, y: 0}
    - {x: 0, y: 0}
    indices: 000000000300000001000000020000000300000000000000
    material: {fileID: 2100000, guid: eed915fc12268a14ab4b6552a673d3d8, type: 2}
    materialId: 0
    sourceTextureGUID: b2614a7f3ffbc104b95ad1ea1dd2c883
    extractRegion: 1
    regionX: 240
    regionY: 234
    regionW: 79
    regionH: 38
    flipped: 0
    complexGeometry: 0
    physicsEngine: 0
    colliderType: 0
    customColliders: []
    colliderVertices: []
    colliderIndicesFwd: 
    colliderIndicesBack: 
    colliderConvex: 0
    colliderSmoothSphereCollisions: 0
    polygonCollider2D: []
    edgeCollider2D: []
    attachPoints: []
  - name: tiles/22
    boundsData:
    - {x: 0.004999995, y: 0.0050000036, z: 0}
    - {x: 0.010000007, y: 0.010000007, z: 0}
    untrimmedBoundsData:
    - {x: 0.004999995, y: 0, z: 0}
    - {x: 0.78999996, y: 0.38, z: 0}
    texelSize: {x: 0.01, y: 0.01}
    positions:
    - {x: -0.00000000869926, y: 0, z: 0}
    - {x: 0.009999999, y: 0, z: 0}
    - {x: -0.00000000869926, y: 0.010000007, z: 0}
    - {x: 0.009999999, y: 0.010000007, z: 0}
    normals: []
    tangents: []
    uvs:
    - {x: 0.9804727, y: 0.003908203}
    - {x: 0.96874607, y: 0.003908203}
    - {x: 0.9804727, y: -0.0019550782}
    - {x: 0.96874607, y: -0.0019550782}
    normalizedUvs:
    - {x: 1, y: 1}
    - {x: 0, y: 1}
    - {x: 1, y: 0}
    - {x: 0, y: 0}
    indices: 000000000300000001000000020000000300000000000000
    material: {fileID: 2100000, guid: eed915fc12268a14ab4b6552a673d3d8, type: 2}
    materialId: 0
    sourceTextureGUID: b2614a7f3ffbc104b95ad1ea1dd2c883
    extractRegion: 1
    regionX: 320
    regionY: 234
    regionW: 79
    regionH: 38
    flipped: 0
    complexGeometry: 0
    physicsEngine: 0
    colliderType: 0
    customColliders: []
    colliderVertices: []
    colliderIndicesFwd: 
    colliderIndicesBack: 
    colliderConvex: 0
    colliderSmoothSphereCollisions: 0
    polygonCollider2D: []
    edgeCollider2D: []
    attachPoints: []
  - name: tiles/23
    boundsData:
    - {x: 0.004999995, y: 0.0050000036, z: 0}
    - {x: 0.010000007, y: 0.010000007, z: 0}
    untrimmedBoundsData:
    - {x: 0.004999995, y: 0, z: 0}
    - {x: 0.78999996, y: 0.38, z: 0}
    texelSize: {x: 0.01, y: 0.01}
    positions:
    - {x: -0.00000000869926, y: 0, z: 0}
    - {x: 0.009999999, y: 0, z: 0}
    - {x: -0.00000000869926, y: 0.010000007, z: 0}
    - {x: 0.009999999, y: 0.010000007, z: 0}
    normals: []
    tangents: []
    uvs:
    - {x: 0.9804727, y: 0.003908203}
    - {x: 0.96874607, y: 0.003908203}
    - {x: 0.9804727, y: -0.0019550782}
    - {x: 0.96874607, y: -0.0019550782}
    normalizedUvs:
    - {x: 1, y: 1}
    - {x: 0, y: 1}
    - {x: 1, y: 0}
    - {x: 0, y: 0}
    indices: 000000000300000001000000020000000300000000000000
    material: {fileID: 2100000, guid: eed915fc12268a14ab4b6552a673d3d8, type: 2}
    materialId: 0
    sourceTextureGUID: b2614a7f3ffbc104b95ad1ea1dd2c883
    extractRegion: 1
    regionX: 400
    regionY: 234
    regionW: 79
    regionH: 38
    flipped: 0
    complexGeometry: 0
    physicsEngine: 0
    colliderType: 0
    customColliders: []
    colliderVertices: []
    colliderIndicesFwd: 
    colliderIndicesBack: 
    colliderConvex: 0
    colliderSmoothSphereCollisions: 0
    polygonCollider2D: []
    edgeCollider2D: []
    attachPoints: []
  - name: tiles/24
    boundsData:
    - {x: 0.004999995, y: 0.0050000036, z: 0}
    - {x: 0.010000007, y: 0.010000007, z: 0}
    untrimmedBoundsData:
    - {x: 0.004999995, y: 0, z: 0}
    - {x: 0.78999996, y: 0.38, z: 0}
    texelSize: {x: 0.01, y: 0.01}
    positions:
    - {x: -0.00000000869926, y: 0, z: 0}
    - {x: 0.009999999, y: 0, z: 0}
    - {x: -0.00000000869926, y: 0.010000007, z: 0}
    - {x: 0.009999999, y: 0.010000007, z: 0}
    normals: []
    tangents: []
    uvs:
    - {x: 0.9804727, y: 0.003908203}
    - {x: 0.96874607, y: 0.003908203}
    - {x: 0.9804727, y: -0.0019550782}
    - {x: 0.96874607, y: -0.0019550782}
    normalizedUvs:
    - {x: 1, y: 1}
    - {x: 0, y: 1}
    - {x: 1, y: 0}
    - {x: 0, y: 0}
    indices: 000000000300000001000000020000000300000000000000
    material: {fileID: 2100000, guid: eed915fc12268a14ab4b6552a673d3d8, type: 2}
    materialId: 0
    sourceTextureGUID: b2614a7f3ffbc104b95ad1ea1dd2c883
    extractRegion: 1
    regionX: 0
    regionY: 195
    regionW: 79
    regionH: 38
    flipped: 0
    complexGeometry: 0
    physicsEngine: 0
    colliderType: 0
    customColliders: []
    colliderVertices: []
    colliderIndicesFwd: 
    colliderIndicesBack: 
    colliderConvex: 0
    colliderSmoothSphereCollisions: 0
    polygonCollider2D: []
    edgeCollider2D: []
    attachPoints: []
  - name: tiles/25
    boundsData:
    - {x: 0.004999995, y: 0.0050000036, z: 0}
    - {x: 0.010000007, y: 0.010000007, z: 0}
    untrimmedBoundsData:
    - {x: 0.004999995, y: 0, z: 0}
    - {x: 0.78999996, y: 0.38, z: 0}
    texelSize: {x: 0.01, y: 0.01}
    positions:
    - {x: -0.00000000869926, y: 0, z: 0}
    - {x: 0.009999999, y: 0, z: 0}
    - {x: -0.00000000869926, y: 0.010000007, z: 0}
    - {x: 0.009999999, y: 0.010000007, z: 0}
    normals: []
    tangents: []
    uvs:
    - {x: 0.9804727, y: 0.003908203}
    - {x: 0.96874607, y: 0.003908203}
    - {x: 0.9804727, y: -0.0019550782}
    - {x: 0.96874607, y: -0.0019550782}
    normalizedUvs:
    - {x: 1, y: 1}
    - {x: 0, y: 1}
    - {x: 1, y: 0}
    - {x: 0, y: 0}
    indices: 000000000300000001000000020000000300000000000000
    material: {fileID: 2100000, guid: eed915fc12268a14ab4b6552a673d3d8, type: 2}
    materialId: 0
    sourceTextureGUID: b2614a7f3ffbc104b95ad1ea1dd2c883
    extractRegion: 1
    regionX: 80
    regionY: 195
    regionW: 79
    regionH: 38
    flipped: 0
    complexGeometry: 0
    physicsEngine: 0
    colliderType: 0
    customColliders: []
    colliderVertices: []
    colliderIndicesFwd: 
    colliderIndicesBack: 
    colliderConvex: 0
    colliderSmoothSphereCollisions: 0
    polygonCollider2D: []
    edgeCollider2D: []
    attachPoints: []
  - name: tiles/26
    boundsData:
    - {x: 0.004999995, y: 0.0050000036, z: 0}
    - {x: 0.010000007, y: 0.010000007, z: 0}
    untrimmedBoundsData:
    - {x: 0.004999995, y: 0, z: 0}
    - {x: 0.78999996, y: 0.38, z: 0}
    texelSize: {x: 0.01, y: 0.01}
    positions:
    - {x: -0.00000000869926, y: 0, z: 0}
    - {x: 0.009999999, y: 0, z: 0}
    - {x: -0.00000000869926, y: 0.010000007, z: 0}
    - {x: 0.009999999, y: 0.010000007, z: 0}
    normals: []
    tangents: []
    uvs:
    - {x: 0.9804727, y: 0.003908203}
    - {x: 0.96874607, y: 0.003908203}
    - {x: 0.9804727, y: -0.0019550782}
    - {x: 0.96874607, y: -0.0019550782}
    normalizedUvs:
    - {x: 1, y: 1}
    - {x: 0, y: 1}
    - {x: 1, y: 0}
    - {x: 0, y: 0}
    indices: 000000000300000001000000020000000300000000000000
    material: {fileID: 2100000, guid: eed915fc12268a14ab4b6552a673d3d8, type: 2}
    materialId: 0
    sourceTextureGUID: b2614a7f3ffbc104b95ad1ea1dd2c883
    extractRegion: 1
    regionX: 160
    regionY: 195
    regionW: 79
    regionH: 38
    flipped: 0
    complexGeometry: 0
    physicsEngine: 0
    colliderType: 0
    customColliders: []
    colliderVertices: []
    colliderIndicesFwd: 
    colliderIndicesBack: 
    colliderConvex: 0
    colliderSmoothSphereCollisions: 0
    polygonCollider2D: []
    edgeCollider2D: []
    attachPoints: []
  - name: tiles/27
    boundsData:
    - {x: 0.004999995, y: 0.0050000036, z: 0}
    - {x: 0.010000007, y: 0.010000007, z: 0}
    untrimmedBoundsData:
    - {x: 0.004999995, y: 0, z: 0}
    - {x: 0.78999996, y: 0.38, z: 0}
    texelSize: {x: 0.01, y: 0.01}
    positions:
    - {x: -0.00000000869926, y: 0, z: 0}
    - {x: 0.009999999, y: 0, z: 0}
    - {x: -0.00000000869926, y: 0.010000007, z: 0}
    - {x: 0.009999999, y: 0.010000007, z: 0}
    normals: []
    tangents: []
    uvs:
    - {x: 0.9804727, y: 0.003908203}
    - {x: 0.96874607, y: 0.003908203}
    - {x: 0.9804727, y: -0.0019550782}
    - {x: 0.96874607, y: -0.0019550782}
    normalizedUvs:
    - {x: 1, y: 1}
    - {x: 0, y: 1}
    - {x: 1, y: 0}
    - {x: 0, y: 0}
    indices: 000000000300000001000000020000000300000000000000
    material: {fileID: 2100000, guid: eed915fc12268a14ab4b6552a673d3d8, type: 2}
    materialId: 0
    sourceTextureGUID: b2614a7f3ffbc104b95ad1ea1dd2c883
    extractRegion: 1
    regionX: 240
    regionY: 195
    regionW: 79
    regionH: 38
    flipped: 0
    complexGeometry: 0
    physicsEngine: 0
    colliderType: 0
    customColliders: []
    colliderVertices: []
    colliderIndicesFwd: 
    colliderIndicesBack: 
    colliderConvex: 0
    colliderSmoothSphereCollisions: 0
    polygonCollider2D: []
    edgeCollider2D: []
    attachPoints: []
  - name: tiles/28
    boundsData:
    - {x: 0.004999995, y: 0.0050000036, z: 0}
    - {x: 0.010000007, y: 0.010000007, z: 0}
    untrimmedBoundsData:
    - {x: 0.004999995, y: 0, z: 0}
    - {x: 0.78999996, y: 0.38, z: 0}
    texelSize: {x: 0.01, y: 0.01}
    positions:
    - {x: -0.00000000869926, y: 0, z: 0}
    - {x: 0.009999999, y: 0, z: 0}
    - {x: -0.00000000869926, y: 0.010000007, z: 0}
    - {x: 0.009999999, y: 0.010000007, z: 0}
    normals: []
    tangents: []
    uvs:
    - {x: 0.9804727, y: 0.003908203}
    - {x: 0.96874607, y: 0.003908203}
    - {x: 0.9804727, y: -0.0019550782}
    - {x: 0.96874607, y: -0.0019550782}
    normalizedUvs:
    - {x: 1, y: 1}
    - {x: 0, y: 1}
    - {x: 1, y: 0}
    - {x: 0, y: 0}
    indices: 000000000300000001000000020000000300000000000000
    material: {fileID: 2100000, guid: eed915fc12268a14ab4b6552a673d3d8, type: 2}
    materialId: 0
    sourceTextureGUID: b2614a7f3ffbc104b95ad1ea1dd2c883
    extractRegion: 1
    regionX: 320
    regionY: 195
    regionW: 79
    regionH: 38
    flipped: 0
    complexGeometry: 0
    physicsEngine: 0
    colliderType: 0
    customColliders: []
    colliderVertices: []
    colliderIndicesFwd: 
    colliderIndicesBack: 
    colliderConvex: 0
    colliderSmoothSphereCollisions: 0
    polygonCollider2D: []
    edgeCollider2D: []
    attachPoints: []
  - name: tiles/29
    boundsData:
    - {x: 0.004999995, y: 0.0050000036, z: 0}
    - {x: 0.010000007, y: 0.010000007, z: 0}
    untrimmedBoundsData:
    - {x: 0.004999995, y: 0, z: 0}
    - {x: 0.78999996, y: 0.38, z: 0}
    texelSize: {x: 0.01, y: 0.01}
    positions:
    - {x: -0.00000000869926, y: 0, z: 0}
    - {x: 0.009999999, y: 0, z: 0}
    - {x: -0.00000000869926, y: 0.010000007, z: 0}
    - {x: 0.009999999, y: 0.010000007, z: 0}
    normals: []
    tangents: []
    uvs:
    - {x: 0.9804727, y: 0.003908203}
    - {x: 0.96874607, y: 0.003908203}
    - {x: 0.9804727, y: -0.0019550782}
    - {x: 0.96874607, y: -0.0019550782}
    normalizedUvs:
    - {x: 1, y: 1}
    - {x: 0, y: 1}
    - {x: 1, y: 0}
    - {x: 0, y: 0}
    indices: 000000000300000001000000020000000300000000000000
    material: {fileID: 2100000, guid: eed915fc12268a14ab4b6552a673d3d8, type: 2}
    materialId: 0
    sourceTextureGUID: b2614a7f3ffbc104b95ad1ea1dd2c883
    extractRegion: 1
    regionX: 400
    regionY: 195
    regionW: 79
    regionH: 38
    flipped: 0
    complexGeometry: 0
    physicsEngine: 0
    colliderType: 0
    customColliders: []
    colliderVertices: []
    colliderIndicesFwd: 
    colliderIndicesBack: 
    colliderConvex: 0
    colliderSmoothSphereCollisions: 0
    polygonCollider2D: []
    edgeCollider2D: []
    attachPoints: []
  - name: tiles/30
    boundsData:
    - {x: 0.004999995, y: 0.0050000036, z: 0}
    - {x: 0.010000007, y: 0.010000007, z: 0}
    untrimmedBoundsData:
    - {x: 0.004999995, y: 0, z: 0}
    - {x: 0.78999996, y: 0.38, z: 0}
    texelSize: {x: 0.01, y: 0.01}
    positions:
    - {x: -0.00000000869926, y: 0, z: 0}
    - {x: 0.009999999, y: 0, z: 0}
    - {x: -0.00000000869926, y: 0.010000007, z: 0}
    - {x: 0.009999999, y: 0.010000007, z: 0}
    normals: []
    tangents: []
    uvs:
    - {x: 0.9804727, y: 0.003908203}
    - {x: 0.96874607, y: 0.003908203}
    - {x: 0.9804727, y: -0.0019550782}
    - {x: 0.96874607, y: -0.0019550782}
    normalizedUvs:
    - {x: 1, y: 1}
    - {x: 0, y: 1}
    - {x: 1, y: 0}
    - {x: 0, y: 0}
    indices: 000000000300000001000000020000000300000000000000
    material: {fileID: 2100000, guid: eed915fc12268a14ab4b6552a673d3d8, type: 2}
    materialId: 0
    sourceTextureGUID: b2614a7f3ffbc104b95ad1ea1dd2c883
    extractRegion: 1
    regionX: 0
    regionY: 156
    regionW: 79
    regionH: 38
    flipped: 0
    complexGeometry: 0
    physicsEngine: 0
    colliderType: 0
    customColliders: []
    colliderVertices: []
    colliderIndicesFwd: 
    colliderIndicesBack: 
    colliderConvex: 0
    colliderSmoothSphereCollisions: 0
    polygonCollider2D: []
    edgeCollider2D: []
    attachPoints: []
  - name: tiles/31
    boundsData:
    - {x: 0.004999995, y: 0.0050000036, z: 0}
    - {x: 0.010000007, y: 0.010000007, z: 0}
    untrimmedBoundsData:
    - {x: 0.004999995, y: 0, z: 0}
    - {x: 0.78999996, y: 0.38, z: 0}
    texelSize: {x: 0.01, y: 0.01}
    positions:
    - {x: -0.00000000869926, y: 0, z: 0}
    - {x: 0.009999999, y: 0, z: 0}
    - {x: -0.00000000869926, y: 0.010000007, z: 0}
    - {x: 0.009999999, y: 0.010000007, z: 0}
    normals: []
    tangents: []
    uvs:
    - {x: 0.9804727, y: 0.003908203}
    - {x: 0.96874607, y: 0.003908203}
    - {x: 0.9804727, y: -0.0019550782}
    - {x: 0.96874607, y: -0.0019550782}
    normalizedUvs:
    - {x: 1, y: 1}
    - {x: 0, y: 1}
    - {x: 1, y: 0}
    - {x: 0, y: 0}
    indices: 000000000300000001000000020000000300000000000000
    material: {fileID: 2100000, guid: eed915fc12268a14ab4b6552a673d3d8, type: 2}
    materialId: 0
    sourceTextureGUID: b2614a7f3ffbc104b95ad1ea1dd2c883
    extractRegion: 1
    regionX: 80
    regionY: 156
    regionW: 79
    regionH: 38
    flipped: 0
    complexGeometry: 0
    physicsEngine: 0
    colliderType: 0
    customColliders: []
    colliderVertices: []
    colliderIndicesFwd: 
    colliderIndicesBack: 
    colliderConvex: 0
    colliderSmoothSphereCollisions: 0
    polygonCollider2D: []
    edgeCollider2D: []
    attachPoints: []
  - name: tiles/32
    boundsData:
    - {x: 0.004999995, y: 0.0050000036, z: 0}
    - {x: 0.010000007, y: 0.010000007, z: 0}
    untrimmedBoundsData:
    - {x: 0.004999995, y: 0, z: 0}
    - {x: 0.78999996, y: 0.38, z: 0}
    texelSize: {x: 0.01, y: 0.01}
    positions:
    - {x: -0.00000000869926, y: 0, z: 0}
    - {x: 0.009999999, y: 0, z: 0}
    - {x: -0.00000000869926, y: 0.010000007, z: 0}
    - {x: 0.009999999, y: 0.010000007, z: 0}
    normals: []
    tangents: []
    uvs:
    - {x: 0.9804727, y: 0.003908203}
    - {x: 0.96874607, y: 0.003908203}
    - {x: 0.9804727, y: -0.0019550782}
    - {x: 0.96874607, y: -0.0019550782}
    normalizedUvs:
    - {x: 1, y: 1}
    - {x: 0, y: 1}
    - {x: 1, y: 0}
    - {x: 0, y: 0}
    indices: 000000000300000001000000020000000300000000000000
    material: {fileID: 2100000, guid: eed915fc12268a14ab4b6552a673d3d8, type: 2}
    materialId: 0
    sourceTextureGUID: b2614a7f3ffbc104b95ad1ea1dd2c883
    extractRegion: 1
    regionX: 160
    regionY: 156
    regionW: 79
    regionH: 38
    flipped: 0
    complexGeometry: 0
    physicsEngine: 0
    colliderType: 0
    customColliders: []
    colliderVertices: []
    colliderIndicesFwd: 
    colliderIndicesBack: 
    colliderConvex: 0
    colliderSmoothSphereCollisions: 0
    polygonCollider2D: []
    edgeCollider2D: []
    attachPoints: []
  - name: tiles/33
    boundsData:
    - {x: 0.004999995, y: 0.0050000036, z: 0}
    - {x: 0.010000007, y: 0.010000007, z: 0}
    untrimmedBoundsData:
    - {x: 0.004999995, y: 0, z: 0}
    - {x: 0.78999996, y: 0.38, z: 0}
    texelSize: {x: 0.01, y: 0.01}
    positions:
    - {x: -0.00000000869926, y: 0, z: 0}
    - {x: 0.009999999, y: 0, z: 0}
    - {x: -0.00000000869926, y: 0.010000007, z: 0}
    - {x: 0.009999999, y: 0.010000007, z: 0}
    normals: []
    tangents: []
    uvs:
    - {x: 0.9804727, y: 0.003908203}
    - {x: 0.96874607, y: 0.003908203}
    - {x: 0.9804727, y: -0.0019550782}
    - {x: 0.96874607, y: -0.0019550782}
    normalizedUvs:
    - {x: 1, y: 1}
    - {x: 0, y: 1}
    - {x: 1, y: 0}
    - {x: 0, y: 0}
    indices: 000000000300000001000000020000000300000000000000
    material: {fileID: 2100000, guid: eed915fc12268a14ab4b6552a673d3d8, type: 2}
    materialId: 0
    sourceTextureGUID: b2614a7f3ffbc104b95ad1ea1dd2c883
    extractRegion: 1
    regionX: 240
    regionY: 156
    regionW: 79
    regionH: 38
    flipped: 0
    complexGeometry: 0
    physicsEngine: 0
    colliderType: 0
    customColliders: []
    colliderVertices: []
    colliderIndicesFwd: 
    colliderIndicesBack: 
    colliderConvex: 0
    colliderSmoothSphereCollisions: 0
    polygonCollider2D: []
    edgeCollider2D: []
    attachPoints: []
  - name: tiles/34
    boundsData:
    - {x: 0.004999995, y: 0.0050000036, z: 0}
    - {x: 0.010000007, y: 0.010000007, z: 0}
    untrimmedBoundsData:
    - {x: 0.004999995, y: 0, z: 0}
    - {x: 0.78999996, y: 0.38, z: 0}
    texelSize: {x: 0.01, y: 0.01}
    positions:
    - {x: -0.00000000869926, y: 0, z: 0}
    - {x: 0.009999999, y: 0, z: 0}
    - {x: -0.00000000869926, y: 0.010000007, z: 0}
    - {x: 0.009999999, y: 0.010000007, z: 0}
    normals: []
    tangents: []
    uvs:
    - {x: 0.9804727, y: 0.003908203}
    - {x: 0.96874607, y: 0.003908203}
    - {x: 0.9804727, y: -0.0019550782}
    - {x: 0.96874607, y: -0.0019550782}
    normalizedUvs:
    - {x: 1, y: 1}
    - {x: 0, y: 1}
    - {x: 1, y: 0}
    - {x: 0, y: 0}
    indices: 000000000300000001000000020000000300000000000000
    material: {fileID: 2100000, guid: eed915fc12268a14ab4b6552a673d3d8, type: 2}
    materialId: 0
    sourceTextureGUID: b2614a7f3ffbc104b95ad1ea1dd2c883
    extractRegion: 1
    regionX: 320
    regionY: 156
    regionW: 79
    regionH: 38
    flipped: 0
    complexGeometry: 0
    physicsEngine: 0
    colliderType: 0
    customColliders: []
    colliderVertices: []
    colliderIndicesFwd: 
    colliderIndicesBack: 
    colliderConvex: 0
    colliderSmoothSphereCollisions: 0
    polygonCollider2D: []
    edgeCollider2D: []
    attachPoints: []
  - name: tiles/35
    boundsData:
    - {x: 0.004999995, y: 0.0050000036, z: 0}
    - {x: 0.010000007, y: 0.010000007, z: 0}
    untrimmedBoundsData:
    - {x: 0.004999995, y: 0, z: 0}
    - {x: 0.78999996, y: 0.38, z: 0}
    texelSize: {x: 0.01, y: 0.01}
    positions:
    - {x: -0.00000000869926, y: 0, z: 0}
    - {x: 0.009999999, y: 0, z: 0}
    - {x: -0.00000000869926, y: 0.010000007, z: 0}
    - {x: 0.009999999, y: 0.010000007, z: 0}
    normals: []
    tangents: []
    uvs:
    - {x: 0.9804727, y: 0.003908203}
    - {x: 0.96874607, y: 0.003908203}
    - {x: 0.9804727, y: -0.0019550782}
    - {x: 0.96874607, y: -0.0019550782}
    normalizedUvs:
    - {x: 1, y: 1}
    - {x: 0, y: 1}
    - {x: 1, y: 0}
    - {x: 0, y: 0}
    indices: 000000000300000001000000020000000300000000000000
    material: {fileID: 2100000, guid: eed915fc12268a14ab4b6552a673d3d8, type: 2}
    materialId: 0
    sourceTextureGUID: b2614a7f3ffbc104b95ad1ea1dd2c883
    extractRegion: 1
    regionX: 400
    regionY: 156
    regionW: 79
    regionH: 38
    flipped: 0
    complexGeometry: 0
    physicsEngine: 0
    colliderType: 0
    customColliders: []
    colliderVertices: []
    colliderIndicesFwd: 
    colliderIndicesBack: 
    colliderConvex: 0
    colliderSmoothSphereCollisions: 0
    polygonCollider2D: []
    edgeCollider2D: []
    attachPoints: []
  - name: tiles/36
    boundsData:
    - {x: 0.004999995, y: 0, z: 0}
    - {x: 0.78999996, y: 0.38, z: 0}
    untrimmedBoundsData:
    - {x: 0.004999995, y: 0, z: 0}
    - {x: 0.78999996, y: 0.38, z: 0}
    texelSize: {x: 0.01, y: 0.01}
    positions:
    - {x: -0.39, y: -0.19, z: 0}
    - {x: 0.39999998, y: -0.19, z: 0}
    - {x: -0.39, y: 0.19, z: 0}
    - {x: 0.39999998, y: 0.19, z: 0}
    normals: []
    tangents: []
    uvs:
    - {x: 0.007816406, y: 0.1679707}
    - {x: 0.31640235, y: 0.1679707}
    - {x: 0.007816406, y: 0.24218555}
    - {x: 0.31640235, y: 0.24218555}
    normalizedUvs:
    - {x: 0, y: 0}
    - {x: 1, y: 0}
    - {x: 0, y: 1}
    - {x: 1, y: 1}
    indices: 000000000300000001000000020000000300000000000000
    material: {fileID: 2100000, guid: eed915fc12268a14ab4b6552a673d3d8, type: 2}
    materialId: 0
    sourceTextureGUID: b2614a7f3ffbc104b95ad1ea1dd2c883
    extractRegion: 1
    regionX: 0
    regionY: 117
    regionW: 79
    regionH: 38
    flipped: 0
    complexGeometry: 0
    physicsEngine: 0
    colliderType: 0
    customColliders: []
    colliderVertices: []
    colliderIndicesFwd: 
    colliderIndicesBack: 
    colliderConvex: 0
    colliderSmoothSphereCollisions: 0
    polygonCollider2D: []
    edgeCollider2D: []
    attachPoints: []
  - name: tiles/37
    boundsData:
    - {x: 0.004999995, y: 0, z: 0}
    - {x: 0.78999996, y: 0.38, z: 0}
    untrimmedBoundsData:
    - {x: 0.004999995, y: 0, z: 0}
    - {x: 0.78999996, y: 0.38, z: 0}
    texelSize: {x: 0.01, y: 0.01}
    positions:
    - {x: -0.39, y: -0.19, z: 0}
    - {x: 0.39999998, y: -0.19, z: 0}
    - {x: -0.39, y: 0.19, z: 0}
    - {x: 0.39999998, y: 0.19, z: 0}
    normals: []
    tangents: []
    uvs:
    - {x: 0.33203515, y: 0.1679707}
    - {x: 0.64062107, y: 0.1679707}
    - {x: 0.33203515, y: 0.24218555}
    - {x: 0.64062107, y: 0.24218555}
    normalizedUvs:
    - {x: 0, y: 0}
    - {x: 1, y: 0}
    - {x: 0, y: 1}
    - {x: 1, y: 1}
    indices: 000000000300000001000000020000000300000000000000
    material: {fileID: 2100000, guid: eed915fc12268a14ab4b6552a673d3d8, type: 2}
    materialId: 0
    sourceTextureGUID: b2614a7f3ffbc104b95ad1ea1dd2c883
    extractRegion: 1
    regionX: 80
    regionY: 117
    regionW: 79
    regionH: 38
    flipped: 0
    complexGeometry: 0
    physicsEngine: 0
    colliderType: 0
    customColliders: []
    colliderVertices: []
    colliderIndicesFwd: 
    colliderIndicesBack: 
    colliderConvex: 0
    colliderSmoothSphereCollisions: 0
    polygonCollider2D: []
    edgeCollider2D: []
    attachPoints: []
  - name: tiles/38
    boundsData:
    - {x: 0.004999995, y: 0, z: 0}
    - {x: 0.78999996, y: 0.38, z: 0}
    untrimmedBoundsData:
    - {x: 0.004999995, y: 0, z: 0}
    - {x: 0.78999996, y: 0.38, z: 0}
    texelSize: {x: 0.01, y: 0.01}
    positions:
    - {x: -0.39, y: -0.19, z: 0}
    - {x: 0.39999998, y: -0.19, z: 0}
    - {x: -0.39, y: 0.19, z: 0}
    - {x: 0.39999998, y: 0.19, z: 0}
    normals: []
    tangents: []
    uvs:
    - {x: 0.65625393, y: 0.1679707}
    - {x: 0.9648398, y: 0.1679707}
    - {x: 0.65625393, y: 0.24218555}
    - {x: 0.9648398, y: 0.24218555}
    normalizedUvs:
    - {x: 0, y: 0}
    - {x: 1, y: 0}
    - {x: 0, y: 1}
    - {x: 1, y: 1}
    indices: 000000000300000001000000020000000300000000000000
    material: {fileID: 2100000, guid: eed915fc12268a14ab4b6552a673d3d8, type: 2}
    materialId: 0
    sourceTextureGUID: b2614a7f3ffbc104b95ad1ea1dd2c883
    extractRegion: 1
    regionX: 160
    regionY: 117
    regionW: 79
    regionH: 38
    flipped: 0
    complexGeometry: 0
    physicsEngine: 0
    colliderType: 0
    customColliders: []
    colliderVertices: []
    colliderIndicesFwd: 
    colliderIndicesBack: 
    colliderConvex: 0
    colliderSmoothSphereCollisions: 0
    polygonCollider2D: []
    edgeCollider2D: []
    attachPoints: []
  - name: tiles/39
    boundsData:
    - {x: 0.004999995, y: 0, z: 0}
    - {x: 0.78999996, y: 0.38, z: 0}
    untrimmedBoundsData:
    - {x: 0.004999995, y: 0, z: 0}
    - {x: 0.78999996, y: 0.38, z: 0}
    texelSize: {x: 0.01, y: 0.01}
    positions:
    - {x: -0.39, y: -0.19, z: 0}
    - {x: 0.39999998, y: -0.19, z: 0}
    - {x: -0.39, y: 0.19, z: 0}
    - {x: 0.39999998, y: 0.19, z: 0}
    normals: []
    tangents: []
    uvs:
    - {x: 0.007816406, y: 0.25000197}
    - {x: 0.31640235, y: 0.25000197}
    - {x: 0.007816406, y: 0.32421678}
    - {x: 0.31640235, y: 0.32421678}
    normalizedUvs:
    - {x: 0, y: 0}
    - {x: 1, y: 0}
    - {x: 0, y: 1}
    - {x: 1, y: 1}
    indices: 000000000300000001000000020000000300000000000000
    material: {fileID: 2100000, guid: eed915fc12268a14ab4b6552a673d3d8, type: 2}
    materialId: 0
    sourceTextureGUID: b2614a7f3ffbc104b95ad1ea1dd2c883
    extractRegion: 1
    regionX: 240
    regionY: 117
    regionW: 79
    regionH: 38
    flipped: 0
    complexGeometry: 0
    physicsEngine: 0
    colliderType: 0
    customColliders: []
    colliderVertices: []
    colliderIndicesFwd: 
    colliderIndicesBack: 
    colliderConvex: 0
    colliderSmoothSphereCollisions: 0
    polygonCollider2D: []
    edgeCollider2D: []
    attachPoints: []
  - name: tiles/40
    boundsData:
    - {x: 0.004999995, y: 0, z: 0}
    - {x: 0.78999996, y: 0.38, z: 0}
    untrimmedBoundsData:
    - {x: 0.004999995, y: 0, z: 0}
    - {x: 0.78999996, y: 0.38, z: 0}
    texelSize: {x: 0.01, y: 0.01}
    positions:
    - {x: -0.39, y: -0.19, z: 0}
    - {x: 0.39999998, y: -0.19, z: 0}
    - {x: -0.39, y: 0.19, z: 0}
    - {x: 0.39999998, y: 0.19, z: 0}
    normals: []
    tangents: []
    uvs:
    - {x: 0.33203515, y: 0.25000197}
    - {x: 0.64062107, y: 0.25000197}
    - {x: 0.33203515, y: 0.32421678}
    - {x: 0.64062107, y: 0.32421678}
    normalizedUvs:
    - {x: 0, y: 0}
    - {x: 1, y: 0}
    - {x: 0, y: 1}
    - {x: 1, y: 1}
    indices: 000000000300000001000000020000000300000000000000
    material: {fileID: 2100000, guid: eed915fc12268a14ab4b6552a673d3d8, type: 2}
    materialId: 0
    sourceTextureGUID: b2614a7f3ffbc104b95ad1ea1dd2c883
    extractRegion: 1
    regionX: 320
    regionY: 117
    regionW: 79
    regionH: 38
    flipped: 0
    complexGeometry: 0
    physicsEngine: 0
    colliderType: 0
    customColliders: []
    colliderVertices: []
    colliderIndicesFwd: 
    colliderIndicesBack: 
    colliderConvex: 0
    colliderSmoothSphereCollisions: 0
    polygonCollider2D: []
    edgeCollider2D: []
    attachPoints: []
  - name: tiles/41
    boundsData:
    - {x: 0.004999995, y: 0, z: 0}
    - {x: 0.78999996, y: 0.38, z: 0}
    untrimmedBoundsData:
    - {x: 0.004999995, y: 0, z: 0}
    - {x: 0.78999996, y: 0.38, z: 0}
    texelSize: {x: 0.01, y: 0.01}
    positions:
    - {x: -0.39, y: -0.19, z: 0}
    - {x: 0.39999998, y: -0.19, z: 0}
    - {x: -0.39, y: 0.19, z: 0}
    - {x: 0.39999998, y: 0.19, z: 0}
    normals: []
    tangents: []
    uvs:
    - {x: 0.65625393, y: 0.25000197}
    - {x: 0.9648398, y: 0.25000197}
    - {x: 0.65625393, y: 0.32421678}
    - {x: 0.9648398, y: 0.32421678}
    normalizedUvs:
    - {x: 0, y: 0}
    - {x: 1, y: 0}
    - {x: 0, y: 1}
    - {x: 1, y: 1}
    indices: 000000000300000001000000020000000300000000000000
    material: {fileID: 2100000, guid: eed915fc12268a14ab4b6552a673d3d8, type: 2}
    materialId: 0
    sourceTextureGUID: b2614a7f3ffbc104b95ad1ea1dd2c883
    extractRegion: 1
    regionX: 400
    regionY: 117
    regionW: 79
    regionH: 38
    flipped: 0
    complexGeometry: 0
    physicsEngine: 0
    colliderType: 0
    customColliders: []
    colliderVertices: []
    colliderIndicesFwd: 
    colliderIndicesBack: 
    colliderConvex: 0
    colliderSmoothSphereCollisions: 0
    polygonCollider2D: []
    edgeCollider2D: []
    attachPoints: []
  - name: tiles/42
    boundsData:
    - {x: 0.004999995, y: 0, z: 0}
    - {x: 0.78999996, y: 0.38, z: 0}
    untrimmedBoundsData:
    - {x: 0.004999995, y: 0, z: 0}
    - {x: 0.78999996, y: 0.38, z: 0}
    texelSize: {x: 0.01, y: 0.01}
    positions:
    - {x: -0.39, y: -0.19, z: 0}
    - {x: 0.39999998, y: -0.19, z: 0}
    - {x: -0.39, y: 0.19, z: 0}
    - {x: 0.39999998, y: 0.19, z: 0}
    normals: []
    tangents: []
    uvs:
    - {x: 0.007816406, y: 0.33203322}
    - {x: 0.31640235, y: 0.33203322}
    - {x: 0.007816406, y: 0.40624803}
    - {x: 0.31640235, y: 0.40624803}
    normalizedUvs:
    - {x: 0, y: 0}
    - {x: 1, y: 0}
    - {x: 0, y: 1}
    - {x: 1, y: 1}
    indices: 000000000300000001000000020000000300000000000000
    material: {fileID: 2100000, guid: eed915fc12268a14ab4b6552a673d3d8, type: 2}
    materialId: 0
    sourceTextureGUID: b2614a7f3ffbc104b95ad1ea1dd2c883
    extractRegion: 1
    regionX: 0
    regionY: 78
    regionW: 79
    regionH: 38
    flipped: 0
    complexGeometry: 0
    physicsEngine: 0
    colliderType: 0
    customColliders: []
    colliderVertices: []
    colliderIndicesFwd: 
    colliderIndicesBack: 
    colliderConvex: 0
    colliderSmoothSphereCollisions: 0
    polygonCollider2D: []
    edgeCollider2D: []
    attachPoints: []
  - name: tiles/43
    boundsData:
    - {x: 0.004999995, y: 0.0050000036, z: 0}
    - {x: 0.010000007, y: 0.010000007, z: 0}
    untrimmedBoundsData:
    - {x: 0.004999995, y: 0, z: 0}
    - {x: 0.78999996, y: 0.38, z: 0}
    texelSize: {x: 0.01, y: 0.01}
    positions:
    - {x: -0.00000000869926, y: 0, z: 0}
    - {x: 0.009999999, y: 0, z: 0}
    - {x: -0.00000000869926, y: 0.010000007, z: 0}
    - {x: 0.009999999, y: 0.010000007, z: 0}
    normals: []
    tangents: []
    uvs:
    - {x: 0.9804727, y: 0.003908203}
    - {x: 0.96874607, y: 0.003908203}
    - {x: 0.9804727, y: -0.0019550782}
    - {x: 0.96874607, y: -0.0019550782}
    normalizedUvs:
    - {x: 1, y: 1}
    - {x: 0, y: 1}
    - {x: 1, y: 0}
    - {x: 0, y: 0}
    indices: 000000000300000001000000020000000300000000000000
    material: {fileID: 2100000, guid: eed915fc12268a14ab4b6552a673d3d8, type: 2}
    materialId: 0
    sourceTextureGUID: b2614a7f3ffbc104b95ad1ea1dd2c883
    extractRegion: 1
    regionX: 80
    regionY: 78
    regionW: 79
    regionH: 38
    flipped: 0
    complexGeometry: 0
    physicsEngine: 0
    colliderType: 0
    customColliders: []
    colliderVertices: []
    colliderIndicesFwd: 
    colliderIndicesBack: 
    colliderConvex: 0
    colliderSmoothSphereCollisions: 0
    polygonCollider2D: []
    edgeCollider2D: []
    attachPoints: []
  - name: tiles/44
    boundsData:
    - {x: 0.004999995, y: 0.0050000036, z: 0}
    - {x: 0.010000007, y: 0.010000007, z: 0}
    untrimmedBoundsData:
    - {x: 0.004999995, y: 0, z: 0}
    - {x: 0.78999996, y: 0.38, z: 0}
    texelSize: {x: 0.01, y: 0.01}
    positions:
    - {x: -0.00000000869926, y: 0, z: 0}
    - {x: 0.009999999, y: 0, z: 0}
    - {x: -0.00000000869926, y: 0.010000007, z: 0}
    - {x: 0.009999999, y: 0.010000007, z: 0}
    normals: []
    tangents: []
    uvs:
    - {x: 0.9804727, y: 0.003908203}
    - {x: 0.96874607, y: 0.003908203}
    - {x: 0.9804727, y: -0.0019550782}
    - {x: 0.96874607, y: -0.0019550782}
    normalizedUvs:
    - {x: 1, y: 1}
    - {x: 0, y: 1}
    - {x: 1, y: 0}
    - {x: 0, y: 0}
    indices: 000000000300000001000000020000000300000000000000
    material: {fileID: 2100000, guid: eed915fc12268a14ab4b6552a673d3d8, type: 2}
    materialId: 0
    sourceTextureGUID: b2614a7f3ffbc104b95ad1ea1dd2c883
    extractRegion: 1
    regionX: 160
    regionY: 78
    regionW: 79
    regionH: 38
    flipped: 0
    complexGeometry: 0
    physicsEngine: 0
    colliderType: 0
    customColliders: []
    colliderVertices: []
    colliderIndicesFwd: 
    colliderIndicesBack: 
    colliderConvex: 0
    colliderSmoothSphereCollisions: 0
    polygonCollider2D: []
    edgeCollider2D: []
    attachPoints: []
  - name: tiles/45
    boundsData:
    - {x: 0.004999995, y: 0.0050000036, z: 0}
    - {x: 0.010000007, y: 0.010000007, z: 0}
    untrimmedBoundsData:
    - {x: 0.004999995, y: 0, z: 0}
    - {x: 0.78999996, y: 0.38, z: 0}
    texelSize: {x: 0.01, y: 0.01}
    positions:
    - {x: -0.00000000869926, y: 0, z: 0}
    - {x: 0.009999999, y: 0, z: 0}
    - {x: -0.00000000869926, y: 0.010000007, z: 0}
    - {x: 0.009999999, y: 0.010000007, z: 0}
    normals: []
    tangents: []
    uvs:
    - {x: 0.9804727, y: 0.003908203}
    - {x: 0.96874607, y: 0.003908203}
    - {x: 0.9804727, y: -0.0019550782}
    - {x: 0.96874607, y: -0.0019550782}
    normalizedUvs:
    - {x: 1, y: 1}
    - {x: 0, y: 1}
    - {x: 1, y: 0}
    - {x: 0, y: 0}
    indices: 000000000300000001000000020000000300000000000000
    material: {fileID: 2100000, guid: eed915fc12268a14ab4b6552a673d3d8, type: 2}
    materialId: 0
    sourceTextureGUID: b2614a7f3ffbc104b95ad1ea1dd2c883
    extractRegion: 1
    regionX: 240
    regionY: 78
    regionW: 79
    regionH: 38
    flipped: 0
    complexGeometry: 0
    physicsEngine: 0
    colliderType: 0
    customColliders: []
    colliderVertices: []
    colliderIndicesFwd: 
    colliderIndicesBack: 
    colliderConvex: 0
    colliderSmoothSphereCollisions: 0
    polygonCollider2D: []
    edgeCollider2D: []
    attachPoints: []
  - name: tiles/46
    boundsData:
    - {x: 0.004999995, y: 0.0050000036, z: 0}
    - {x: 0.010000007, y: 0.010000007, z: 0}
    untrimmedBoundsData:
    - {x: 0.004999995, y: 0, z: 0}
    - {x: 0.78999996, y: 0.38, z: 0}
    texelSize: {x: 0.01, y: 0.01}
    positions:
    - {x: -0.00000000869926, y: 0, z: 0}
    - {x: 0.009999999, y: 0, z: 0}
    - {x: -0.00000000869926, y: 0.010000007, z: 0}
    - {x: 0.009999999, y: 0.010000007, z: 0}
    normals: []
    tangents: []
    uvs:
    - {x: 0.9804727, y: 0.003908203}
    - {x: 0.96874607, y: 0.003908203}
    - {x: 0.9804727, y: -0.0019550782}
    - {x: 0.96874607, y: -0.0019550782}
    normalizedUvs:
    - {x: 1, y: 1}
    - {x: 0, y: 1}
    - {x: 1, y: 0}
    - {x: 0, y: 0}
    indices: 000000000300000001000000020000000300000000000000
    material: {fileID: 2100000, guid: eed915fc12268a14ab4b6552a673d3d8, type: 2}
    materialId: 0
    sourceTextureGUID: b2614a7f3ffbc104b95ad1ea1dd2c883
    extractRegion: 1
    regionX: 320
    regionY: 78
    regionW: 79
    regionH: 38
    flipped: 0
    complexGeometry: 0
    physicsEngine: 0
    colliderType: 0
    customColliders: []
    colliderVertices: []
    colliderIndicesFwd: 
    colliderIndicesBack: 
    colliderConvex: 0
    colliderSmoothSphereCollisions: 0
    polygonCollider2D: []
    edgeCollider2D: []
    attachPoints: []
  - name: tiles/47
    boundsData:
    - {x: 0.004999995, y: 0.0050000036, z: 0}
    - {x: 0.010000007, y: 0.010000007, z: 0}
    untrimmedBoundsData:
    - {x: 0.004999995, y: 0, z: 0}
    - {x: 0.78999996, y: 0.38, z: 0}
    texelSize: {x: 0.01, y: 0.01}
    positions:
    - {x: -0.00000000869926, y: 0, z: 0}
    - {x: 0.009999999, y: 0, z: 0}
    - {x: -0.00000000869926, y: 0.010000007, z: 0}
    - {x: 0.009999999, y: 0.010000007, z: 0}
    normals: []
    tangents: []
    uvs:
    - {x: 0.9804727, y: 0.003908203}
    - {x: 0.96874607, y: 0.003908203}
    - {x: 0.9804727, y: -0.0019550782}
    - {x: 0.96874607, y: -0.0019550782}
    normalizedUvs:
    - {x: 1, y: 1}
    - {x: 0, y: 1}
    - {x: 1, y: 0}
    - {x: 0, y: 0}
    indices: 000000000300000001000000020000000300000000000000
    material: {fileID: 2100000, guid: eed915fc12268a14ab4b6552a673d3d8, type: 2}
    materialId: 0
    sourceTextureGUID: b2614a7f3ffbc104b95ad1ea1dd2c883
    extractRegion: 1
    regionX: 400
    regionY: 78
    regionW: 79
    regionH: 38
    flipped: 0
    complexGeometry: 0
    physicsEngine: 0
    colliderType: 0
    customColliders: []
    colliderVertices: []
    colliderIndicesFwd: 
    colliderIndicesBack: 
    colliderConvex: 0
    colliderSmoothSphereCollisions: 0
    polygonCollider2D: []
    edgeCollider2D: []
    attachPoints: []
  - name: tiles/48
    boundsData:
    - {x: 0.004999995, y: -0.0050000027, z: 0}
    - {x: 0.78999996, y: 0.37, z: 0}
    untrimmedBoundsData:
    - {x: 0.004999995, y: 0, z: 0}
    - {x: 0.78999996, y: 0.38, z: 0}
    texelSize: {x: 0.01, y: 0.01}
    positions:
    - {x: -0.39, y: -0.19, z: 0}
    - {x: 0.39999998, y: -0.19, z: 0}
    - {x: -0.39, y: 0.17999999, z: 0}
    - {x: 0.39999998, y: 0.17999999, z: 0}
    normals: []
    tangents: []
    uvs:
    - {x: 0.3281289, y: 0.41406447}
    - {x: 0.6367148, y: 0.41406447}
    - {x: 0.3281289, y: 0.48632616}
    - {x: 0.6367148, y: 0.48632616}
    normalizedUvs:
    - {x: 0, y: 0}
    - {x: 1, y: 0}
    - {x: 0, y: 1}
    - {x: 1, y: 1}
    indices: 000000000300000001000000020000000300000000000000
    material: {fileID: 2100000, guid: eed915fc12268a14ab4b6552a673d3d8, type: 2}
    materialId: 0
    sourceTextureGUID: b2614a7f3ffbc104b95ad1ea1dd2c883
    extractRegion: 1
    regionX: 0
    regionY: 39
    regionW: 79
    regionH: 38
    flipped: 0
    complexGeometry: 0
    physicsEngine: 0
    colliderType: 0
    customColliders: []
    colliderVertices: []
    colliderIndicesFwd: 
    colliderIndicesBack: 
    colliderConvex: 0
    colliderSmoothSphereCollisions: 0
    polygonCollider2D: []
    edgeCollider2D: []
    attachPoints: []
  - name: tiles/49
    boundsData:
    - {x: 0.004999995, y: 0.0050000036, z: 0}
    - {x: 0.010000007, y: 0.010000007, z: 0}
    untrimmedBoundsData:
    - {x: 0.004999995, y: 0, z: 0}
    - {x: 0.78999996, y: 0.38, z: 0}
    texelSize: {x: 0.01, y: 0.01}
    positions:
    - {x: -0.00000000869926, y: 0, z: 0}
    - {x: 0.009999999, y: 0, z: 0}
    - {x: -0.00000000869926, y: 0.010000007, z: 0}
    - {x: 0.009999999, y: 0.010000007, z: 0}
    normals: []
    tangents: []
    uvs:
    - {x: 0.9804727, y: 0.003908203}
    - {x: 0.96874607, y: 0.003908203}
    - {x: 0.9804727, y: -0.0019550782}
    - {x: 0.96874607, y: -0.0019550782}
    normalizedUvs:
    - {x: 1, y: 1}
    - {x: 0, y: 1}
    - {x: 1, y: 0}
    - {x: 0, y: 0}
    indices: 000000000300000001000000020000000300000000000000
    material: {fileID: 2100000, guid: eed915fc12268a14ab4b6552a673d3d8, type: 2}
    materialId: 0
    sourceTextureGUID: b2614a7f3ffbc104b95ad1ea1dd2c883
    extractRegion: 1
    regionX: 80
    regionY: 39
    regionW: 79
    regionH: 38
    flipped: 0
    complexGeometry: 0
    physicsEngine: 0
    colliderType: 0
    customColliders: []
    colliderVertices: []
    colliderIndicesFwd: 
    colliderIndicesBack: 
    colliderConvex: 0
    colliderSmoothSphereCollisions: 0
    polygonCollider2D: []
    edgeCollider2D: []
    attachPoints: []
  - name: tiles/50
    boundsData:
    - {x: -0.00500001, y: 0, z: 0}
    - {x: 0.77, y: 0.38, z: 0}
    untrimmedBoundsData:
    - {x: 0.004999995, y: 0, z: 0}
    - {x: 0.78999996, y: 0.38, z: 0}
    texelSize: {x: 0.01, y: 0.01}
    positions:
    - {x: -0.39, y: -0.19, z: 0}
    - {x: 0.37999997, y: -0.19, z: 0}
    - {x: -0.39, y: 0.19, z: 0}
    - {x: 0.37999997, y: 0.19, z: 0}
    normals: []
    tangents: []
    uvs:
    - {x: 0.6523477, y: 0.41406447}
    - {x: 0.95312107, y: 0.41406447}
    - {x: 0.6523477, y: 0.48827928}
    - {x: 0.95312107, y: 0.48827928}
    normalizedUvs:
    - {x: 0, y: 0}
    - {x: 1, y: 0}
    - {x: 0, y: 1}
    - {x: 1, y: 1}
    indices: 000000000300000001000000020000000300000000000000
    material: {fileID: 2100000, guid: eed915fc12268a14ab4b6552a673d3d8, type: 2}
    materialId: 0
    sourceTextureGUID: b2614a7f3ffbc104b95ad1ea1dd2c883
    extractRegion: 1
    regionX: 160
    regionY: 39
    regionW: 79
    regionH: 38
    flipped: 0
    complexGeometry: 0
    physicsEngine: 0
    colliderType: 0
    customColliders: []
    colliderVertices: []
    colliderIndicesFwd: 
    colliderIndicesBack: 
    colliderConvex: 0
    colliderSmoothSphereCollisions: 0
    polygonCollider2D: []
    edgeCollider2D: []
    attachPoints: []
  - name: tiles/51
    boundsData:
    - {x: 0.004999995, y: 0.0050000036, z: 0}
    - {x: 0.010000007, y: 0.010000007, z: 0}
    untrimmedBoundsData:
    - {x: 0.004999995, y: 0, z: 0}
    - {x: 0.78999996, y: 0.38, z: 0}
    texelSize: {x: 0.01, y: 0.01}
    positions:
    - {x: -0.00000000869926, y: 0, z: 0}
    - {x: 0.009999999, y: 0, z: 0}
    - {x: -0.00000000869926, y: 0.010000007, z: 0}
    - {x: 0.009999999, y: 0.010000007, z: 0}
    normals: []
    tangents: []
    uvs:
    - {x: 0.9804727, y: 0.003908203}
    - {x: 0.96874607, y: 0.003908203}
    - {x: 0.9804727, y: -0.0019550782}
    - {x: 0.96874607, y: -0.0019550782}
    normalizedUvs:
    - {x: 1, y: 1}
    - {x: 0, y: 1}
    - {x: 1, y: 0}
    - {x: 0, y: 0}
    indices: 000000000300000001000000020000000300000000000000
    material: {fileID: 2100000, guid: eed915fc12268a14ab4b6552a673d3d8, type: 2}
    materialId: 0
    sourceTextureGUID: b2614a7f3ffbc104b95ad1ea1dd2c883
    extractRegion: 1
    regionX: 240
    regionY: 39
    regionW: 79
    regionH: 38
    flipped: 0
    complexGeometry: 0
    physicsEngine: 0
    colliderType: 0
    customColliders: []
    colliderVertices: []
    colliderIndicesFwd: 
    colliderIndicesBack: 
    colliderConvex: 0
    colliderSmoothSphereCollisions: 0
    polygonCollider2D: []
    edgeCollider2D: []
    attachPoints: []
  - name: tiles/52
    boundsData:
    - {x: 0.004999995, y: 0.0050000036, z: 0}
    - {x: 0.010000007, y: 0.010000007, z: 0}
    untrimmedBoundsData:
    - {x: 0.004999995, y: 0, z: 0}
    - {x: 0.78999996, y: 0.38, z: 0}
    texelSize: {x: 0.01, y: 0.01}
    positions:
    - {x: -0.00000000869926, y: 0, z: 0}
    - {x: 0.009999999, y: 0, z: 0}
    - {x: -0.00000000869926, y: 0.010000007, z: 0}
    - {x: 0.009999999, y: 0.010000007, z: 0}
    normals: []
    tangents: []
    uvs:
    - {x: 0.9804727, y: 0.003908203}
    - {x: 0.96874607, y: 0.003908203}
    - {x: 0.9804727, y: -0.0019550782}
    - {x: 0.96874607, y: -0.0019550782}
    normalizedUvs:
    - {x: 1, y: 1}
    - {x: 0, y: 1}
    - {x: 1, y: 0}
    - {x: 0, y: 0}
    indices: 000000000300000001000000020000000300000000000000
    material: {fileID: 2100000, guid: eed915fc12268a14ab4b6552a673d3d8, type: 2}
    materialId: 0
    sourceTextureGUID: b2614a7f3ffbc104b95ad1ea1dd2c883
    extractRegion: 1
    regionX: 320
    regionY: 39
    regionW: 79
    regionH: 38
    flipped: 0
    complexGeometry: 0
    physicsEngine: 0
    colliderType: 0
    customColliders: []
    colliderVertices: []
    colliderIndicesFwd: 
    colliderIndicesBack: 
    colliderConvex: 0
    colliderSmoothSphereCollisions: 0
    polygonCollider2D: []
    edgeCollider2D: []
    attachPoints: []
  - name: tiles/53
    boundsData:
    - {x: 0.004999995, y: 0.0050000036, z: 0}
    - {x: 0.010000007, y: 0.010000007, z: 0}
    untrimmedBoundsData:
    - {x: 0.004999995, y: 0, z: 0}
    - {x: 0.78999996, y: 0.38, z: 0}
    texelSize: {x: 0.01, y: 0.01}
    positions:
    - {x: -0.00000000869926, y: 0, z: 0}
    - {x: 0.009999999, y: 0, z: 0}
    - {x: -0.00000000869926, y: 0.010000007, z: 0}
    - {x: 0.009999999, y: 0.010000007, z: 0}
    normals: []
    tangents: []
    uvs:
    - {x: 0.9804727, y: 0.003908203}
    - {x: 0.96874607, y: 0.003908203}
    - {x: 0.9804727, y: -0.0019550782}
    - {x: 0.96874607, y: -0.0019550782}
    normalizedUvs:
    - {x: 1, y: 1}
    - {x: 0, y: 1}
    - {x: 1, y: 0}
    - {x: 0, y: 0}
    indices: 000000000300000001000000020000000300000000000000
    material: {fileID: 2100000, guid: eed915fc12268a14ab4b6552a673d3d8, type: 2}
    materialId: 0
    sourceTextureGUID: b2614a7f3ffbc104b95ad1ea1dd2c883
    extractRegion: 1
    regionX: 400
    regionY: 39
    regionW: 79
    regionH: 38
    flipped: 0
    complexGeometry: 0
    physicsEngine: 0
    colliderType: 0
    customColliders: []
    colliderVertices: []
    colliderIndicesFwd: 
    colliderIndicesBack: 
    colliderConvex: 0
    colliderSmoothSphereCollisions: 0
    polygonCollider2D: []
    edgeCollider2D: []
    attachPoints: []
  - name: tiles/54
    boundsData:
    - {x: 0.00999999, y: 0, z: 0}
    - {x: 0.78, y: 0.38, z: 0}
    untrimmedBoundsData:
    - {x: 0.004999995, y: 0, z: 0}
    - {x: 0.78999996, y: 0.38, z: 0}
    texelSize: {x: 0.01, y: 0.01}
    positions:
    - {x: -0.38, y: -0.19, z: 0}
    - {x: 0.39999998, y: -0.19, z: 0}
    - {x: -0.38, y: 0.19, z: 0}
    - {x: 0.39999998, y: 0.19, z: 0}
    normals: []
    tangents: []
    uvs:
    - {x: 0.007816406, y: 0.41406447}
    - {x: 0.3124961, y: 0.41406447}
    - {x: 0.007816406, y: 0.48827928}
    - {x: 0.3124961, y: 0.48827928}
    normalizedUvs:
    - {x: 0, y: 0}
    - {x: 1, y: 0}
    - {x: 0, y: 1}
    - {x: 1, y: 1}
    indices: 000000000300000001000000020000000300000000000000
    material: {fileID: 2100000, guid: eed915fc12268a14ab4b6552a673d3d8, type: 2}
    materialId: 0
    sourceTextureGUID: b2614a7f3ffbc104b95ad1ea1dd2c883
    extractRegion: 1
    regionX: 0
    regionY: 0
    regionW: 79
    regionH: 38
    flipped: 0
    complexGeometry: 0
    physicsEngine: 0
    colliderType: 0
    customColliders: []
    colliderVertices: []
    colliderIndicesFwd: 
    colliderIndicesBack: 
    colliderConvex: 0
    colliderSmoothSphereCollisions: 0
    polygonCollider2D: []
    edgeCollider2D: []
    attachPoints: []
  - name: tiles/55
    boundsData:
    - {x: 0.004999995, y: 0, z: 0}
    - {x: 0.78999996, y: 0.38, z: 0}
    untrimmedBoundsData:
    - {x: 0.004999995, y: 0, z: 0}
    - {x: 0.78999996, y: 0.38, z: 0}
    texelSize: {x: 0.01, y: 0.01}
    positions:
    - {x: -0.39, y: -0.19, z: 0}
    - {x: 0.39999998, y: -0.19, z: 0}
    - {x: -0.39, y: 0.19, z: 0}
    - {x: 0.39999998, y: 0.19, z: 0}
    normals: []
    tangents: []
    uvs:
    - {x: 0.33203515, y: 0.33203322}
    - {x: 0.64062107, y: 0.33203322}
    - {x: 0.33203515, y: 0.40624803}
    - {x: 0.64062107, y: 0.40624803}
    normalizedUvs:
    - {x: 0, y: 0}
    - {x: 1, y: 0}
    - {x: 0, y: 1}
    - {x: 1, y: 1}
    indices: 000000000300000001000000020000000300000000000000
    material: {fileID: 2100000, guid: eed915fc12268a14ab4b6552a673d3d8, type: 2}
    materialId: 0
    sourceTextureGUID: b2614a7f3ffbc104b95ad1ea1dd2c883
    extractRegion: 1
    regionX: 80
    regionY: 0
    regionW: 79
    regionH: 38
    flipped: 0
    complexGeometry: 0
    physicsEngine: 0
    colliderType: 0
    customColliders: []
    colliderVertices: []
    colliderIndicesFwd: 
    colliderIndicesBack: 
    colliderConvex: 0
    colliderSmoothSphereCollisions: 0
    polygonCollider2D: []
    edgeCollider2D: []
    attachPoints: []
  - name: tiles/56
    boundsData:
    - {x: -0.00500001, y: 0, z: 0}
    - {x: 0.77, y: 0.38, z: 0}
    untrimmedBoundsData:
    - {x: 0.004999995, y: 0, z: 0}
    - {x: 0.78999996, y: 0.38, z: 0}
    texelSize: {x: 0.01, y: 0.01}
    positions:
    - {x: -0.39, y: -0.19, z: 0}
    - {x: 0.37999997, y: -0.19, z: 0}
    - {x: -0.39, y: 0.19, z: 0}
    - {x: 0.37999997, y: 0.19, z: 0}
    normals: []
    tangents: []
    uvs:
    - {x: 0.3281289, y: 0.4941426}
    - {x: 0.6289023, y: 0.4941426}
    - {x: 0.3281289, y: 0.5683574}
    - {x: 0.6289023, y: 0.5683574}
    normalizedUvs:
    - {x: 0, y: 0}
    - {x: 1, y: 0}
    - {x: 0, y: 1}
    - {x: 1, y: 1}
    indices: 000000000300000001000000020000000300000000000000
    material: {fileID: 2100000, guid: eed915fc12268a14ab4b6552a673d3d8, type: 2}
    materialId: 0
    sourceTextureGUID: b2614a7f3ffbc104b95ad1ea1dd2c883
    extractRegion: 1
    regionX: 160
    regionY: 0
    regionW: 79
    regionH: 38
    flipped: 0
    complexGeometry: 0
    physicsEngine: 0
    colliderType: 0
    customColliders: []
    colliderVertices: []
    colliderIndicesFwd: 
    colliderIndicesBack: 
    colliderConvex: 0
    colliderSmoothSphereCollisions: 0
    polygonCollider2D: []
    edgeCollider2D: []
    attachPoints: []
  - name: tiles/57
    boundsData:
    - {x: 0.004999995, y: 0.0050000036, z: 0}
    - {x: 0.010000007, y: 0.010000007, z: 0}
    untrimmedBoundsData:
    - {x: 0.004999995, y: 0, z: 0}
    - {x: 0.78999996, y: 0.38, z: 0}
    texelSize: {x: 0.01, y: 0.01}
    positions:
    - {x: -0.00000000869926, y: 0, z: 0}
    - {x: 0.009999999, y: 0, z: 0}
    - {x: -0.00000000869926, y: 0.010000007, z: 0}
    - {x: 0.009999999, y: 0.010000007, z: 0}
    normals: []
    tangents: []
    uvs:
    - {x: 0.9804727, y: 0.003908203}
    - {x: 0.96874607, y: 0.003908203}
    - {x: 0.9804727, y: -0.0019550782}
    - {x: 0.96874607, y: -0.0019550782}
    normalizedUvs:
    - {x: 1, y: 1}
    - {x: 0, y: 1}
    - {x: 1, y: 0}
    - {x: 0, y: 0}
    indices: 000000000300000001000000020000000300000000000000
    material: {fileID: 2100000, guid: eed915fc12268a14ab4b6552a673d3d8, type: 2}
    materialId: 0
    sourceTextureGUID: b2614a7f3ffbc104b95ad1ea1dd2c883
    extractRegion: 1
    regionX: 240
    regionY: 0
    regionW: 79
    regionH: 38
    flipped: 0
    complexGeometry: 0
    physicsEngine: 0
    colliderType: 0
    customColliders: []
    colliderVertices: []
    colliderIndicesFwd: 
    colliderIndicesBack: 
    colliderConvex: 0
    colliderSmoothSphereCollisions: 0
    polygonCollider2D: []
    edgeCollider2D: []
    attachPoints: []
  - name: tiles/58
    boundsData:
    - {x: 0.004999995, y: 0.0050000036, z: 0}
    - {x: 0.010000007, y: 0.010000007, z: 0}
    untrimmedBoundsData:
    - {x: 0.004999995, y: 0, z: 0}
    - {x: 0.78999996, y: 0.38, z: 0}
    texelSize: {x: 0.01, y: 0.01}
    positions:
    - {x: -0.00000000869926, y: 0, z: 0}
    - {x: 0.009999999, y: 0, z: 0}
    - {x: -0.00000000869926, y: 0.010000007, z: 0}
    - {x: 0.009999999, y: 0.010000007, z: 0}
    normals: []
    tangents: []
    uvs:
    - {x: 0.9804727, y: 0.003908203}
    - {x: 0.96874607, y: 0.003908203}
    - {x: 0.9804727, y: -0.0019550782}
    - {x: 0.96874607, y: -0.0019550782}
    normalizedUvs:
    - {x: 1, y: 1}
    - {x: 0, y: 1}
    - {x: 1, y: 0}
    - {x: 0, y: 0}
    indices: 000000000300000001000000020000000300000000000000
    material: {fileID: 2100000, guid: eed915fc12268a14ab4b6552a673d3d8, type: 2}
    materialId: 0
    sourceTextureGUID: b2614a7f3ffbc104b95ad1ea1dd2c883
    extractRegion: 1
    regionX: 320
    regionY: 0
    regionW: 79
    regionH: 38
    flipped: 0
    complexGeometry: 0
    physicsEngine: 0
    colliderType: 0
    customColliders: []
    colliderVertices: []
    colliderIndicesFwd: 
    colliderIndicesBack: 
    colliderConvex: 0
    colliderSmoothSphereCollisions: 0
    polygonCollider2D: []
    edgeCollider2D: []
    attachPoints: []
  - name: tiles/59
    boundsData:
    - {x: 0.004999995, y: 0.0050000036, z: 0}
    - {x: 0.010000007, y: 0.010000007, z: 0}
    untrimmedBoundsData:
    - {x: 0.004999995, y: 0, z: 0}
    - {x: 0.78999996, y: 0.38, z: 0}
    texelSize: {x: 0.01, y: 0.01}
    positions:
    - {x: -0.00000000869926, y: 0, z: 0}
    - {x: 0.009999999, y: 0, z: 0}
    - {x: -0.00000000869926, y: 0.010000007, z: 0}
    - {x: 0.009999999, y: 0.010000007, z: 0}
    normals: []
    tangents: []
    uvs:
    - {x: 0.9804727, y: 0.003908203}
    - {x: 0.96874607, y: 0.003908203}
    - {x: 0.9804727, y: -0.0019550782}
    - {x: 0.96874607, y: -0.0019550782}
    normalizedUvs:
    - {x: 1, y: 1}
    - {x: 0, y: 1}
    - {x: 1, y: 0}
    - {x: 0, y: 0}
    indices: 000000000300000001000000020000000300000000000000
    material: {fileID: 2100000, guid: eed915fc12268a14ab4b6552a673d3d8, type: 2}
    materialId: 0
    sourceTextureGUID: b2614a7f3ffbc104b95ad1ea1dd2c883
    extractRegion: 1
    regionX: 400
    regionY: 0
    regionW: 79
    regionH: 38
    flipped: 0
    complexGeometry: 0
    physicsEngine: 0
    colliderType: 0
    customColliders: []
    colliderVertices: []
    colliderIndicesFwd: 
    colliderIndicesBack: 
    colliderConvex: 0
    colliderSmoothSphereCollisions: 0
    polygonCollider2D: []
    edgeCollider2D: []
    attachPoints: []
  premultipliedAlpha: 0
  material: {fileID: 0}
  materials:
  - {fileID: 2100000, guid: eed915fc12268a14ab4b6552a673d3d8, type: 2}
  textures:
  - {fileID: 2800000, guid: a3581c5da784a254196efa10b0b0d667, type: 3}
  pngTextures: []
  materialPngTextureId: 00000000
  textureFilterMode: 1
  textureMipMaps: 0
  allowMultipleAtlases: 0
  spriteCollectionGUID: 403fdae53e0640447b4d5e247fa56b30
  spriteCollectionName: BlocksTiles
  assetName: 
  loadable: 0
  invOrthoSize: 2
  halfTargetHeight: 50
  buildKey: 1727325824
  dataGuid: 5e09dfb90c5b2dc4eb5da4f7157d1a5b
  managedSpriteCollection: 0
  hasPlatformData: 0
  spriteCollectionPlatforms: []
  spriteCollectionPlatformGUIDs: []
