%YAML 1.1
%TAG !u! tag:unity3d.com,2011:
--- !u!114 &11400000
MonoBehaviour:
  m_ObjectHideFlags: 0
  m_PrefabParentObject: {fileID: 0}
  m_PrefabInternal: {fileID: 0}
  m_GameObject: {fileID: 0}
  m_Enabled: 1
  m_EditorHideFlags: 0
  m_Script: {fileID: 11500000, guid: 9f1754d2d38a1b1499431cb9a2ee46a0, type: 3}
  m_Name: BlockLayoutGroup 2
  m_EditorClassIdentifier: 
  blockLayoutGroupName: ABILITIES
  backgroundColor: 2
  assignedLevels:
  - {fileID: 11400000, guid: e9d59fbc8f099e64695efad16e4e3cb4, type: 2}
  - {fileID: 11400000, guid: 4b4cbe5670216a744ba26aa6f4aae9fa, type: 2}
